%YAML 1.1
%TAG !u! tag:unity3d.com,2011:
--- !u!114 &11400000
MonoBehaviour:
  m_ObjectHideFlags: 0
  m_CorrespondingSourceObject: {fileID: 0}
  m_PrefabInstance: {fileID: 0}
  m_PrefabAsset: {fileID: 0}
  m_GameObject: {fileID: 0}
  m_Enabled: 1
  m_EditorHideFlags: 0
  m_Script: {fileID: 11500000, guid: 4127f02986c6bce45951f9e1b3dce8cc, type: 3}
  m_Name: 1
  m_EditorClassIdentifier: 
  ropes: '{"m_Empty":false,"m_ActiveParticleCount":35,"m_InitialActiveParticleCount":35,"_bounds":{"m_Center":{"x":-0.3272969722747803,"y":0.0,"z":0.010941429063677788},"m_Extent":{"x":2.1184651851654054,"y":0.0,"z":0.010941429063677788}},"positions":[{"x":4.090848922729492,"y":0.1145000159740448,"z":1.084359884262085},{"x":3.944178342819214,"y":0.16600024700164796,"z":0.9998786449432373},{"x":3.793900966644287,"y":0.17972621321678163,"z":0.9137195348739624},{"x":3.6421146392822267,"y":0.1739797294139862,"z":0.8280184864997864},{"x":3.491262674331665,"y":0.17250508069992066,"z":0.7422528862953186},{"x":3.340489387512207,"y":0.174531489610672,"z":0.6553630828857422},{"x":3.1906826496124269,"y":0.18013763427734376,"z":0.5678589344024658},{"x":3.0408637523651125,"y":0.18921595811843873,"z":0.4805935323238373},{"x":2.8904454708099367,"y":0.20152491331100465,"z":0.39468541741371157},{"x":2.740128517150879,"y":0.2171708643436432,"z":0.30933672189712527},{"x":2.589871883392334,"y":0.23631298542022706,"z":0.22395505011081696},{"x":2.440288543701172,"y":0.2589205801486969,"z":0.13882535696029664},{"x":2.2909581661224367,"y":0.284991592168808,"z":0.05384460836648941},{"x":2.1419618129730226,"y":0.3143966495990753,"z":-0.030797848477959634},{"x":1.9931743144989014,"y":0.3470175862312317,"z":-0.11506789922714234},{"x":1.8440711498260499,"y":0.3834421634674072,"z":-0.19897113740444184},{"x":1.690383791923523,"y":0.4007812738418579,"z":-0.2841770350933075},{"x":1.5356873273849488,"y":0.3849051594734192,"z":-0.3679658770561218},{"x":1.3818186521530152,"y":0.3478299379348755,"z":-0.44660094380378725},{"x":1.2264991998672486,"y":0.31457391381263735,"z":-0.5254550576210022},{"x":1.0710382461547852,"y":0.28478169441223147,"z":-0.6040828227996826},{"x":0.9142778515815735,"y":0.25818637013435366,"z":-0.682953417301178},{"x":0.7576749920845032,"y":0.2350550889968872,"z":-0.7617350220680237},{"x":0.6006419062614441,"y":0.21533137559890748,"z":-0.8411874175071716},{"x":0.4436509907245636,"y":0.19880124926567079,"z":-0.9202931523323059},{"x":0.2863466441631317,"y":0.1855197250843048,"z":-0.9982946515083313},{"x":0.12813213467597962,"y":0.1756453812122345,"z":-1.076090693473816},{"x":-0.029857302084565164,"y":0.16923996806144715,"z":-1.1532267332077027},{"x":-0.18835794925689698,"y":0.16604220867156983,"z":-1.2301188707351685},{"x":-0.34711331129074099,"y":0.16600024700164796,"z":-1.3070969581604005},{"x":-0.5044916272163391,"y":0.16694286465644837,"z":-1.3843282461166382},{"x":-0.6625047326087952,"y":0.17143455147743226,"z":-1.461068034172058},{"x":-0.8213796019554138,"y":0.1792536973953247,"z":-1.537381649017334},{"x":-0.9762084484100342,"y":0.16600024700164796,"z":-1.611872673034668},{"x":-1.1317229270935059,"y":0.1145000159740448,"z":-1.6872106790542603},{"x":0.1436196118593216,"y":0.0,"z":0.4580102562904358},{"x":0.1436196118593216,"y":0.0,"z":0.4580102562904358},{"x":0.1436196118593216,"y":0.0,"z":0.4580102562904358},{"x":0.1436196118593216,"y":0.0,"z":0.4580102562904358},{"x":0.1436196118593216,"y":0.0,"z":0.4580102562904358},{"x":0.1436196118593216,"y":0.0,"z":0.4580102562904358},{"x":0.1436196118593216,"y":0.0,"z":0.4580102562904358},{"x":0.1436196118593216,"y":0.0,"z":0.4580102562904358},{"x":0.1436196118593216,"y":0.0,"z":0.4580102562904358},{"x":0.1436196118593216,"y":0.0,"z":0.4580102562904358},{"x":0.1436196118593216,"y":0.0,"z":0.4580102562904358},{"x":0.1436196118593216,"y":0.0,"z":0.4580102562904358},{"x":0.1436196118593216,"y":0.0,"z":0.4580102562904358},{"x":0.1436196118593216,"y":0.0,"z":0.4580102562904358},{"x":0.1436196118593216,"y":0.0,"z":0.4580102562904358},{"x":0.1436196118593216,"y":0.0,"z":0.4580102562904358},{"x":0.1436196118593216,"y":0.0,"z":0.4580102562904358},{"x":0.1436196118593216,"y":0.0,"z":0.4580102562904358},{"x":0.1436196118593216,"y":0.0,"z":0.4580102562904358},{"x":0.1436196118593216,"y":0.0,"z":0.4580102562904358},{"x":0.1436196118593216,"y":0.0,"z":0.4580102562904358},{"x":0.1436196118593216,"y":0.0,"z":0.4580102562904358},{"x":0.1436196118593216,"y":0.0,"z":0.4580102562904358},{"x":0.1436196118593216,"y":0.0,"z":0.4580102562904358},{"x":0.1436196118593216,"y":0.0,"z":0.4580102562904358},{"x":0.1436196118593216,"y":0.0,"z":0.4580102562904358},{"x":0.1436196118593216,"y":0.0,"z":0.4580102562904358},{"x":0.1436196118593216,"y":0.0,"z":0.4580102562904358},{"x":0.1436196118593216,"y":0.0,"z":0.4580102562904358},{"x":0.1436196118593216,"y":0.0,"z":0.4580102562904358},{"x":0.1436196118593216,"y":0.0,"z":0.4580102562904358},{"x":0.1436196118593216,"y":0.0,"z":0.4580102562904358},{"x":0.1436196118593216,"y":0.0,"z":0.4580102562904358},{"x":0.1436196118593216,"y":0.0,"z":0.4580102562904358},{"x":0.1436196118593216,"y":0.0,"z":0.4580102562904358},{"x":0.1436196118593216,"y":0.0,"z":0.4580102562904358},{"x":0.1436196118593216,"y":0.0,"z":0.4580102562904358},{"x":0.1436196118593216,"y":0.0,"z":0.4580102562904358},{"x":0.1436196118593216,"y":0.0,"z":0.4580102562904358},{"x":0.1436196118593216,"y":0.0,"z":0.4580102562904358},{"x":0.1436196118593216,"y":0.0,"z":0.4580102562904358},{"x":0.1436196118593216,"y":0.0,"z":0.4580102562904358},{"x":0.1436196118593216,"y":0.0,"z":0.4580102562904358},{"x":0.1436196118593216,"y":0.0,"z":0.4580102562904358},{"x":0.1436196118593216,"y":0.0,"z":0.4580102562904358},{"x":0.1436196118593216,"y":0.0,"z":0.4580102562904358},{"x":0.1436196118593216,"y":0.0,"z":0.4580102562904358},{"x":0.1436196118593216,"y":0.0,"z":0.4580102562904358},{"x":0.1436196118593216,"y":0.0,"z":0.4580102562904358},{"x":0.1436196118593216,"y":0.0,"z":0.4580102562904358},{"x":0.1436196118593216,"y":0.0,"z":0.4580102562904358},{"x":0.1436196118593216,"y":0.0,"z":0.4580102562904358},{"x":0.1436196118593216,"y":0.0,"z":0.4580102562904358},{"x":0.1436196118593216,"y":0.0,"z":0.4580102562904358},{"x":0.1436196118593216,"y":0.0,"z":0.4580102562904358},{"x":0.1436196118593216,"y":0.0,"z":0.4580102562904358},{"x":0.1436196118593216,"y":0.0,"z":0.4580102562904358},{"x":0.1436196118593216,"y":0.0,"z":0.4580102562904358},{"x":0.1436196118593216,"y":0.0,"z":0.4580102562904358},{"x":0.1436196118593216,"y":0.0,"z":0.4580102562904358},{"x":0.1436196118593216,"y":0.0,"z":0.4580102562904358},{"x":0.1436196118593216,"y":0.0,"z":0.4580102562904358},{"x":0.1436196118593216,"y":0.0,"z":0.4580102562904358},{"x":0.1436196118593216,"y":0.0,"z":0.4580102562904358},{"x":0.1436196118593216,"y":0.0,"z":0.4580102562904358},{"x":0.1436196118593216,"y":0.0,"z":0.4580102562904358},{"x":0.1436196118593216,"y":0.0,"z":0.4580102562904358},{"x":0.1436196118593216,"y":0.0,"z":0.4580102562904358},{"x":0.1436196118593216,"y":0.0,"z":0.4580102562904358},{"x":0.1436196118593216,"y":0.0,"z":0.4580102562904358},{"x":0.1436196118593216,"y":0.0,"z":0.4580102562904358},{"x":0.1436196118593216,"y":0.0,"z":0.4580102562904358},{"x":0.1436196118593216,"y":0.0,"z":0.4580102562904358},{"x":0.1436196118593216,"y":0.0,"z":0.4580102562904358},{"x":0.1436196118593216,"y":0.0,"z":0.4580102562904358},{"x":0.1436196118593216,"y":0.0,"z":0.4580102562904358},{"x":0.1436196118593216,"y":0.0,"z":0.4580102562904358},{"x":0.1436196118593216,"y":0.0,"z":0.4580102562904358},{"x":0.1436196118593216,"y":0.0,"z":0.4580102562904358},{"x":0.1436196118593216,"y":0.0,"z":0.4580102562904358},{"x":0.1436196118593216,"y":0.0,"z":0.4580102562904358},{"x":0.1436196118593216,"y":0.0,"z":0.4580102562904358},{"x":0.1436196118593216,"y":0.0,"z":0.4580102562904358},{"x":0.1436196118593216,"y":0.0,"z":0.4580102562904358},{"x":0.1436196118593216,"y":0.0,"z":0.4580102562904358},{"x":0.1436196118593216,"y":0.0,"z":0.4580102562904358},{"x":0.1436196118593216,"y":0.0,"z":0.4580102562904358},{"x":0.1436196118593216,"y":0.0,"z":0.4580102562904358},{"x":0.1436196118593216,"y":0.0,"z":0.4580102562904358},{"x":0.1436196118593216,"y":0.0,"z":0.4580102562904358},{"x":0.1436196118593216,"y":0.0,"z":0.4580102562904358},{"x":0.1436196118593216,"y":0.0,"z":0.4580102562904358},{"x":0.1436196118593216,"y":0.0,"z":0.4580102562904358},{"x":0.1436196118593216,"y":0.0,"z":0.4580102562904358},{"x":0.1436196118593216,"y":0.0,"z":0.4580102562904358},{"x":0.1436196118593216,"y":0.0,"z":0.4580102562904358},{"x":0.1436196118593216,"y":0.0,"z":0.4580102562904358},{"x":0.1436196118593216,"y":0.0,"z":0.4580102562904358},{"x":0.1436196118593216,"y":0.0,"z":0.4580102562904358},{"x":0.1436196118593216,"y":0.0,"z":0.4580102562904358}],"restPositions":[{"x":-2.4457621574401857,"y":0.0,"z":0.0,"w":1.0},{"x":-2.321721315383911,"y":0.0,"z":0.00013242514978628606,"w":1.0},{"x":-2.196953058242798,"y":0.0,"z":0.0005079790134914219,"w":1.0},{"x":-2.0720934867858888,"y":0.0,"z":0.0010930342832580209,"w":1.0},{"x":-1.9477347135543824,"y":0.0,"z":0.0018535902490839363,"w":1.0},{"x":-1.8227988481521607,"y":0.0,"z":0.0027690634597092869,"w":1.0},{"x":-1.6983312368392945,"y":0.0,"z":0.0038072161842137577,"w":1.0},{"x":-1.5736637115478516,"y":0.0,"z":0.0049503641203045849,"w":1.0},{"x":-1.4488788843154908,"y":0.0,"z":0.00617685541510582,"w":1.0},{"x":-1.3243824243545533,"y":0.0,"z":0.00746256485581398,"w":1.0},{"x":-1.1995761394500733,"y":0.0,"z":0.008794651366770268,"w":1.0},{"x":-1.0750432014465333,"y":0.0,"z":0.010148673318326474,"w":1.0},{"x":-0.9503471851348877,"y":0.0,"z":0.011511624790728093,"w":1.0},{"x":-0.8257092833518982,"y":0.0,"z":0.012863720767199993,"w":1.0},{"x":-0.701043426990509,"y":0.0,"z":0.014188677072525025,"w":1.0},{"x":-0.5764317512512207,"y":0.0,"z":0.015468397177755833,"w":1.0},{"x":-0.4517173171043396,"y":0.0,"z":0.016687020659446718,"w":1.0},{"x":-0.3271138370037079,"y":0.0,"z":0.01782466657459736,"w":1.0},{"x":-0.20242147147655488,"y":0.0,"z":0.018864795565605165,"w":1.0},{"x":-0.07773176580667496,"y":0.0,"z":0.019787397235631944,"w":1.0},{"x":0.046781450510025027,"y":0.0,"z":0.02057134546339512,"w":1.0},{"x":0.17164263129234315,"y":0.0,"z":0.021198241040110589,"w":1.0},{"x":0.29605117440223696,"y":0.0,"z":0.02164142020046711,"w":1.0},{"x":0.4209239184856415,"y":0.0,"z":0.021879294887185098,"w":1.0},{"x":0.5455943942070007,"y":0.0,"z":0.021882858127355577,"w":1.0},{"x":0.6699802279472351,"y":0.0,"z":0.02162373811006546,"w":1.0},{"x":0.7950160503387451,"y":0.0,"z":0.021065490320324899,"w":1.0},{"x":0.9194204211235046,"y":0.0,"z":0.020176487043499948,"w":1.0},{"x":1.0440919399261475,"y":0.0,"z":0.018909338861703874,"w":1.0},{"x":1.1690346002578736,"y":0.0,"z":0.01721259206533432,"w":1.0},{"x":1.2932841777801514,"y":0.0,"z":0.015044975094497204,"w":1.0},{"x":1.4179847240447999,"y":0.0,"z":0.012321120128035546,"w":1.0},{"x":1.5429824590682984,"y":0.0,"z":0.008959073573350907,"w":1.0},{"x":1.6673803329467774,"y":0.0,"z":0.004888060037046671,"w":1.0},{"x":1.7911680936813355,"y":0.0,"z":0.0,"w":1.0},{"x":0.0,"y":0.0,"z":0.0,"w":0.0},{"x":0.0,"y":0.0,"z":0.0,"w":0.0},{"x":0.0,"y":0.0,"z":0.0,"w":0.0},{"x":0.0,"y":0.0,"z":0.0,"w":0.0},{"x":0.0,"y":0.0,"z":0.0,"w":0.0},{"x":0.0,"y":0.0,"z":0.0,"w":0.0},{"x":0.0,"y":0.0,"z":0.0,"w":0.0},{"x":0.0,"y":0.0,"z":0.0,"w":0.0},{"x":0.0,"y":0.0,"z":0.0,"w":0.0},{"x":0.0,"y":0.0,"z":0.0,"w":0.0},{"x":0.0,"y":0.0,"z":0.0,"w":0.0},{"x":0.0,"y":0.0,"z":0.0,"w":0.0},{"x":0.0,"y":0.0,"z":0.0,"w":0.0},{"x":0.0,"y":0.0,"z":0.0,"w":0.0},{"x":0.0,"y":0.0,"z":0.0,"w":0.0},{"x":0.0,"y":0.0,"z":0.0,"w":0.0},{"x":0.0,"y":0.0,"z":0.0,"w":0.0},{"x":0.0,"y":0.0,"z":0.0,"w":0.0},{"x":0.0,"y":0.0,"z":0.0,"w":0.0},{"x":0.0,"y":0.0,"z":0.0,"w":0.0},{"x":0.0,"y":0.0,"z":0.0,"w":0.0},{"x":0.0,"y":0.0,"z":0.0,"w":0.0},{"x":0.0,"y":0.0,"z":0.0,"w":0.0},{"x":0.0,"y":0.0,"z":0.0,"w":0.0},{"x":0.0,"y":0.0,"z":0.0,"w":0.0},{"x":0.0,"y":0.0,"z":0.0,"w":0.0},{"x":0.0,"y":0.0,"z":0.0,"w":0.0},{"x":0.0,"y":0.0,"z":0.0,"w":0.0},{"x":0.0,"y":0.0,"z":0.0,"w":0.0},{"x":0.0,"y":0.0,"z":0.0,"w":0.0},{"x":0.0,"y":0.0,"z":0.0,"w":0.0},{"x":0.0,"y":0.0,"z":0.0,"w":0.0},{"x":0.0,"y":0.0,"z":0.0,"w":0.0},{"x":0.0,"y":0.0,"z":0.0,"w":0.0},{"x":0.0,"y":0.0,"z":0.0,"w":0.0},{"x":0.0,"y":0.0,"z":0.0,"w":0.0},{"x":0.0,"y":0.0,"z":0.0,"w":0.0},{"x":0.0,"y":0.0,"z":0.0,"w":0.0},{"x":0.0,"y":0.0,"z":0.0,"w":0.0},{"x":0.0,"y":0.0,"z":0.0,"w":0.0},{"x":0.0,"y":0.0,"z":0.0,"w":0.0},{"x":0.0,"y":0.0,"z":0.0,"w":0.0},{"x":0.0,"y":0.0,"z":0.0,"w":0.0},{"x":0.0,"y":0.0,"z":0.0,"w":0.0},{"x":0.0,"y":0.0,"z":0.0,"w":0.0},{"x":0.0,"y":0.0,"z":0.0,"w":0.0},{"x":0.0,"y":0.0,"z":0.0,"w":0.0},{"x":0.0,"y":0.0,"z":0.0,"w":0.0},{"x":0.0,"y":0.0,"z":0.0,"w":0.0},{"x":0.0,"y":0.0,"z":0.0,"w":0.0},{"x":0.0,"y":0.0,"z":0.0,"w":0.0},{"x":0.0,"y":0.0,"z":0.0,"w":0.0},{"x":0.0,"y":0.0,"z":0.0,"w":0.0},{"x":0.0,"y":0.0,"z":0.0,"w":0.0},{"x":0.0,"y":0.0,"z":0.0,"w":0.0},{"x":0.0,"y":0.0,"z":0.0,"w":0.0},{"x":0.0,"y":0.0,"z":0.0,"w":0.0},{"x":0.0,"y":0.0,"z":0.0,"w":0.0},{"x":0.0,"y":0.0,"z":0.0,"w":0.0},{"x":0.0,"y":0.0,"z":0.0,"w":0.0},{"x":0.0,"y":0.0,"z":0.0,"w":0.0},{"x":0.0,"y":0.0,"z":0.0,"w":0.0},{"x":0.0,"y":0.0,"z":0.0,"w":0.0},{"x":0.0,"y":0.0,"z":0.0,"w":0.0},{"x":0.0,"y":0.0,"z":0.0,"w":0.0},{"x":0.0,"y":0.0,"z":0.0,"w":0.0},{"x":0.0,"y":0.0,"z":0.0,"w":0.0},{"x":0.0,"y":0.0,"z":0.0,"w":0.0},{"x":0.0,"y":0.0,"z":0.0,"w":0.0},{"x":0.0,"y":0.0,"z":0.0,"w":0.0},{"x":0.0,"y":0.0,"z":0.0,"w":0.0},{"x":0.0,"y":0.0,"z":0.0,"w":0.0},{"x":0.0,"y":0.0,"z":0.0,"w":0.0},{"x":0.0,"y":0.0,"z":0.0,"w":0.0},{"x":0.0,"y":0.0,"z":0.0,"w":0.0},{"x":0.0,"y":0.0,"z":0.0,"w":0.0},{"x":0.0,"y":0.0,"z":0.0,"w":0.0},{"x":0.0,"y":0.0,"z":0.0,"w":0.0},{"x":0.0,"y":0.0,"z":0.0,"w":0.0},{"x":0.0,"y":0.0,"z":0.0,"w":0.0},{"x":0.0,"y":0.0,"z":0.0,"w":0.0},{"x":0.0,"y":0.0,"z":0.0,"w":0.0},{"x":0.0,"y":0.0,"z":0.0,"w":0.0},{"x":0.0,"y":0.0,"z":0.0,"w":0.0},{"x":0.0,"y":0.0,"z":0.0,"w":0.0},{"x":0.0,"y":0.0,"z":0.0,"w":0.0},{"x":0.0,"y":0.0,"z":0.0,"w":0.0},{"x":0.0,"y":0.0,"z":0.0,"w":0.0},{"x":0.0,"y":0.0,"z":0.0,"w":0.0},{"x":0.0,"y":0.0,"z":0.0,"w":0.0},{"x":0.0,"y":0.0,"z":0.0,"w":0.0},{"x":0.0,"y":0.0,"z":0.0,"w":0.0},{"x":0.0,"y":0.0,"z":0.0,"w":0.0},{"x":0.0,"y":0.0,"z":0.0,"w":0.0},{"x":0.0,"y":0.0,"z":0.0,"w":0.0},{"x":0.0,"y":0.0,"z":0.0,"w":0.0},{"x":0.0,"y":0.0,"z":0.0,"w":0.0},{"x":0.0,"y":0.0,"z":0.0,"w":0.0},{"x":0.0,"y":0.0,"z":0.0,"w":0.0},{"x":0.0,"y":0.0,"z":0.0,"w":0.0}],"orientations":[],"restOrientations":[],"velocities":[{"x":0.0,"y":0.0,"z":0.0},{"x":0.0,"y":0.0,"z":0.0},{"x":0.0,"y":0.0,"z":0.0},{"x":0.0,"y":0.0,"z":0.0},{"x":0.0,"y":0.0,"z":0.0},{"x":0.0,"y":0.0,"z":0.0},{"x":0.0,"y":0.0,"z":0.0},{"x":0.0,"y":0.0,"z":0.0},{"x":0.0,"y":0.0,"z":0.0},{"x":0.0,"y":0.0,"z":0.0},{"x":0.0,"y":0.0,"z":0.0},{"x":0.0,"y":0.0,"z":0.0},{"x":0.0,"y":0.0,"z":0.0},{"x":0.0,"y":0.0,"z":0.0},{"x":0.0,"y":0.0,"z":0.0},{"x":0.0,"y":0.0,"z":0.0},{"x":0.0,"y":0.0,"z":0.0},{"x":-0.05436092987656593,"y":-0.03148570656776428,"z":-0.07188556343317032},{"x":0.0,"y":0.0,"z":0.0},{"x":0.0,"y":0.0,"z":0.0},{"x":0.0,"y":0.0,"z":0.0},{"x":0.0,"y":0.0,"z":0.0},{"x":0.0,"y":0.0,"z":0.0},{"x":0.0,"y":0.0,"z":0.0},{"x":0.0,"y":0.0,"z":0.0},{"x":0.0,"y":0.0,"z":0.0},{"x":0.0,"y":0.0,"z":0.0},{"x":0.0,"y":0.0,"z":0.0},{"x":0.0,"y":0.0,"z":0.0},{"x":0.0,"y":0.0,"z":0.0},{"x":0.0,"y":0.0,"z":0.0},{"x":0.0,"y":0.0,"z":0.0},{"x":0.0,"y":0.0,"z":0.0},{"x":0.0,"y":0.0,"z":0.0},{"x":0.0,"y":0.0,"z":0.0},{"x":0.0,"y":0.0,"z":0.0},{"x":0.0,"y":0.0,"z":0.0},{"x":0.0,"y":0.0,"z":0.0},{"x":0.0,"y":0.0,"z":0.0},{"x":0.0,"y":0.0,"z":0.0},{"x":0.0,"y":0.0,"z":0.0},{"x":0.0,"y":0.0,"z":0.0},{"x":0.0,"y":0.0,"z":0.0},{"x":0.0,"y":0.0,"z":0.0},{"x":0.0,"y":0.0,"z":0.0},{"x":0.0,"y":0.0,"z":0.0},{"x":0.0,"y":0.0,"z":0.0},{"x":0.0,"y":0.0,"z":0.0},{"x":0.0,"y":0.0,"z":0.0},{"x":0.0,"y":0.0,"z":0.0},{"x":0.0,"y":0.0,"z":0.0},{"x":0.0,"y":0.0,"z":0.0},{"x":0.0,"y":0.0,"z":0.0},{"x":0.0,"y":0.0,"z":0.0},{"x":0.0,"y":0.0,"z":0.0},{"x":0.0,"y":0.0,"z":0.0},{"x":0.0,"y":0.0,"z":0.0},{"x":0.0,"y":0.0,"z":0.0},{"x":0.0,"y":0.0,"z":0.0},{"x":0.0,"y":0.0,"z":0.0},{"x":0.0,"y":0.0,"z":0.0},{"x":0.0,"y":0.0,"z":0.0},{"x":0.0,"y":0.0,"z":0.0},{"x":0.0,"y":0.0,"z":0.0},{"x":0.0,"y":0.0,"z":0.0},{"x":0.0,"y":0.0,"z":0.0},{"x":0.0,"y":0.0,"z":0.0},{"x":0.0,"y":0.0,"z":0.0},{"x":0.0,"y":0.0,"z":0.0},{"x":0.0,"y":0.0,"z":0.0},{"x":0.0,"y":0.0,"z":0.0},{"x":0.0,"y":0.0,"z":0.0},{"x":0.0,"y":0.0,"z":0.0},{"x":0.0,"y":0.0,"z":0.0},{"x":0.0,"y":0.0,"z":0.0},{"x":0.0,"y":0.0,"z":0.0},{"x":0.0,"y":0.0,"z":0.0},{"x":0.0,"y":0.0,"z":0.0},{"x":0.0,"y":0.0,"z":0.0},{"x":0.0,"y":0.0,"z":0.0},{"x":0.0,"y":0.0,"z":0.0},{"x":0.0,"y":0.0,"z":0.0},{"x":0.0,"y":0.0,"z":0.0},{"x":0.0,"y":0.0,"z":0.0},{"x":0.0,"y":0.0,"z":0.0},{"x":0.0,"y":0.0,"z":0.0},{"x":0.0,"y":0.0,"z":0.0},{"x":0.0,"y":0.0,"z":0.0},{"x":0.0,"y":0.0,"z":0.0},{"x":0.0,"y":0.0,"z":0.0},{"x":0.0,"y":0.0,"z":0.0},{"x":0.0,"y":0.0,"z":0.0},{"x":0.0,"y":0.0,"z":0.0},{"x":0.0,"y":0.0,"z":0.0},{"x":0.0,"y":0.0,"z":0.0},{"x":0.0,"y":0.0,"z":0.0},{"x":0.0,"y":0.0,"z":0.0},{"x":0.0,"y":0.0,"z":0.0},{"x":0.0,"y":0.0,"z":0.0},{"x":0.0,"y":0.0,"z":0.0},{"x":0.0,"y":0.0,"z":0.0},{"x":0.0,"y":0.0,"z":0.0},{"x":0.0,"y":0.0,"z":0.0},{"x":0.0,"y":0.0,"z":0.0},{"x":0.0,"y":0.0,"z":0.0},{"x":0.0,"y":0.0,"z":0.0},{"x":0.0,"y":0.0,"z":0.0},{"x":0.0,"y":0.0,"z":0.0},{"x":0.0,"y":0.0,"z":0.0},{"x":0.0,"y":0.0,"z":0.0},{"x":0.0,"y":0.0,"z":0.0},{"x":0.0,"y":0.0,"z":0.0},{"x":0.0,"y":0.0,"z":0.0},{"x":0.0,"y":0.0,"z":0.0},{"x":0.0,"y":0.0,"z":0.0},{"x":0.0,"y":0.0,"z":0.0},{"x":0.0,"y":0.0,"z":0.0},{"x":0.0,"y":0.0,"z":0.0},{"x":0.0,"y":0.0,"z":0.0},{"x":0.0,"y":0.0,"z":0.0},{"x":0.0,"y":0.0,"z":0.0},{"x":0.0,"y":0.0,"z":0.0},{"x":0.0,"y":0.0,"z":0.0},{"x":0.0,"y":0.0,"z":0.0},{"x":0.0,"y":0.0,"z":0.0},{"x":0.0,"y":0.0,"z":0.0},{"x":0.0,"y":0.0,"z":0.0},{"x":0.0,"y":0.0,"z":0.0},{"x":0.0,"y":0.0,"z":0.0},{"x":0.0,"y":0.0,"z":0.0},{"x":0.0,"y":0.0,"z":0.0},{"x":0.0,"y":0.0,"z":0.0},{"x":0.0,"y":0.0,"z":0.0},{"x":0.0,"y":0.0,"z":0.0},{"x":0.0,"y":0.0,"z":0.0}],"angularVelocities":[],"invMasses":[1.0,10.0,9.999999046325684,10.0,10.0,10.000000953674317,9.999999046325684,10.0,10.0,10.0,10.0,10.000000953674317,10.000000953674317,10.000000953674317,10.0,10.0,10.0,9.999999046325684,10.0,10.0,10.0,10.0,10.0,10.0,10.0,10.0,10.0,10.0,10.0,10.0,10.0,10.0,10.0,10.0,10.0,0.0,0.0,0.0,0.0,0.0,0.0,0.0,0.0,0.0,0.0,0.0,0.0,0.0,0.0,0.0,0.0,0.0,0.0,0.0,0.0,0.0,0.0,0.0,0.0,0.0,0.0,0.0,0.0,0.0,0.0,0.0,0.0,0.0,0.0,0.0,0.0,0.0,0.0,0.0,0.0,0.0,0.0,0.0,0.0,0.0,0.0,0.0,0.0,0.0,0.0,0.0,0.0,0.0,0.0,0.0,0.0,0.0,0.0,0.0,0.0,0.0,0.0,0.0,0.0,0.0,0.0,0.0,0.0,0.0,0.0,0.0,0.0,0.0,0.0,0.0,0.0,0.0,0.0,0.0,0.0,0.0,0.0,0.0,0.0,0.0,0.0,0.0,0.0,0.0,0.0,0.0,0.0,0.0,0.0,0.0,0.0,0.0,0.0,0.0,0.0],"invRotationalMasses":[],"phases":[1,1,1,1,1,1,1,1,1,1,1,1,1,1,1,1,1,1,1,1,1,1,1,1,1,1,1,1,1,1,1,1,1,1,1,0,0,0,0,0,0,0,0,0,0,0,0,0,0,0,0,0,0,0,0,0,0,0,0,0,0,0,0,0,0,0,0,0,0,0,0,0,0,0,0,0,0,0,0,0,0,0,0,0,0,0,0,0,0,0,0,0,0,0,0,0,0,0,0,0,0,0,0,0,0,0,0,0,0,0,0,0,0,0,0,0,0,0,0,0,0,0,0,0,0,0,0,0,0,0,0,0,0,0,0],"principalRadii":[{"x":0.125,"y":0.125,"z":0.125},{"x":0.125,"y":0.125,"z":0.125},{"x":0.1250000149011612,"y":0.1250000149011612,"z":0.1250000149011612},{"x":0.125,"y":0.125,"z":0.125},{"x":0.125,"y":0.125,"z":0.125},{"x":0.1249999925494194,"y":0.1249999925494194,"z":0.1249999925494194},{"x":0.1250000149011612,"y":0.1250000149011612,"z":0.1250000149011612},{"x":0.125,"y":0.125,"z":0.125},{"x":0.125,"y":0.125,"z":0.125},{"x":0.125,"y":0.125,"z":0.125},{"x":0.125,"y":0.125,"z":0.125},{"x":0.1249999925494194,"y":0.1249999925494194,"z":0.1249999925494194},{"x":0.1249999925494194,"y":0.1249999925494194,"z":0.1249999925494194},{"x":0.1249999925494194,"y":0.1249999925494194,"z":0.1249999925494194},{"x":0.125,"y":0.125,"z":0.125},{"x":0.125,"y":0.125,"z":0.125},{"x":0.125,"y":0.125,"z":0.125},{"x":0.1250000149011612,"y":0.1250000149011612,"z":0.1250000149011612},{"x":0.125,"y":0.125,"z":0.125},{"x":0.125,"y":0.125,"z":0.125},{"x":0.125,"y":0.125,"z":0.125},{"x":0.125,"y":0.125,"z":0.125},{"x":0.125,"y":0.125,"z":0.125},{"x":0.125,"y":0.125,"z":0.125},{"x":0.125,"y":0.125,"z":0.125},{"x":0.125,"y":0.125,"z":0.125},{"x":0.125,"y":0.125,"z":0.125},{"x":0.125,"y":0.125,"z":0.125},{"x":0.125,"y":0.125,"z":0.125},{"x":0.125,"y":0.125,"z":0.125},{"x":0.125,"y":0.125,"z":0.125},{"x":0.125,"y":0.125,"z":0.125},{"x":0.125,"y":0.125,"z":0.125},{"x":0.125,"y":0.125,"z":0.125},{"x":0.125,"y":0.125,"z":0.125},{"x":0.0,"y":0.0,"z":0.0},{"x":0.0,"y":0.0,"z":0.0},{"x":0.0,"y":0.0,"z":0.0},{"x":0.0,"y":0.0,"z":0.0},{"x":0.0,"y":0.0,"z":0.0},{"x":0.0,"y":0.0,"z":0.0},{"x":0.0,"y":0.0,"z":0.0},{"x":0.0,"y":0.0,"z":0.0},{"x":0.0,"y":0.0,"z":0.0},{"x":0.0,"y":0.0,"z":0.0},{"x":0.0,"y":0.0,"z":0.0},{"x":0.0,"y":0.0,"z":0.0},{"x":0.0,"y":0.0,"z":0.0},{"x":0.0,"y":0.0,"z":0.0},{"x":0.0,"y":0.0,"z":0.0},{"x":0.0,"y":0.0,"z":0.0},{"x":0.0,"y":0.0,"z":0.0},{"x":0.0,"y":0.0,"z":0.0},{"x":0.0,"y":0.0,"z":0.0},{"x":0.0,"y":0.0,"z":0.0},{"x":0.0,"y":0.0,"z":0.0},{"x":0.0,"y":0.0,"z":0.0},{"x":0.0,"y":0.0,"z":0.0},{"x":0.0,"y":0.0,"z":0.0},{"x":0.0,"y":0.0,"z":0.0},{"x":0.0,"y":0.0,"z":0.0},{"x":0.0,"y":0.0,"z":0.0},{"x":0.0,"y":0.0,"z":0.0},{"x":0.0,"y":0.0,"z":0.0},{"x":0.0,"y":0.0,"z":0.0},{"x":0.0,"y":0.0,"z":0.0},{"x":0.0,"y":0.0,"z":0.0},{"x":0.0,"y":0.0,"z":0.0},{"x":0.0,"y":0.0,"z":0.0},{"x":0.0,"y":0.0,"z":0.0},{"x":0.0,"y":0.0,"z":0.0},{"x":0.0,"y":0.0,"z":0.0},{"x":0.0,"y":0.0,"z":0.0},{"x":0.0,"y":0.0,"z":0.0},{"x":0.0,"y":0.0,"z":0.0},{"x":0.0,"y":0.0,"z":0.0},{"x":0.0,"y":0.0,"z":0.0},{"x":0.0,"y":0.0,"z":0.0},{"x":0.0,"y":0.0,"z":0.0},{"x":0.0,"y":0.0,"z":0.0},{"x":0.0,"y":0.0,"z":0.0},{"x":0.0,"y":0.0,"z":0.0},{"x":0.0,"y":0.0,"z":0.0},{"x":0.0,"y":0.0,"z":0.0},{"x":0.0,"y":0.0,"z":0.0},{"x":0.0,"y":0.0,"z":0.0},{"x":0.0,"y":0.0,"z":0.0},{"x":0.0,"y":0.0,"z":0.0},{"x":0.0,"y":0.0,"z":0.0},{"x":0.0,"y":0.0,"z":0.0},{"x":0.0,"y":0.0,"z":0.0},{"x":0.0,"y":0.0,"z":0.0},{"x":0.0,"y":0.0,"z":0.0},{"x":0.0,"y":0.0,"z":0.0},{"x":0.0,"y":0.0,"z":0.0},{"x":0.0,"y":0.0,"z":0.0},{"x":0.0,"y":0.0,"z":0.0},{"x":0.0,"y":0.0,"z":0.0},{"x":0.0,"y":0.0,"z":0.0},{"x":0.0,"y":0.0,"z":0.0},{"x":0.0,"y":0.0,"z":0.0},{"x":0.0,"y":0.0,"z":0.0},{"x":0.0,"y":0.0,"z":0.0},{"x":0.0,"y":0.0,"z":0.0},{"x":0.0,"y":0.0,"z":0.0},{"x":0.0,"y":0.0,"z":0.0},{"x":0.0,"y":0.0,"z":0.0},{"x":0.0,"y":0.0,"z":0.0},{"x":0.0,"y":0.0,"z":0.0},{"x":0.0,"y":0.0,"z":0.0},{"x":0.0,"y":0.0,"z":0.0},{"x":0.0,"y":0.0,"z":0.0},{"x":0.0,"y":0.0,"z":0.0},{"x":0.0,"y":0.0,"z":0.0},{"x":0.0,"y":0.0,"z":0.0},{"x":0.0,"y":0.0,"z":0.0},{"x":0.0,"y":0.0,"z":0.0},{"x":0.0,"y":0.0,"z":0.0},{"x":0.0,"y":0.0,"z":0.0},{"x":0.0,"y":0.0,"z":0.0},{"x":0.0,"y":0.0,"z":0.0},{"x":0.0,"y":0.0,"z":0.0},{"x":0.0,"y":0.0,"z":0.0},{"x":0.0,"y":0.0,"z":0.0},{"x":0.0,"y":0.0,"z":0.0},{"x":0.0,"y":0.0,"z":0.0},{"x":0.0,"y":0.0,"z":0.0},{"x":0.0,"y":0.0,"z":0.0},{"x":0.0,"y":0.0,"z":0.0},{"x":0.0,"y":0.0,"z":0.0},{"x":0.0,"y":0.0,"z":0.0},{"x":0.0,"y":0.0,"z":0.0},{"x":0.0,"y":0.0,"z":0.0},{"x":0.0,"y":0.0,"z":0.0},{"x":0.0,"y":0.0,"z":0.0}],"colors":[{"r":1.0,"g":1.0,"b":1.0,"a":1.0},{"r":1.0,"g":1.0,"b":1.0,"a":1.0},{"r":1.0000001192092896,"g":1.0000001192092896,"b":1.0000001192092896,"a":1.0000001192092896},{"r":1.0,"g":1.0,"b":1.0,"a":1.0},{"r":1.0,"g":1.0,"b":1.0,"a":1.0},{"r":0.9999999403953552,"g":0.9999999403953552,"b":0.9999999403953552,"a":0.9999999403953552},{"r":1.0000001192092896,"g":1.0000001192092896,"b":1.0000001192092896,"a":1.0000001192092896},{"r":1.0,"g":1.0,"b":1.0,"a":1.0},{"r":1.0,"g":1.0,"b":1.0,"a":1.0},{"r":1.0,"g":1.0,"b":1.0,"a":1.0},{"r":1.0,"g":1.0,"b":1.0,"a":1.0},{"r":0.9999999403953552,"g":0.9999999403953552,"b":0.9999999403953552,"a":0.9999999403953552},{"r":0.9999999403953552,"g":0.9999999403953552,"b":0.9999999403953552,"a":0.9999999403953552},{"r":0.9999999403953552,"g":0.9999999403953552,"b":0.9999999403953552,"a":0.9999999403953552},{"r":1.0,"g":1.0,"b":1.0,"a":1.0},{"r":1.0,"g":1.0,"b":1.0,"a":1.0},{"r":1.0,"g":1.0,"b":1.0,"a":1.0},{"r":1.0000001192092896,"g":1.0000001192092896,"b":1.0000001192092896,"a":1.0000001192092896},{"r":1.0,"g":1.0,"b":1.0,"a":1.0},{"r":1.0,"g":1.0,"b":1.0,"a":1.0},{"r":1.0,"g":1.0,"b":1.0,"a":1.0},{"r":1.0,"g":1.0,"b":1.0,"a":1.0},{"r":1.0,"g":1.0,"b":1.0,"a":1.0},{"r":1.0,"g":1.0,"b":1.0,"a":1.0},{"r":1.0,"g":1.0,"b":1.0,"a":1.0},{"r":1.0,"g":1.0,"b":1.0,"a":1.0},{"r":1.0,"g":1.0,"b":1.0,"a":1.0},{"r":1.0,"g":1.0,"b":1.0,"a":1.0},{"r":1.0,"g":1.0,"b":1.0,"a":1.0},{"r":1.0,"g":1.0,"b":1.0,"a":1.0},{"r":1.0,"g":1.0,"b":1.0,"a":1.0},{"r":1.0,"g":1.0,"b":1.0,"a":1.0},{"r":1.0,"g":1.0,"b":1.0,"a":1.0},{"r":1.0,"g":1.0,"b":1.0,"a":1.0},{"r":1.0,"g":1.0,"b":1.0,"a":1.0},{"r":0.0,"g":0.0,"b":0.0,"a":0.0},{"r":0.0,"g":0.0,"b":0.0,"a":0.0},{"r":0.0,"g":0.0,"b":0.0,"a":0.0},{"r":0.0,"g":0.0,"b":0.0,"a":0.0},{"r":0.0,"g":0.0,"b":0.0,"a":0.0},{"r":0.0,"g":0.0,"b":0.0,"a":0.0},{"r":0.0,"g":0.0,"b":0.0,"a":0.0},{"r":0.0,"g":0.0,"b":0.0,"a":0.0},{"r":0.0,"g":0.0,"b":0.0,"a":0.0},{"r":0.0,"g":0.0,"b":0.0,"a":0.0},{"r":0.0,"g":0.0,"b":0.0,"a":0.0},{"r":0.0,"g":0.0,"b":0.0,"a":0.0},{"r":0.0,"g":0.0,"b":0.0,"a":0.0},{"r":0.0,"g":0.0,"b":0.0,"a":0.0},{"r":0.0,"g":0.0,"b":0.0,"a":0.0},{"r":0.0,"g":0.0,"b":0.0,"a":0.0},{"r":0.0,"g":0.0,"b":0.0,"a":0.0},{"r":0.0,"g":0.0,"b":0.0,"a":0.0},{"r":0.0,"g":0.0,"b":0.0,"a":0.0},{"r":0.0,"g":0.0,"b":0.0,"a":0.0},{"r":0.0,"g":0.0,"b":0.0,"a":0.0},{"r":0.0,"g":0.0,"b":0.0,"a":0.0},{"r":0.0,"g":0.0,"b":0.0,"a":0.0},{"r":0.0,"g":0.0,"b":0.0,"a":0.0},{"r":0.0,"g":0.0,"b":0.0,"a":0.0},{"r":0.0,"g":0.0,"b":0.0,"a":0.0},{"r":0.0,"g":0.0,"b":0.0,"a":0.0},{"r":0.0,"g":0.0,"b":0.0,"a":0.0},{"r":0.0,"g":0.0,"b":0.0,"a":0.0},{"r":0.0,"g":0.0,"b":0.0,"a":0.0},{"r":0.0,"g":0.0,"b":0.0,"a":0.0},{"r":0.0,"g":0.0,"b":0.0,"a":0.0},{"r":0.0,"g":0.0,"b":0.0,"a":0.0},{"r":0.0,"g":0.0,"b":0.0,"a":0.0},{"r":0.0,"g":0.0,"b":0.0,"a":0.0},{"r":0.0,"g":0.0,"b":0.0,"a":0.0},{"r":0.0,"g":0.0,"b":0.0,"a":0.0},{"r":0.0,"g":0.0,"b":0.0,"a":0.0},{"r":0.0,"g":0.0,"b":0.0,"a":0.0},{"r":0.0,"g":0.0,"b":0.0,"a":0.0},{"r":0.0,"g":0.0,"b":0.0,"a":0.0},{"r":0.0,"g":0.0,"b":0.0,"a":0.0},{"r":0.0,"g":0.0,"b":0.0,"a":0.0},{"r":0.0,"g":0.0,"b":0.0,"a":0.0},{"r":0.0,"g":0.0,"b":0.0,"a":0.0},{"r":0.0,"g":0.0,"b":0.0,"a":0.0},{"r":0.0,"g":0.0,"b":0.0,"a":0.0},{"r":0.0,"g":0.0,"b":0.0,"a":0.0},{"r":0.0,"g":0.0,"b":0.0,"a":0.0},{"r":0.0,"g":0.0,"b":0.0,"a":0.0},{"r":0.0,"g":0.0,"b":0.0,"a":0.0},{"r":0.0,"g":0.0,"b":0.0,"a":0.0},{"r":0.0,"g":0.0,"b":0.0,"a":0.0},{"r":0.0,"g":0.0,"b":0.0,"a":0.0},{"r":0.0,"g":0.0,"b":0.0,"a":0.0},{"r":0.0,"g":0.0,"b":0.0,"a":0.0},{"r":0.0,"g":0.0,"b":0.0,"a":0.0},{"r":0.0,"g":0.0,"b":0.0,"a":0.0},{"r":0.0,"g":0.0,"b":0.0,"a":0.0},{"r":0.0,"g":0.0,"b":0.0,"a":0.0},{"r":0.0,"g":0.0,"b":0.0,"a":0.0},{"r":0.0,"g":0.0,"b":0.0,"a":0.0},{"r":0.0,"g":0.0,"b":0.0,"a":0.0},{"r":0.0,"g":0.0,"b":0.0,"a":0.0},{"r":0.0,"g":0.0,"b":0.0,"a":0.0},{"r":0.0,"g":0.0,"b":0.0,"a":0.0},{"r":0.0,"g":0.0,"b":0.0,"a":0.0},{"r":0.0,"g":0.0,"b":0.0,"a":0.0},{"r":0.0,"g":0.0,"b":0.0,"a":0.0},{"r":0.0,"g":0.0,"b":0.0,"a":0.0},{"r":0.0,"g":0.0,"b":0.0,"a":0.0},{"r":0.0,"g":0.0,"b":0.0,"a":0.0},{"r":0.0,"g":0.0,"b":0.0,"a":0.0},{"r":0.0,"g":0.0,"b":0.0,"a":0.0},{"r":0.0,"g":0.0,"b":0.0,"a":0.0},{"r":0.0,"g":0.0,"b":0.0,"a":0.0},{"r":0.0,"g":0.0,"b":0.0,"a":0.0},{"r":0.0,"g":0.0,"b":0.0,"a":0.0},{"r":0.0,"g":0.0,"b":0.0,"a":0.0},{"r":0.0,"g":0.0,"b":0.0,"a":0.0},{"r":0.0,"g":0.0,"b":0.0,"a":0.0},{"r":0.0,"g":0.0,"b":0.0,"a":0.0},{"r":0.0,"g":0.0,"b":0.0,"a":0.0},{"r":0.0,"g":0.0,"b":0.0,"a":0.0},{"r":0.0,"g":0.0,"b":0.0,"a":0.0},{"r":0.0,"g":0.0,"b":0.0,"a":0.0},{"r":0.0,"g":0.0,"b":0.0,"a":0.0},{"r":0.0,"g":0.0,"b":0.0,"a":0.0},{"r":0.0,"g":0.0,"b":0.0,"a":0.0},{"r":0.0,"g":0.0,"b":0.0,"a":0.0},{"r":0.0,"g":0.0,"b":0.0,"a":0.0},{"r":0.0,"g":0.0,"b":0.0,"a":0.0},{"r":0.0,"g":0.0,"b":0.0,"a":0.0},{"r":0.0,"g":0.0,"b":0.0,"a":0.0},{"r":0.0,"g":0.0,"b":0.0,"a":0.0},{"r":0.0,"g":0.0,"b":0.0,"a":0.0},{"r":0.0,"g":0.0,"b":0.0,"a":0.0},{"r":0.0,"g":0.0,"b":0.0,"a":0.0},{"r":0.0,"g":0.0,"b":0.0,"a":0.0},{"r":0.0,"g":0.0,"b":0.0,"a":0.0}],"distanceConstraintsData":{"batches":[{"m_IDs":[0,1,2,3,4,5,6,7,8,9,10,11,12,13,14,15,16,17,18,19,20,21,22,23,24,25,26,27,28,29,30,31,32,33,34,35,36,37,38,39,40,41,42,43,44,45,46,47,48,49,50,51,52,53,54,55,56,57,58,59,60,61,62,63,64,65,66],"m_IDToIndex":[0,1,2,3,4,5,6,7,8,9,10,11,12,13,14,15,16,17,18,19,20,21,22,23,24,25,26,27,28,29,30,31,32,33,34,35,36,37,38,39,40,41,42,43,44,45,46,47,48,49,50,51,52,53,54,55,56,57,58,59,60,61,62,63,64,65,66],"m_ConstraintCount":67,"m_ActiveConstraintCount":17,"m_InitialActiveConstraintCount":17,"particleIndices":{"serializedContents":[0,1,2,3,4,5,6,7,8,9,10,11,12,13,14,15,16,17,18,19,20,21,22,23,24,25,26,27,28,29,30,31,32,33,0,0,0,0,0,0,0,0,0,0,0,0,0,0,0,0,0,0,0,0,0,0,0,0,0,0,0,0,0,0,0,0,0,0,0,0,0,0,0,0,0,0,0,0,0,0,0,0,0,0,0,0,0,0,0,0,0,0,0,0,0,0,0,0,0,0,0,0,0,0,0,0,0,0,0,0,0,0,0,0,0,0,0,0,0,0,0,0,0,0,0,0,0,0,0,0,0,0,0,0]},"restLengths":{"serializedContents":[0.12404090911149979,0.12486094236373902,0.1249392181634903,0.12467276304960251,0.12450309842824936,0.1245402991771698,0.12464523315429688,0.12461824715137482,0.12460867315530777,0.1246931180357933,0.12486275285482407,0.12487296760082245,0.12438610196113587,0.12440754473209381,0.12495417892932892,0.12473028898239136,0.12446446716785431,0.0,0.0,0.0,0.0,0.0,0.0,0.0,0.0,0.0,0.0,0.0,0.0,0.0,0.0,0.0,0.0,0.0,0.0,0.0,0.0,0.0,0.0,0.0,0.0,0.0,0.0,0.0,0.0,0.0,0.0,0.0,0.0,0.0,0.0,0.0,0.0,0.0,0.0,0.0,0.0,0.0,0.0,0.0,0.0,0.0,0.0,0.0,0.0,0.0,0.0]},"stiffnesses":{"serializedContents":[{"x":0.0,"y":0.0},{"x":0.0,"y":0.0},{"x":0.0,"y":0.0},{"x":0.0,"y":0.0},{"x":0.0,"y":0.0},{"x":0.0,"y":0.0},{"x":0.0,"y":0.0},{"x":0.0,"y":0.0},{"x":0.0,"y":0.0},{"x":0.0,"y":0.0},{"x":0.0,"y":0.0},{"x":0.0,"y":0.0},{"x":0.0,"y":0.0},{"x":0.0,"y":0.0},{"x":0.0,"y":0.0},{"x":0.0,"y":0.0},{"x":0.0,"y":0.0},{"x":0.0,"y":0.0},{"x":0.0,"y":0.0},{"x":0.0,"y":0.0},{"x":0.0,"y":0.0},{"x":0.0,"y":0.0},{"x":0.0,"y":0.0},{"x":0.0,"y":0.0},{"x":0.0,"y":0.0},{"x":0.0,"y":0.0},{"x":0.0,"y":0.0},{"x":0.0,"y":0.0},{"x":0.0,"y":0.0},{"x":0.0,"y":0.0},{"x":0.0,"y":0.0},{"x":0.0,"y":0.0},{"x":0.0,"y":0.0},{"x":0.0,"y":0.0},{"x":0.0,"y":0.0},{"x":0.0,"y":0.0},{"x":0.0,"y":0.0},{"x":0.0,"y":0.0},{"x":0.0,"y":0.0},{"x":0.0,"y":0.0},{"x":0.0,"y":0.0},{"x":0.0,"y":0.0},{"x":0.0,"y":0.0},{"x":0.0,"y":0.0},{"x":0.0,"y":0.0},{"x":0.0,"y":0.0},{"x":0.0,"y":0.0},{"x":0.0,"y":0.0},{"x":0.0,"y":0.0},{"x":0.0,"y":0.0},{"x":0.0,"y":0.0},{"x":0.0,"y":0.0},{"x":0.0,"y":0.0},{"x":0.0,"y":0.0},{"x":0.0,"y":0.0},{"x":0.0,"y":0.0},{"x":0.0,"y":0.0},{"x":0.0,"y":0.0},{"x":0.0,"y":0.0},{"x":0.0,"y":0.0},{"x":0.0,"y":0.0},{"x":0.0,"y":0.0},{"x":0.0,"y":0.0},{"x":0.0,"y":0.0},{"x":0.0,"y":0.0},{"x":0.0,"y":0.0},{"x":0.0,"y":0.0}]}},{"m_IDs":[0,1,2,3,4,5,6,7,8,9,10,11,12,13,14,15,16,17,18,19,20,21,22,23,24,25,26,27,28,29,30,31,32,33,34,35,36,37,38,39,40,41,42,43,44,45,46,47,48,49,50,51,52,53,54,55,56,57,58,59,60,61,62,63,64,65,66],"m_IDToIndex":[0,1,2,3,4,5,6,7,8,9,10,11,12,13,14,15,16,17,18,19,20,21,22,23,24,25,26,27,28,29,30,31,32,33,34,35,36,37,38,39,40,41,42,43,44,45,46,47,48,49,50,51,52,53,54,55,56,57,58,59,60,61,62,63,64,65,66],"m_ConstraintCount":67,"m_ActiveConstraintCount":17,"m_InitialActiveConstraintCount":17,"particleIndices":{"serializedContents":[1,2,3,4,5,6,7,8,9,10,11,12,13,14,15,16,17,18,19,20,21,22,23,24,25,26,27,28,29,30,31,32,33,34,0,0,0,0,0,0,0,0,0,0,0,0,0,0,0,0,0,0,0,0,0,0,0,0,0,0,0,0,0,0,0,0,0,0,0,0,0,0,0,0,0,0,0,0,0,0,0,0,0,0,0,0,0,0,0,0,0,0,0,0,0,0,0,0,0,0,0,0,0,0,0,0,0,0,0,0,0,0,0,0,0,0,0,0,0,0,0,0,0,0,0,0,0,0,0,0,0,0,0,0]},"restLengths":{"serializedContents":[0.12476882338523865,0.12436109781265259,0.12447194010019303,0.12479085475206375,0.12481339275836945,0.12470346689224243,0.12467289716005326,0.12472038716077805,0.12469670176506043,0.12451568245887757,0.12440933287143707,0.12467047572135925,0.1250370740890503,0.12467795610427857,0.12426848709583283,0.12504294514656068,0.12388423085212708,0.0,0.0,0.0,0.0,0.0,0.0,0.0,0.0,0.0,0.0,0.0,0.0,0.0,0.0,0.0,0.0,0.0,0.0,0.0,0.0,0.0,0.0,0.0,0.0,0.0,0.0,0.0,0.0,0.0,0.0,0.0,0.0,0.0,0.0,0.0,0.0,0.0,0.0,0.0,0.0,0.0,0.0,0.0,0.0,0.0,0.0,0.0,0.0,0.0,0.0]},"stiffnesses":{"serializedContents":[{"x":0.0,"y":0.0},{"x":0.0,"y":0.0},{"x":0.0,"y":0.0},{"x":0.0,"y":0.0},{"x":0.0,"y":0.0},{"x":0.0,"y":0.0},{"x":0.0,"y":0.0},{"x":0.0,"y":0.0},{"x":0.0,"y":0.0},{"x":0.0,"y":0.0},{"x":0.0,"y":0.0},{"x":0.0,"y":0.0},{"x":0.0,"y":0.0},{"x":0.0,"y":0.0},{"x":0.0,"y":0.0},{"x":0.0,"y":0.0},{"x":0.0,"y":0.0},{"x":0.0,"y":0.0},{"x":0.0,"y":0.0},{"x":0.0,"y":0.0},{"x":0.0,"y":0.0},{"x":0.0,"y":0.0},{"x":0.0,"y":0.0},{"x":0.0,"y":0.0},{"x":0.0,"y":0.0},{"x":0.0,"y":0.0},{"x":0.0,"y":0.0},{"x":0.0,"y":0.0},{"x":0.0,"y":0.0},{"x":0.0,"y":0.0},{"x":0.0,"y":0.0},{"x":0.0,"y":0.0},{"x":0.0,"y":0.0},{"x":0.0,"y":0.0},{"x":0.0,"y":0.0},{"x":0.0,"y":0.0},{"x":0.0,"y":0.0},{"x":0.0,"y":0.0},{"x":0.0,"y":0.0},{"x":0.0,"y":0.0},{"x":0.0,"y":0.0},{"x":0.0,"y":0.0},{"x":0.0,"y":0.0},{"x":0.0,"y":0.0},{"x":0.0,"y":0.0},{"x":0.0,"y":0.0},{"x":0.0,"y":0.0},{"x":0.0,"y":0.0},{"x":0.0,"y":0.0},{"x":0.0,"y":0.0},{"x":0.0,"y":0.0},{"x":0.0,"y":0.0},{"x":0.0,"y":0.0},{"x":0.0,"y":0.0},{"x":0.0,"y":0.0},{"x":0.0,"y":0.0},{"x":0.0,"y":0.0},{"x":0.0,"y":0.0},{"x":0.0,"y":0.0},{"x":0.0,"y":0.0},{"x":0.0,"y":0.0},{"x":0.0,"y":0.0},{"x":0.0,"y":0.0},{"x":0.0,"y":0.0},{"x":0.0,"y":0.0},{"x":0.0,"y":0.0},{"x":0.0,"y":0.0}]}}]},"bendConstraintsData":{"batches":[{"m_IDs":[0,1,2,3,4,5,6,7,8,9,10,11,12,13,14,15,16,17,18,19,20,21,22,23,24,25,26,27,28,29,30,31,32,33,34,35,36,37,38,39,40,41,42,43,44],"m_IDToIndex":[0,1,2,3,4,5,6,7,8,9,10,11,12,13,14,15,16,17,18,19,20,21,22,23,24,25,26,27,28,29,30,31,32,33,34,35,36,37,38,39,40,41,42,43,44],"m_ConstraintCount":45,"m_ActiveConstraintCount":11,"m_InitialActiveConstraintCount":11,"particleIndices":{"serializedContents":[0,2,1,3,5,4,6,8,7,9,11,10,12,14,13,15,17,16,18,20,19,21,23,22,24,26,25,27,29,28,30,32,31,33,35,34,36,38,37,39,41,40,42,44,43,45,47,46,48,50,49,51,53,52,54,56,55,57,59,58,60,62,61,63,65,64,66,68,67,69,71,70,72,74,73,75,77,76,78,80,79,81,83,82,84,86,85,87,89,88,90,92,91,93,95,94,96,98,97,99,101,100,102,104,103,105,107,106,108,110,109,111,113,112,114,116,115,117,119,118,120,122,121,123,125,124,126,128,127,129,131,130,132,134,133]},"restBends":{"serializedContents":[0.0,0.0,0.0,0.0,0.0,0.0,0.0,0.0,0.0,0.0,0.0,0.0,0.0,0.0,0.0,0.0,0.0,0.0,0.0,0.0,0.0,0.0,0.0,0.0,0.0,0.0,0.0,0.0,0.0,0.0,0.0,0.0,0.0,0.0,0.0,0.0,0.0,0.0,0.0,0.0,0.0,0.0,0.0,0.0,0.0]},"bendingStiffnesses":{"serializedContents":[{"x":0.0,"y":0.0},{"x":0.0,"y":0.0},{"x":0.0,"y":0.0},{"x":0.0,"y":0.0},{"x":0.0,"y":0.0},{"x":0.0,"y":0.0},{"x":0.0,"y":0.0},{"x":0.0,"y":0.0},{"x":0.0,"y":0.0},{"x":0.0,"y":0.0},{"x":0.0,"y":0.0},{"x":0.0,"y":0.0},{"x":0.0,"y":0.0},{"x":0.0,"y":0.0},{"x":0.0,"y":0.0},{"x":0.0,"y":0.0},{"x":0.0,"y":0.0},{"x":0.0,"y":0.0},{"x":0.0,"y":0.0},{"x":0.0,"y":0.0},{"x":0.0,"y":0.0},{"x":0.0,"y":0.0},{"x":0.0,"y":0.0},{"x":0.0,"y":0.0},{"x":0.0,"y":0.0},{"x":0.0,"y":0.0},{"x":0.0,"y":0.0},{"x":0.0,"y":0.0},{"x":0.0,"y":0.0},{"x":0.0,"y":0.0},{"x":0.0,"y":0.0},{"x":0.0,"y":0.0},{"x":0.0,"y":0.0},{"x":0.0,"y":0.0},{"x":0.0,"y":0.0},{"x":0.0,"y":0.0},{"x":0.0,"y":0.0},{"x":0.0,"y":0.0},{"x":0.0,"y":0.0},{"x":0.0,"y":0.0},{"x":0.0,"y":0.0},{"x":0.0,"y":0.0},{"x":0.0,"y":0.0},{"x":0.0,"y":0.0},{"x":0.0,"y":0.0}]}},{"m_IDs":[0,1,2,3,4,5,6,7,8,9,10,11,12,13,14,15,16,17,18,19,20,21,22,23,24,25,26,27,28,29,30,31,32,33,34,35,36,37,38,39,40,41,42,43],"m_IDToIndex":[0,1,2,3,4,5,6,7,8,9,10,11,12,13,14,15,16,17,18,19,20,21,22,23,24,25,26,27,28,29,30,31,32,33,34,35,36,37,38,39,40,41,42,43],"m_ConstraintCount":44,"m_ActiveConstraintCount":11,"m_InitialActiveConstraintCount":11,"particleIndices":{"serializedContents":[1,3,2,4,6,5,7,9,8,10,12,11,13,15,14,16,18,17,19,21,20,22,24,23,25,27,26,28,30,29,31,33,32,34,36,35,37,39,38,40,42,41,43,45,44,46,48,47,49,51,50,52,54,53,55,57,56,58,60,59,61,63,62,64,66,65,67,69,68,70,72,71,73,75,74,76,78,77,79,81,80,82,84,83,85,87,86,88,90,89,91,93,92,94,96,95,97,99,98,100,102,101,103,105,104,106,108,107,109,111,110,112,114,113,115,117,116,118,120,119,121,123,122,124,126,125,127,129,128,130,132,131]},"restBends":{"serializedContents":[0.0,0.0,0.0,0.0,0.0,0.0,0.0,0.0,0.0,0.0,0.0,0.0,0.0,0.0,0.0,0.0,0.0,0.0,0.0,0.0,0.0,0.0,0.0,0.0,0.0,0.0,0.0,0.0,0.0,0.0,0.0,0.0,0.0,0.0,0.0,0.0,0.0,0.0,0.0,0.0,0.0,0.0,0.0,0.0]},"bendingStiffnesses":{"serializedContents":[{"x":0.0,"y":0.0},{"x":0.0,"y":0.0},{"x":0.0,"y":0.0},{"x":0.0,"y":0.0},{"x":0.0,"y":0.0},{"x":0.0,"y":0.0},{"x":0.0,"y":0.0},{"x":0.0,"y":0.0},{"x":0.0,"y":0.0},{"x":0.0,"y":0.0},{"x":0.0,"y":0.0},{"x":0.0,"y":0.0},{"x":0.0,"y":0.0},{"x":0.0,"y":0.0},{"x":0.0,"y":0.0},{"x":0.0,"y":0.0},{"x":0.0,"y":0.0},{"x":0.0,"y":0.0},{"x":0.0,"y":0.0},{"x":0.0,"y":0.0},{"x":0.0,"y":0.0},{"x":0.0,"y":0.0},{"x":0.0,"y":0.0},{"x":0.0,"y":0.0},{"x":0.0,"y":0.0},{"x":0.0,"y":0.0},{"x":0.0,"y":0.0},{"x":0.0,"y":0.0},{"x":0.0,"y":0.0},{"x":0.0,"y":0.0},{"x":0.0,"y":0.0},{"x":0.0,"y":0.0},{"x":0.0,"y":0.0},{"x":0.0,"y":0.0},{"x":0.0,"y":0.0},{"x":0.0,"y":0.0},{"x":0.0,"y":0.0},{"x":0.0,"y":0.0},{"x":0.0,"y":0.0},{"x":0.0,"y":0.0},{"x":0.0,"y":0.0},{"x":0.0,"y":0.0},{"x":0.0,"y":0.0},{"x":0.0,"y":0.0}]}},{"m_IDs":[0,1,2,3,4,5,6,7,8,9,10,11,12,13,14,15,16,17,18,19,20,21,22,23,24,25,26,27,28,29,30,31,32,33,34,35,36,37,38,39,40,41,42,43],"m_IDToIndex":[0,1,2,3,4,5,6,7,8,9,10,11,12,13,14,15,16,17,18,19,20,21,22,23,24,25,26,27,28,29,30,31,32,33,34,35,36,37,38,39,40,41,42,43],"m_ConstraintCount":44,"m_ActiveConstraintCount":11,"m_InitialActiveConstraintCount":11,"particleIndices":{"serializedContents":[2,4,3,5,7,6,8,10,9,11,13,12,14,16,15,17,19,18,20,22,21,23,25,24,26,28,27,29,31,30,32,34,33,35,37,36,38,40,39,41,43,42,44,46,45,47,49,48,50,52,51,53,55,54,56,58,57,59,61,60,62,64,63,65,67,66,68,70,69,71,73,72,74,76,75,77,79,78,80,82,81,83,85,84,86,88,87,89,91,90,92,94,93,95,97,96,98,100,99,101,103,102,104,106,105,107,109,108,110,112,111,113,115,114,116,118,117,119,121,120,122,124,123,125,127,126,128,130,129,131,133,132]},"restBends":{"serializedContents":[0.0,0.0,0.0,0.0,0.0,0.0,0.0,0.0,0.0,0.0,0.0,0.0,0.0,0.0,0.0,0.0,0.0,0.0,0.0,0.0,0.0,0.0,0.0,0.0,0.0,0.0,0.0,0.0,0.0,0.0,0.0,0.0,0.0,0.0,0.0,0.0,0.0,0.0,0.0,0.0,0.0,0.0,0.0,0.0]},"bendingStiffnesses":{"serializedContents":[{"x":0.0,"y":0.0},{"x":0.0,"y":0.0},{"x":0.0,"y":0.0},{"x":0.0,"y":0.0},{"x":0.0,"y":0.0},{"x":0.0,"y":0.0},{"x":0.0,"y":0.0},{"x":0.0,"y":0.0},{"x":0.0,"y":0.0},{"x":0.0,"y":0.0},{"x":0.0,"y":0.0},{"x":0.0,"y":0.0},{"x":0.0,"y":0.0},{"x":0.0,"y":0.0},{"x":0.0,"y":0.0},{"x":0.0,"y":0.0},{"x":0.0,"y":0.0},{"x":0.0,"y":0.0},{"x":0.0,"y":0.0},{"x":0.0,"y":0.0},{"x":0.0,"y":0.0},{"x":0.0,"y":0.0},{"x":0.0,"y":0.0},{"x":0.0,"y":0.0},{"x":0.0,"y":0.0},{"x":0.0,"y":0.0},{"x":0.0,"y":0.0},{"x":0.0,"y":0.0},{"x":0.0,"y":0.0},{"x":0.0,"y":0.0},{"x":0.0,"y":0.0},{"x":0.0,"y":0.0},{"x":0.0,"y":0.0},{"x":0.0,"y":0.0},{"x":0.0,"y":0.0},{"x":0.0,"y":0.0},{"x":0.0,"y":0.0},{"x":0.0,"y":0.0},{"x":0.0,"y":0.0},{"x":0.0,"y":0.0},{"x":0.0,"y":0.0},{"x":0.0,"y":0.0},{"x":0.0,"y":0.0},{"x":0.0,"y":0.0}]}}]},"pinConstraintsData":{"batches":[{"m_IDs":[],"m_IDToIndex":[],"m_ConstraintCount":0,"m_ActiveConstraintCount":0,"m_InitialActiveConstraintCount":0,"particleIndices":{"serializedContents":[]},"offsets":{"serializedContents":[]},"restDarbouxVectors":{"serializedContents":[]},"stiffnesses":{"serializedContents":[]},"breakThresholds":{"serializedContents":[]},"constraintForces":[]}]},"skinConstraintsData":{"batches":[]},"tetherConstraintsData":{"batches":[]},"stretchShearConstraintsData":{"batches":[]},"bendTwistConstraintsData":{"batches":[]},"shapeMatchingConstraintsData":{"batches":[]},"aerodynamicConstraintsData":{"batches":[]},"chainConstraintsData":{"batches":[]},"volumeConstraintsData":{"batches":[]},"groups":[{"instanceID":0},{"instanceID":0}],"path":{"m_Names":["A","B"],"m_Points":{"data":[{"tangentMode":0,"inTangent":{"x":-0.25,"y":0.0,"z":0.0},"position":{"x":-2.4457621574401857,"y":0.0,"z":0.0},"outTangent":{"x":1.348852515220642,"y":0.0,"z":0.0}},{"tangentMode":2,"inTangent":{"x":-1.1402534246444703,"y":0.0,"z":0.04930230602622032},"position":{"x":1.7911680936813355,"y":0.0,"z":0.0},"outTangent":{"x":0.24976660311222077,"y":0.0,"z":-0.010799415409564972}}]},"m_Normals":{"data":[{"x":0.0,"y":1.0,"z":0.0},{"x":0.0,"y":1.0,"z":0.0}]},"m_Colors":{"data":[{"r":1.0,"g":1.0,"b":1.0,"a":1.0},{"r":1.0,"g":1.0,"b":1.0,"a":1.0}]},"m_Thickness":{"data":[1.0,1.0]},"m_Masses":{"data":[0.10000000149011612,0.10000000149011612]},"m_RotationalMasses":{"data":[1.0,1.0]},"m_Phases":{"data":[1,1]},"m_Closed":false,"m_ArcLengthTable":[0.0,0.195298969745636,0.39537572860717776,0.5995790362358093,0.8072569370269775,1.0177570581436158,1.2304266691207886,1.4446126222610474,1.659661889076233,1.874921441078186,2.089738130569458,2.303459644317627,2.5154330730438234,2.7250068187713625,2.9315295219421388,3.1343507766723635,3.3328213691711427,3.5262932777404787,3.714120388031006,3.8956587314605715,4.0702667236328129,4.237307548522949],"m_TotalSplineLenght":4.237307548522949,"OnPathChanged":{"m_PersistentCalls":{"m_Calls":[]}},"OnControlPointAdded":{"m_PersistentCalls":{"m_Calls":[]}},"OnControlPointRemoved":{"m_PersistentCalls":{"m_Calls":[]}},"OnControlPointRenamed":{"m_PersistentCalls":{"m_Calls":[]}}},"thickness":0.125,"resolution":1.0,"m_InterParticleDistance":0.12462669610977173,"totalParticles":135,"m_RestLength":16.69999885559082,"restLengths":[0.12404090911149979,0.12476882338523865,0.12486094236373902,0.12436109781265259,0.1249392181634903,0.12447194010019303,0.12467276304960251,0.12479085475206375,0.12450309842824936,0.12481339275836945,0.1245402991771698,0.12470346689224243,0.12464523315429688,0.12467289716005326,0.12461824715137482,0.12472038716077805,0.12460867315530777,0.12469670176506043,0.1246931180357933,0.12451568245887757,0.12486275285482407,0.12440933287143707,0.12487296760082245,0.12467047572135925,0.12438610196113587,0.1250370740890503,0.12440754473209381,0.12467795610427857,0.12495417892932892,0.12426848709583283,0.12473028898239136,0.12504294514656068,0.12446446716785431,0.12388423085212708,0.12462669610977173,0.12462669610977173,0.12462669610977173,0.12462669610977173,0.12462669610977173,0.12462669610977173,0.12462669610977173,0.12462669610977173,0.12462669610977173,0.12462669610977173,0.12462669610977173,0.12462669610977173,0.12462669610977173,0.12462669610977173,0.12462669610977173,0.12462669610977173,0.12462669610977173,0.12462669610977173,0.12462669610977173,0.12462669610977173,0.12462669610977173,0.12462669610977173,0.12462669610977173,0.12462669610977173,0.12462669610977173,0.12462669610977173,0.12462669610977173,0.12462669610977173,0.12462669610977173,0.12462669610977173,0.12462669610977173,0.12462669610977173,0.12462669610977173,0.12462669610977173,0.12462669610977173,0.12462669610977173,0.12462669610977173,0.12462669610977173,0.12462669610977173,0.12462669610977173,0.12462669610977173,0.12462669610977173,0.12462669610977173,0.12462669610977173,0.12462669610977173,0.12462669610977173,0.12462669610977173,0.12462669610977173,0.12462669610977173,0.12462669610977173,0.12462669610977173,0.12462669610977173,0.12462669610977173,0.12462669610977173,0.12462669610977173,0.12462669610977173,0.12462669610977173,0.12462669610977173,0.12462669610977173,0.12462669610977173,0.12462669610977173,0.12462669610977173,0.12462669610977173,0.12462669610977173,0.12462669610977173,0.12462669610977173,0.12462669610977173,0.12462669610977173,0.12462669610977173,0.12462669610977173,0.12462669610977173,0.12462669610977173,0.12462669610977173,0.12462669610977173,0.12462669610977173,0.12462669610977173,0.12462669610977173,0.12462669610977173,0.12462669610977173,0.12462669610977173,0.12462669610977173,0.12462669610977173,0.12462669610977173,0.12462669610977173,0.12462669610977173,0.12462669610977173,0.12462669610977173,0.12462669610977173,0.12462669610977173,0.12462669610977173,0.12462669610977173,0.12462669610977173,0.12462669610977173,0.12462669610977173,0.12462669610977173,0.12462669610977173,0.12462669610977173,0.12462669610977173,0.12462669610977173,0.12462669610977173,0.0],"pooledParticles":100}|{"m_Empty":false,"m_ActiveParticleCount":38,"m_InitialActiveParticleCount":38,"_bounds":{"m_Center":{"x":-0.29398059844970705,"y":0.16153979301452638,"z":-0.6581498384475708},"m_Extent":{"x":2.261359214782715,"y":0.16153979301452638,"z":0.6581498384475708}},"positions":[{"x":0.02120397984981537,"y":0.114500030875206,"z":-4.145951747894287},{"x":0.03774595260620117,"y":0.16600026190280915,"z":-4.002947807312012},{"x":0.054496556520462039,"y":0.180872842669487,"z":-3.8535804748535158},{"x":0.07067598402500153,"y":0.1706906110048294,"z":-3.702989101409912},{"x":0.08797605335712433,"y":0.16600029170513154,"z":-3.5492749214172365},{"x":0.10496695339679718,"y":0.16600026190280915,"z":-3.399888515472412},{"x":0.12066657096147537,"y":0.16600026190280915,"z":-3.2488975524902345},{"x":0.13445118069648744,"y":0.16600026190280915,"z":-3.0982728004455568},{"x":0.14616137742996217,"y":0.16600026190280915,"z":-2.9478466510772707},{"x":0.15742334723472596,"y":0.16600026190280915,"z":-2.798452377319336},{"x":0.167504221200943,"y":0.16600023210048676,"z":-2.647958278656006},{"x":0.17642220854759217,"y":0.16600023210048676,"z":-2.5001578330993654},{"x":0.18501465022563935,"y":0.16600026190280915,"z":-2.3502371311187746},{"x":0.1910213977098465,"y":0.16600023210048676,"z":-2.2032625675201418},{"x":0.19862481951713563,"y":0.16600023210048676,"z":-2.054086923599243},{"x":0.21842756867408753,"y":0.16600026190280915,"z":-1.9009939432144166},{"x":0.23973482847213746,"y":0.16600026190280915,"z":-1.7542914152145386},{"x":0.2578590214252472,"y":0.16600026190280915,"z":-1.605821967124939},{"x":0.27635759115219118,"y":0.16600026190280915,"z":-1.458930492401123},{"x":0.29140427708625796,"y":0.16600026190280915,"z":-1.311631441116333},{"x":0.3091059923171997,"y":0.16600026190280915,"z":-1.1651462316513062},{"x":0.3277975916862488,"y":0.16600026190280915,"z":-1.0187904834747315},{"x":0.34596899151802065,"y":0.16600026190280915,"z":-0.8732680082321167},{"x":0.36640477180480959,"y":0.16600026190280915,"z":-0.7262333631515503},{"x":0.38952410221099856,"y":0.16600026190280915,"z":-0.5817190408706665},{"x":0.41523975133895876,"y":0.16600026190280915,"z":-0.43696853518486025},{"x":0.44356417655944826,"y":0.16600023210048676,"z":-0.2925693690776825},{"x":0.47164443135261538,"y":0.16600023210048676,"z":-0.1495799720287323},{"x":0.4977372884750366,"y":0.16600023210048676,"z":-0.0033623576164245607},{"x":0.5233005881309509,"y":0.16600026190280915,"z":0.1380024254322052},{"x":0.5508751273155212,"y":0.16600026190280915,"z":0.28533071279525759},{"x":0.5780091881752014,"y":0.16600026190280915,"z":0.4269581437110901},{"x":0.6064558029174805,"y":0.16600026190280915,"z":0.5740554928779602},{"x":0.6342332363128662,"y":0.16600020229816438,"z":0.7148428559303284},{"x":0.6632921099662781,"y":0.17042361199855805,"z":0.8603598475456238},{"x":0.691615104675293,"y":0.18132539093494416,"z":1.0045228004455567},{"x":0.7198233604431152,"y":0.16600026190280915,"z":1.1451421976089478},{"x":0.7466796636581421,"y":0.114500030875206,"z":1.2776421308517457},{"x":0.47999998927116396,"y":0.0,"z":0.0},{"x":0.47999998927116396,"y":0.0,"z":0.0},{"x":0.47999998927116396,"y":0.0,"z":0.0},{"x":0.47999998927116396,"y":0.0,"z":0.0},{"x":0.47999998927116396,"y":0.0,"z":0.0},{"x":0.47999998927116396,"y":0.0,"z":0.0},{"x":0.47999998927116396,"y":0.0,"z":0.0},{"x":0.47999998927116396,"y":0.0,"z":0.0},{"x":0.47999998927116396,"y":0.0,"z":0.0},{"x":0.47999998927116396,"y":0.0,"z":0.0},{"x":0.47999998927116396,"y":0.0,"z":0.0},{"x":0.47999998927116396,"y":0.0,"z":0.0},{"x":0.47999998927116396,"y":0.0,"z":0.0},{"x":0.47999998927116396,"y":0.0,"z":0.0},{"x":0.47999998927116396,"y":0.0,"z":0.0},{"x":0.47999998927116396,"y":0.0,"z":0.0},{"x":0.47999998927116396,"y":0.0,"z":0.0},{"x":0.47999998927116396,"y":0.0,"z":0.0},{"x":0.47999998927116396,"y":0.0,"z":0.0},{"x":0.47999998927116396,"y":0.0,"z":0.0},{"x":0.47999998927116396,"y":0.0,"z":0.0},{"x":0.47999998927116396,"y":0.0,"z":0.0},{"x":0.47999998927116396,"y":0.0,"z":0.0},{"x":0.47999998927116396,"y":0.0,"z":0.0},{"x":0.47999998927116396,"y":0.0,"z":0.0},{"x":0.47999998927116396,"y":0.0,"z":0.0},{"x":0.47999998927116396,"y":0.0,"z":0.0},{"x":0.47999998927116396,"y":0.0,"z":0.0},{"x":0.47999998927116396,"y":0.0,"z":0.0},{"x":0.47999998927116396,"y":0.0,"z":0.0},{"x":0.47999998927116396,"y":0.0,"z":0.0},{"x":0.47999998927116396,"y":0.0,"z":0.0},{"x":0.47999998927116396,"y":0.0,"z":0.0},{"x":0.47999998927116396,"y":0.0,"z":0.0},{"x":0.47999998927116396,"y":0.0,"z":0.0},{"x":0.47999998927116396,"y":0.0,"z":0.0},{"x":0.47999998927116396,"y":0.0,"z":0.0},{"x":0.47999998927116396,"y":0.0,"z":0.0},{"x":0.47999998927116396,"y":0.0,"z":0.0},{"x":0.47999998927116396,"y":0.0,"z":0.0},{"x":0.47999998927116396,"y":0.0,"z":0.0},{"x":0.47999998927116396,"y":0.0,"z":0.0},{"x":0.47999998927116396,"y":0.0,"z":0.0},{"x":0.47999998927116396,"y":0.0,"z":0.0},{"x":0.47999998927116396,"y":0.0,"z":0.0},{"x":0.47999998927116396,"y":0.0,"z":0.0},{"x":0.47999998927116396,"y":0.0,"z":0.0},{"x":0.47999998927116396,"y":0.0,"z":0.0},{"x":0.47999998927116396,"y":0.0,"z":0.0},{"x":0.47999998927116396,"y":0.0,"z":0.0},{"x":0.47999998927116396,"y":0.0,"z":0.0},{"x":0.47999998927116396,"y":0.0,"z":0.0},{"x":0.47999998927116396,"y":0.0,"z":0.0},{"x":0.47999998927116396,"y":0.0,"z":0.0},{"x":0.47999998927116396,"y":0.0,"z":0.0},{"x":0.47999998927116396,"y":0.0,"z":0.0},{"x":0.47999998927116396,"y":0.0,"z":0.0},{"x":0.47999998927116396,"y":0.0,"z":0.0},{"x":0.47999998927116396,"y":0.0,"z":0.0},{"x":0.47999998927116396,"y":0.0,"z":0.0},{"x":0.47999998927116396,"y":0.0,"z":0.0},{"x":0.47999998927116396,"y":0.0,"z":0.0},{"x":0.47999998927116396,"y":0.0,"z":0.0},{"x":0.47999998927116396,"y":0.0,"z":0.0},{"x":0.47999998927116396,"y":0.0,"z":0.0},{"x":0.47999998927116396,"y":0.0,"z":0.0},{"x":0.47999998927116396,"y":0.0,"z":0.0},{"x":0.47999998927116396,"y":0.0,"z":0.0},{"x":0.47999998927116396,"y":0.0,"z":0.0},{"x":0.47999998927116396,"y":0.0,"z":0.0},{"x":0.47999998927116396,"y":0.0,"z":0.0},{"x":0.47999998927116396,"y":0.0,"z":0.0},{"x":0.47999998927116396,"y":0.0,"z":0.0},{"x":0.47999998927116396,"y":0.0,"z":0.0},{"x":0.47999998927116396,"y":0.0,"z":0.0},{"x":0.47999998927116396,"y":0.0,"z":0.0},{"x":0.47999998927116396,"y":0.0,"z":0.0},{"x":0.47999998927116396,"y":0.0,"z":0.0},{"x":0.47999998927116396,"y":0.0,"z":0.0},{"x":0.47999998927116396,"y":0.0,"z":0.0},{"x":0.47999998927116396,"y":0.0,"z":0.0},{"x":0.47999998927116396,"y":0.0,"z":0.0},{"x":0.47999998927116396,"y":0.0,"z":0.0},{"x":0.47999998927116396,"y":0.0,"z":0.0},{"x":0.47999998927116396,"y":0.0,"z":0.0},{"x":0.47999998927116396,"y":0.0,"z":0.0},{"x":0.47999998927116396,"y":0.0,"z":0.0},{"x":0.47999998927116396,"y":0.0,"z":0.0},{"x":0.47999998927116396,"y":0.0,"z":0.0},{"x":0.47999998927116396,"y":0.0,"z":0.0},{"x":0.47999998927116396,"y":0.0,"z":0.0},{"x":0.47999998927116396,"y":0.0,"z":0.0},{"x":0.47999998927116396,"y":0.0,"z":0.0},{"x":0.47999998927116396,"y":0.0,"z":0.0},{"x":0.47999998927116396,"y":0.0,"z":0.0},{"x":0.47999998927116396,"y":0.0,"z":0.0},{"x":0.47999998927116396,"y":0.0,"z":0.0},{"x":0.47999998927116396,"y":0.0,"z":0.0},{"x":0.47999998927116396,"y":0.0,"z":0.0},{"x":0.47999998927116396,"y":0.0,"z":0.0}],"restPositions":[{"x":-2.555339813232422,"y":0.30129528045654299,"z":-1.2823047637939454,"w":1.0},{"x":-2.437030792236328,"y":0.3017166554927826,"z":-1.2912490367889405,"w":1.0},{"x":-2.315223217010498,"y":0.30223384499549868,"z":-1.2951785326004029,"w":1.0},{"x":-2.1937432289123537,"y":0.30276787281036379,"z":-1.2979720830917359,"w":1.0},{"x":-2.0689151287078859,"y":0.3033267557621002,"z":-1.3002384901046754,"w":1.0},{"x":-1.9478195905685425,"y":0.30387526750564577,"z":-1.3020628690719605,"w":1.0},{"x":-1.8249938488006592,"y":0.3044363856315613,"z":-1.3036457300186158,"w":1.0},{"x":-1.7025344371795655,"y":0.30499958992004397,"z":-1.3050200939178467,"w":1.0},{"x":-1.5799254179000855,"y":0.30556660890579226,"z":-1.3062344789505005,"w":1.0},{"x":-1.4578752517700196,"y":0.30613359808921816,"z":-1.3073111772537232,"w":1.0},{"x":-1.3344929218292237,"y":0.3067091405391693,"z":-1.3082873821258546,"w":1.0},{"x":-1.213132619857788,"y":0.3072773516178131,"z":-1.3091533184051514,"w":1.0},{"x":-1.0889627933502198,"y":0.30786070227622988,"z":-1.3099552392959595,"w":1.0},{"x":-0.9680284857749939,"y":0.308430552482605,"z":-1.3106638193130494,"w":1.0},{"x":-0.8451760411262512,"y":0.30901119112968447,"z":-1.3113188743591309,"w":1.0},{"x":-0.7227247953414917,"y":0.3095915913581848,"z":-1.3119133710861207,"w":1.0},{"x":-0.6005764603614807,"y":0.31017208099365237,"z":-1.3124531507492066,"w":1.0},{"x":-0.4776839017868042,"y":0.31075769662857058,"z":-1.3129478693008423,"w":1.0},{"x":-0.35551121830940249,"y":0.31134137511253359,"z":-1.3133949041366578,"w":1.0},{"x":-0.23317155241966248,"y":0.3119274377822876,"z":-1.313801646232605,"w":1.0},{"x":-0.1105814129114151,"y":0.3125162720680237,"z":-1.3141709566116334,"w":1.0},{"x":0.01190622616559267,"y":0.3131062388420105,"z":-1.3145041465759278,"w":1.0},{"x":0.1335977017879486,"y":0.3136940002441406,"z":-1.3148019313812256,"w":1.0},{"x":0.2569970190525055,"y":0.3142918050289154,"z":-1.315071940422058,"w":1.0},{"x":0.37888917326927187,"y":0.31488412618637087,"z":-1.315308928489685,"w":1.0},{"x":0.5016072392463684,"y":0.3154824674129486,"z":-1.315519094467163,"w":1.0},{"x":0.6243343353271484,"y":0.31608298420906069,"z":-1.3157020807266236,"w":1.0},{"x":0.7455258369445801,"y":0.31667831540107729,"z":-1.315857172012329,"w":1.0},{"x":0.8696197867393494,"y":0.3172905743122101,"z":-1.315990686416626,"w":1.0},{"x":0.9896140694618225,"y":0.31788551807403567,"z":-1.316096305847168,"w":1.0},{"x":1.1147502660751343,"y":0.3185095191001892,"z":-1.3161824941635132,"w":1.0},{"x":1.2344218492507935,"y":0.31911030411720278,"z":-1.3162426948547364,"w":1.0},{"x":1.3599278926849366,"y":0.31974560022354128,"z":-1.316282868385315,"w":1.0},{"x":1.4794461727142335,"y":0.32035699486732485,"z":-1.3162996768951417,"w":1.0},{"x":1.6042826175689698,"y":0.32100483775138857,"z":-1.3162951469421387,"w":1.0},{"x":1.7279413938522339,"y":0.3216607868671417,"z":-1.3162685632705689,"w":1.0},{"x":1.8505874872207642,"y":0.32233789563179018,"z":-1.3162211179733277,"w":1.0},{"x":1.967378854751587,"y":0.32307958602905276,"z":-1.316169261932373,"w":1.0},{"x":0.0,"y":0.0,"z":0.0,"w":0.0},{"x":0.0,"y":0.0,"z":0.0,"w":0.0},{"x":0.0,"y":0.0,"z":0.0,"w":0.0},{"x":0.0,"y":0.0,"z":0.0,"w":0.0},{"x":0.0,"y":0.0,"z":0.0,"w":0.0},{"x":0.0,"y":0.0,"z":0.0,"w":0.0},{"x":0.0,"y":0.0,"z":0.0,"w":0.0},{"x":0.0,"y":0.0,"z":0.0,"w":0.0},{"x":0.0,"y":0.0,"z":0.0,"w":0.0},{"x":0.0,"y":0.0,"z":0.0,"w":0.0},{"x":0.0,"y":0.0,"z":0.0,"w":0.0},{"x":0.0,"y":0.0,"z":0.0,"w":0.0},{"x":0.0,"y":0.0,"z":0.0,"w":0.0},{"x":0.0,"y":0.0,"z":0.0,"w":0.0},{"x":0.0,"y":0.0,"z":0.0,"w":0.0},{"x":0.0,"y":0.0,"z":0.0,"w":0.0},{"x":0.0,"y":0.0,"z":0.0,"w":0.0},{"x":0.0,"y":0.0,"z":0.0,"w":0.0},{"x":0.0,"y":0.0,"z":0.0,"w":0.0},{"x":0.0,"y":0.0,"z":0.0,"w":0.0},{"x":0.0,"y":0.0,"z":0.0,"w":0.0},{"x":0.0,"y":0.0,"z":0.0,"w":0.0},{"x":0.0,"y":0.0,"z":0.0,"w":0.0},{"x":0.0,"y":0.0,"z":0.0,"w":0.0},{"x":0.0,"y":0.0,"z":0.0,"w":0.0},{"x":0.0,"y":0.0,"z":0.0,"w":0.0},{"x":0.0,"y":0.0,"z":0.0,"w":0.0},{"x":0.0,"y":0.0,"z":0.0,"w":0.0},{"x":0.0,"y":0.0,"z":0.0,"w":0.0},{"x":0.0,"y":0.0,"z":0.0,"w":0.0},{"x":0.0,"y":0.0,"z":0.0,"w":0.0},{"x":0.0,"y":0.0,"z":0.0,"w":0.0},{"x":0.0,"y":0.0,"z":0.0,"w":0.0},{"x":0.0,"y":0.0,"z":0.0,"w":0.0},{"x":0.0,"y":0.0,"z":0.0,"w":0.0},{"x":0.0,"y":0.0,"z":0.0,"w":0.0},{"x":0.0,"y":0.0,"z":0.0,"w":0.0},{"x":0.0,"y":0.0,"z":0.0,"w":0.0},{"x":0.0,"y":0.0,"z":0.0,"w":0.0},{"x":0.0,"y":0.0,"z":0.0,"w":0.0},{"x":0.0,"y":0.0,"z":0.0,"w":0.0},{"x":0.0,"y":0.0,"z":0.0,"w":0.0},{"x":0.0,"y":0.0,"z":0.0,"w":0.0},{"x":0.0,"y":0.0,"z":0.0,"w":0.0},{"x":0.0,"y":0.0,"z":0.0,"w":0.0},{"x":0.0,"y":0.0,"z":0.0,"w":0.0},{"x":0.0,"y":0.0,"z":0.0,"w":0.0},{"x":0.0,"y":0.0,"z":0.0,"w":0.0},{"x":0.0,"y":0.0,"z":0.0,"w":0.0},{"x":0.0,"y":0.0,"z":0.0,"w":0.0},{"x":0.0,"y":0.0,"z":0.0,"w":0.0},{"x":0.0,"y":0.0,"z":0.0,"w":0.0},{"x":0.0,"y":0.0,"z":0.0,"w":0.0},{"x":0.0,"y":0.0,"z":0.0,"w":0.0},{"x":0.0,"y":0.0,"z":0.0,"w":0.0},{"x":0.0,"y":0.0,"z":0.0,"w":0.0},{"x":0.0,"y":0.0,"z":0.0,"w":0.0},{"x":0.0,"y":0.0,"z":0.0,"w":0.0},{"x":0.0,"y":0.0,"z":0.0,"w":0.0},{"x":0.0,"y":0.0,"z":0.0,"w":0.0},{"x":0.0,"y":0.0,"z":0.0,"w":0.0},{"x":0.0,"y":0.0,"z":0.0,"w":0.0},{"x":0.0,"y":0.0,"z":0.0,"w":0.0},{"x":0.0,"y":0.0,"z":0.0,"w":0.0},{"x":0.0,"y":0.0,"z":0.0,"w":0.0},{"x":0.0,"y":0.0,"z":0.0,"w":0.0},{"x":0.0,"y":0.0,"z":0.0,"w":0.0},{"x":0.0,"y":0.0,"z":0.0,"w":0.0},{"x":0.0,"y":0.0,"z":0.0,"w":0.0},{"x":0.0,"y":0.0,"z":0.0,"w":0.0},{"x":0.0,"y":0.0,"z":0.0,"w":0.0},{"x":0.0,"y":0.0,"z":0.0,"w":0.0},{"x":0.0,"y":0.0,"z":0.0,"w":0.0},{"x":0.0,"y":0.0,"z":0.0,"w":0.0},{"x":0.0,"y":0.0,"z":0.0,"w":0.0},{"x":0.0,"y":0.0,"z":0.0,"w":0.0},{"x":0.0,"y":0.0,"z":0.0,"w":0.0},{"x":0.0,"y":0.0,"z":0.0,"w":0.0},{"x":0.0,"y":0.0,"z":0.0,"w":0.0},{"x":0.0,"y":0.0,"z":0.0,"w":0.0},{"x":0.0,"y":0.0,"z":0.0,"w":0.0},{"x":0.0,"y":0.0,"z":0.0,"w":0.0},{"x":0.0,"y":0.0,"z":0.0,"w":0.0},{"x":0.0,"y":0.0,"z":0.0,"w":0.0},{"x":0.0,"y":0.0,"z":0.0,"w":0.0},{"x":0.0,"y":0.0,"z":0.0,"w":0.0},{"x":0.0,"y":0.0,"z":0.0,"w":0.0},{"x":0.0,"y":0.0,"z":0.0,"w":0.0},{"x":0.0,"y":0.0,"z":0.0,"w":0.0},{"x":0.0,"y":0.0,"z":0.0,"w":0.0},{"x":0.0,"y":0.0,"z":0.0,"w":0.0},{"x":0.0,"y":0.0,"z":0.0,"w":0.0},{"x":0.0,"y":0.0,"z":0.0,"w":0.0},{"x":0.0,"y":0.0,"z":0.0,"w":0.0},{"x":0.0,"y":0.0,"z":0.0,"w":0.0},{"x":0.0,"y":0.0,"z":0.0,"w":0.0},{"x":0.0,"y":0.0,"z":0.0,"w":0.0},{"x":0.0,"y":0.0,"z":0.0,"w":0.0},{"x":0.0,"y":0.0,"z":0.0,"w":0.0},{"x":0.0,"y":0.0,"z":0.0,"w":0.0}],"orientations":[],"restOrientations":[],"velocities":[{"x":0.0,"y":0.0,"z":0.0},{"x":0.0,"y":0.0,"z":0.0},{"x":0.0,"y":0.0,"z":0.0},{"x":0.0,"y":0.0,"z":0.0},{"x":0.0,"y":0.0,"z":0.0},{"x":0.0,"y":0.0,"z":0.0},{"x":0.0,"y":0.0,"z":0.0},{"x":0.0,"y":0.0,"z":0.0},{"x":0.0,"y":0.0,"z":0.0},{"x":0.0,"y":0.0,"z":0.0},{"x":0.0,"y":0.0,"z":0.0},{"x":0.0,"y":0.0,"z":0.0},{"x":0.0,"y":0.0,"z":0.0},{"x":0.0,"y":0.0,"z":0.0},{"x":0.0,"y":0.0,"z":0.0},{"x":0.0,"y":0.0,"z":0.0},{"x":0.0,"y":0.0,"z":0.0},{"x":0.0,"y":0.0,"z":0.0},{"x":0.0,"y":0.0,"z":0.0},{"x":0.0,"y":0.0,"z":0.0},{"x":0.0,"y":0.0,"z":0.0},{"x":0.0,"y":0.0,"z":0.0},{"x":0.0,"y":0.0,"z":0.0},{"x":0.0,"y":0.0,"z":0.0},{"x":0.0,"y":0.0,"z":0.0},{"x":0.0,"y":0.0,"z":0.0},{"x":0.0,"y":0.0,"z":0.0},{"x":0.0,"y":0.0,"z":0.0},{"x":0.0,"y":0.0,"z":0.0},{"x":0.0,"y":0.0,"z":0.0},{"x":0.0,"y":0.0,"z":0.0},{"x":0.0,"y":0.0,"z":0.0},{"x":0.0,"y":0.0,"z":0.0},{"x":0.0,"y":0.0,"z":0.0},{"x":0.0,"y":0.0,"z":0.0},{"x":0.0,"y":0.0,"z":0.0},{"x":0.0,"y":0.0,"z":0.0},{"x":0.0,"y":0.0,"z":0.0},{"x":0.0,"y":0.0,"z":0.0},{"x":0.0,"y":0.0,"z":0.0},{"x":0.0,"y":0.0,"z":0.0},{"x":0.0,"y":0.0,"z":0.0},{"x":0.0,"y":0.0,"z":0.0},{"x":0.0,"y":0.0,"z":0.0},{"x":0.0,"y":0.0,"z":0.0},{"x":0.0,"y":0.0,"z":0.0},{"x":0.0,"y":0.0,"z":0.0},{"x":0.0,"y":0.0,"z":0.0},{"x":0.0,"y":0.0,"z":0.0},{"x":0.0,"y":0.0,"z":0.0},{"x":0.0,"y":0.0,"z":0.0},{"x":0.0,"y":0.0,"z":0.0},{"x":0.0,"y":0.0,"z":0.0},{"x":0.0,"y":0.0,"z":0.0},{"x":0.0,"y":0.0,"z":0.0},{"x":0.0,"y":0.0,"z":0.0},{"x":0.0,"y":0.0,"z":0.0},{"x":0.0,"y":0.0,"z":0.0},{"x":0.0,"y":0.0,"z":0.0},{"x":0.0,"y":0.0,"z":0.0},{"x":0.0,"y":0.0,"z":0.0},{"x":0.0,"y":0.0,"z":0.0},{"x":0.0,"y":0.0,"z":0.0},{"x":0.0,"y":0.0,"z":0.0},{"x":0.0,"y":0.0,"z":0.0},{"x":0.0,"y":0.0,"z":0.0},{"x":0.0,"y":0.0,"z":0.0},{"x":0.0,"y":0.0,"z":0.0},{"x":0.0,"y":0.0,"z":0.0},{"x":0.0,"y":0.0,"z":0.0},{"x":0.0,"y":0.0,"z":0.0},{"x":0.0,"y":0.0,"z":0.0},{"x":0.0,"y":0.0,"z":0.0},{"x":0.0,"y":0.0,"z":0.0},{"x":0.0,"y":0.0,"z":0.0},{"x":0.0,"y":0.0,"z":0.0},{"x":0.0,"y":0.0,"z":0.0},{"x":0.0,"y":0.0,"z":0.0},{"x":0.0,"y":0.0,"z":0.0},{"x":0.0,"y":0.0,"z":0.0},{"x":0.0,"y":0.0,"z":0.0},{"x":0.0,"y":0.0,"z":0.0},{"x":0.0,"y":0.0,"z":0.0},{"x":0.0,"y":0.0,"z":0.0},{"x":0.0,"y":0.0,"z":0.0},{"x":0.0,"y":0.0,"z":0.0},{"x":0.0,"y":0.0,"z":0.0},{"x":0.0,"y":0.0,"z":0.0},{"x":0.0,"y":0.0,"z":0.0},{"x":0.0,"y":0.0,"z":0.0},{"x":0.0,"y":0.0,"z":0.0},{"x":0.0,"y":0.0,"z":0.0},{"x":0.0,"y":0.0,"z":0.0},{"x":0.0,"y":0.0,"z":0.0},{"x":0.0,"y":0.0,"z":0.0},{"x":0.0,"y":0.0,"z":0.0},{"x":0.0,"y":0.0,"z":0.0},{"x":0.0,"y":0.0,"z":0.0},{"x":0.0,"y":0.0,"z":0.0},{"x":0.0,"y":0.0,"z":0.0},{"x":0.0,"y":0.0,"z":0.0},{"x":0.0,"y":0.0,"z":0.0},{"x":0.0,"y":0.0,"z":0.0},{"x":0.0,"y":0.0,"z":0.0},{"x":0.0,"y":0.0,"z":0.0},{"x":0.0,"y":0.0,"z":0.0},{"x":0.0,"y":0.0,"z":0.0},{"x":0.0,"y":0.0,"z":0.0},{"x":0.0,"y":0.0,"z":0.0},{"x":0.0,"y":0.0,"z":0.0},{"x":0.0,"y":0.0,"z":0.0},{"x":0.0,"y":0.0,"z":0.0},{"x":0.0,"y":0.0,"z":0.0},{"x":0.0,"y":0.0,"z":0.0},{"x":0.0,"y":0.0,"z":0.0},{"x":0.0,"y":0.0,"z":0.0},{"x":0.0,"y":0.0,"z":0.0},{"x":0.0,"y":0.0,"z":0.0},{"x":0.0,"y":0.0,"z":0.0},{"x":0.0,"y":0.0,"z":0.0},{"x":0.0,"y":0.0,"z":0.0},{"x":0.0,"y":0.0,"z":0.0},{"x":0.0,"y":0.0,"z":0.0},{"x":0.0,"y":0.0,"z":0.0},{"x":0.0,"y":0.0,"z":0.0},{"x":0.0,"y":0.0,"z":0.0},{"x":0.0,"y":0.0,"z":0.0},{"x":0.0,"y":0.0,"z":0.0},{"x":0.0,"y":0.0,"z":0.0},{"x":0.0,"y":0.0,"z":0.0},{"x":0.0,"y":0.0,"z":0.0},{"x":0.0,"y":0.0,"z":0.0},{"x":0.0,"y":0.0,"z":0.0},{"x":0.0,"y":0.0,"z":0.0},{"x":0.0,"y":0.0,"z":0.0},{"x":0.0,"y":0.0,"z":0.0},{"x":0.0,"y":0.0,"z":0.0},{"x":0.0,"y":0.0,"z":0.0}],"angularVelocities":[],"invMasses":[1.0,9.999999046325684,9.999999046325684,10.000000953674317,9.999999046325684,9.999999046325684,10.0,10.0,9.999999046325684,10.0,10.000000953674317,10.000000953674317,10.0,10.000000953674317,10.000000953674317,9.999999046325684,10.0,9.999999046325684,10.0,10.0,10.0,10.0,10.0,10.0,10.0,10.0,10.0,10.0,10.0,10.0,10.0,10.0,10.0,10.0,10.0,10.0,10.0,10.0,0.0,0.0,0.0,0.0,0.0,0.0,0.0,0.0,0.0,0.0,0.0,0.0,0.0,0.0,0.0,0.0,0.0,0.0,0.0,0.0,0.0,0.0,0.0,0.0,0.0,0.0,0.0,0.0,0.0,0.0,0.0,0.0,0.0,0.0,0.0,0.0,0.0,0.0,0.0,0.0,0.0,0.0,0.0,0.0,0.0,0.0,0.0,0.0,0.0,0.0,0.0,0.0,0.0,0.0,0.0,0.0,0.0,0.0,0.0,0.0,0.0,0.0,0.0,0.0,0.0,0.0,0.0,0.0,0.0,0.0,0.0,0.0,0.0,0.0,0.0,0.0,0.0,0.0,0.0,0.0,0.0,0.0,0.0,0.0,0.0,0.0,0.0,0.0,0.0,0.0,0.0,0.0,0.0,0.0,0.0,0.0,0.0,0.0,0.0,0.0],"invRotationalMasses":[],"phases":[1,1,1,1,1,1,1,1,1,1,1,1,1,1,1,1,1,1,1,1,1,1,1,1,1,1,1,1,1,1,1,1,1,1,1,1,1,1,0,0,0,0,0,0,0,0,0,0,0,0,0,0,0,0,0,0,0,0,0,0,0,0,0,0,0,0,0,0,0,0,0,0,0,0,0,0,0,0,0,0,0,0,0,0,0,0,0,0,0,0,0,0,0,0,0,0,0,0,0,0,0,0,0,0,0,0,0,0,0,0,0,0,0,0,0,0,0,0,0,0,0,0,0,0,0,0,0,0,0,0,0,0,0,0,0,0,0,0],"principalRadii":[{"x":0.125,"y":0.125,"z":0.125},{"x":0.125,"y":0.125,"z":0.125},{"x":0.1250000149011612,"y":0.1250000149011612,"z":0.1250000149011612},{"x":0.1249999925494194,"y":0.1249999925494194,"z":0.1249999925494194},{"x":0.1250000149011612,"y":0.1250000149011612,"z":0.1250000149011612},{"x":0.125,"y":0.125,"z":0.125},{"x":0.125,"y":0.125,"z":0.125},{"x":0.125,"y":0.125,"z":0.125},{"x":0.1250000149011612,"y":0.1250000149011612,"z":0.1250000149011612},{"x":0.125,"y":0.125,"z":0.125},{"x":0.1249999925494194,"y":0.1249999925494194,"z":0.1249999925494194},{"x":0.1249999925494194,"y":0.1249999925494194,"z":0.1249999925494194},{"x":0.125,"y":0.125,"z":0.125},{"x":0.1249999925494194,"y":0.1249999925494194,"z":0.1249999925494194},{"x":0.1249999925494194,"y":0.1249999925494194,"z":0.1249999925494194},{"x":0.1250000149011612,"y":0.1250000149011612,"z":0.1250000149011612},{"x":0.125,"y":0.125,"z":0.125},{"x":0.1250000149011612,"y":0.1250000149011612,"z":0.1250000149011612},{"x":0.125,"y":0.125,"z":0.125},{"x":0.125,"y":0.125,"z":0.125},{"x":0.125,"y":0.125,"z":0.125},{"x":0.125,"y":0.125,"z":0.125},{"x":0.125,"y":0.125,"z":0.125},{"x":0.125,"y":0.125,"z":0.125},{"x":0.125,"y":0.125,"z":0.125},{"x":0.125,"y":0.125,"z":0.125},{"x":0.125,"y":0.125,"z":0.125},{"x":0.125,"y":0.125,"z":0.125},{"x":0.125,"y":0.125,"z":0.125},{"x":0.125,"y":0.125,"z":0.125},{"x":0.125,"y":0.125,"z":0.125},{"x":0.125,"y":0.125,"z":0.125},{"x":0.125,"y":0.125,"z":0.125},{"x":0.125,"y":0.125,"z":0.125},{"x":0.125,"y":0.125,"z":0.125},{"x":0.125,"y":0.125,"z":0.125},{"x":0.125,"y":0.125,"z":0.125},{"x":0.125,"y":0.125,"z":0.125},{"x":0.0,"y":0.0,"z":0.0},{"x":0.0,"y":0.0,"z":0.0},{"x":0.0,"y":0.0,"z":0.0},{"x":0.0,"y":0.0,"z":0.0},{"x":0.0,"y":0.0,"z":0.0},{"x":0.0,"y":0.0,"z":0.0},{"x":0.0,"y":0.0,"z":0.0},{"x":0.0,"y":0.0,"z":0.0},{"x":0.0,"y":0.0,"z":0.0},{"x":0.0,"y":0.0,"z":0.0},{"x":0.0,"y":0.0,"z":0.0},{"x":0.0,"y":0.0,"z":0.0},{"x":0.0,"y":0.0,"z":0.0},{"x":0.0,"y":0.0,"z":0.0},{"x":0.0,"y":0.0,"z":0.0},{"x":0.0,"y":0.0,"z":0.0},{"x":0.0,"y":0.0,"z":0.0},{"x":0.0,"y":0.0,"z":0.0},{"x":0.0,"y":0.0,"z":0.0},{"x":0.0,"y":0.0,"z":0.0},{"x":0.0,"y":0.0,"z":0.0},{"x":0.0,"y":0.0,"z":0.0},{"x":0.0,"y":0.0,"z":0.0},{"x":0.0,"y":0.0,"z":0.0},{"x":0.0,"y":0.0,"z":0.0},{"x":0.0,"y":0.0,"z":0.0},{"x":0.0,"y":0.0,"z":0.0},{"x":0.0,"y":0.0,"z":0.0},{"x":0.0,"y":0.0,"z":0.0},{"x":0.0,"y":0.0,"z":0.0},{"x":0.0,"y":0.0,"z":0.0},{"x":0.0,"y":0.0,"z":0.0},{"x":0.0,"y":0.0,"z":0.0},{"x":0.0,"y":0.0,"z":0.0},{"x":0.0,"y":0.0,"z":0.0},{"x":0.0,"y":0.0,"z":0.0},{"x":0.0,"y":0.0,"z":0.0},{"x":0.0,"y":0.0,"z":0.0},{"x":0.0,"y":0.0,"z":0.0},{"x":0.0,"y":0.0,"z":0.0},{"x":0.0,"y":0.0,"z":0.0},{"x":0.0,"y":0.0,"z":0.0},{"x":0.0,"y":0.0,"z":0.0},{"x":0.0,"y":0.0,"z":0.0},{"x":0.0,"y":0.0,"z":0.0},{"x":0.0,"y":0.0,"z":0.0},{"x":0.0,"y":0.0,"z":0.0},{"x":0.0,"y":0.0,"z":0.0},{"x":0.0,"y":0.0,"z":0.0},{"x":0.0,"y":0.0,"z":0.0},{"x":0.0,"y":0.0,"z":0.0},{"x":0.0,"y":0.0,"z":0.0},{"x":0.0,"y":0.0,"z":0.0},{"x":0.0,"y":0.0,"z":0.0},{"x":0.0,"y":0.0,"z":0.0},{"x":0.0,"y":0.0,"z":0.0},{"x":0.0,"y":0.0,"z":0.0},{"x":0.0,"y":0.0,"z":0.0},{"x":0.0,"y":0.0,"z":0.0},{"x":0.0,"y":0.0,"z":0.0},{"x":0.0,"y":0.0,"z":0.0},{"x":0.0,"y":0.0,"z":0.0},{"x":0.0,"y":0.0,"z":0.0},{"x":0.0,"y":0.0,"z":0.0},{"x":0.0,"y":0.0,"z":0.0},{"x":0.0,"y":0.0,"z":0.0},{"x":0.0,"y":0.0,"z":0.0},{"x":0.0,"y":0.0,"z":0.0},{"x":0.0,"y":0.0,"z":0.0},{"x":0.0,"y":0.0,"z":0.0},{"x":0.0,"y":0.0,"z":0.0},{"x":0.0,"y":0.0,"z":0.0},{"x":0.0,"y":0.0,"z":0.0},{"x":0.0,"y":0.0,"z":0.0},{"x":0.0,"y":0.0,"z":0.0},{"x":0.0,"y":0.0,"z":0.0},{"x":0.0,"y":0.0,"z":0.0},{"x":0.0,"y":0.0,"z":0.0},{"x":0.0,"y":0.0,"z":0.0},{"x":0.0,"y":0.0,"z":0.0},{"x":0.0,"y":0.0,"z":0.0},{"x":0.0,"y":0.0,"z":0.0},{"x":0.0,"y":0.0,"z":0.0},{"x":0.0,"y":0.0,"z":0.0},{"x":0.0,"y":0.0,"z":0.0},{"x":0.0,"y":0.0,"z":0.0},{"x":0.0,"y":0.0,"z":0.0},{"x":0.0,"y":0.0,"z":0.0},{"x":0.0,"y":0.0,"z":0.0},{"x":0.0,"y":0.0,"z":0.0},{"x":0.0,"y":0.0,"z":0.0},{"x":0.0,"y":0.0,"z":0.0},{"x":0.0,"y":0.0,"z":0.0},{"x":0.0,"y":0.0,"z":0.0},{"x":0.0,"y":0.0,"z":0.0},{"x":0.0,"y":0.0,"z":0.0},{"x":0.0,"y":0.0,"z":0.0},{"x":0.0,"y":0.0,"z":0.0},{"x":0.0,"y":0.0,"z":0.0},{"x":0.0,"y":0.0,"z":0.0}],"colors":[{"r":1.0,"g":1.0,"b":1.0,"a":1.0},{"r":1.0,"g":1.0,"b":1.0,"a":1.0},{"r":1.0000001192092896,"g":1.0000001192092896,"b":1.0000001192092896,"a":1.0000001192092896},{"r":0.9999999403953552,"g":0.9999999403953552,"b":0.9999999403953552,"a":0.9999999403953552},{"r":1.0000001192092896,"g":1.0000001192092896,"b":1.0000001192092896,"a":1.0000001192092896},{"r":1.0,"g":1.0,"b":1.0,"a":1.0},{"r":1.0,"g":1.0,"b":1.0,"a":1.0},{"r":1.0,"g":1.0,"b":1.0,"a":1.0},{"r":1.0000001192092896,"g":1.0000001192092896,"b":1.0000001192092896,"a":1.0000001192092896},{"r":1.0,"g":1.0,"b":1.0,"a":1.0},{"r":0.9999999403953552,"g":0.9999999403953552,"b":0.9999999403953552,"a":0.9999999403953552},{"r":0.9999999403953552,"g":0.9999999403953552,"b":0.9999999403953552,"a":0.9999999403953552},{"r":1.0,"g":1.0,"b":1.0,"a":1.0},{"r":0.9999999403953552,"g":0.9999999403953552,"b":0.9999999403953552,"a":0.9999999403953552},{"r":0.9999999403953552,"g":0.9999999403953552,"b":0.9999999403953552,"a":0.9999999403953552},{"r":1.0000001192092896,"g":1.0000001192092896,"b":1.0000001192092896,"a":1.0000001192092896},{"r":1.0,"g":1.0,"b":1.0,"a":1.0},{"r":1.0000001192092896,"g":1.0000001192092896,"b":1.0000001192092896,"a":1.0000001192092896},{"r":1.0,"g":1.0,"b":1.0,"a":1.0},{"r":1.0,"g":1.0,"b":1.0,"a":1.0},{"r":1.0,"g":1.0,"b":1.0,"a":1.0},{"r":1.0,"g":1.0,"b":1.0,"a":1.0},{"r":1.0,"g":1.0,"b":1.0,"a":1.0},{"r":1.0,"g":1.0,"b":1.0,"a":1.0},{"r":1.0,"g":1.0,"b":1.0,"a":1.0},{"r":1.0,"g":1.0,"b":1.0,"a":1.0},{"r":1.0,"g":1.0,"b":1.0,"a":1.0},{"r":1.0,"g":1.0,"b":1.0,"a":1.0},{"r":1.0,"g":1.0,"b":1.0,"a":1.0},{"r":1.0,"g":1.0,"b":1.0,"a":1.0},{"r":1.0,"g":1.0,"b":1.0,"a":1.0},{"r":1.0,"g":1.0,"b":1.0,"a":1.0},{"r":1.0,"g":1.0,"b":1.0,"a":1.0},{"r":1.0,"g":1.0,"b":1.0,"a":1.0},{"r":1.0,"g":1.0,"b":1.0,"a":1.0},{"r":1.0,"g":1.0,"b":1.0,"a":1.0},{"r":1.0,"g":1.0,"b":1.0,"a":1.0},{"r":1.0,"g":1.0,"b":1.0,"a":1.0},{"r":0.0,"g":0.0,"b":0.0,"a":0.0},{"r":0.0,"g":0.0,"b":0.0,"a":0.0},{"r":0.0,"g":0.0,"b":0.0,"a":0.0},{"r":0.0,"g":0.0,"b":0.0,"a":0.0},{"r":0.0,"g":0.0,"b":0.0,"a":0.0},{"r":0.0,"g":0.0,"b":0.0,"a":0.0},{"r":0.0,"g":0.0,"b":0.0,"a":0.0},{"r":0.0,"g":0.0,"b":0.0,"a":0.0},{"r":0.0,"g":0.0,"b":0.0,"a":0.0},{"r":0.0,"g":0.0,"b":0.0,"a":0.0},{"r":0.0,"g":0.0,"b":0.0,"a":0.0},{"r":0.0,"g":0.0,"b":0.0,"a":0.0},{"r":0.0,"g":0.0,"b":0.0,"a":0.0},{"r":0.0,"g":0.0,"b":0.0,"a":0.0},{"r":0.0,"g":0.0,"b":0.0,"a":0.0},{"r":0.0,"g":0.0,"b":0.0,"a":0.0},{"r":0.0,"g":0.0,"b":0.0,"a":0.0},{"r":0.0,"g":0.0,"b":0.0,"a":0.0},{"r":0.0,"g":0.0,"b":0.0,"a":0.0},{"r":0.0,"g":0.0,"b":0.0,"a":0.0},{"r":0.0,"g":0.0,"b":0.0,"a":0.0},{"r":0.0,"g":0.0,"b":0.0,"a":0.0},{"r":0.0,"g":0.0,"b":0.0,"a":0.0},{"r":0.0,"g":0.0,"b":0.0,"a":0.0},{"r":0.0,"g":0.0,"b":0.0,"a":0.0},{"r":0.0,"g":0.0,"b":0.0,"a":0.0},{"r":0.0,"g":0.0,"b":0.0,"a":0.0},{"r":0.0,"g":0.0,"b":0.0,"a":0.0},{"r":0.0,"g":0.0,"b":0.0,"a":0.0},{"r":0.0,"g":0.0,"b":0.0,"a":0.0},{"r":0.0,"g":0.0,"b":0.0,"a":0.0},{"r":0.0,"g":0.0,"b":0.0,"a":0.0},{"r":0.0,"g":0.0,"b":0.0,"a":0.0},{"r":0.0,"g":0.0,"b":0.0,"a":0.0},{"r":0.0,"g":0.0,"b":0.0,"a":0.0},{"r":0.0,"g":0.0,"b":0.0,"a":0.0},{"r":0.0,"g":0.0,"b":0.0,"a":0.0},{"r":0.0,"g":0.0,"b":0.0,"a":0.0},{"r":0.0,"g":0.0,"b":0.0,"a":0.0},{"r":0.0,"g":0.0,"b":0.0,"a":0.0},{"r":0.0,"g":0.0,"b":0.0,"a":0.0},{"r":0.0,"g":0.0,"b":0.0,"a":0.0},{"r":0.0,"g":0.0,"b":0.0,"a":0.0},{"r":0.0,"g":0.0,"b":0.0,"a":0.0},{"r":0.0,"g":0.0,"b":0.0,"a":0.0},{"r":0.0,"g":0.0,"b":0.0,"a":0.0},{"r":0.0,"g":0.0,"b":0.0,"a":0.0},{"r":0.0,"g":0.0,"b":0.0,"a":0.0},{"r":0.0,"g":0.0,"b":0.0,"a":0.0},{"r":0.0,"g":0.0,"b":0.0,"a":0.0},{"r":0.0,"g":0.0,"b":0.0,"a":0.0},{"r":0.0,"g":0.0,"b":0.0,"a":0.0},{"r":0.0,"g":0.0,"b":0.0,"a":0.0},{"r":0.0,"g":0.0,"b":0.0,"a":0.0},{"r":0.0,"g":0.0,"b":0.0,"a":0.0},{"r":0.0,"g":0.0,"b":0.0,"a":0.0},{"r":0.0,"g":0.0,"b":0.0,"a":0.0},{"r":0.0,"g":0.0,"b":0.0,"a":0.0},{"r":0.0,"g":0.0,"b":0.0,"a":0.0},{"r":0.0,"g":0.0,"b":0.0,"a":0.0},{"r":0.0,"g":0.0,"b":0.0,"a":0.0},{"r":0.0,"g":0.0,"b":0.0,"a":0.0},{"r":0.0,"g":0.0,"b":0.0,"a":0.0},{"r":0.0,"g":0.0,"b":0.0,"a":0.0},{"r":0.0,"g":0.0,"b":0.0,"a":0.0},{"r":0.0,"g":0.0,"b":0.0,"a":0.0},{"r":0.0,"g":0.0,"b":0.0,"a":0.0},{"r":0.0,"g":0.0,"b":0.0,"a":0.0},{"r":0.0,"g":0.0,"b":0.0,"a":0.0},{"r":0.0,"g":0.0,"b":0.0,"a":0.0},{"r":0.0,"g":0.0,"b":0.0,"a":0.0},{"r":0.0,"g":0.0,"b":0.0,"a":0.0},{"r":0.0,"g":0.0,"b":0.0,"a":0.0},{"r":0.0,"g":0.0,"b":0.0,"a":0.0},{"r":0.0,"g":0.0,"b":0.0,"a":0.0},{"r":0.0,"g":0.0,"b":0.0,"a":0.0},{"r":0.0,"g":0.0,"b":0.0,"a":0.0},{"r":0.0,"g":0.0,"b":0.0,"a":0.0},{"r":0.0,"g":0.0,"b":0.0,"a":0.0},{"r":0.0,"g":0.0,"b":0.0,"a":0.0},{"r":0.0,"g":0.0,"b":0.0,"a":0.0},{"r":0.0,"g":0.0,"b":0.0,"a":0.0},{"r":0.0,"g":0.0,"b":0.0,"a":0.0},{"r":0.0,"g":0.0,"b":0.0,"a":0.0},{"r":0.0,"g":0.0,"b":0.0,"a":0.0},{"r":0.0,"g":0.0,"b":0.0,"a":0.0},{"r":0.0,"g":0.0,"b":0.0,"a":0.0},{"r":0.0,"g":0.0,"b":0.0,"a":0.0},{"r":0.0,"g":0.0,"b":0.0,"a":0.0},{"r":0.0,"g":0.0,"b":0.0,"a":0.0},{"r":0.0,"g":0.0,"b":0.0,"a":0.0},{"r":0.0,"g":0.0,"b":0.0,"a":0.0},{"r":0.0,"g":0.0,"b":0.0,"a":0.0},{"r":0.0,"g":0.0,"b":0.0,"a":0.0},{"r":0.0,"g":0.0,"b":0.0,"a":0.0},{"r":0.0,"g":0.0,"b":0.0,"a":0.0},{"r":0.0,"g":0.0,"b":0.0,"a":0.0},{"r":0.0,"g":0.0,"b":0.0,"a":0.0},{"r":0.0,"g":0.0,"b":0.0,"a":0.0},{"r":0.0,"g":0.0,"b":0.0,"a":0.0}],"distanceConstraintsData":{"batches":[{"m_IDs":[0,1,2,3,4,5,6,7,8,9,10,11,12,13,14,15,16,17,18,19,20,21,22,23,24,25,26,27,28,29,30,31,32,33,34,35,36,37,38,39,40,41,42,43,44,45,46,47,48,49,50,51,52,53,54,55,56,57,58,59,60,61,62,63,64,65,66,67,68],"m_IDToIndex":[0,1,2,3,4,5,6,7,8,9,10,11,12,13,14,15,16,17,18,19,20,21,22,23,24,25,26,27,28,29,30,31,32,33,34,35,36,37,38,39,40,41,42,43,44,45,46,47,48,49,50,51,52,53,54,55,56,57,58,59,60,61,62,63,64,65,66,67,68],"m_ConstraintCount":69,"m_ActiveConstraintCount":19,"m_InitialActiveConstraintCount":19,"particleIndices":{"serializedContents":[0,1,2,3,4,5,6,7,8,9,10,11,12,13,14,15,16,17,18,19,20,21,22,23,24,25,26,27,28,29,30,31,32,33,34,35,36,37,0,0,0,0,0,0,0,0,0,0,0,0,0,0,0,0,0,0,0,0,0,0,0,0,0,0,0,0,0,0,0,0,0,0,0,0,0,0,0,0,0,0,0,0,0,0,0,0,0,0,0,0,0,0,0,0,0,0,0,0,0,0,0,0,0,0,0,0,0,0,0,0,0,0,0,0,0,0,0,0,0,0,0,0,0,0,0,0,0,0,0,0,0,0,0,0,0,0,0,0]},"restLengths":{"serializedContents":[0.11864738166332245,0.12151327729225159,0.12111052125692368,0.12246841937303543,0.12205623090267182,0.12136472016572952,0.12093772739171982,0.12245406210422516,0.12289495021104813,0.12234174460172653,0.12248951941728592,0.12340106070041657,0.12271970510482788,0.121193066239357,0.11999580264091492,0.11967310309410095,0.11951984465122223,0.12366051971912384,0.11679373681545258,0.0,0.0,0.0,0.0,0.0,0.0,0.0,0.0,0.0,0.0,0.0,0.0,0.0,0.0,0.0,0.0,0.0,0.0,0.0,0.0,0.0,0.0,0.0,0.0,0.0,0.0,0.0,0.0,0.0,0.0,0.0,0.0,0.0,0.0,0.0,0.0,0.0,0.0,0.0,0.0,0.0,0.0,0.0,0.0,0.0,0.0,0.0,0.0,0.0,0.0]},"stiffnesses":{"serializedContents":[{"x":0.0,"y":0.0},{"x":0.0,"y":0.0},{"x":0.0,"y":0.0},{"x":0.0,"y":0.0},{"x":0.0,"y":0.0},{"x":0.0,"y":0.0},{"x":0.0,"y":0.0},{"x":0.0,"y":0.0},{"x":0.0,"y":0.0},{"x":0.0,"y":0.0},{"x":0.0,"y":0.0},{"x":0.0,"y":0.0},{"x":0.0,"y":0.0},{"x":0.0,"y":0.0},{"x":0.0,"y":0.0},{"x":0.0,"y":0.0},{"x":0.0,"y":0.0},{"x":0.0,"y":0.0},{"x":0.0,"y":0.0},{"x":0.0,"y":0.0},{"x":0.0,"y":0.0},{"x":0.0,"y":0.0},{"x":0.0,"y":0.0},{"x":0.0,"y":0.0},{"x":0.0,"y":0.0},{"x":0.0,"y":0.0},{"x":0.0,"y":0.0},{"x":0.0,"y":0.0},{"x":0.0,"y":0.0},{"x":0.0,"y":0.0},{"x":0.0,"y":0.0},{"x":0.0,"y":0.0},{"x":0.0,"y":0.0},{"x":0.0,"y":0.0},{"x":0.0,"y":0.0},{"x":0.0,"y":0.0},{"x":0.0,"y":0.0},{"x":0.0,"y":0.0},{"x":0.0,"y":0.0},{"x":0.0,"y":0.0},{"x":0.0,"y":0.0},{"x":0.0,"y":0.0},{"x":0.0,"y":0.0},{"x":0.0,"y":0.0},{"x":0.0,"y":0.0},{"x":0.0,"y":0.0},{"x":0.0,"y":0.0},{"x":0.0,"y":0.0},{"x":0.0,"y":0.0},{"x":0.0,"y":0.0},{"x":0.0,"y":0.0},{"x":0.0,"y":0.0},{"x":0.0,"y":0.0},{"x":0.0,"y":0.0},{"x":0.0,"y":0.0},{"x":0.0,"y":0.0},{"x":0.0,"y":0.0},{"x":0.0,"y":0.0},{"x":0.0,"y":0.0},{"x":0.0,"y":0.0},{"x":0.0,"y":0.0},{"x":0.0,"y":0.0},{"x":0.0,"y":0.0},{"x":0.0,"y":0.0},{"x":0.0,"y":0.0},{"x":0.0,"y":0.0},{"x":0.0,"y":0.0},{"x":0.0,"y":0.0},{"x":0.0,"y":0.0}]}},{"m_IDs":[0,1,2,3,4,5,6,7,8,9,10,11,12,13,14,15,16,17,18,19,20,21,22,23,24,25,26,27,28,29,30,31,32,33,34,35,36,37,38,39,40,41,42,43,44,45,46,47,48,49,50,51,52,53,54,55,56,57,58,59,60,61,62,63,64,65,66,67],"m_IDToIndex":[0,1,2,3,4,5,6,7,8,9,10,11,12,13,14,15,16,17,18,19,20,21,22,23,24,25,26,27,28,29,30,31,32,33,34,35,36,37,38,39,40,41,42,43,44,45,46,47,48,49,50,51,52,53,54,55,56,57,58,59,60,61,62,63,64,65,66,67],"m_ConstraintCount":68,"m_ActiveConstraintCount":18,"m_InitialActiveConstraintCount":18,"particleIndices":{"serializedContents":[1,2,3,4,5,6,7,8,9,10,11,12,13,14,15,16,17,18,19,20,21,22,23,24,25,26,27,28,29,30,31,32,33,34,35,36,0,0,0,0,0,0,0,0,0,0,0,0,0,0,0,0,0,0,0,0,0,0,0,0,0,0,0,0,0,0,0,0,0,0,0,0,0,0,0,0,0,0,0,0,0,0,0,0,0,0,0,0,0,0,0,0,0,0,0,0,0,0,0,0,0,0,0,0,0,0,0,0,0,0,0,0,0,0,0,0,0,0,0,0,0,0,0,0,0,0,0,0,0,0,0,0,0,0,0,0]},"restLengths":{"serializedContents":[0.12187203764915467,0.12484992295503617,0.12283722311258316,0.12261634320020676,0.12338753044605255,0.12417378276586533,0.12285556644201279,0.12215090543031693,0.12217489629983902,0.12259210646152497,0.12169325351715088,0.12189382314682007,0.12272870540618897,0.12409552931785584,0.12513777613639832,0.125507652759552,0.12483812868595123,0.1226479709148407,0.0,0.0,0.0,0.0,0.0,0.0,0.0,0.0,0.0,0.0,0.0,0.0,0.0,0.0,0.0,0.0,0.0,0.0,0.0,0.0,0.0,0.0,0.0,0.0,0.0,0.0,0.0,0.0,0.0,0.0,0.0,0.0,0.0,0.0,0.0,0.0,0.0,0.0,0.0,0.0,0.0,0.0,0.0,0.0,0.0,0.0,0.0,0.0,0.0,0.0]},"stiffnesses":{"serializedContents":[{"x":0.0,"y":0.0},{"x":0.0,"y":0.0},{"x":0.0,"y":0.0},{"x":0.0,"y":0.0},{"x":0.0,"y":0.0},{"x":0.0,"y":0.0},{"x":0.0,"y":0.0},{"x":0.0,"y":0.0},{"x":0.0,"y":0.0},{"x":0.0,"y":0.0},{"x":0.0,"y":0.0},{"x":0.0,"y":0.0},{"x":0.0,"y":0.0},{"x":0.0,"y":0.0},{"x":0.0,"y":0.0},{"x":0.0,"y":0.0},{"x":0.0,"y":0.0},{"x":0.0,"y":0.0},{"x":0.0,"y":0.0},{"x":0.0,"y":0.0},{"x":0.0,"y":0.0},{"x":0.0,"y":0.0},{"x":0.0,"y":0.0},{"x":0.0,"y":0.0},{"x":0.0,"y":0.0},{"x":0.0,"y":0.0},{"x":0.0,"y":0.0},{"x":0.0,"y":0.0},{"x":0.0,"y":0.0},{"x":0.0,"y":0.0},{"x":0.0,"y":0.0},{"x":0.0,"y":0.0},{"x":0.0,"y":0.0},{"x":0.0,"y":0.0},{"x":0.0,"y":0.0},{"x":0.0,"y":0.0},{"x":0.0,"y":0.0},{"x":0.0,"y":0.0},{"x":0.0,"y":0.0},{"x":0.0,"y":0.0},{"x":0.0,"y":0.0},{"x":0.0,"y":0.0},{"x":0.0,"y":0.0},{"x":0.0,"y":0.0},{"x":0.0,"y":0.0},{"x":0.0,"y":0.0},{"x":0.0,"y":0.0},{"x":0.0,"y":0.0},{"x":0.0,"y":0.0},{"x":0.0,"y":0.0},{"x":0.0,"y":0.0},{"x":0.0,"y":0.0},{"x":0.0,"y":0.0},{"x":0.0,"y":0.0},{"x":0.0,"y":0.0},{"x":0.0,"y":0.0},{"x":0.0,"y":0.0},{"x":0.0,"y":0.0},{"x":0.0,"y":0.0},{"x":0.0,"y":0.0},{"x":0.0,"y":0.0},{"x":0.0,"y":0.0},{"x":0.0,"y":0.0},{"x":0.0,"y":0.0},{"x":0.0,"y":0.0},{"x":0.0,"y":0.0},{"x":0.0,"y":0.0},{"x":0.0,"y":0.0}]}}]},"bendConstraintsData":{"batches":[{"m_IDs":[0,1,2,3,4,5,6,7,8,9,10,11,12,13,14,15,16,17,18,19,20,21,22,23,24,25,26,27,28,29,30,31,32,33,34,35,36,37,38,39,40,41,42,43,44,45],"m_IDToIndex":[0,1,2,3,4,5,6,7,8,9,10,11,12,13,14,15,16,17,18,19,20,21,22,23,24,25,26,27,28,29,30,31,32,33,34,35,36,37,38,39,40,41,42,43,44,45],"m_ConstraintCount":46,"m_ActiveConstraintCount":12,"m_InitialActiveConstraintCount":12,"particleIndices":{"serializedContents":[0,2,1,3,5,4,6,8,7,9,11,10,12,14,13,15,17,16,18,20,19,21,23,22,24,26,25,27,29,28,30,32,31,33,35,34,36,38,37,39,41,40,42,44,43,45,47,46,48,50,49,51,53,52,54,56,55,57,59,58,60,62,61,63,65,64,66,68,67,69,71,70,72,74,73,75,77,76,78,80,79,81,83,82,84,86,85,87,89,88,90,92,91,93,95,94,96,98,97,99,101,100,102,104,103,105,107,106,108,110,109,111,113,112,114,116,115,117,119,118,120,122,121,123,125,124,126,128,127,129,131,130,132,134,133,135,137,136]},"restBends":{"serializedContents":[0.0,0.0,0.0,0.0,0.0,0.0,0.0,0.0,0.0,0.0,0.0,0.0,0.0,0.0,0.0,0.0,0.0,0.0,0.0,0.0,0.0,0.0,0.0,0.0,0.0,0.0,0.0,0.0,0.0,0.0,0.0,0.0,0.0,0.0,0.0,0.0,0.0,0.0,0.0,0.0,0.0,0.0,0.0,0.0,0.0,0.0]},"bendingStiffnesses":{"serializedContents":[{"x":0.0,"y":0.0},{"x":0.0,"y":0.0},{"x":0.0,"y":0.0},{"x":0.0,"y":0.0},{"x":0.0,"y":0.0},{"x":0.0,"y":0.0},{"x":0.0,"y":0.0},{"x":0.0,"y":0.0},{"x":0.0,"y":0.0},{"x":0.0,"y":0.0},{"x":0.0,"y":0.0},{"x":0.0,"y":0.0},{"x":0.0,"y":0.0},{"x":0.0,"y":0.0},{"x":0.0,"y":0.0},{"x":0.0,"y":0.0},{"x":0.0,"y":0.0},{"x":0.0,"y":0.0},{"x":0.0,"y":0.0},{"x":0.0,"y":0.0},{"x":0.0,"y":0.0},{"x":0.0,"y":0.0},{"x":0.0,"y":0.0},{"x":0.0,"y":0.0},{"x":0.0,"y":0.0},{"x":0.0,"y":0.0},{"x":0.0,"y":0.0},{"x":0.0,"y":0.0},{"x":0.0,"y":0.0},{"x":0.0,"y":0.0},{"x":0.0,"y":0.0},{"x":0.0,"y":0.0},{"x":0.0,"y":0.0},{"x":0.0,"y":0.0},{"x":0.0,"y":0.0},{"x":0.0,"y":0.0},{"x":0.0,"y":0.0},{"x":0.0,"y":0.0},{"x":0.0,"y":0.0},{"x":0.0,"y":0.0},{"x":0.0,"y":0.0},{"x":0.0,"y":0.0},{"x":0.0,"y":0.0},{"x":0.0,"y":0.0},{"x":0.0,"y":0.0},{"x":0.0,"y":0.0}]}},{"m_IDs":[0,1,2,3,4,5,6,7,8,9,10,11,12,13,14,15,16,17,18,19,20,21,22,23,24,25,26,27,28,29,30,31,32,33,34,35,36,37,38,39,40,41,42,43,44],"m_IDToIndex":[0,1,2,3,4,5,6,7,8,9,10,11,12,13,14,15,16,17,18,19,20,21,22,23,24,25,26,27,28,29,30,31,32,33,34,35,36,37,38,39,40,41,42,43,44],"m_ConstraintCount":45,"m_ActiveConstraintCount":12,"m_InitialActiveConstraintCount":12,"particleIndices":{"serializedContents":[1,3,2,4,6,5,7,9,8,10,12,11,13,15,14,16,18,17,19,21,20,22,24,23,25,27,26,28,30,29,31,33,32,34,36,35,37,39,38,40,42,41,43,45,44,46,48,47,49,51,50,52,54,53,55,57,56,58,60,59,61,63,62,64,66,65,67,69,68,70,72,71,73,75,74,76,78,77,79,81,80,82,84,83,85,87,86,88,90,89,91,93,92,94,96,95,97,99,98,100,102,101,103,105,104,106,108,107,109,111,110,112,114,113,115,117,116,118,120,119,121,123,122,124,126,125,127,129,128,130,132,131,133,135,134]},"restBends":{"serializedContents":[0.0,0.0,0.0,0.0,0.0,0.0,0.0,0.0,0.0,0.0,0.0,0.0,0.0,0.0,0.0,0.0,0.0,0.0,0.0,0.0,0.0,0.0,0.0,0.0,0.0,0.0,0.0,0.0,0.0,0.0,0.0,0.0,0.0,0.0,0.0,0.0,0.0,0.0,0.0,0.0,0.0,0.0,0.0,0.0,0.0]},"bendingStiffnesses":{"serializedContents":[{"x":0.0,"y":0.0},{"x":0.0,"y":0.0},{"x":0.0,"y":0.0},{"x":0.0,"y":0.0},{"x":0.0,"y":0.0},{"x":0.0,"y":0.0},{"x":0.0,"y":0.0},{"x":0.0,"y":0.0},{"x":0.0,"y":0.0},{"x":0.0,"y":0.0},{"x":0.0,"y":0.0},{"x":0.0,"y":0.0},{"x":0.0,"y":0.0},{"x":0.0,"y":0.0},{"x":0.0,"y":0.0},{"x":0.0,"y":0.0},{"x":0.0,"y":0.0},{"x":0.0,"y":0.0},{"x":0.0,"y":0.0},{"x":0.0,"y":0.0},{"x":0.0,"y":0.0},{"x":0.0,"y":0.0},{"x":0.0,"y":0.0},{"x":0.0,"y":0.0},{"x":0.0,"y":0.0},{"x":0.0,"y":0.0},{"x":0.0,"y":0.0},{"x":0.0,"y":0.0},{"x":0.0,"y":0.0},{"x":0.0,"y":0.0},{"x":0.0,"y":0.0},{"x":0.0,"y":0.0},{"x":0.0,"y":0.0},{"x":0.0,"y":0.0},{"x":0.0,"y":0.0},{"x":0.0,"y":0.0},{"x":0.0,"y":0.0},{"x":0.0,"y":0.0},{"x":0.0,"y":0.0},{"x":0.0,"y":0.0},{"x":0.0,"y":0.0},{"x":0.0,"y":0.0},{"x":0.0,"y":0.0},{"x":0.0,"y":0.0},{"x":0.0,"y":0.0}]}},{"m_IDs":[0,1,2,3,4,5,6,7,8,9,10,11,12,13,14,15,16,17,18,19,20,21,22,23,24,25,26,27,28,29,30,31,32,33,34,35,36,37,38,39,40,41,42,43,44],"m_IDToIndex":[0,1,2,3,4,5,6,7,8,9,10,11,12,13,14,15,16,17,18,19,20,21,22,23,24,25,26,27,28,29,30,31,32,33,34,35,36,37,38,39,40,41,42,43,44],"m_ConstraintCount":45,"m_ActiveConstraintCount":12,"m_InitialActiveConstraintCount":12,"particleIndices":{"serializedContents":[2,4,3,5,7,6,8,10,9,11,13,12,14,16,15,17,19,18,20,22,21,23,25,24,26,28,27,29,31,30,32,34,33,35,37,36,38,40,39,41,43,42,44,46,45,47,49,48,50,52,51,53,55,54,56,58,57,59,61,60,62,64,63,65,67,66,68,70,69,71,73,72,74,76,75,77,79,78,80,82,81,83,85,84,86,88,87,89,91,90,92,94,93,95,97,96,98,100,99,101,103,102,104,106,105,107,109,108,110,112,111,113,115,114,116,118,117,119,121,120,122,124,123,125,127,126,128,130,129,131,133,132,134,136,135]},"restBends":{"serializedContents":[0.0,0.0,0.0,0.0,0.0,0.0,0.0,0.0,0.0,0.0,0.0,0.0,0.0,0.0,0.0,0.0,0.0,0.0,0.0,0.0,0.0,0.0,0.0,0.0,0.0,0.0,0.0,0.0,0.0,0.0,0.0,0.0,0.0,0.0,0.0,0.0,0.0,0.0,0.0,0.0,0.0,0.0,0.0,0.0,0.0]},"bendingStiffnesses":{"serializedContents":[{"x":0.0,"y":0.0},{"x":0.0,"y":0.0},{"x":0.0,"y":0.0},{"x":0.0,"y":0.0},{"x":0.0,"y":0.0},{"x":0.0,"y":0.0},{"x":0.0,"y":0.0},{"x":0.0,"y":0.0},{"x":0.0,"y":0.0},{"x":0.0,"y":0.0},{"x":0.0,"y":0.0},{"x":0.0,"y":0.0},{"x":0.0,"y":0.0},{"x":0.0,"y":0.0},{"x":0.0,"y":0.0},{"x":0.0,"y":0.0},{"x":0.0,"y":0.0},{"x":0.0,"y":0.0},{"x":0.0,"y":0.0},{"x":0.0,"y":0.0},{"x":0.0,"y":0.0},{"x":0.0,"y":0.0},{"x":0.0,"y":0.0},{"x":0.0,"y":0.0},{"x":0.0,"y":0.0},{"x":0.0,"y":0.0},{"x":0.0,"y":0.0},{"x":0.0,"y":0.0},{"x":0.0,"y":0.0},{"x":0.0,"y":0.0},{"x":0.0,"y":0.0},{"x":0.0,"y":0.0},{"x":0.0,"y":0.0},{"x":0.0,"y":0.0},{"x":0.0,"y":0.0},{"x":0.0,"y":0.0},{"x":0.0,"y":0.0},{"x":0.0,"y":0.0},{"x":0.0,"y":0.0},{"x":0.0,"y":0.0},{"x":0.0,"y":0.0},{"x":0.0,"y":0.0},{"x":0.0,"y":0.0},{"x":0.0,"y":0.0},{"x":0.0,"y":0.0}]}}]},"pinConstraintsData":{"batches":[{"m_IDs":[],"m_IDToIndex":[],"m_ConstraintCount":0,"m_ActiveConstraintCount":0,"m_InitialActiveConstraintCount":0,"particleIndices":{"serializedContents":[]},"offsets":{"serializedContents":[]},"restDarbouxVectors":{"serializedContents":[]},"stiffnesses":{"serializedContents":[]},"breakThresholds":{"serializedContents":[]},"constraintForces":[]}]},"skinConstraintsData":{"batches":[]},"tetherConstraintsData":{"batches":[]},"stretchShearConstraintsData":{"batches":[]},"bendTwistConstraintsData":{"batches":[]},"shapeMatchingConstraintsData":{"batches":[]},"aerodynamicConstraintsData":{"batches":[]},"chainConstraintsData":{"batches":[]},"volumeConstraintsData":{"batches":[]},"groups":[{"instanceID":0},{"instanceID":0}],"path":{"m_Names":["A","B"],"m_Points":{"data":[{"tangentMode":0,"inTangent":{"x":-0.23925630748271943,"y":0.0,"z":0.07250120490789414},"position":{"x":-2.555339813232422,"y":0.30129528045654299,"z":-1.2823047637939454},"outTangent":{"x":0.12537290155887605,"y":0.0,"z":-0.037991397082805637}},{"tangentMode":0,"inTangent":{"x":-0.22082734107971192,"y":-0.0019277334213256837,"z":0.0},"position":{"x":1.967378854751587,"y":0.32307958602905276,"z":-1.316169261932373},"outTangent":{"x":0.2499903291463852,"y":0.0021823146380484106,"z":0.0}}]},"m_Normals":{"data":[{"x":0.0,"y":1.0,"z":0.0},{"x":0.0,"y":1.0,"z":0.0}]},"m_Colors":{"data":[{"r":1.0,"g":1.0,"b":1.0,"a":1.0},{"r":1.0,"g":1.0,"b":1.0,"a":1.0}]},"m_Thickness":{"data":[1.0,1.0]},"m_Masses":{"data":[0.10000000149011612,0.10000000149011612]},"m_RotationalMasses":{"data":[1.0,1.0]},"m_Phases":{"data":[1,1]},"m_Closed":false,"m_ArcLengthTable":[0.0,0.04495223984122276,0.13960348069667817,0.27894327044487,0.4578145146369934,0.6710407733917236,0.9134398102760315,1.1798268556594849,1.4650161266326905,1.7638212442398072,2.0710554122924806,2.3815319538116457,2.690062999725342,2.991461753845215,3.280540943145752,3.5521130561828615,3.800990581512451,4.021986484527588,4.2099127769470219,4.35958194732666,4.46580696105957,4.523399829864502],"m_TotalSplineLenght":4.523399829864502,"OnPathChanged":{"m_PersistentCalls":{"m_Calls":[]}},"OnControlPointAdded":{"m_PersistentCalls":{"m_Calls":[]}},"OnControlPointRemoved":{"m_PersistentCalls":{"m_Calls":[]}},"OnControlPointRenamed":{"m_PersistentCalls":{"m_Calls":[]}}},"thickness":0.125,"resolution":1.0,"m_InterParticleDistance":0.12225405126810074,"totalParticles":138,"m_RestLength":16.748706817626954,"restLengths":[0.11864738166332245,0.12187203764915467,0.12151327729225159,0.12484992295503617,0.12111052125692368,0.12283722311258316,0.12246841937303543,0.12261634320020676,0.12205623090267182,0.12338753044605255,0.12136472016572952,0.12417378276586533,0.12093772739171982,0.12285556644201279,0.12245406210422516,0.12215090543031693,0.12289495021104813,0.12217489629983902,0.12234174460172653,0.12259210646152497,0.12248951941728592,0.12169325351715088,0.12340106070041657,0.12189382314682007,0.12271970510482788,0.12272870540618897,0.121193066239357,0.12409552931785584,0.11999580264091492,0.12513777613639832,0.11967310309410095,0.125507652759552,0.11951984465122223,0.12483812868595123,0.12366051971912384,0.1226479709148407,0.11679373681545258,0.12225405126810074,0.12225405126810074,0.12225405126810074,0.12225405126810074,0.12225405126810074,0.12225405126810074,0.12225405126810074,0.12225405126810074,0.12225405126810074,0.12225405126810074,0.12225405126810074,0.12225405126810074,0.12225405126810074,0.12225405126810074,0.12225405126810074,0.12225405126810074,0.12225405126810074,0.12225405126810074,0.12225405126810074,0.12225405126810074,0.12225405126810074,0.12225405126810074,0.12225405126810074,0.12225405126810074,0.12225405126810074,0.12225405126810074,0.12225405126810074,0.12225405126810074,0.12225405126810074,0.12225405126810074,0.12225405126810074,0.12225405126810074,0.12225405126810074,0.12225405126810074,0.12225405126810074,0.12225405126810074,0.12225405126810074,0.12225405126810074,0.12225405126810074,0.12225405126810074,0.12225405126810074,0.12225405126810074,0.12225405126810074,0.12225405126810074,0.12225405126810074,0.12225405126810074,0.12225405126810074,0.12225405126810074,0.12225405126810074,0.12225405126810074,0.12225405126810074,0.12225405126810074,0.12225405126810074,0.12225405126810074,0.12225405126810074,0.12225405126810074,0.12225405126810074,0.12225405126810074,0.12225405126810074,0.12225405126810074,0.12225405126810074,0.12225405126810074,0.12225405126810074,0.12225405126810074,0.12225405126810074,0.12225405126810074,0.12225405126810074,0.12225405126810074,0.12225405126810074,0.12225405126810074,0.12225405126810074,0.12225405126810074,0.12225405126810074,0.12225405126810074,0.12225405126810074,0.12225405126810074,0.12225405126810074,0.12225405126810074,0.12225405126810074,0.12225405126810074,0.12225405126810074,0.12225405126810074,0.12225405126810074,0.12225405126810074,0.12225405126810074,0.12225405126810074,0.12225405126810074,0.12225405126810074,0.12225405126810074,0.12225405126810074,0.12225405126810074,0.12225405126810074,0.12225405126810074,0.12225405126810074,0.12225405126810074,0.12225405126810074,0.12225405126810074,0.12225405126810074,0.12225405126810074,0.12225405126810074,0.0],"pooledParticles":100}'
  hasAnchor: 0
  a: 0
  groundIndex: 0
  _hasAnchorRopeOneA: 0
  _hasAnchorRopeOneB: 0
  _hasAnchorRopeTwoA: 0
  _hasAnchorRopeTwoB: 0
  _hasAnchorRopeThreeA: 0
  _hasAnchorRopeThreeB: 0
  _hasAnchorRopeFourA: 0
  _hasAnchorRopeFourB: 0
  _hasAnchorRopeFiveA: 0
  _hasAnchorRopeFiveB: 0
  obstacleInfos:
    obstacleIndex: -1
    overridePosition: {x: 0, y: 0, z: 0}
    overrideRotation: {x: 0, y: 0, z: 0}
  curveInfos:
    curveIndex: -1
    positionOverride: {x: 0, y: 0, z: 0}
    rotationOverride: {x: -0, y: 0, z: 0}
