%YAML 1.1
%TAG !u! tag:unity3d.com,2011:
--- !u!1045 &1
EditorBuildSettings:
  m_ObjectHideFlags: 0
  serializedVersion: 2
  m_Scenes:
  - enabled: 0
    path: Assets/Scenes/Untie POC 3 - constraint tests.unity
    guid: 31d3b046c56c6cf48b7063369e089801
  - enabled: 0
    path: Assets/Scenes/Untie - v2.0 - X Ropes.unity
    guid: 55420a442a37ed64399a6a30c1cc1cdd
  - enabled: 1
    path: Assets/Scenes/Untie - v3.0 - X Ropes.unity
    guid: bc06e8b3efaee404d9f0564a74379495
  - enabled: 0
    path: Assets/Scenes/SampleScene.unity
    guid: 9fc0d4010bbf28b4594072e72b8655ab
  m_configObjects: {}
