%YAML 1.1
%TAG !u! tag:unity3d.com,2011:
--- !u!114 &11400000
MonoBehaviour:
  m_ObjectHideFlags: 0
  m_CorrespondingSourceObject: {fileID: 0}
  m_PrefabInstance: {fileID: 0}
  m_PrefabAsset: {fileID: 0}
  m_GameObject: {fileID: 0}
  m_Enabled: 1
  m_EditorHideFlags: 0
  m_Script: {fileID: 11500000, guid: 4127f02986c6bce45951f9e1b3dce8cc, type: 3}
  m_Name: Level_Normal_27.asset
  m_EditorClassIdentifier: 
  ropes: '{"m_Empty":false,"m_ActiveParticleCount":35,"m_InitialActiveParticleCount":35,"_bounds":{"m_Center":{"x":-0.3272969722747803,"y":0.0,"z":0.010941429063677788},"m_Extent":{"x":2.1184651851654054,"y":0.0,"z":0.010941429063677788}},"positions":[{"x":-0.47442537546157839,"y":-0.015499979257583619,"z":-2.4395360946655275},{"x":-0.3740096390247345,"y":0.03600028157234192,"z":-2.2118074893951418},{"x":-0.2724153697490692,"y":0.08885562419891358,"z":-1.9755549430847169},{"x":-0.1763874590396881,"y":0.14008650183677674,"z":-1.7513725757598878},{"x":-0.07796045392751694,"y":0.1942734718322754,"z":-1.5129023790359498},{"x":0.013758797198534012,"y":0.24654248356819154,"z":-1.2903355360031129},{"x":0.09662217646837235,"y":0.2728087306022644,"z":-1.0527335405349732},{"x":0.16679343581199647,"y":0.27985063195228579,"z":-0.8252055048942566},{"x":0.20613659918308259,"y":0.22983509302139283,"z":-0.6125501990318298},{"x":0.20748190581798554,"y":0.16098439693450929,"z":-0.4484306275844574},{"x":0.18989863991737367,"y":0.07273292541503906,"z":-0.2752208411693573},{"x":0.11012391746044159,"y":0.03600025177001953,"z":-0.1598893702030182},{"x":-0.10169433802366257,"y":0.03600023686885834,"z":-0.0932379737496376},{"x":-0.19286060333251954,"y":0.09333384037017822,"z":-0.05048905685544014},{"x":-0.21065981686115266,"y":0.2333919107913971,"z":-0.05432756990194321},{"x":-0.15074965357780457,"y":0.33347398042678835,"z":-0.06791813671588898},{"x":-0.05363363400101662,"y":0.40975749492645266,"z":-0.09195097535848618},{"x":0.11939593404531479,"y":0.4255451560020447,"z":-0.11882728338241577},{"x":0.3056080639362335,"y":0.42708712816238406,"z":-0.1495605707168579},{"x":0.5043097734451294,"y":0.4025399088859558,"z":-0.18040919303894044},{"x":0.7141757011413574,"y":0.3566367030143738,"z":-0.21187306940555573},{"x":0.919940173625946,"y":0.31557777523994448,"z":-0.24376563727855683},{"x":1.132437825202942,"y":0.27664056420326235,"z":-0.2806803286075592},{"x":1.3387032747268677,"y":0.24059805274009705,"z":-0.31908518075942995},{"x":1.5505950450897217,"y":0.20651793479919434,"z":-0.362955242395401},{"x":1.7572864294052125,"y":0.1760064661502838,"z":-0.4095940887928009},{"x":1.9723454713821412,"y":0.1467919945716858,"z":-0.4609525203704834},{"x":2.181013584136963,"y":0.12171468138694763,"z":-0.5133467316627502},{"x":2.3950605392456056,"y":0.10054683685302735,"z":-0.5685999393463135},{"x":2.6015379428863527,"y":0.08316192030906677,"z":-0.6218037009239197},{"x":2.813416004180908,"y":0.0690988302230835,"z":-0.6753609776496887},{"x":3.0214807987213136,"y":0.0596577525138855,"z":-0.7256447076797485},{"x":3.2381904125213625,"y":0.051727473735809329,"z":-0.7767677307128906},{"x":3.4432051181793215,"y":0.03600028157234192,"z":-0.8244915008544922},{"x":3.651606559753418,"y":-0.015499994158744812,"z":-0.8769730925559998},{"x":2.058969883478312e-8,"y":0.0,"z":-3.7987986090115559e-9},{"x":2.058969883478312e-8,"y":0.0,"z":-3.7987986090115559e-9},{"x":2.058969883478312e-8,"y":0.0,"z":-3.7987986090115559e-9},{"x":2.058969883478312e-8,"y":0.0,"z":-3.7987986090115559e-9},{"x":2.058969883478312e-8,"y":0.0,"z":-3.7987986090115559e-9},{"x":2.058969883478312e-8,"y":0.0,"z":-3.7987986090115559e-9},{"x":2.058969883478312e-8,"y":0.0,"z":-3.7987986090115559e-9},{"x":2.058969883478312e-8,"y":0.0,"z":-3.7987986090115559e-9},{"x":2.058969883478312e-8,"y":0.0,"z":-3.7987986090115559e-9},{"x":2.058969883478312e-8,"y":0.0,"z":-3.7987986090115559e-9},{"x":2.058969883478312e-8,"y":0.0,"z":-3.7987986090115559e-9},{"x":2.058969883478312e-8,"y":0.0,"z":-3.7987986090115559e-9},{"x":2.058969883478312e-8,"y":0.0,"z":-3.7987986090115559e-9},{"x":2.058969883478312e-8,"y":0.0,"z":-3.7987986090115559e-9},{"x":2.058969883478312e-8,"y":0.0,"z":-3.7987986090115559e-9},{"x":2.058969883478312e-8,"y":0.0,"z":-3.7987986090115559e-9},{"x":2.058969883478312e-8,"y":0.0,"z":-3.7987986090115559e-9},{"x":2.058969883478312e-8,"y":0.0,"z":-3.7987986090115559e-9},{"x":2.058969883478312e-8,"y":0.0,"z":-3.7987986090115559e-9},{"x":2.058969883478312e-8,"y":0.0,"z":-3.7987986090115559e-9},{"x":2.058969883478312e-8,"y":0.0,"z":-3.7987986090115559e-9},{"x":2.058969883478312e-8,"y":0.0,"z":-3.7987986090115559e-9},{"x":2.058969883478312e-8,"y":0.0,"z":-3.7987986090115559e-9},{"x":2.058969883478312e-8,"y":0.0,"z":-3.7987986090115559e-9},{"x":2.058969883478312e-8,"y":0.0,"z":-3.7987986090115559e-9},{"x":2.058969883478312e-8,"y":0.0,"z":-3.7987986090115559e-9},{"x":2.058969883478312e-8,"y":0.0,"z":-3.7987986090115559e-9},{"x":2.058969883478312e-8,"y":0.0,"z":-3.7987986090115559e-9},{"x":2.058969883478312e-8,"y":0.0,"z":-3.7987986090115559e-9},{"x":2.058969883478312e-8,"y":0.0,"z":-3.7987986090115559e-9},{"x":2.058969883478312e-8,"y":0.0,"z":-3.7987986090115559e-9},{"x":2.058969883478312e-8,"y":0.0,"z":-3.7987986090115559e-9},{"x":2.058969883478312e-8,"y":0.0,"z":-3.7987986090115559e-9},{"x":2.058969883478312e-8,"y":0.0,"z":-3.7987986090115559e-9},{"x":2.058969883478312e-8,"y":0.0,"z":-3.7987986090115559e-9},{"x":2.058969883478312e-8,"y":0.0,"z":-3.7987986090115559e-9},{"x":2.058969883478312e-8,"y":0.0,"z":-3.7987986090115559e-9},{"x":2.058969883478312e-8,"y":0.0,"z":-3.7987986090115559e-9},{"x":2.058969883478312e-8,"y":0.0,"z":-3.7987986090115559e-9},{"x":2.058969883478312e-8,"y":0.0,"z":-3.7987986090115559e-9},{"x":2.058969883478312e-8,"y":0.0,"z":-3.7987986090115559e-9},{"x":2.058969883478312e-8,"y":0.0,"z":-3.7987986090115559e-9},{"x":2.058969883478312e-8,"y":0.0,"z":-3.7987986090115559e-9},{"x":2.058969883478312e-8,"y":0.0,"z":-3.7987986090115559e-9},{"x":2.058969883478312e-8,"y":0.0,"z":-3.7987986090115559e-9},{"x":2.058969883478312e-8,"y":0.0,"z":-3.7987986090115559e-9},{"x":2.058969883478312e-8,"y":0.0,"z":-3.7987986090115559e-9},{"x":2.058969883478312e-8,"y":0.0,"z":-3.7987986090115559e-9},{"x":2.058969883478312e-8,"y":0.0,"z":-3.7987986090115559e-9},{"x":2.058969883478312e-8,"y":0.0,"z":-3.7987986090115559e-9},{"x":2.058969883478312e-8,"y":0.0,"z":-3.7987986090115559e-9},{"x":2.058969883478312e-8,"y":0.0,"z":-3.7987986090115559e-9},{"x":2.058969883478312e-8,"y":0.0,"z":-3.7987986090115559e-9},{"x":2.058969883478312e-8,"y":0.0,"z":-3.7987986090115559e-9},{"x":2.058969883478312e-8,"y":0.0,"z":-3.7987986090115559e-9},{"x":2.058969883478312e-8,"y":0.0,"z":-3.7987986090115559e-9},{"x":2.058969883478312e-8,"y":0.0,"z":-3.7987986090115559e-9},{"x":2.058969883478312e-8,"y":0.0,"z":-3.7987986090115559e-9},{"x":2.058969883478312e-8,"y":0.0,"z":-3.7987986090115559e-9},{"x":2.058969883478312e-8,"y":0.0,"z":-3.7987986090115559e-9},{"x":2.058969883478312e-8,"y":0.0,"z":-3.7987986090115559e-9},{"x":2.058969883478312e-8,"y":0.0,"z":-3.7987986090115559e-9},{"x":2.058969883478312e-8,"y":0.0,"z":-3.7987986090115559e-9},{"x":2.058969883478312e-8,"y":0.0,"z":-3.7987986090115559e-9},{"x":2.058969883478312e-8,"y":0.0,"z":-3.7987986090115559e-9},{"x":2.058969883478312e-8,"y":0.0,"z":-3.7987986090115559e-9},{"x":2.058969883478312e-8,"y":0.0,"z":-3.7987986090115559e-9},{"x":2.058969883478312e-8,"y":0.0,"z":-3.7987986090115559e-9},{"x":2.058969883478312e-8,"y":0.0,"z":-3.7987986090115559e-9},{"x":2.058969883478312e-8,"y":0.0,"z":-3.7987986090115559e-9},{"x":2.058969883478312e-8,"y":0.0,"z":-3.7987986090115559e-9},{"x":2.058969883478312e-8,"y":0.0,"z":-3.7987986090115559e-9},{"x":2.058969883478312e-8,"y":0.0,"z":-3.7987986090115559e-9},{"x":2.058969883478312e-8,"y":0.0,"z":-3.7987986090115559e-9},{"x":2.058969883478312e-8,"y":0.0,"z":-3.7987986090115559e-9},{"x":2.058969883478312e-8,"y":0.0,"z":-3.7987986090115559e-9},{"x":2.058969883478312e-8,"y":0.0,"z":-3.7987986090115559e-9},{"x":2.058969883478312e-8,"y":0.0,"z":-3.7987986090115559e-9},{"x":2.058969883478312e-8,"y":0.0,"z":-3.7987986090115559e-9},{"x":2.058969883478312e-8,"y":0.0,"z":-3.7987986090115559e-9},{"x":2.058969883478312e-8,"y":0.0,"z":-3.7987986090115559e-9},{"x":2.058969883478312e-8,"y":0.0,"z":-3.7987986090115559e-9},{"x":2.058969883478312e-8,"y":0.0,"z":-3.7987986090115559e-9},{"x":2.058969883478312e-8,"y":0.0,"z":-3.7987986090115559e-9},{"x":2.058969883478312e-8,"y":0.0,"z":-3.7987986090115559e-9},{"x":2.058969883478312e-8,"y":0.0,"z":-3.7987986090115559e-9},{"x":2.058969883478312e-8,"y":0.0,"z":-3.7987986090115559e-9},{"x":2.058969883478312e-8,"y":0.0,"z":-3.7987986090115559e-9},{"x":2.058969883478312e-8,"y":0.0,"z":-3.7987986090115559e-9},{"x":2.058969883478312e-8,"y":0.0,"z":-3.7987986090115559e-9},{"x":2.058969883478312e-8,"y":0.0,"z":-3.7987986090115559e-9},{"x":2.058969883478312e-8,"y":0.0,"z":-3.7987986090115559e-9},{"x":2.058969883478312e-8,"y":0.0,"z":-3.7987986090115559e-9},{"x":2.058969883478312e-8,"y":0.0,"z":-3.7987986090115559e-9},{"x":2.058969883478312e-8,"y":0.0,"z":-3.7987986090115559e-9},{"x":2.058969883478312e-8,"y":0.0,"z":-3.7987986090115559e-9},{"x":2.058969883478312e-8,"y":0.0,"z":-3.7987986090115559e-9},{"x":2.058969883478312e-8,"y":0.0,"z":-3.7987986090115559e-9},{"x":2.058969883478312e-8,"y":0.0,"z":-3.7987986090115559e-9},{"x":2.058969883478312e-8,"y":0.0,"z":-3.7987986090115559e-9}],"restPositions":[{"x":-2.4457621574401857,"y":0.0,"z":0.0,"w":1.0},{"x":-2.321721315383911,"y":0.0,"z":0.00013242514978628606,"w":1.0},{"x":-2.196953058242798,"y":0.0,"z":0.0005079790134914219,"w":1.0},{"x":-2.0720934867858888,"y":0.0,"z":0.0010930342832580209,"w":1.0},{"x":-1.9477347135543824,"y":0.0,"z":0.0018535902490839363,"w":1.0},{"x":-1.8227988481521607,"y":0.0,"z":0.0027690634597092869,"w":1.0},{"x":-1.6983312368392945,"y":0.0,"z":0.0038072161842137577,"w":1.0},{"x":-1.5736637115478516,"y":0.0,"z":0.0049503641203045849,"w":1.0},{"x":-1.4488788843154908,"y":0.0,"z":0.00617685541510582,"w":1.0},{"x":-1.3243824243545533,"y":0.0,"z":0.00746256485581398,"w":1.0},{"x":-1.1995761394500733,"y":0.0,"z":0.008794651366770268,"w":1.0},{"x":-1.0750432014465333,"y":0.0,"z":0.010148673318326474,"w":1.0},{"x":-0.9503471851348877,"y":0.0,"z":0.011511624790728093,"w":1.0},{"x":-0.8257092833518982,"y":0.0,"z":0.012863720767199993,"w":1.0},{"x":-0.701043426990509,"y":0.0,"z":0.014188677072525025,"w":1.0},{"x":-0.5764317512512207,"y":0.0,"z":0.015468397177755833,"w":1.0},{"x":-0.4517173171043396,"y":0.0,"z":0.016687020659446718,"w":1.0},{"x":-0.3271138370037079,"y":0.0,"z":0.01782466657459736,"w":1.0},{"x":-0.20242147147655488,"y":0.0,"z":0.018864795565605165,"w":1.0},{"x":-0.07773176580667496,"y":0.0,"z":0.019787397235631944,"w":1.0},{"x":0.046781450510025027,"y":0.0,"z":0.02057134546339512,"w":1.0},{"x":0.17164263129234315,"y":0.0,"z":0.021198241040110589,"w":1.0},{"x":0.29605117440223696,"y":0.0,"z":0.02164142020046711,"w":1.0},{"x":0.4209239184856415,"y":0.0,"z":0.021879294887185098,"w":1.0},{"x":0.5455943942070007,"y":0.0,"z":0.021882858127355577,"w":1.0},{"x":0.6699802279472351,"y":0.0,"z":0.02162373811006546,"w":1.0},{"x":0.7950160503387451,"y":0.0,"z":0.021065490320324899,"w":1.0},{"x":0.9194204211235046,"y":0.0,"z":0.020176487043499948,"w":1.0},{"x":1.0440919399261475,"y":0.0,"z":0.018909338861703874,"w":1.0},{"x":1.1690346002578736,"y":0.0,"z":0.01721259206533432,"w":1.0},{"x":1.2932841777801514,"y":0.0,"z":0.015044975094497204,"w":1.0},{"x":1.4179847240447999,"y":0.0,"z":0.012321120128035546,"w":1.0},{"x":1.5429824590682984,"y":0.0,"z":0.008959073573350907,"w":1.0},{"x":1.6673803329467774,"y":0.0,"z":0.004888060037046671,"w":1.0},{"x":1.7911680936813355,"y":0.0,"z":0.0,"w":1.0},{"x":0.0,"y":0.0,"z":0.0,"w":0.0},{"x":0.0,"y":0.0,"z":0.0,"w":0.0},{"x":0.0,"y":0.0,"z":0.0,"w":0.0},{"x":0.0,"y":0.0,"z":0.0,"w":0.0},{"x":0.0,"y":0.0,"z":0.0,"w":0.0},{"x":0.0,"y":0.0,"z":0.0,"w":0.0},{"x":0.0,"y":0.0,"z":0.0,"w":0.0},{"x":0.0,"y":0.0,"z":0.0,"w":0.0},{"x":0.0,"y":0.0,"z":0.0,"w":0.0},{"x":0.0,"y":0.0,"z":0.0,"w":0.0},{"x":0.0,"y":0.0,"z":0.0,"w":0.0},{"x":0.0,"y":0.0,"z":0.0,"w":0.0},{"x":0.0,"y":0.0,"z":0.0,"w":0.0},{"x":0.0,"y":0.0,"z":0.0,"w":0.0},{"x":0.0,"y":0.0,"z":0.0,"w":0.0},{"x":0.0,"y":0.0,"z":0.0,"w":0.0},{"x":0.0,"y":0.0,"z":0.0,"w":0.0},{"x":0.0,"y":0.0,"z":0.0,"w":0.0},{"x":0.0,"y":0.0,"z":0.0,"w":0.0},{"x":0.0,"y":0.0,"z":0.0,"w":0.0},{"x":0.0,"y":0.0,"z":0.0,"w":0.0},{"x":0.0,"y":0.0,"z":0.0,"w":0.0},{"x":0.0,"y":0.0,"z":0.0,"w":0.0},{"x":0.0,"y":0.0,"z":0.0,"w":0.0},{"x":0.0,"y":0.0,"z":0.0,"w":0.0},{"x":0.0,"y":0.0,"z":0.0,"w":0.0},{"x":0.0,"y":0.0,"z":0.0,"w":0.0},{"x":0.0,"y":0.0,"z":0.0,"w":0.0},{"x":0.0,"y":0.0,"z":0.0,"w":0.0},{"x":0.0,"y":0.0,"z":0.0,"w":0.0},{"x":0.0,"y":0.0,"z":0.0,"w":0.0},{"x":0.0,"y":0.0,"z":0.0,"w":0.0},{"x":0.0,"y":0.0,"z":0.0,"w":0.0},{"x":0.0,"y":0.0,"z":0.0,"w":0.0},{"x":0.0,"y":0.0,"z":0.0,"w":0.0},{"x":0.0,"y":0.0,"z":0.0,"w":0.0},{"x":0.0,"y":0.0,"z":0.0,"w":0.0},{"x":0.0,"y":0.0,"z":0.0,"w":0.0},{"x":0.0,"y":0.0,"z":0.0,"w":0.0},{"x":0.0,"y":0.0,"z":0.0,"w":0.0},{"x":0.0,"y":0.0,"z":0.0,"w":0.0},{"x":0.0,"y":0.0,"z":0.0,"w":0.0},{"x":0.0,"y":0.0,"z":0.0,"w":0.0},{"x":0.0,"y":0.0,"z":0.0,"w":0.0},{"x":0.0,"y":0.0,"z":0.0,"w":0.0},{"x":0.0,"y":0.0,"z":0.0,"w":0.0},{"x":0.0,"y":0.0,"z":0.0,"w":0.0},{"x":0.0,"y":0.0,"z":0.0,"w":0.0},{"x":0.0,"y":0.0,"z":0.0,"w":0.0},{"x":0.0,"y":0.0,"z":0.0,"w":0.0},{"x":0.0,"y":0.0,"z":0.0,"w":0.0},{"x":0.0,"y":0.0,"z":0.0,"w":0.0},{"x":0.0,"y":0.0,"z":0.0,"w":0.0},{"x":0.0,"y":0.0,"z":0.0,"w":0.0},{"x":0.0,"y":0.0,"z":0.0,"w":0.0},{"x":0.0,"y":0.0,"z":0.0,"w":0.0},{"x":0.0,"y":0.0,"z":0.0,"w":0.0},{"x":0.0,"y":0.0,"z":0.0,"w":0.0},{"x":0.0,"y":0.0,"z":0.0,"w":0.0},{"x":0.0,"y":0.0,"z":0.0,"w":0.0},{"x":0.0,"y":0.0,"z":0.0,"w":0.0},{"x":0.0,"y":0.0,"z":0.0,"w":0.0},{"x":0.0,"y":0.0,"z":0.0,"w":0.0},{"x":0.0,"y":0.0,"z":0.0,"w":0.0},{"x":0.0,"y":0.0,"z":0.0,"w":0.0},{"x":0.0,"y":0.0,"z":0.0,"w":0.0},{"x":0.0,"y":0.0,"z":0.0,"w":0.0},{"x":0.0,"y":0.0,"z":0.0,"w":0.0},{"x":0.0,"y":0.0,"z":0.0,"w":0.0},{"x":0.0,"y":0.0,"z":0.0,"w":0.0},{"x":0.0,"y":0.0,"z":0.0,"w":0.0},{"x":0.0,"y":0.0,"z":0.0,"w":0.0},{"x":0.0,"y":0.0,"z":0.0,"w":0.0},{"x":0.0,"y":0.0,"z":0.0,"w":0.0},{"x":0.0,"y":0.0,"z":0.0,"w":0.0},{"x":0.0,"y":0.0,"z":0.0,"w":0.0},{"x":0.0,"y":0.0,"z":0.0,"w":0.0},{"x":0.0,"y":0.0,"z":0.0,"w":0.0},{"x":0.0,"y":0.0,"z":0.0,"w":0.0},{"x":0.0,"y":0.0,"z":0.0,"w":0.0},{"x":0.0,"y":0.0,"z":0.0,"w":0.0},{"x":0.0,"y":0.0,"z":0.0,"w":0.0},{"x":0.0,"y":0.0,"z":0.0,"w":0.0},{"x":0.0,"y":0.0,"z":0.0,"w":0.0},{"x":0.0,"y":0.0,"z":0.0,"w":0.0},{"x":0.0,"y":0.0,"z":0.0,"w":0.0},{"x":0.0,"y":0.0,"z":0.0,"w":0.0},{"x":0.0,"y":0.0,"z":0.0,"w":0.0},{"x":0.0,"y":0.0,"z":0.0,"w":0.0},{"x":0.0,"y":0.0,"z":0.0,"w":0.0},{"x":0.0,"y":0.0,"z":0.0,"w":0.0},{"x":0.0,"y":0.0,"z":0.0,"w":0.0},{"x":0.0,"y":0.0,"z":0.0,"w":0.0},{"x":0.0,"y":0.0,"z":0.0,"w":0.0},{"x":0.0,"y":0.0,"z":0.0,"w":0.0},{"x":0.0,"y":0.0,"z":0.0,"w":0.0},{"x":0.0,"y":0.0,"z":0.0,"w":0.0},{"x":0.0,"y":0.0,"z":0.0,"w":0.0},{"x":0.0,"y":0.0,"z":0.0,"w":0.0},{"x":0.0,"y":0.0,"z":0.0,"w":0.0}],"orientations":[],"restOrientations":[],"velocities":[{"x":0.0,"y":0.0,"z":0.0},{"x":0.0,"y":0.0,"z":0.0},{"x":-0.09123903512954712,"y":0.023221822455525399,"z":0.10855160653591156},{"x":-0.1434909999370575,"y":0.009499228559434414,"z":0.14927780628204347},{"x":-0.1344073861837387,"y":-0.1002146303653717,"z":0.17735162377357484},{"x":0.04464956000447273,"y":-0.053110942244529727,"z":0.16850358247756959},{"x":0.12795522809028626,"y":-0.08768724650144577,"z":0.13630518317222596},{"x":0.1669664829969406,"y":-0.09326636791229248,"z":0.016985084861516954},{"x":0.13407185673713685,"y":-0.01891818270087242,"z":0.001215186552144587},{"x":0.10594171285629273,"y":-0.003599003655835986,"z":-0.08873175084590912},{"x":0.22835248708724976,"y":0.07526689022779465,"z":0.014837715774774552},{"x":0.49234113097190859,"y":0.0000022298659132502509,"z":-0.1306357979774475},{"x":-0.5133496522903442,"y":0.0,"z":-0.9304157495498657},{"x":-0.36088332533836367,"y":0.1257956475019455,"z":-0.7181791067123413},{"x":-0.38097071647644045,"y":0.1853419840335846,"z":-0.8069813847541809},{"x":-0.22799570858478547,"y":0.21695701777935029,"z":-0.7425020933151245},{"x":-0.2574833333492279,"y":0.2618665397167206,"z":-0.7065070867538452},{"x":-0.2938961684703827,"y":0.4651411175727844,"z":-0.5229465365409851},{"x":-0.26913630962371828,"y":0.6447523236274719,"z":-0.4319427013397217},{"x":-0.23223192989826203,"y":0.8319450616836548,"z":-0.41232866048812868},{"x":-0.3108094036579132,"y":1.082457184791565,"z":-0.4789270758628845},{"x":-0.37112751603126528,"y":1.2964396476745606,"z":-0.4844337999820709},{"x":-0.42712199687957766,"y":1.3845860958099366,"z":-0.40860190987586977},{"x":-0.451937198638916,"y":1.405283808708191,"z":-0.3294462263584137},{"x":-0.47478222846984866,"y":1.3769912719726563,"z":-0.2651728391647339},{"x":-0.48579972982406618,"y":1.3063535690307618,"z":-0.1982378512620926},{"x":-0.4739493131637573,"y":1.2057063579559327,"z":-0.1492374688386917},{"x":-0.4511141777038574,"y":1.059025764465332,"z":-0.11803032457828522},{"x":-0.42347222566604617,"y":0.883851945400238,"z":-0.12717948853969575},{"x":-0.38903212547302248,"y":0.6877753734588623,"z":-0.15387940406799317},{"x":-0.3318161368370056,"y":0.4801012873649597,"z":-0.18926826119422913},{"x":-0.2759591042995453,"y":0.27283522486686709,"z":-0.19119153916835786},{"x":-0.197923481464386,"y":0.06989960372447968,"z":-0.20263537764549256},{"x":0.0,"y":0.0,"z":0.0},{"x":0.0,"y":0.0,"z":0.0},{"x":0.0,"y":0.0,"z":0.0},{"x":0.0,"y":0.0,"z":0.0},{"x":0.0,"y":0.0,"z":0.0},{"x":0.0,"y":0.0,"z":0.0},{"x":0.0,"y":0.0,"z":0.0},{"x":0.0,"y":0.0,"z":0.0},{"x":0.0,"y":0.0,"z":0.0},{"x":0.0,"y":0.0,"z":0.0},{"x":0.0,"y":0.0,"z":0.0},{"x":0.0,"y":0.0,"z":0.0},{"x":0.0,"y":0.0,"z":0.0},{"x":0.0,"y":0.0,"z":0.0},{"x":0.0,"y":0.0,"z":0.0},{"x":0.0,"y":0.0,"z":0.0},{"x":0.0,"y":0.0,"z":0.0},{"x":0.0,"y":0.0,"z":0.0},{"x":0.0,"y":0.0,"z":0.0},{"x":0.0,"y":0.0,"z":0.0},{"x":0.0,"y":0.0,"z":0.0},{"x":0.0,"y":0.0,"z":0.0},{"x":0.0,"y":0.0,"z":0.0},{"x":0.0,"y":0.0,"z":0.0},{"x":0.0,"y":0.0,"z":0.0},{"x":0.0,"y":0.0,"z":0.0},{"x":0.0,"y":0.0,"z":0.0},{"x":0.0,"y":0.0,"z":0.0},{"x":0.0,"y":0.0,"z":0.0},{"x":0.0,"y":0.0,"z":0.0},{"x":0.0,"y":0.0,"z":0.0},{"x":0.0,"y":0.0,"z":0.0},{"x":0.0,"y":0.0,"z":0.0},{"x":0.0,"y":0.0,"z":0.0},{"x":0.0,"y":0.0,"z":0.0},{"x":0.0,"y":0.0,"z":0.0},{"x":0.0,"y":0.0,"z":0.0},{"x":0.0,"y":0.0,"z":0.0},{"x":0.0,"y":0.0,"z":0.0},{"x":0.0,"y":0.0,"z":0.0},{"x":0.0,"y":0.0,"z":0.0},{"x":0.0,"y":0.0,"z":0.0},{"x":0.0,"y":0.0,"z":0.0},{"x":0.0,"y":0.0,"z":0.0},{"x":0.0,"y":0.0,"z":0.0},{"x":0.0,"y":0.0,"z":0.0},{"x":0.0,"y":0.0,"z":0.0},{"x":0.0,"y":0.0,"z":0.0},{"x":0.0,"y":0.0,"z":0.0},{"x":0.0,"y":0.0,"z":0.0},{"x":0.0,"y":0.0,"z":0.0},{"x":0.0,"y":0.0,"z":0.0},{"x":0.0,"y":0.0,"z":0.0},{"x":0.0,"y":0.0,"z":0.0},{"x":0.0,"y":0.0,"z":0.0},{"x":0.0,"y":0.0,"z":0.0},{"x":0.0,"y":0.0,"z":0.0},{"x":0.0,"y":0.0,"z":0.0},{"x":0.0,"y":0.0,"z":0.0},{"x":0.0,"y":0.0,"z":0.0},{"x":0.0,"y":0.0,"z":0.0},{"x":0.0,"y":0.0,"z":0.0},{"x":0.0,"y":0.0,"z":0.0},{"x":0.0,"y":0.0,"z":0.0},{"x":0.0,"y":0.0,"z":0.0},{"x":0.0,"y":0.0,"z":0.0},{"x":0.0,"y":0.0,"z":0.0},{"x":0.0,"y":0.0,"z":0.0},{"x":0.0,"y":0.0,"z":0.0},{"x":0.0,"y":0.0,"z":0.0},{"x":0.0,"y":0.0,"z":0.0},{"x":0.0,"y":0.0,"z":0.0},{"x":0.0,"y":0.0,"z":0.0},{"x":0.0,"y":0.0,"z":0.0},{"x":0.0,"y":0.0,"z":0.0},{"x":0.0,"y":0.0,"z":0.0},{"x":0.0,"y":0.0,"z":0.0},{"x":0.0,"y":0.0,"z":0.0},{"x":0.0,"y":0.0,"z":0.0},{"x":0.0,"y":0.0,"z":0.0},{"x":0.0,"y":0.0,"z":0.0},{"x":0.0,"y":0.0,"z":0.0},{"x":0.0,"y":0.0,"z":0.0},{"x":0.0,"y":0.0,"z":0.0},{"x":0.0,"y":0.0,"z":0.0},{"x":0.0,"y":0.0,"z":0.0},{"x":0.0,"y":0.0,"z":0.0},{"x":0.0,"y":0.0,"z":0.0},{"x":0.0,"y":0.0,"z":0.0},{"x":0.0,"y":0.0,"z":0.0},{"x":0.0,"y":0.0,"z":0.0},{"x":0.0,"y":0.0,"z":0.0},{"x":0.0,"y":0.0,"z":0.0},{"x":0.0,"y":0.0,"z":0.0},{"x":0.0,"y":0.0,"z":0.0},{"x":0.0,"y":0.0,"z":0.0},{"x":0.0,"y":0.0,"z":0.0},{"x":0.0,"y":0.0,"z":0.0},{"x":0.0,"y":0.0,"z":0.0},{"x":0.0,"y":0.0,"z":0.0},{"x":0.0,"y":0.0,"z":0.0},{"x":0.0,"y":0.0,"z":0.0}],"angularVelocities":[],"invMasses":[1.0,10.0,9.999999046325684,10.0,10.0,10.000000953674317,9.999999046325684,10.0,10.0,10.0,10.0,10.000000953674317,10.000000953674317,10.000000953674317,10.0,10.0,10.0,9.999999046325684,10.0,10.0,10.0,10.0,10.0,10.0,10.0,10.0,10.0,10.0,10.0,10.0,10.0,10.0,10.0,10.0,10.0,0.0,0.0,0.0,0.0,0.0,0.0,0.0,0.0,0.0,0.0,0.0,0.0,0.0,0.0,0.0,0.0,0.0,0.0,0.0,0.0,0.0,0.0,0.0,0.0,0.0,0.0,0.0,0.0,0.0,0.0,0.0,0.0,0.0,0.0,0.0,0.0,0.0,0.0,0.0,0.0,0.0,0.0,0.0,0.0,0.0,0.0,0.0,0.0,0.0,0.0,0.0,0.0,0.0,0.0,0.0,0.0,0.0,0.0,0.0,0.0,0.0,0.0,0.0,0.0,0.0,0.0,0.0,0.0,0.0,0.0,0.0,0.0,0.0,0.0,0.0,0.0,0.0,0.0,0.0,0.0,0.0,0.0,0.0,0.0,0.0,0.0,0.0,0.0,0.0,0.0,0.0,0.0,0.0,0.0,0.0,0.0,0.0,0.0,0.0,0.0],"invRotationalMasses":[],"phases":[1,1,1,1,1,1,1,1,1,1,1,1,1,1,1,1,1,1,1,1,1,1,1,1,1,1,1,1,1,1,1,1,1,1,1,0,0,0,0,0,0,0,0,0,0,0,0,0,0,0,0,0,0,0,0,0,0,0,0,0,0,0,0,0,0,0,0,0,0,0,0,0,0,0,0,0,0,0,0,0,0,0,0,0,0,0,0,0,0,0,0,0,0,0,0,0,0,0,0,0,0,0,0,0,0,0,0,0,0,0,0,0,0,0,0,0,0,0,0,0,0,0,0,0,0,0,0,0,0,0,0,0,0,0,0],"principalRadii":[{"x":0.125,"y":0.125,"z":0.125},{"x":0.125,"y":0.125,"z":0.125},{"x":0.1250000149011612,"y":0.1250000149011612,"z":0.1250000149011612},{"x":0.125,"y":0.125,"z":0.125},{"x":0.125,"y":0.125,"z":0.125},{"x":0.1249999925494194,"y":0.1249999925494194,"z":0.1249999925494194},{"x":0.1250000149011612,"y":0.1250000149011612,"z":0.1250000149011612},{"x":0.125,"y":0.125,"z":0.125},{"x":0.125,"y":0.125,"z":0.125},{"x":0.125,"y":0.125,"z":0.125},{"x":0.125,"y":0.125,"z":0.125},{"x":0.1249999925494194,"y":0.1249999925494194,"z":0.1249999925494194},{"x":0.1249999925494194,"y":0.1249999925494194,"z":0.1249999925494194},{"x":0.1249999925494194,"y":0.1249999925494194,"z":0.1249999925494194},{"x":0.125,"y":0.125,"z":0.125},{"x":0.125,"y":0.125,"z":0.125},{"x":0.125,"y":0.125,"z":0.125},{"x":0.1250000149011612,"y":0.1250000149011612,"z":0.1250000149011612},{"x":0.125,"y":0.125,"z":0.125},{"x":0.125,"y":0.125,"z":0.125},{"x":0.125,"y":0.125,"z":0.125},{"x":0.125,"y":0.125,"z":0.125},{"x":0.125,"y":0.125,"z":0.125},{"x":0.125,"y":0.125,"z":0.125},{"x":0.125,"y":0.125,"z":0.125},{"x":0.125,"y":0.125,"z":0.125},{"x":0.125,"y":0.125,"z":0.125},{"x":0.125,"y":0.125,"z":0.125},{"x":0.125,"y":0.125,"z":0.125},{"x":0.125,"y":0.125,"z":0.125},{"x":0.125,"y":0.125,"z":0.125},{"x":0.125,"y":0.125,"z":0.125},{"x":0.125,"y":0.125,"z":0.125},{"x":0.125,"y":0.125,"z":0.125},{"x":0.125,"y":0.125,"z":0.125},{"x":0.0,"y":0.0,"z":0.0},{"x":0.0,"y":0.0,"z":0.0},{"x":0.0,"y":0.0,"z":0.0},{"x":0.0,"y":0.0,"z":0.0},{"x":0.0,"y":0.0,"z":0.0},{"x":0.0,"y":0.0,"z":0.0},{"x":0.0,"y":0.0,"z":0.0},{"x":0.0,"y":0.0,"z":0.0},{"x":0.0,"y":0.0,"z":0.0},{"x":0.0,"y":0.0,"z":0.0},{"x":0.0,"y":0.0,"z":0.0},{"x":0.0,"y":0.0,"z":0.0},{"x":0.0,"y":0.0,"z":0.0},{"x":0.0,"y":0.0,"z":0.0},{"x":0.0,"y":0.0,"z":0.0},{"x":0.0,"y":0.0,"z":0.0},{"x":0.0,"y":0.0,"z":0.0},{"x":0.0,"y":0.0,"z":0.0},{"x":0.0,"y":0.0,"z":0.0},{"x":0.0,"y":0.0,"z":0.0},{"x":0.0,"y":0.0,"z":0.0},{"x":0.0,"y":0.0,"z":0.0},{"x":0.0,"y":0.0,"z":0.0},{"x":0.0,"y":0.0,"z":0.0},{"x":0.0,"y":0.0,"z":0.0},{"x":0.0,"y":0.0,"z":0.0},{"x":0.0,"y":0.0,"z":0.0},{"x":0.0,"y":0.0,"z":0.0},{"x":0.0,"y":0.0,"z":0.0},{"x":0.0,"y":0.0,"z":0.0},{"x":0.0,"y":0.0,"z":0.0},{"x":0.0,"y":0.0,"z":0.0},{"x":0.0,"y":0.0,"z":0.0},{"x":0.0,"y":0.0,"z":0.0},{"x":0.0,"y":0.0,"z":0.0},{"x":0.0,"y":0.0,"z":0.0},{"x":0.0,"y":0.0,"z":0.0},{"x":0.0,"y":0.0,"z":0.0},{"x":0.0,"y":0.0,"z":0.0},{"x":0.0,"y":0.0,"z":0.0},{"x":0.0,"y":0.0,"z":0.0},{"x":0.0,"y":0.0,"z":0.0},{"x":0.0,"y":0.0,"z":0.0},{"x":0.0,"y":0.0,"z":0.0},{"x":0.0,"y":0.0,"z":0.0},{"x":0.0,"y":0.0,"z":0.0},{"x":0.0,"y":0.0,"z":0.0},{"x":0.0,"y":0.0,"z":0.0},{"x":0.0,"y":0.0,"z":0.0},{"x":0.0,"y":0.0,"z":0.0},{"x":0.0,"y":0.0,"z":0.0},{"x":0.0,"y":0.0,"z":0.0},{"x":0.0,"y":0.0,"z":0.0},{"x":0.0,"y":0.0,"z":0.0},{"x":0.0,"y":0.0,"z":0.0},{"x":0.0,"y":0.0,"z":0.0},{"x":0.0,"y":0.0,"z":0.0},{"x":0.0,"y":0.0,"z":0.0},{"x":0.0,"y":0.0,"z":0.0},{"x":0.0,"y":0.0,"z":0.0},{"x":0.0,"y":0.0,"z":0.0},{"x":0.0,"y":0.0,"z":0.0},{"x":0.0,"y":0.0,"z":0.0},{"x":0.0,"y":0.0,"z":0.0},{"x":0.0,"y":0.0,"z":0.0},{"x":0.0,"y":0.0,"z":0.0},{"x":0.0,"y":0.0,"z":0.0},{"x":0.0,"y":0.0,"z":0.0},{"x":0.0,"y":0.0,"z":0.0},{"x":0.0,"y":0.0,"z":0.0},{"x":0.0,"y":0.0,"z":0.0},{"x":0.0,"y":0.0,"z":0.0},{"x":0.0,"y":0.0,"z":0.0},{"x":0.0,"y":0.0,"z":0.0},{"x":0.0,"y":0.0,"z":0.0},{"x":0.0,"y":0.0,"z":0.0},{"x":0.0,"y":0.0,"z":0.0},{"x":0.0,"y":0.0,"z":0.0},{"x":0.0,"y":0.0,"z":0.0},{"x":0.0,"y":0.0,"z":0.0},{"x":0.0,"y":0.0,"z":0.0},{"x":0.0,"y":0.0,"z":0.0},{"x":0.0,"y":0.0,"z":0.0},{"x":0.0,"y":0.0,"z":0.0},{"x":0.0,"y":0.0,"z":0.0},{"x":0.0,"y":0.0,"z":0.0},{"x":0.0,"y":0.0,"z":0.0},{"x":0.0,"y":0.0,"z":0.0},{"x":0.0,"y":0.0,"z":0.0},{"x":0.0,"y":0.0,"z":0.0},{"x":0.0,"y":0.0,"z":0.0},{"x":0.0,"y":0.0,"z":0.0},{"x":0.0,"y":0.0,"z":0.0},{"x":0.0,"y":0.0,"z":0.0},{"x":0.0,"y":0.0,"z":0.0},{"x":0.0,"y":0.0,"z":0.0},{"x":0.0,"y":0.0,"z":0.0},{"x":0.0,"y":0.0,"z":0.0},{"x":0.0,"y":0.0,"z":0.0},{"x":0.0,"y":0.0,"z":0.0}],"colors":[{"r":1.0,"g":1.0,"b":1.0,"a":1.0},{"r":1.0,"g":1.0,"b":1.0,"a":1.0},{"r":1.0000001192092896,"g":1.0000001192092896,"b":1.0000001192092896,"a":1.0000001192092896},{"r":1.0,"g":1.0,"b":1.0,"a":1.0},{"r":1.0,"g":1.0,"b":1.0,"a":1.0},{"r":0.9999999403953552,"g":0.9999999403953552,"b":0.9999999403953552,"a":0.9999999403953552},{"r":1.0000001192092896,"g":1.0000001192092896,"b":1.0000001192092896,"a":1.0000001192092896},{"r":1.0,"g":1.0,"b":1.0,"a":1.0},{"r":1.0,"g":1.0,"b":1.0,"a":1.0},{"r":1.0,"g":1.0,"b":1.0,"a":1.0},{"r":1.0,"g":1.0,"b":1.0,"a":1.0},{"r":0.9999999403953552,"g":0.9999999403953552,"b":0.9999999403953552,"a":0.9999999403953552},{"r":0.9999999403953552,"g":0.9999999403953552,"b":0.9999999403953552,"a":0.9999999403953552},{"r":0.9999999403953552,"g":0.9999999403953552,"b":0.9999999403953552,"a":0.9999999403953552},{"r":1.0,"g":1.0,"b":1.0,"a":1.0},{"r":1.0,"g":1.0,"b":1.0,"a":1.0},{"r":1.0,"g":1.0,"b":1.0,"a":1.0},{"r":1.0000001192092896,"g":1.0000001192092896,"b":1.0000001192092896,"a":1.0000001192092896},{"r":1.0,"g":1.0,"b":1.0,"a":1.0},{"r":1.0,"g":1.0,"b":1.0,"a":1.0},{"r":1.0,"g":1.0,"b":1.0,"a":1.0},{"r":1.0,"g":1.0,"b":1.0,"a":1.0},{"r":1.0,"g":1.0,"b":1.0,"a":1.0},{"r":1.0,"g":1.0,"b":1.0,"a":1.0},{"r":1.0,"g":1.0,"b":1.0,"a":1.0},{"r":1.0,"g":1.0,"b":1.0,"a":1.0},{"r":1.0,"g":1.0,"b":1.0,"a":1.0},{"r":1.0,"g":1.0,"b":1.0,"a":1.0},{"r":1.0,"g":1.0,"b":1.0,"a":1.0},{"r":1.0,"g":1.0,"b":1.0,"a":1.0},{"r":1.0,"g":1.0,"b":1.0,"a":1.0},{"r":1.0,"g":1.0,"b":1.0,"a":1.0},{"r":1.0,"g":1.0,"b":1.0,"a":1.0},{"r":1.0,"g":1.0,"b":1.0,"a":1.0},{"r":1.0,"g":1.0,"b":1.0,"a":1.0},{"r":0.0,"g":0.0,"b":0.0,"a":0.0},{"r":0.0,"g":0.0,"b":0.0,"a":0.0},{"r":0.0,"g":0.0,"b":0.0,"a":0.0},{"r":0.0,"g":0.0,"b":0.0,"a":0.0},{"r":0.0,"g":0.0,"b":0.0,"a":0.0},{"r":0.0,"g":0.0,"b":0.0,"a":0.0},{"r":0.0,"g":0.0,"b":0.0,"a":0.0},{"r":0.0,"g":0.0,"b":0.0,"a":0.0},{"r":0.0,"g":0.0,"b":0.0,"a":0.0},{"r":0.0,"g":0.0,"b":0.0,"a":0.0},{"r":0.0,"g":0.0,"b":0.0,"a":0.0},{"r":0.0,"g":0.0,"b":0.0,"a":0.0},{"r":0.0,"g":0.0,"b":0.0,"a":0.0},{"r":0.0,"g":0.0,"b":0.0,"a":0.0},{"r":0.0,"g":0.0,"b":0.0,"a":0.0},{"r":0.0,"g":0.0,"b":0.0,"a":0.0},{"r":0.0,"g":0.0,"b":0.0,"a":0.0},{"r":0.0,"g":0.0,"b":0.0,"a":0.0},{"r":0.0,"g":0.0,"b":0.0,"a":0.0},{"r":0.0,"g":0.0,"b":0.0,"a":0.0},{"r":0.0,"g":0.0,"b":0.0,"a":0.0},{"r":0.0,"g":0.0,"b":0.0,"a":0.0},{"r":0.0,"g":0.0,"b":0.0,"a":0.0},{"r":0.0,"g":0.0,"b":0.0,"a":0.0},{"r":0.0,"g":0.0,"b":0.0,"a":0.0},{"r":0.0,"g":0.0,"b":0.0,"a":0.0},{"r":0.0,"g":0.0,"b":0.0,"a":0.0},{"r":0.0,"g":0.0,"b":0.0,"a":0.0},{"r":0.0,"g":0.0,"b":0.0,"a":0.0},{"r":0.0,"g":0.0,"b":0.0,"a":0.0},{"r":0.0,"g":0.0,"b":0.0,"a":0.0},{"r":0.0,"g":0.0,"b":0.0,"a":0.0},{"r":0.0,"g":0.0,"b":0.0,"a":0.0},{"r":0.0,"g":0.0,"b":0.0,"a":0.0},{"r":0.0,"g":0.0,"b":0.0,"a":0.0},{"r":0.0,"g":0.0,"b":0.0,"a":0.0},{"r":0.0,"g":0.0,"b":0.0,"a":0.0},{"r":0.0,"g":0.0,"b":0.0,"a":0.0},{"r":0.0,"g":0.0,"b":0.0,"a":0.0},{"r":0.0,"g":0.0,"b":0.0,"a":0.0},{"r":0.0,"g":0.0,"b":0.0,"a":0.0},{"r":0.0,"g":0.0,"b":0.0,"a":0.0},{"r":0.0,"g":0.0,"b":0.0,"a":0.0},{"r":0.0,"g":0.0,"b":0.0,"a":0.0},{"r":0.0,"g":0.0,"b":0.0,"a":0.0},{"r":0.0,"g":0.0,"b":0.0,"a":0.0},{"r":0.0,"g":0.0,"b":0.0,"a":0.0},{"r":0.0,"g":0.0,"b":0.0,"a":0.0},{"r":0.0,"g":0.0,"b":0.0,"a":0.0},{"r":0.0,"g":0.0,"b":0.0,"a":0.0},{"r":0.0,"g":0.0,"b":0.0,"a":0.0},{"r":0.0,"g":0.0,"b":0.0,"a":0.0},{"r":0.0,"g":0.0,"b":0.0,"a":0.0},{"r":0.0,"g":0.0,"b":0.0,"a":0.0},{"r":0.0,"g":0.0,"b":0.0,"a":0.0},{"r":0.0,"g":0.0,"b":0.0,"a":0.0},{"r":0.0,"g":0.0,"b":0.0,"a":0.0},{"r":0.0,"g":0.0,"b":0.0,"a":0.0},{"r":0.0,"g":0.0,"b":0.0,"a":0.0},{"r":0.0,"g":0.0,"b":0.0,"a":0.0},{"r":0.0,"g":0.0,"b":0.0,"a":0.0},{"r":0.0,"g":0.0,"b":0.0,"a":0.0},{"r":0.0,"g":0.0,"b":0.0,"a":0.0},{"r":0.0,"g":0.0,"b":0.0,"a":0.0},{"r":0.0,"g":0.0,"b":0.0,"a":0.0},{"r":0.0,"g":0.0,"b":0.0,"a":0.0},{"r":0.0,"g":0.0,"b":0.0,"a":0.0},{"r":0.0,"g":0.0,"b":0.0,"a":0.0},{"r":0.0,"g":0.0,"b":0.0,"a":0.0},{"r":0.0,"g":0.0,"b":0.0,"a":0.0},{"r":0.0,"g":0.0,"b":0.0,"a":0.0},{"r":0.0,"g":0.0,"b":0.0,"a":0.0},{"r":0.0,"g":0.0,"b":0.0,"a":0.0},{"r":0.0,"g":0.0,"b":0.0,"a":0.0},{"r":0.0,"g":0.0,"b":0.0,"a":0.0},{"r":0.0,"g":0.0,"b":0.0,"a":0.0},{"r":0.0,"g":0.0,"b":0.0,"a":0.0},{"r":0.0,"g":0.0,"b":0.0,"a":0.0},{"r":0.0,"g":0.0,"b":0.0,"a":0.0},{"r":0.0,"g":0.0,"b":0.0,"a":0.0},{"r":0.0,"g":0.0,"b":0.0,"a":0.0},{"r":0.0,"g":0.0,"b":0.0,"a":0.0},{"r":0.0,"g":0.0,"b":0.0,"a":0.0},{"r":0.0,"g":0.0,"b":0.0,"a":0.0},{"r":0.0,"g":0.0,"b":0.0,"a":0.0},{"r":0.0,"g":0.0,"b":0.0,"a":0.0},{"r":0.0,"g":0.0,"b":0.0,"a":0.0},{"r":0.0,"g":0.0,"b":0.0,"a":0.0},{"r":0.0,"g":0.0,"b":0.0,"a":0.0},{"r":0.0,"g":0.0,"b":0.0,"a":0.0},{"r":0.0,"g":0.0,"b":0.0,"a":0.0},{"r":0.0,"g":0.0,"b":0.0,"a":0.0},{"r":0.0,"g":0.0,"b":0.0,"a":0.0},{"r":0.0,"g":0.0,"b":0.0,"a":0.0},{"r":0.0,"g":0.0,"b":0.0,"a":0.0},{"r":0.0,"g":0.0,"b":0.0,"a":0.0},{"r":0.0,"g":0.0,"b":0.0,"a":0.0},{"r":0.0,"g":0.0,"b":0.0,"a":0.0},{"r":0.0,"g":0.0,"b":0.0,"a":0.0},{"r":0.0,"g":0.0,"b":0.0,"a":0.0}],"distanceConstraintsData":{"batches":[{"m_IDs":[0,1,2,3,4,5,6,7,8,9,10,11,12,13,14,15,16,17,18,19,20,21,22,23,24,25,26,27,28,29,30,31,32,33,34,35,36,37,38,39,40,41,42,43,44,45,46,47,48,49,50,51,52,53,54,55,56,57,58,59,60,61,62,63,64,65,66],"m_IDToIndex":[0,1,2,3,4,5,6,7,8,9,10,11,12,13,14,15,16,17,18,19,20,21,22,23,24,25,26,27,28,29,30,31,32,33,34,35,36,37,38,39,40,41,42,43,44,45,46,47,48,49,50,51,52,53,54,55,56,57,58,59,60,61,62,63,64,65,66],"m_ConstraintCount":67,"m_ActiveConstraintCount":17,"m_InitialActiveConstraintCount":17,"particleIndices":{"serializedContents":[0,1,2,3,4,5,6,7,8,9,10,11,12,13,14,15,16,17,18,19,20,21,22,23,24,25,26,27,28,29,30,31,32,33,0,0,0,0,0,0,0,0,0,0,0,0,0,0,0,0,0,0,0,0,0,0,0,0,0,0,0,0,0,0,0,0,0,0,0,0,0,0,0,0,0,0,0,0,0,0,0,0,0,0,0,0,0,0,0,0,0,0,0,0,0,0,0,0,0,0,0,0,0,0,0,0,0,0,0,0,0,0,0,0,0,0,0,0,0,0,0,0,0,0,0,0,0,0,0,0,0,0,0,0]},"restLengths":{"serializedContents":[0.12404090911149979,0.12486094236373902,0.1249392181634903,0.12467276304960251,0.12450309842824936,0.1245402991771698,0.12464523315429688,0.12461824715137482,0.12460867315530777,0.1246931180357933,0.12486275285482407,0.12487296760082245,0.12438610196113587,0.12440754473209381,0.12495417892932892,0.12473028898239136,0.12446446716785431,0.0,0.0,0.0,0.0,0.0,0.0,0.0,0.0,0.0,0.0,0.0,0.0,0.0,0.0,0.0,0.0,0.0,0.0,0.0,0.0,0.0,0.0,0.0,0.0,0.0,0.0,0.0,0.0,0.0,0.0,0.0,0.0,0.0,0.0,0.0,0.0,0.0,0.0,0.0,0.0,0.0,0.0,0.0,0.0,0.0,0.0,0.0,0.0,0.0,0.0]},"stiffnesses":{"serializedContents":[{"x":0.0,"y":0.0},{"x":0.0,"y":0.0},{"x":0.0,"y":0.0},{"x":0.0,"y":0.0},{"x":0.0,"y":0.0},{"x":0.0,"y":0.0},{"x":0.0,"y":0.0},{"x":0.0,"y":0.0},{"x":0.0,"y":0.0},{"x":0.0,"y":0.0},{"x":0.0,"y":0.0},{"x":0.0,"y":0.0},{"x":0.0,"y":0.0},{"x":0.0,"y":0.0},{"x":0.0,"y":0.0},{"x":0.0,"y":0.0},{"x":0.0,"y":0.0},{"x":0.0,"y":0.0},{"x":0.0,"y":0.0},{"x":0.0,"y":0.0},{"x":0.0,"y":0.0},{"x":0.0,"y":0.0},{"x":0.0,"y":0.0},{"x":0.0,"y":0.0},{"x":0.0,"y":0.0},{"x":0.0,"y":0.0},{"x":0.0,"y":0.0},{"x":0.0,"y":0.0},{"x":0.0,"y":0.0},{"x":0.0,"y":0.0},{"x":0.0,"y":0.0},{"x":0.0,"y":0.0},{"x":0.0,"y":0.0},{"x":0.0,"y":0.0},{"x":0.0,"y":0.0},{"x":0.0,"y":0.0},{"x":0.0,"y":0.0},{"x":0.0,"y":0.0},{"x":0.0,"y":0.0},{"x":0.0,"y":0.0},{"x":0.0,"y":0.0},{"x":0.0,"y":0.0},{"x":0.0,"y":0.0},{"x":0.0,"y":0.0},{"x":0.0,"y":0.0},{"x":0.0,"y":0.0},{"x":0.0,"y":0.0},{"x":0.0,"y":0.0},{"x":0.0,"y":0.0},{"x":0.0,"y":0.0},{"x":0.0,"y":0.0},{"x":0.0,"y":0.0},{"x":0.0,"y":0.0},{"x":0.0,"y":0.0},{"x":0.0,"y":0.0},{"x":0.0,"y":0.0},{"x":0.0,"y":0.0},{"x":0.0,"y":0.0},{"x":0.0,"y":0.0},{"x":0.0,"y":0.0},{"x":0.0,"y":0.0},{"x":0.0,"y":0.0},{"x":0.0,"y":0.0},{"x":0.0,"y":0.0},{"x":0.0,"y":0.0},{"x":0.0,"y":0.0},{"x":0.0,"y":0.0}]}},{"m_IDs":[0,1,2,3,4,5,6,7,8,9,10,11,12,13,14,15,16,17,18,19,20,21,22,23,24,25,26,27,28,29,30,31,32,33,34,35,36,37,38,39,40,41,42,43,44,45,46,47,48,49,50,51,52,53,54,55,56,57,58,59,60,61,62,63,64,65,66],"m_IDToIndex":[0,1,2,3,4,5,6,7,8,9,10,11,12,13,14,15,16,17,18,19,20,21,22,23,24,25,26,27,28,29,30,31,32,33,34,35,36,37,38,39,40,41,42,43,44,45,46,47,48,49,50,51,52,53,54,55,56,57,58,59,60,61,62,63,64,65,66],"m_ConstraintCount":67,"m_ActiveConstraintCount":17,"m_InitialActiveConstraintCount":17,"particleIndices":{"serializedContents":[1,2,3,4,5,6,7,8,9,10,11,12,13,14,15,16,17,18,19,20,21,22,23,24,25,26,27,28,29,30,31,32,33,34,0,0,0,0,0,0,0,0,0,0,0,0,0,0,0,0,0,0,0,0,0,0,0,0,0,0,0,0,0,0,0,0,0,0,0,0,0,0,0,0,0,0,0,0,0,0,0,0,0,0,0,0,0,0,0,0,0,0,0,0,0,0,0,0,0,0,0,0,0,0,0,0,0,0,0,0,0,0,0,0,0,0,0,0,0,0,0,0,0,0,0,0,0,0,0,0,0,0,0,0]},"restLengths":{"serializedContents":[0.12476882338523865,0.12436109781265259,0.12447194010019303,0.12479085475206375,0.12481339275836945,0.12470346689224243,0.12467289716005326,0.12472038716077805,0.12469670176506043,0.12451568245887757,0.12440933287143707,0.12467047572135925,0.1250370740890503,0.12467795610427857,0.12426848709583283,0.12504294514656068,0.12388423085212708,0.0,0.0,0.0,0.0,0.0,0.0,0.0,0.0,0.0,0.0,0.0,0.0,0.0,0.0,0.0,0.0,0.0,0.0,0.0,0.0,0.0,0.0,0.0,0.0,0.0,0.0,0.0,0.0,0.0,0.0,0.0,0.0,0.0,0.0,0.0,0.0,0.0,0.0,0.0,0.0,0.0,0.0,0.0,0.0,0.0,0.0,0.0,0.0,0.0,0.0]},"stiffnesses":{"serializedContents":[{"x":0.0,"y":0.0},{"x":0.0,"y":0.0},{"x":0.0,"y":0.0},{"x":0.0,"y":0.0},{"x":0.0,"y":0.0},{"x":0.0,"y":0.0},{"x":0.0,"y":0.0},{"x":0.0,"y":0.0},{"x":0.0,"y":0.0},{"x":0.0,"y":0.0},{"x":0.0,"y":0.0},{"x":0.0,"y":0.0},{"x":0.0,"y":0.0},{"x":0.0,"y":0.0},{"x":0.0,"y":0.0},{"x":0.0,"y":0.0},{"x":0.0,"y":0.0},{"x":0.0,"y":0.0},{"x":0.0,"y":0.0},{"x":0.0,"y":0.0},{"x":0.0,"y":0.0},{"x":0.0,"y":0.0},{"x":0.0,"y":0.0},{"x":0.0,"y":0.0},{"x":0.0,"y":0.0},{"x":0.0,"y":0.0},{"x":0.0,"y":0.0},{"x":0.0,"y":0.0},{"x":0.0,"y":0.0},{"x":0.0,"y":0.0},{"x":0.0,"y":0.0},{"x":0.0,"y":0.0},{"x":0.0,"y":0.0},{"x":0.0,"y":0.0},{"x":0.0,"y":0.0},{"x":0.0,"y":0.0},{"x":0.0,"y":0.0},{"x":0.0,"y":0.0},{"x":0.0,"y":0.0},{"x":0.0,"y":0.0},{"x":0.0,"y":0.0},{"x":0.0,"y":0.0},{"x":0.0,"y":0.0},{"x":0.0,"y":0.0},{"x":0.0,"y":0.0},{"x":0.0,"y":0.0},{"x":0.0,"y":0.0},{"x":0.0,"y":0.0},{"x":0.0,"y":0.0},{"x":0.0,"y":0.0},{"x":0.0,"y":0.0},{"x":0.0,"y":0.0},{"x":0.0,"y":0.0},{"x":0.0,"y":0.0},{"x":0.0,"y":0.0},{"x":0.0,"y":0.0},{"x":0.0,"y":0.0},{"x":0.0,"y":0.0},{"x":0.0,"y":0.0},{"x":0.0,"y":0.0},{"x":0.0,"y":0.0},{"x":0.0,"y":0.0},{"x":0.0,"y":0.0},{"x":0.0,"y":0.0},{"x":0.0,"y":0.0},{"x":0.0,"y":0.0},{"x":0.0,"y":0.0}]}}]},"bendConstraintsData":{"batches":[{"m_IDs":[0,1,2,3,4,5,6,7,8,9,10,11,12,13,14,15,16,17,18,19,20,21,22,23,24,25,26,27,28,29,30,31,32,33,34,35,36,37,38,39,40,41,42,43,44],"m_IDToIndex":[0,1,2,3,4,5,6,7,8,9,10,11,12,13,14,15,16,17,18,19,20,21,22,23,24,25,26,27,28,29,30,31,32,33,34,35,36,37,38,39,40,41,42,43,44],"m_ConstraintCount":45,"m_ActiveConstraintCount":11,"m_InitialActiveConstraintCount":11,"particleIndices":{"serializedContents":[0,2,1,3,5,4,6,8,7,9,11,10,12,14,13,15,17,16,18,20,19,21,23,22,24,26,25,27,29,28,30,32,31,33,35,34,36,38,37,39,41,40,42,44,43,45,47,46,48,50,49,51,53,52,54,56,55,57,59,58,60,62,61,63,65,64,66,68,67,69,71,70,72,74,73,75,77,76,78,80,79,81,83,82,84,86,85,87,89,88,90,92,91,93,95,94,96,98,97,99,101,100,102,104,103,105,107,106,108,110,109,111,113,112,114,116,115,117,119,118,120,122,121,123,125,124,126,128,127,129,131,130,132,134,133]},"restBends":{"serializedContents":[0.0,0.0,0.0,0.0,0.0,0.0,0.0,0.0,0.0,0.0,0.0,0.0,0.0,0.0,0.0,0.0,0.0,0.0,0.0,0.0,0.0,0.0,0.0,0.0,0.0,0.0,0.0,0.0,0.0,0.0,0.0,0.0,0.0,0.0,0.0,0.0,0.0,0.0,0.0,0.0,0.0,0.0,0.0,0.0,0.0]},"bendingStiffnesses":{"serializedContents":[{"x":0.0,"y":0.0},{"x":0.0,"y":0.0},{"x":0.0,"y":0.0},{"x":0.0,"y":0.0},{"x":0.0,"y":0.0},{"x":0.0,"y":0.0},{"x":0.0,"y":0.0},{"x":0.0,"y":0.0},{"x":0.0,"y":0.0},{"x":0.0,"y":0.0},{"x":0.0,"y":0.0},{"x":0.0,"y":0.0},{"x":0.0,"y":0.0},{"x":0.0,"y":0.0},{"x":0.0,"y":0.0},{"x":0.0,"y":0.0},{"x":0.0,"y":0.0},{"x":0.0,"y":0.0},{"x":0.0,"y":0.0},{"x":0.0,"y":0.0},{"x":0.0,"y":0.0},{"x":0.0,"y":0.0},{"x":0.0,"y":0.0},{"x":0.0,"y":0.0},{"x":0.0,"y":0.0},{"x":0.0,"y":0.0},{"x":0.0,"y":0.0},{"x":0.0,"y":0.0},{"x":0.0,"y":0.0},{"x":0.0,"y":0.0},{"x":0.0,"y":0.0},{"x":0.0,"y":0.0},{"x":0.0,"y":0.0},{"x":0.0,"y":0.0},{"x":0.0,"y":0.0},{"x":0.0,"y":0.0},{"x":0.0,"y":0.0},{"x":0.0,"y":0.0},{"x":0.0,"y":0.0},{"x":0.0,"y":0.0},{"x":0.0,"y":0.0},{"x":0.0,"y":0.0},{"x":0.0,"y":0.0},{"x":0.0,"y":0.0},{"x":0.0,"y":0.0}]}},{"m_IDs":[0,1,2,3,4,5,6,7,8,9,10,11,12,13,14,15,16,17,18,19,20,21,22,23,24,25,26,27,28,29,30,31,32,33,34,35,36,37,38,39,40,41,42,43],"m_IDToIndex":[0,1,2,3,4,5,6,7,8,9,10,11,12,13,14,15,16,17,18,19,20,21,22,23,24,25,26,27,28,29,30,31,32,33,34,35,36,37,38,39,40,41,42,43],"m_ConstraintCount":44,"m_ActiveConstraintCount":11,"m_InitialActiveConstraintCount":11,"particleIndices":{"serializedContents":[1,3,2,4,6,5,7,9,8,10,12,11,13,15,14,16,18,17,19,21,20,22,24,23,25,27,26,28,30,29,31,33,32,34,36,35,37,39,38,40,42,41,43,45,44,46,48,47,49,51,50,52,54,53,55,57,56,58,60,59,61,63,62,64,66,65,67,69,68,70,72,71,73,75,74,76,78,77,79,81,80,82,84,83,85,87,86,88,90,89,91,93,92,94,96,95,97,99,98,100,102,101,103,105,104,106,108,107,109,111,110,112,114,113,115,117,116,118,120,119,121,123,122,124,126,125,127,129,128,130,132,131]},"restBends":{"serializedContents":[0.0,0.0,0.0,0.0,0.0,0.0,0.0,0.0,0.0,0.0,0.0,0.0,0.0,0.0,0.0,0.0,0.0,0.0,0.0,0.0,0.0,0.0,0.0,0.0,0.0,0.0,0.0,0.0,0.0,0.0,0.0,0.0,0.0,0.0,0.0,0.0,0.0,0.0,0.0,0.0,0.0,0.0,0.0,0.0]},"bendingStiffnesses":{"serializedContents":[{"x":0.0,"y":0.0},{"x":0.0,"y":0.0},{"x":0.0,"y":0.0},{"x":0.0,"y":0.0},{"x":0.0,"y":0.0},{"x":0.0,"y":0.0},{"x":0.0,"y":0.0},{"x":0.0,"y":0.0},{"x":0.0,"y":0.0},{"x":0.0,"y":0.0},{"x":0.0,"y":0.0},{"x":0.0,"y":0.0},{"x":0.0,"y":0.0},{"x":0.0,"y":0.0},{"x":0.0,"y":0.0},{"x":0.0,"y":0.0},{"x":0.0,"y":0.0},{"x":0.0,"y":0.0},{"x":0.0,"y":0.0},{"x":0.0,"y":0.0},{"x":0.0,"y":0.0},{"x":0.0,"y":0.0},{"x":0.0,"y":0.0},{"x":0.0,"y":0.0},{"x":0.0,"y":0.0},{"x":0.0,"y":0.0},{"x":0.0,"y":0.0},{"x":0.0,"y":0.0},{"x":0.0,"y":0.0},{"x":0.0,"y":0.0},{"x":0.0,"y":0.0},{"x":0.0,"y":0.0},{"x":0.0,"y":0.0},{"x":0.0,"y":0.0},{"x":0.0,"y":0.0},{"x":0.0,"y":0.0},{"x":0.0,"y":0.0},{"x":0.0,"y":0.0},{"x":0.0,"y":0.0},{"x":0.0,"y":0.0},{"x":0.0,"y":0.0},{"x":0.0,"y":0.0},{"x":0.0,"y":0.0},{"x":0.0,"y":0.0}]}},{"m_IDs":[0,1,2,3,4,5,6,7,8,9,10,11,12,13,14,15,16,17,18,19,20,21,22,23,24,25,26,27,28,29,30,31,32,33,34,35,36,37,38,39,40,41,42,43],"m_IDToIndex":[0,1,2,3,4,5,6,7,8,9,10,11,12,13,14,15,16,17,18,19,20,21,22,23,24,25,26,27,28,29,30,31,32,33,34,35,36,37,38,39,40,41,42,43],"m_ConstraintCount":44,"m_ActiveConstraintCount":11,"m_InitialActiveConstraintCount":11,"particleIndices":{"serializedContents":[2,4,3,5,7,6,8,10,9,11,13,12,14,16,15,17,19,18,20,22,21,23,25,24,26,28,27,29,31,30,32,34,33,35,37,36,38,40,39,41,43,42,44,46,45,47,49,48,50,52,51,53,55,54,56,58,57,59,61,60,62,64,63,65,67,66,68,70,69,71,73,72,74,76,75,77,79,78,80,82,81,83,85,84,86,88,87,89,91,90,92,94,93,95,97,96,98,100,99,101,103,102,104,106,105,107,109,108,110,112,111,113,115,114,116,118,117,119,121,120,122,124,123,125,127,126,128,130,129,131,133,132]},"restBends":{"serializedContents":[0.0,0.0,0.0,0.0,0.0,0.0,0.0,0.0,0.0,0.0,0.0,0.0,0.0,0.0,0.0,0.0,0.0,0.0,0.0,0.0,0.0,0.0,0.0,0.0,0.0,0.0,0.0,0.0,0.0,0.0,0.0,0.0,0.0,0.0,0.0,0.0,0.0,0.0,0.0,0.0,0.0,0.0,0.0,0.0]},"bendingStiffnesses":{"serializedContents":[{"x":0.0,"y":0.0},{"x":0.0,"y":0.0},{"x":0.0,"y":0.0},{"x":0.0,"y":0.0},{"x":0.0,"y":0.0},{"x":0.0,"y":0.0},{"x":0.0,"y":0.0},{"x":0.0,"y":0.0},{"x":0.0,"y":0.0},{"x":0.0,"y":0.0},{"x":0.0,"y":0.0},{"x":0.0,"y":0.0},{"x":0.0,"y":0.0},{"x":0.0,"y":0.0},{"x":0.0,"y":0.0},{"x":0.0,"y":0.0},{"x":0.0,"y":0.0},{"x":0.0,"y":0.0},{"x":0.0,"y":0.0},{"x":0.0,"y":0.0},{"x":0.0,"y":0.0},{"x":0.0,"y":0.0},{"x":0.0,"y":0.0},{"x":0.0,"y":0.0},{"x":0.0,"y":0.0},{"x":0.0,"y":0.0},{"x":0.0,"y":0.0},{"x":0.0,"y":0.0},{"x":0.0,"y":0.0},{"x":0.0,"y":0.0},{"x":0.0,"y":0.0},{"x":0.0,"y":0.0},{"x":0.0,"y":0.0},{"x":0.0,"y":0.0},{"x":0.0,"y":0.0},{"x":0.0,"y":0.0},{"x":0.0,"y":0.0},{"x":0.0,"y":0.0},{"x":0.0,"y":0.0},{"x":0.0,"y":0.0},{"x":0.0,"y":0.0},{"x":0.0,"y":0.0},{"x":0.0,"y":0.0},{"x":0.0,"y":0.0}]}}]},"pinConstraintsData":{"batches":[{"m_IDs":[],"m_IDToIndex":[],"m_ConstraintCount":0,"m_ActiveConstraintCount":0,"m_InitialActiveConstraintCount":0,"particleIndices":{"serializedContents":[]},"offsets":{"serializedContents":[]},"restDarbouxVectors":{"serializedContents":[]},"stiffnesses":{"serializedContents":[]},"breakThresholds":{"serializedContents":[]},"constraintForces":[]}]},"skinConstraintsData":{"batches":[]},"tetherConstraintsData":{"batches":[]},"stretchShearConstraintsData":{"batches":[]},"bendTwistConstraintsData":{"batches":[]},"shapeMatchingConstraintsData":{"batches":[]},"aerodynamicConstraintsData":{"batches":[]},"chainConstraintsData":{"batches":[]},"volumeConstraintsData":{"batches":[]},"groups":[{"instanceID":0},{"instanceID":0}],"path":{"m_Names":["A","B"],"m_Points":{"data":[{"tangentMode":0,"inTangent":{"x":-0.25,"y":0.0,"z":0.0},"position":{"x":-2.4457621574401857,"y":0.0,"z":0.0},"outTangent":{"x":1.348852515220642,"y":0.0,"z":0.0}},{"tangentMode":2,"inTangent":{"x":-1.1402534246444703,"y":0.0,"z":0.04930230602622032},"position":{"x":1.7911680936813355,"y":0.0,"z":0.0},"outTangent":{"x":0.24976660311222077,"y":0.0,"z":-0.010799415409564972}}]},"m_Normals":{"data":[{"x":0.0,"y":1.0,"z":0.0},{"x":0.0,"y":1.0,"z":0.0}]},"m_Colors":{"data":[{"r":1.0,"g":1.0,"b":1.0,"a":1.0},{"r":1.0,"g":1.0,"b":1.0,"a":1.0}]},"m_Thickness":{"data":[1.0,1.0]},"m_Masses":{"data":[0.10000000149011612,0.10000000149011612]},"m_RotationalMasses":{"data":[1.0,1.0]},"m_Phases":{"data":[1,1]},"m_Closed":false,"m_ArcLengthTable":[0.0,0.195298969745636,0.39537572860717776,0.5995790362358093,0.8072569370269775,1.0177570581436158,1.2304266691207886,1.4446126222610474,1.659661889076233,1.874921441078186,2.089738130569458,2.303459644317627,2.5154330730438234,2.7250068187713625,2.9315295219421388,3.1343507766723635,3.3328213691711427,3.5262932777404787,3.714120388031006,3.8956587314605715,4.0702667236328129,4.237307548522949],"m_TotalSplineLenght":4.237307548522949,"OnPathChanged":{"m_PersistentCalls":{"m_Calls":[]}},"OnControlPointAdded":{"m_PersistentCalls":{"m_Calls":[]}},"OnControlPointRemoved":{"m_PersistentCalls":{"m_Calls":[]}},"OnControlPointRenamed":{"m_PersistentCalls":{"m_Calls":[]}}},"thickness":0.125,"resolution":1.0,"m_InterParticleDistance":0.12462669610977173,"totalParticles":135,"m_RestLength":16.69999885559082,"restLengths":[0.12404090911149979,0.12476882338523865,0.12486094236373902,0.12436109781265259,0.1249392181634903,0.12447194010019303,0.12467276304960251,0.12479085475206375,0.12450309842824936,0.12481339275836945,0.1245402991771698,0.12470346689224243,0.12464523315429688,0.12467289716005326,0.12461824715137482,0.12472038716077805,0.12460867315530777,0.12469670176506043,0.1246931180357933,0.12451568245887757,0.12486275285482407,0.12440933287143707,0.12487296760082245,0.12467047572135925,0.12438610196113587,0.1250370740890503,0.12440754473209381,0.12467795610427857,0.12495417892932892,0.12426848709583283,0.12473028898239136,0.12504294514656068,0.12446446716785431,0.12388423085212708,0.12462669610977173,0.12462669610977173,0.12462669610977173,0.12462669610977173,0.12462669610977173,0.12462669610977173,0.12462669610977173,0.12462669610977173,0.12462669610977173,0.12462669610977173,0.12462669610977173,0.12462669610977173,0.12462669610977173,0.12462669610977173,0.12462669610977173,0.12462669610977173,0.12462669610977173,0.12462669610977173,0.12462669610977173,0.12462669610977173,0.12462669610977173,0.12462669610977173,0.12462669610977173,0.12462669610977173,0.12462669610977173,0.12462669610977173,0.12462669610977173,0.12462669610977173,0.12462669610977173,0.12462669610977173,0.12462669610977173,0.12462669610977173,0.12462669610977173,0.12462669610977173,0.12462669610977173,0.12462669610977173,0.12462669610977173,0.12462669610977173,0.12462669610977173,0.12462669610977173,0.12462669610977173,0.12462669610977173,0.12462669610977173,0.12462669610977173,0.12462669610977173,0.12462669610977173,0.12462669610977173,0.12462669610977173,0.12462669610977173,0.12462669610977173,0.12462669610977173,0.12462669610977173,0.12462669610977173,0.12462669610977173,0.12462669610977173,0.12462669610977173,0.12462669610977173,0.12462669610977173,0.12462669610977173,0.12462669610977173,0.12462669610977173,0.12462669610977173,0.12462669610977173,0.12462669610977173,0.12462669610977173,0.12462669610977173,0.12462669610977173,0.12462669610977173,0.12462669610977173,0.12462669610977173,0.12462669610977173,0.12462669610977173,0.12462669610977173,0.12462669610977173,0.12462669610977173,0.12462669610977173,0.12462669610977173,0.12462669610977173,0.12462669610977173,0.12462669610977173,0.12462669610977173,0.12462669610977173,0.12462669610977173,0.12462669610977173,0.12462669610977173,0.12462669610977173,0.12462669610977173,0.12462669610977173,0.12462669610977173,0.12462669610977173,0.12462669610977173,0.12462669610977173,0.12462669610977173,0.12462669610977173,0.12462669610977173,0.12462669610977173,0.12462669610977173,0.12462669610977173,0.12462669610977173,0.12462669610977173,0.0],"pooledParticles":100}|{"m_Empty":false,"m_ActiveParticleCount":38,"m_InitialActiveParticleCount":38,"_bounds":{"m_Center":{"x":-0.29398059844970705,"y":0.16153979301452638,"z":-0.6581498384475708},"m_Extent":{"x":2.261359214782715,"y":0.16153979301452638,"z":0.6581498384475708}},"positions":[{"x":2.509999990463257,"y":-0.015499979257583619,"z":-0.9311097860336304},{"x":2.332686424255371,"y":0.03600029647350311,"z":-0.8599693775177002},{"x":2.149611473083496,"y":0.046594634652137759,"z":-0.7872698307037354},{"x":1.968796968460083,"y":0.041513219475746158,"z":-0.7159349918365479},{"x":1.783642053604126,"y":0.03733085095882416,"z":-0.642377495765686},{"x":1.6025282144546509,"y":0.03600029647350311,"z":-0.5696991682052612},{"x":1.4197160005569459,"y":0.03600029647350311,"z":-0.495839387178421},{"x":1.2389329671859742,"y":0.03600029647350311,"z":-0.4223773181438446},{"x":1.0559725761413575,"y":0.03600031137466431,"z":-0.3471943438053131},{"x":0.8696784973144531,"y":0.03600029647350311,"z":-0.2971128523349762},{"x":0.6708763241767883,"y":0.036000266671180728,"z":-0.26849767565727236},{"x":0.4528745412826538,"y":0.07663418352603913,"z":-0.2689572870731354},{"x":0.23406647145748139,"y":0.14239726960659028,"z":-0.28433308005332949},{"x":0.013365879654884339,"y":0.19475363194942475,"z":-0.30916187167167666},{"x":-0.24884356558322907,"y":0.20482708513736726,"z":-0.3209162652492523},{"x":-0.41032129526138308,"y":0.1728448122739792,"z":-0.36782726645469668},{"x":-0.5897399187088013,"y":0.1292901188135147,"z":-0.4338352382183075},{"x":-0.6826050877571106,"y":0.07657523453235626,"z":-0.5395632982254028},{"x":-0.680908739566803,"y":0.040752530097961429,"z":-0.6375671625137329},{"x":-0.654147744178772,"y":0.03600029647350311,"z":-0.7397487163543701},{"x":-0.47134315967559817,"y":0.03600029647350311,"z":-0.8059743642807007},{"x":-0.29172441363334658,"y":0.03831692039966583,"z":-0.8151171207427979},{"x":-0.1139090359210968,"y":0.06957678496837616,"z":-0.787643313407898},{"x":0.06891344487667084,"y":0.12193562090396881,"z":-0.7005048990249634},{"x":0.25314807891845705,"y":0.18217049539089204,"z":-0.5932481288909912},{"x":0.4242786765098572,"y":0.2367704063653946,"z":-0.45967260003089907},{"x":0.602781355381012,"y":0.2725827097892761,"z":-0.30326858162879946},{"x":0.777682900428772,"y":0.26843398809432986,"z":-0.1337900459766388},{"x":0.958663821220398,"y":0.2426043301820755,"z":0.050362616777420047},{"x":1.1256389617919922,"y":0.2122085839509964,"z":0.22300320863723756},{"x":1.3039010763168336,"y":0.1809927374124527,"z":0.4068361222743988},{"x":1.471727728843689,"y":0.15306581556797028,"z":0.5799409747123718},{"x":1.6537624597549439,"y":0.12418629229068756,"z":0.768111526966095},{"x":1.8241448402404786,"y":0.0990065187215805,"z":0.9452481269836426},{"x":2.0038766860961916,"y":0.07528139650821686,"z":1.1343542337417603},{"x":2.169654130935669,"y":0.05496363341808319,"z":1.3096870183944703},{"x":2.3425865173339845,"y":0.03600029647350311,"z":1.4938433170318604},{"x":2.509999990463257,"y":-0.015499979257583619,"z":1.6719666719436646},{"x":0.0,"y":0.0,"z":0.0},{"x":0.0,"y":0.0,"z":0.0},{"x":0.0,"y":0.0,"z":0.0},{"x":0.0,"y":0.0,"z":0.0},{"x":0.0,"y":0.0,"z":0.0},{"x":0.0,"y":0.0,"z":0.0},{"x":0.0,"y":0.0,"z":0.0},{"x":0.0,"y":0.0,"z":0.0},{"x":0.0,"y":0.0,"z":0.0},{"x":0.0,"y":0.0,"z":0.0},{"x":0.0,"y":0.0,"z":0.0},{"x":0.0,"y":0.0,"z":0.0},{"x":0.0,"y":0.0,"z":0.0},{"x":0.0,"y":0.0,"z":0.0},{"x":0.0,"y":0.0,"z":0.0},{"x":0.0,"y":0.0,"z":0.0},{"x":0.0,"y":0.0,"z":0.0},{"x":0.0,"y":0.0,"z":0.0},{"x":0.0,"y":0.0,"z":0.0},{"x":0.0,"y":0.0,"z":0.0},{"x":0.0,"y":0.0,"z":0.0},{"x":0.0,"y":0.0,"z":0.0},{"x":0.0,"y":0.0,"z":0.0},{"x":0.0,"y":0.0,"z":0.0},{"x":0.0,"y":0.0,"z":0.0},{"x":0.0,"y":0.0,"z":0.0},{"x":0.0,"y":0.0,"z":0.0},{"x":0.0,"y":0.0,"z":0.0},{"x":0.0,"y":0.0,"z":0.0},{"x":0.0,"y":0.0,"z":0.0},{"x":0.0,"y":0.0,"z":0.0},{"x":0.0,"y":0.0,"z":0.0},{"x":0.0,"y":0.0,"z":0.0},{"x":0.0,"y":0.0,"z":0.0},{"x":0.0,"y":0.0,"z":0.0},{"x":0.0,"y":0.0,"z":0.0},{"x":0.0,"y":0.0,"z":0.0},{"x":0.0,"y":0.0,"z":0.0},{"x":0.0,"y":0.0,"z":0.0},{"x":0.0,"y":0.0,"z":0.0},{"x":0.0,"y":0.0,"z":0.0},{"x":0.0,"y":0.0,"z":0.0},{"x":0.0,"y":0.0,"z":0.0},{"x":0.0,"y":0.0,"z":0.0},{"x":0.0,"y":0.0,"z":0.0},{"x":0.0,"y":0.0,"z":0.0},{"x":0.0,"y":0.0,"z":0.0},{"x":0.0,"y":0.0,"z":0.0},{"x":0.0,"y":0.0,"z":0.0},{"x":0.0,"y":0.0,"z":0.0},{"x":0.0,"y":0.0,"z":0.0},{"x":0.0,"y":0.0,"z":0.0},{"x":0.0,"y":0.0,"z":0.0},{"x":0.0,"y":0.0,"z":0.0},{"x":0.0,"y":0.0,"z":0.0},{"x":0.0,"y":0.0,"z":0.0},{"x":0.0,"y":0.0,"z":0.0},{"x":0.0,"y":0.0,"z":0.0},{"x":0.0,"y":0.0,"z":0.0},{"x":0.0,"y":0.0,"z":0.0},{"x":0.0,"y":0.0,"z":0.0},{"x":0.0,"y":0.0,"z":0.0},{"x":0.0,"y":0.0,"z":0.0},{"x":0.0,"y":0.0,"z":0.0},{"x":0.0,"y":0.0,"z":0.0},{"x":0.0,"y":0.0,"z":0.0},{"x":0.0,"y":0.0,"z":0.0},{"x":0.0,"y":0.0,"z":0.0},{"x":0.0,"y":0.0,"z":0.0},{"x":0.0,"y":0.0,"z":0.0},{"x":0.0,"y":0.0,"z":0.0},{"x":0.0,"y":0.0,"z":0.0},{"x":0.0,"y":0.0,"z":0.0},{"x":0.0,"y":0.0,"z":0.0},{"x":0.0,"y":0.0,"z":0.0},{"x":0.0,"y":0.0,"z":0.0},{"x":0.0,"y":0.0,"z":0.0},{"x":0.0,"y":0.0,"z":0.0},{"x":0.0,"y":0.0,"z":0.0},{"x":0.0,"y":0.0,"z":0.0},{"x":0.0,"y":0.0,"z":0.0},{"x":0.0,"y":0.0,"z":0.0},{"x":0.0,"y":0.0,"z":0.0},{"x":0.0,"y":0.0,"z":0.0},{"x":0.0,"y":0.0,"z":0.0},{"x":0.0,"y":0.0,"z":0.0},{"x":0.0,"y":0.0,"z":0.0},{"x":0.0,"y":0.0,"z":0.0},{"x":0.0,"y":0.0,"z":0.0},{"x":0.0,"y":0.0,"z":0.0},{"x":0.0,"y":0.0,"z":0.0},{"x":0.0,"y":0.0,"z":0.0},{"x":0.0,"y":0.0,"z":0.0},{"x":0.0,"y":0.0,"z":0.0},{"x":0.0,"y":0.0,"z":0.0},{"x":0.0,"y":0.0,"z":0.0},{"x":0.0,"y":0.0,"z":0.0},{"x":0.0,"y":0.0,"z":0.0},{"x":0.0,"y":0.0,"z":0.0},{"x":0.0,"y":0.0,"z":0.0}],"restPositions":[{"x":-2.555339813232422,"y":0.30129528045654299,"z":-1.2823047637939454,"w":1.0},{"x":-2.437030792236328,"y":0.3017166554927826,"z":-1.2912490367889405,"w":1.0},{"x":-2.315223217010498,"y":0.30223384499549868,"z":-1.2951785326004029,"w":1.0},{"x":-2.1937432289123537,"y":0.30276787281036379,"z":-1.2979720830917359,"w":1.0},{"x":-2.0689151287078859,"y":0.3033267557621002,"z":-1.3002384901046754,"w":1.0},{"x":-1.9478195905685425,"y":0.30387526750564577,"z":-1.3020628690719605,"w":1.0},{"x":-1.8249938488006592,"y":0.3044363856315613,"z":-1.3036457300186158,"w":1.0},{"x":-1.7025344371795655,"y":0.30499958992004397,"z":-1.3050200939178467,"w":1.0},{"x":-1.5799254179000855,"y":0.30556660890579226,"z":-1.3062344789505005,"w":1.0},{"x":-1.4578752517700196,"y":0.30613359808921816,"z":-1.3073111772537232,"w":1.0},{"x":-1.3344929218292237,"y":0.3067091405391693,"z":-1.3082873821258546,"w":1.0},{"x":-1.213132619857788,"y":0.3072773516178131,"z":-1.3091533184051514,"w":1.0},{"x":-1.0889627933502198,"y":0.30786070227622988,"z":-1.3099552392959595,"w":1.0},{"x":-0.9680284857749939,"y":0.308430552482605,"z":-1.3106638193130494,"w":1.0},{"x":-0.8451760411262512,"y":0.30901119112968447,"z":-1.3113188743591309,"w":1.0},{"x":-0.7227247953414917,"y":0.3095915913581848,"z":-1.3119133710861207,"w":1.0},{"x":-0.6005764603614807,"y":0.31017208099365237,"z":-1.3124531507492066,"w":1.0},{"x":-0.4776839017868042,"y":0.31075769662857058,"z":-1.3129478693008423,"w":1.0},{"x":-0.35551121830940249,"y":0.31134137511253359,"z":-1.3133949041366578,"w":1.0},{"x":-0.23317155241966248,"y":0.3119274377822876,"z":-1.313801646232605,"w":1.0},{"x":-0.1105814129114151,"y":0.3125162720680237,"z":-1.3141709566116334,"w":1.0},{"x":0.01190622616559267,"y":0.3131062388420105,"z":-1.3145041465759278,"w":1.0},{"x":0.1335977017879486,"y":0.3136940002441406,"z":-1.3148019313812256,"w":1.0},{"x":0.2569970190525055,"y":0.3142918050289154,"z":-1.315071940422058,"w":1.0},{"x":0.37888917326927187,"y":0.31488412618637087,"z":-1.315308928489685,"w":1.0},{"x":0.5016072392463684,"y":0.3154824674129486,"z":-1.315519094467163,"w":1.0},{"x":0.6243343353271484,"y":0.31608298420906069,"z":-1.3157020807266236,"w":1.0},{"x":0.7455258369445801,"y":0.31667831540107729,"z":-1.315857172012329,"w":1.0},{"x":0.8696197867393494,"y":0.3172905743122101,"z":-1.315990686416626,"w":1.0},{"x":0.9896140694618225,"y":0.31788551807403567,"z":-1.316096305847168,"w":1.0},{"x":1.1147502660751343,"y":0.3185095191001892,"z":-1.3161824941635132,"w":1.0},{"x":1.2344218492507935,"y":0.31911030411720278,"z":-1.3162426948547364,"w":1.0},{"x":1.3599278926849366,"y":0.31974560022354128,"z":-1.316282868385315,"w":1.0},{"x":1.4794461727142335,"y":0.32035699486732485,"z":-1.3162996768951417,"w":1.0},{"x":1.6042826175689698,"y":0.32100483775138857,"z":-1.3162951469421387,"w":1.0},{"x":1.7279413938522339,"y":0.3216607868671417,"z":-1.3162685632705689,"w":1.0},{"x":1.8505874872207642,"y":0.32233789563179018,"z":-1.3162211179733277,"w":1.0},{"x":1.967378854751587,"y":0.32307958602905276,"z":-1.316169261932373,"w":1.0},{"x":0.0,"y":0.0,"z":0.0,"w":0.0},{"x":0.0,"y":0.0,"z":0.0,"w":0.0},{"x":0.0,"y":0.0,"z":0.0,"w":0.0},{"x":0.0,"y":0.0,"z":0.0,"w":0.0},{"x":0.0,"y":0.0,"z":0.0,"w":0.0},{"x":0.0,"y":0.0,"z":0.0,"w":0.0},{"x":0.0,"y":0.0,"z":0.0,"w":0.0},{"x":0.0,"y":0.0,"z":0.0,"w":0.0},{"x":0.0,"y":0.0,"z":0.0,"w":0.0},{"x":0.0,"y":0.0,"z":0.0,"w":0.0},{"x":0.0,"y":0.0,"z":0.0,"w":0.0},{"x":0.0,"y":0.0,"z":0.0,"w":0.0},{"x":0.0,"y":0.0,"z":0.0,"w":0.0},{"x":0.0,"y":0.0,"z":0.0,"w":0.0},{"x":0.0,"y":0.0,"z":0.0,"w":0.0},{"x":0.0,"y":0.0,"z":0.0,"w":0.0},{"x":0.0,"y":0.0,"z":0.0,"w":0.0},{"x":0.0,"y":0.0,"z":0.0,"w":0.0},{"x":0.0,"y":0.0,"z":0.0,"w":0.0},{"x":0.0,"y":0.0,"z":0.0,"w":0.0},{"x":0.0,"y":0.0,"z":0.0,"w":0.0},{"x":0.0,"y":0.0,"z":0.0,"w":0.0},{"x":0.0,"y":0.0,"z":0.0,"w":0.0},{"x":0.0,"y":0.0,"z":0.0,"w":0.0},{"x":0.0,"y":0.0,"z":0.0,"w":0.0},{"x":0.0,"y":0.0,"z":0.0,"w":0.0},{"x":0.0,"y":0.0,"z":0.0,"w":0.0},{"x":0.0,"y":0.0,"z":0.0,"w":0.0},{"x":0.0,"y":0.0,"z":0.0,"w":0.0},{"x":0.0,"y":0.0,"z":0.0,"w":0.0},{"x":0.0,"y":0.0,"z":0.0,"w":0.0},{"x":0.0,"y":0.0,"z":0.0,"w":0.0},{"x":0.0,"y":0.0,"z":0.0,"w":0.0},{"x":0.0,"y":0.0,"z":0.0,"w":0.0},{"x":0.0,"y":0.0,"z":0.0,"w":0.0},{"x":0.0,"y":0.0,"z":0.0,"w":0.0},{"x":0.0,"y":0.0,"z":0.0,"w":0.0},{"x":0.0,"y":0.0,"z":0.0,"w":0.0},{"x":0.0,"y":0.0,"z":0.0,"w":0.0},{"x":0.0,"y":0.0,"z":0.0,"w":0.0},{"x":0.0,"y":0.0,"z":0.0,"w":0.0},{"x":0.0,"y":0.0,"z":0.0,"w":0.0},{"x":0.0,"y":0.0,"z":0.0,"w":0.0},{"x":0.0,"y":0.0,"z":0.0,"w":0.0},{"x":0.0,"y":0.0,"z":0.0,"w":0.0},{"x":0.0,"y":0.0,"z":0.0,"w":0.0},{"x":0.0,"y":0.0,"z":0.0,"w":0.0},{"x":0.0,"y":0.0,"z":0.0,"w":0.0},{"x":0.0,"y":0.0,"z":0.0,"w":0.0},{"x":0.0,"y":0.0,"z":0.0,"w":0.0},{"x":0.0,"y":0.0,"z":0.0,"w":0.0},{"x":0.0,"y":0.0,"z":0.0,"w":0.0},{"x":0.0,"y":0.0,"z":0.0,"w":0.0},{"x":0.0,"y":0.0,"z":0.0,"w":0.0},{"x":0.0,"y":0.0,"z":0.0,"w":0.0},{"x":0.0,"y":0.0,"z":0.0,"w":0.0},{"x":0.0,"y":0.0,"z":0.0,"w":0.0},{"x":0.0,"y":0.0,"z":0.0,"w":0.0},{"x":0.0,"y":0.0,"z":0.0,"w":0.0},{"x":0.0,"y":0.0,"z":0.0,"w":0.0},{"x":0.0,"y":0.0,"z":0.0,"w":0.0},{"x":0.0,"y":0.0,"z":0.0,"w":0.0},{"x":0.0,"y":0.0,"z":0.0,"w":0.0},{"x":0.0,"y":0.0,"z":0.0,"w":0.0},{"x":0.0,"y":0.0,"z":0.0,"w":0.0},{"x":0.0,"y":0.0,"z":0.0,"w":0.0},{"x":0.0,"y":0.0,"z":0.0,"w":0.0},{"x":0.0,"y":0.0,"z":0.0,"w":0.0},{"x":0.0,"y":0.0,"z":0.0,"w":0.0},{"x":0.0,"y":0.0,"z":0.0,"w":0.0},{"x":0.0,"y":0.0,"z":0.0,"w":0.0},{"x":0.0,"y":0.0,"z":0.0,"w":0.0},{"x":0.0,"y":0.0,"z":0.0,"w":0.0},{"x":0.0,"y":0.0,"z":0.0,"w":0.0},{"x":0.0,"y":0.0,"z":0.0,"w":0.0},{"x":0.0,"y":0.0,"z":0.0,"w":0.0},{"x":0.0,"y":0.0,"z":0.0,"w":0.0},{"x":0.0,"y":0.0,"z":0.0,"w":0.0},{"x":0.0,"y":0.0,"z":0.0,"w":0.0},{"x":0.0,"y":0.0,"z":0.0,"w":0.0},{"x":0.0,"y":0.0,"z":0.0,"w":0.0},{"x":0.0,"y":0.0,"z":0.0,"w":0.0},{"x":0.0,"y":0.0,"z":0.0,"w":0.0},{"x":0.0,"y":0.0,"z":0.0,"w":0.0},{"x":0.0,"y":0.0,"z":0.0,"w":0.0},{"x":0.0,"y":0.0,"z":0.0,"w":0.0},{"x":0.0,"y":0.0,"z":0.0,"w":0.0},{"x":0.0,"y":0.0,"z":0.0,"w":0.0},{"x":0.0,"y":0.0,"z":0.0,"w":0.0},{"x":0.0,"y":0.0,"z":0.0,"w":0.0},{"x":0.0,"y":0.0,"z":0.0,"w":0.0},{"x":0.0,"y":0.0,"z":0.0,"w":0.0},{"x":0.0,"y":0.0,"z":0.0,"w":0.0},{"x":0.0,"y":0.0,"z":0.0,"w":0.0},{"x":0.0,"y":0.0,"z":0.0,"w":0.0},{"x":0.0,"y":0.0,"z":0.0,"w":0.0},{"x":0.0,"y":0.0,"z":0.0,"w":0.0},{"x":0.0,"y":0.0,"z":0.0,"w":0.0},{"x":0.0,"y":0.0,"z":0.0,"w":0.0},{"x":0.0,"y":0.0,"z":0.0,"w":0.0}],"orientations":[],"restOrientations":[],"velocities":[{"x":0.0,"y":0.0,"z":0.0},{"x":-0.009097852744162083,"y":0.0,"z":-0.07925835251808167},{"x":-0.00046381211723200977,"y":0.003282362362369895,"z":-0.06780575960874558},{"x":-0.006885826122015715,"y":-0.0010480369674041868,"z":-0.09426088631153107},{"x":-0.00021406712767202407,"y":-0.0003456292033661157,"z":-0.10703355818986893},{"x":0.01682210899889469,"y":0.0,"z":-0.11416913568973541},{"x":0.04142198711633682,"y":0.0,"z":-0.10128942131996155},{"x":0.06281086057424545,"y":0.0,"z":-0.07373720407485962},{"x":0.06413093954324722,"y":0.0,"z":-0.05113528296351433},{"x":0.11779043823480606,"y":0.0,"z":-0.0015876644756644965},{"x":0.0,"y":0.0,"z":0.0},{"x":-0.0755746141076088,"y":0.05197371169924736,"z":0.05838681012392044},{"x":-0.31208309531211855,"y":0.17272986471652986,"z":0.21206915378570558},{"x":-0.6844350099563599,"y":0.1990066021680832,"z":0.25891417264938357},{"x":-0.8036577105522156,"y":-0.13062109053134919,"z":0.07390667498111725},{"x":-0.16773942112922669,"y":-0.02061288058757782,"z":-0.13482661545276643},{"x":-0.0925082117319107,"y":-0.2758611738681793,"z":-0.22155947983264924},{"x":-0.17934364080429078,"y":0.05687496066093445,"z":-0.2987039089202881},{"x":0.07292107492685318,"y":-0.09582625329494477,"z":-0.24221695959568025},{"x":-0.19571977853775025,"y":0.0,"z":-0.11711255460977555},{"x":0.06380315124988556,"y":0.0,"z":-0.16891679167747498},{"x":0.07474733144044876,"y":-0.034145936369895938,"z":-0.07301472872495651},{"x":0.05271179601550102,"y":-0.06816700100898743,"z":-0.015698255971074106},{"x":0.11347341537475586,"y":-0.06756939738988877,"z":-0.03838936984539032},{"x":0.08080141991376877,"y":-0.06354671716690064,"z":0.031574901193380359},{"x":-0.07666278630495072,"y":0.07373274117708206,"z":0.06840336322784424},{"x":-0.09246807545423508,"y":0.0363512746989727,"z":0.10351929068565369},{"x":-0.08468138426542282,"y":0.03206546977162361,"z":0.15359315276145936},{"x":-0.0750126838684082,"y":0.00601617805659771,"z":0.15266107022762299},{"x":-0.05542554706335068,"y":0.02858688123524189,"z":0.14555449783802033},{"x":-0.03778284788131714,"y":0.053209058940410617,"z":0.14140526950359345},{"x":-0.033947478979825976,"y":0.06598619371652603,"z":0.1461409479379654},{"x":-0.036676835268735889,"y":0.06774778664112091,"z":0.14880341291427613},{"x":-0.03582056611776352,"y":0.05809692665934563,"z":0.14420096576213838},{"x":-0.025117209181189538,"y":0.03601233288645744,"z":0.11080649495124817},{"x":-0.0008562685106880963,"y":0.01033765822649002,"z":0.06880474090576172},{"x":0.0,"y":0.0,"z":0.0},{"x":0.0,"y":0.0,"z":0.0},{"x":0.0,"y":0.0,"z":0.0},{"x":0.0,"y":0.0,"z":0.0},{"x":0.0,"y":0.0,"z":0.0},{"x":0.0,"y":0.0,"z":0.0},{"x":0.0,"y":0.0,"z":0.0},{"x":0.0,"y":0.0,"z":0.0},{"x":0.0,"y":0.0,"z":0.0},{"x":0.0,"y":0.0,"z":0.0},{"x":0.0,"y":0.0,"z":0.0},{"x":0.0,"y":0.0,"z":0.0},{"x":0.0,"y":0.0,"z":0.0},{"x":0.0,"y":0.0,"z":0.0},{"x":0.0,"y":0.0,"z":0.0},{"x":0.0,"y":0.0,"z":0.0},{"x":0.0,"y":0.0,"z":0.0},{"x":0.0,"y":0.0,"z":0.0},{"x":0.0,"y":0.0,"z":0.0},{"x":0.0,"y":0.0,"z":0.0},{"x":0.0,"y":0.0,"z":0.0},{"x":0.0,"y":0.0,"z":0.0},{"x":0.0,"y":0.0,"z":0.0},{"x":0.0,"y":0.0,"z":0.0},{"x":0.0,"y":0.0,"z":0.0},{"x":0.0,"y":0.0,"z":0.0},{"x":0.0,"y":0.0,"z":0.0},{"x":0.0,"y":0.0,"z":0.0},{"x":0.0,"y":0.0,"z":0.0},{"x":0.0,"y":0.0,"z":0.0},{"x":0.0,"y":0.0,"z":0.0},{"x":0.0,"y":0.0,"z":0.0},{"x":0.0,"y":0.0,"z":0.0},{"x":0.0,"y":0.0,"z":0.0},{"x":0.0,"y":0.0,"z":0.0},{"x":0.0,"y":0.0,"z":0.0},{"x":0.0,"y":0.0,"z":0.0},{"x":0.0,"y":0.0,"z":0.0},{"x":0.0,"y":0.0,"z":0.0},{"x":0.0,"y":0.0,"z":0.0},{"x":0.0,"y":0.0,"z":0.0},{"x":0.0,"y":0.0,"z":0.0},{"x":0.0,"y":0.0,"z":0.0},{"x":0.0,"y":0.0,"z":0.0},{"x":0.0,"y":0.0,"z":0.0},{"x":0.0,"y":0.0,"z":0.0},{"x":0.0,"y":0.0,"z":0.0},{"x":0.0,"y":0.0,"z":0.0},{"x":0.0,"y":0.0,"z":0.0},{"x":0.0,"y":0.0,"z":0.0},{"x":0.0,"y":0.0,"z":0.0},{"x":0.0,"y":0.0,"z":0.0},{"x":0.0,"y":0.0,"z":0.0},{"x":0.0,"y":0.0,"z":0.0},{"x":0.0,"y":0.0,"z":0.0},{"x":0.0,"y":0.0,"z":0.0},{"x":0.0,"y":0.0,"z":0.0},{"x":0.0,"y":0.0,"z":0.0},{"x":0.0,"y":0.0,"z":0.0},{"x":0.0,"y":0.0,"z":0.0},{"x":0.0,"y":0.0,"z":0.0},{"x":0.0,"y":0.0,"z":0.0},{"x":0.0,"y":0.0,"z":0.0},{"x":0.0,"y":0.0,"z":0.0},{"x":0.0,"y":0.0,"z":0.0},{"x":0.0,"y":0.0,"z":0.0},{"x":0.0,"y":0.0,"z":0.0},{"x":0.0,"y":0.0,"z":0.0},{"x":0.0,"y":0.0,"z":0.0},{"x":0.0,"y":0.0,"z":0.0},{"x":0.0,"y":0.0,"z":0.0},{"x":0.0,"y":0.0,"z":0.0},{"x":0.0,"y":0.0,"z":0.0},{"x":0.0,"y":0.0,"z":0.0},{"x":0.0,"y":0.0,"z":0.0},{"x":0.0,"y":0.0,"z":0.0},{"x":0.0,"y":0.0,"z":0.0},{"x":0.0,"y":0.0,"z":0.0},{"x":0.0,"y":0.0,"z":0.0},{"x":0.0,"y":0.0,"z":0.0},{"x":0.0,"y":0.0,"z":0.0},{"x":0.0,"y":0.0,"z":0.0},{"x":0.0,"y":0.0,"z":0.0},{"x":0.0,"y":0.0,"z":0.0},{"x":0.0,"y":0.0,"z":0.0},{"x":0.0,"y":0.0,"z":0.0},{"x":0.0,"y":0.0,"z":0.0},{"x":0.0,"y":0.0,"z":0.0},{"x":0.0,"y":0.0,"z":0.0},{"x":0.0,"y":0.0,"z":0.0},{"x":0.0,"y":0.0,"z":0.0},{"x":0.0,"y":0.0,"z":0.0},{"x":0.0,"y":0.0,"z":0.0},{"x":0.0,"y":0.0,"z":0.0},{"x":0.0,"y":0.0,"z":0.0},{"x":0.0,"y":0.0,"z":0.0},{"x":0.0,"y":0.0,"z":0.0},{"x":0.0,"y":0.0,"z":0.0},{"x":0.0,"y":0.0,"z":0.0},{"x":0.0,"y":0.0,"z":0.0},{"x":0.0,"y":0.0,"z":0.0},{"x":0.0,"y":0.0,"z":0.0}],"angularVelocities":[],"invMasses":[1.0,9.999999046325684,9.999999046325684,10.000000953674317,9.999999046325684,9.999999046325684,10.0,10.0,9.999999046325684,10.0,10.000000953674317,10.000000953674317,10.0,10.000000953674317,10.000000953674317,9.999999046325684,10.0,9.999999046325684,10.0,10.0,10.0,10.0,10.0,10.0,10.0,10.0,10.0,10.0,10.0,10.0,10.0,10.0,10.0,10.0,10.0,10.0,10.0,10.0,0.0,0.0,0.0,0.0,0.0,0.0,0.0,0.0,0.0,0.0,0.0,0.0,0.0,0.0,0.0,0.0,0.0,0.0,0.0,0.0,0.0,0.0,0.0,0.0,0.0,0.0,0.0,0.0,0.0,0.0,0.0,0.0,0.0,0.0,0.0,0.0,0.0,0.0,0.0,0.0,0.0,0.0,0.0,0.0,0.0,0.0,0.0,0.0,0.0,0.0,0.0,0.0,0.0,0.0,0.0,0.0,0.0,0.0,0.0,0.0,0.0,0.0,0.0,0.0,0.0,0.0,0.0,0.0,0.0,0.0,0.0,0.0,0.0,0.0,0.0,0.0,0.0,0.0,0.0,0.0,0.0,0.0,0.0,0.0,0.0,0.0,0.0,0.0,0.0,0.0,0.0,0.0,0.0,0.0,0.0,0.0,0.0,0.0,0.0,0.0],"invRotationalMasses":[],"phases":[1,1,1,1,1,1,1,1,1,1,1,1,1,1,1,1,1,1,1,1,1,1,1,1,1,1,1,1,1,1,1,1,1,1,1,1,1,1,0,0,0,0,0,0,0,0,0,0,0,0,0,0,0,0,0,0,0,0,0,0,0,0,0,0,0,0,0,0,0,0,0,0,0,0,0,0,0,0,0,0,0,0,0,0,0,0,0,0,0,0,0,0,0,0,0,0,0,0,0,0,0,0,0,0,0,0,0,0,0,0,0,0,0,0,0,0,0,0,0,0,0,0,0,0,0,0,0,0,0,0,0,0,0,0,0,0,0,0],"principalRadii":[{"x":0.125,"y":0.125,"z":0.125},{"x":0.125,"y":0.125,"z":0.125},{"x":0.1250000149011612,"y":0.1250000149011612,"z":0.1250000149011612},{"x":0.1249999925494194,"y":0.1249999925494194,"z":0.1249999925494194},{"x":0.1250000149011612,"y":0.1250000149011612,"z":0.1250000149011612},{"x":0.125,"y":0.125,"z":0.125},{"x":0.125,"y":0.125,"z":0.125},{"x":0.125,"y":0.125,"z":0.125},{"x":0.1250000149011612,"y":0.1250000149011612,"z":0.1250000149011612},{"x":0.125,"y":0.125,"z":0.125},{"x":0.1249999925494194,"y":0.1249999925494194,"z":0.1249999925494194},{"x":0.1249999925494194,"y":0.1249999925494194,"z":0.1249999925494194},{"x":0.125,"y":0.125,"z":0.125},{"x":0.1249999925494194,"y":0.1249999925494194,"z":0.1249999925494194},{"x":0.1249999925494194,"y":0.1249999925494194,"z":0.1249999925494194},{"x":0.1250000149011612,"y":0.1250000149011612,"z":0.1250000149011612},{"x":0.125,"y":0.125,"z":0.125},{"x":0.1250000149011612,"y":0.1250000149011612,"z":0.1250000149011612},{"x":0.125,"y":0.125,"z":0.125},{"x":0.125,"y":0.125,"z":0.125},{"x":0.125,"y":0.125,"z":0.125},{"x":0.125,"y":0.125,"z":0.125},{"x":0.125,"y":0.125,"z":0.125},{"x":0.125,"y":0.125,"z":0.125},{"x":0.125,"y":0.125,"z":0.125},{"x":0.125,"y":0.125,"z":0.125},{"x":0.125,"y":0.125,"z":0.125},{"x":0.125,"y":0.125,"z":0.125},{"x":0.125,"y":0.125,"z":0.125},{"x":0.125,"y":0.125,"z":0.125},{"x":0.125,"y":0.125,"z":0.125},{"x":0.125,"y":0.125,"z":0.125},{"x":0.125,"y":0.125,"z":0.125},{"x":0.125,"y":0.125,"z":0.125},{"x":0.125,"y":0.125,"z":0.125},{"x":0.125,"y":0.125,"z":0.125},{"x":0.125,"y":0.125,"z":0.125},{"x":0.125,"y":0.125,"z":0.125},{"x":0.0,"y":0.0,"z":0.0},{"x":0.0,"y":0.0,"z":0.0},{"x":0.0,"y":0.0,"z":0.0},{"x":0.0,"y":0.0,"z":0.0},{"x":0.0,"y":0.0,"z":0.0},{"x":0.0,"y":0.0,"z":0.0},{"x":0.0,"y":0.0,"z":0.0},{"x":0.0,"y":0.0,"z":0.0},{"x":0.0,"y":0.0,"z":0.0},{"x":0.0,"y":0.0,"z":0.0},{"x":0.0,"y":0.0,"z":0.0},{"x":0.0,"y":0.0,"z":0.0},{"x":0.0,"y":0.0,"z":0.0},{"x":0.0,"y":0.0,"z":0.0},{"x":0.0,"y":0.0,"z":0.0},{"x":0.0,"y":0.0,"z":0.0},{"x":0.0,"y":0.0,"z":0.0},{"x":0.0,"y":0.0,"z":0.0},{"x":0.0,"y":0.0,"z":0.0},{"x":0.0,"y":0.0,"z":0.0},{"x":0.0,"y":0.0,"z":0.0},{"x":0.0,"y":0.0,"z":0.0},{"x":0.0,"y":0.0,"z":0.0},{"x":0.0,"y":0.0,"z":0.0},{"x":0.0,"y":0.0,"z":0.0},{"x":0.0,"y":0.0,"z":0.0},{"x":0.0,"y":0.0,"z":0.0},{"x":0.0,"y":0.0,"z":0.0},{"x":0.0,"y":0.0,"z":0.0},{"x":0.0,"y":0.0,"z":0.0},{"x":0.0,"y":0.0,"z":0.0},{"x":0.0,"y":0.0,"z":0.0},{"x":0.0,"y":0.0,"z":0.0},{"x":0.0,"y":0.0,"z":0.0},{"x":0.0,"y":0.0,"z":0.0},{"x":0.0,"y":0.0,"z":0.0},{"x":0.0,"y":0.0,"z":0.0},{"x":0.0,"y":0.0,"z":0.0},{"x":0.0,"y":0.0,"z":0.0},{"x":0.0,"y":0.0,"z":0.0},{"x":0.0,"y":0.0,"z":0.0},{"x":0.0,"y":0.0,"z":0.0},{"x":0.0,"y":0.0,"z":0.0},{"x":0.0,"y":0.0,"z":0.0},{"x":0.0,"y":0.0,"z":0.0},{"x":0.0,"y":0.0,"z":0.0},{"x":0.0,"y":0.0,"z":0.0},{"x":0.0,"y":0.0,"z":0.0},{"x":0.0,"y":0.0,"z":0.0},{"x":0.0,"y":0.0,"z":0.0},{"x":0.0,"y":0.0,"z":0.0},{"x":0.0,"y":0.0,"z":0.0},{"x":0.0,"y":0.0,"z":0.0},{"x":0.0,"y":0.0,"z":0.0},{"x":0.0,"y":0.0,"z":0.0},{"x":0.0,"y":0.0,"z":0.0},{"x":0.0,"y":0.0,"z":0.0},{"x":0.0,"y":0.0,"z":0.0},{"x":0.0,"y":0.0,"z":0.0},{"x":0.0,"y":0.0,"z":0.0},{"x":0.0,"y":0.0,"z":0.0},{"x":0.0,"y":0.0,"z":0.0},{"x":0.0,"y":0.0,"z":0.0},{"x":0.0,"y":0.0,"z":0.0},{"x":0.0,"y":0.0,"z":0.0},{"x":0.0,"y":0.0,"z":0.0},{"x":0.0,"y":0.0,"z":0.0},{"x":0.0,"y":0.0,"z":0.0},{"x":0.0,"y":0.0,"z":0.0},{"x":0.0,"y":0.0,"z":0.0},{"x":0.0,"y":0.0,"z":0.0},{"x":0.0,"y":0.0,"z":0.0},{"x":0.0,"y":0.0,"z":0.0},{"x":0.0,"y":0.0,"z":0.0},{"x":0.0,"y":0.0,"z":0.0},{"x":0.0,"y":0.0,"z":0.0},{"x":0.0,"y":0.0,"z":0.0},{"x":0.0,"y":0.0,"z":0.0},{"x":0.0,"y":0.0,"z":0.0},{"x":0.0,"y":0.0,"z":0.0},{"x":0.0,"y":0.0,"z":0.0},{"x":0.0,"y":0.0,"z":0.0},{"x":0.0,"y":0.0,"z":0.0},{"x":0.0,"y":0.0,"z":0.0},{"x":0.0,"y":0.0,"z":0.0},{"x":0.0,"y":0.0,"z":0.0},{"x":0.0,"y":0.0,"z":0.0},{"x":0.0,"y":0.0,"z":0.0},{"x":0.0,"y":0.0,"z":0.0},{"x":0.0,"y":0.0,"z":0.0},{"x":0.0,"y":0.0,"z":0.0},{"x":0.0,"y":0.0,"z":0.0},{"x":0.0,"y":0.0,"z":0.0},{"x":0.0,"y":0.0,"z":0.0},{"x":0.0,"y":0.0,"z":0.0},{"x":0.0,"y":0.0,"z":0.0},{"x":0.0,"y":0.0,"z":0.0},{"x":0.0,"y":0.0,"z":0.0},{"x":0.0,"y":0.0,"z":0.0},{"x":0.0,"y":0.0,"z":0.0}],"colors":[{"r":1.0,"g":1.0,"b":1.0,"a":1.0},{"r":1.0,"g":1.0,"b":1.0,"a":1.0},{"r":1.0000001192092896,"g":1.0000001192092896,"b":1.0000001192092896,"a":1.0000001192092896},{"r":0.9999999403953552,"g":0.9999999403953552,"b":0.9999999403953552,"a":0.9999999403953552},{"r":1.0000001192092896,"g":1.0000001192092896,"b":1.0000001192092896,"a":1.0000001192092896},{"r":1.0,"g":1.0,"b":1.0,"a":1.0},{"r":1.0,"g":1.0,"b":1.0,"a":1.0},{"r":1.0,"g":1.0,"b":1.0,"a":1.0},{"r":1.0000001192092896,"g":1.0000001192092896,"b":1.0000001192092896,"a":1.0000001192092896},{"r":1.0,"g":1.0,"b":1.0,"a":1.0},{"r":0.9999999403953552,"g":0.9999999403953552,"b":0.9999999403953552,"a":0.9999999403953552},{"r":0.9999999403953552,"g":0.9999999403953552,"b":0.9999999403953552,"a":0.9999999403953552},{"r":1.0,"g":1.0,"b":1.0,"a":1.0},{"r":0.9999999403953552,"g":0.9999999403953552,"b":0.9999999403953552,"a":0.9999999403953552},{"r":0.9999999403953552,"g":0.9999999403953552,"b":0.9999999403953552,"a":0.9999999403953552},{"r":1.0000001192092896,"g":1.0000001192092896,"b":1.0000001192092896,"a":1.0000001192092896},{"r":1.0,"g":1.0,"b":1.0,"a":1.0},{"r":1.0000001192092896,"g":1.0000001192092896,"b":1.0000001192092896,"a":1.0000001192092896},{"r":1.0,"g":1.0,"b":1.0,"a":1.0},{"r":1.0,"g":1.0,"b":1.0,"a":1.0},{"r":1.0,"g":1.0,"b":1.0,"a":1.0},{"r":1.0,"g":1.0,"b":1.0,"a":1.0},{"r":1.0,"g":1.0,"b":1.0,"a":1.0},{"r":1.0,"g":1.0,"b":1.0,"a":1.0},{"r":1.0,"g":1.0,"b":1.0,"a":1.0},{"r":1.0,"g":1.0,"b":1.0,"a":1.0},{"r":1.0,"g":1.0,"b":1.0,"a":1.0},{"r":1.0,"g":1.0,"b":1.0,"a":1.0},{"r":1.0,"g":1.0,"b":1.0,"a":1.0},{"r":1.0,"g":1.0,"b":1.0,"a":1.0},{"r":1.0,"g":1.0,"b":1.0,"a":1.0},{"r":1.0,"g":1.0,"b":1.0,"a":1.0},{"r":1.0,"g":1.0,"b":1.0,"a":1.0},{"r":1.0,"g":1.0,"b":1.0,"a":1.0},{"r":1.0,"g":1.0,"b":1.0,"a":1.0},{"r":1.0,"g":1.0,"b":1.0,"a":1.0},{"r":1.0,"g":1.0,"b":1.0,"a":1.0},{"r":1.0,"g":1.0,"b":1.0,"a":1.0},{"r":0.0,"g":0.0,"b":0.0,"a":0.0},{"r":0.0,"g":0.0,"b":0.0,"a":0.0},{"r":0.0,"g":0.0,"b":0.0,"a":0.0},{"r":0.0,"g":0.0,"b":0.0,"a":0.0},{"r":0.0,"g":0.0,"b":0.0,"a":0.0},{"r":0.0,"g":0.0,"b":0.0,"a":0.0},{"r":0.0,"g":0.0,"b":0.0,"a":0.0},{"r":0.0,"g":0.0,"b":0.0,"a":0.0},{"r":0.0,"g":0.0,"b":0.0,"a":0.0},{"r":0.0,"g":0.0,"b":0.0,"a":0.0},{"r":0.0,"g":0.0,"b":0.0,"a":0.0},{"r":0.0,"g":0.0,"b":0.0,"a":0.0},{"r":0.0,"g":0.0,"b":0.0,"a":0.0},{"r":0.0,"g":0.0,"b":0.0,"a":0.0},{"r":0.0,"g":0.0,"b":0.0,"a":0.0},{"r":0.0,"g":0.0,"b":0.0,"a":0.0},{"r":0.0,"g":0.0,"b":0.0,"a":0.0},{"r":0.0,"g":0.0,"b":0.0,"a":0.0},{"r":0.0,"g":0.0,"b":0.0,"a":0.0},{"r":0.0,"g":0.0,"b":0.0,"a":0.0},{"r":0.0,"g":0.0,"b":0.0,"a":0.0},{"r":0.0,"g":0.0,"b":0.0,"a":0.0},{"r":0.0,"g":0.0,"b":0.0,"a":0.0},{"r":0.0,"g":0.0,"b":0.0,"a":0.0},{"r":0.0,"g":0.0,"b":0.0,"a":0.0},{"r":0.0,"g":0.0,"b":0.0,"a":0.0},{"r":0.0,"g":0.0,"b":0.0,"a":0.0},{"r":0.0,"g":0.0,"b":0.0,"a":0.0},{"r":0.0,"g":0.0,"b":0.0,"a":0.0},{"r":0.0,"g":0.0,"b":0.0,"a":0.0},{"r":0.0,"g":0.0,"b":0.0,"a":0.0},{"r":0.0,"g":0.0,"b":0.0,"a":0.0},{"r":0.0,"g":0.0,"b":0.0,"a":0.0},{"r":0.0,"g":0.0,"b":0.0,"a":0.0},{"r":0.0,"g":0.0,"b":0.0,"a":0.0},{"r":0.0,"g":0.0,"b":0.0,"a":0.0},{"r":0.0,"g":0.0,"b":0.0,"a":0.0},{"r":0.0,"g":0.0,"b":0.0,"a":0.0},{"r":0.0,"g":0.0,"b":0.0,"a":0.0},{"r":0.0,"g":0.0,"b":0.0,"a":0.0},{"r":0.0,"g":0.0,"b":0.0,"a":0.0},{"r":0.0,"g":0.0,"b":0.0,"a":0.0},{"r":0.0,"g":0.0,"b":0.0,"a":0.0},{"r":0.0,"g":0.0,"b":0.0,"a":0.0},{"r":0.0,"g":0.0,"b":0.0,"a":0.0},{"r":0.0,"g":0.0,"b":0.0,"a":0.0},{"r":0.0,"g":0.0,"b":0.0,"a":0.0},{"r":0.0,"g":0.0,"b":0.0,"a":0.0},{"r":0.0,"g":0.0,"b":0.0,"a":0.0},{"r":0.0,"g":0.0,"b":0.0,"a":0.0},{"r":0.0,"g":0.0,"b":0.0,"a":0.0},{"r":0.0,"g":0.0,"b":0.0,"a":0.0},{"r":0.0,"g":0.0,"b":0.0,"a":0.0},{"r":0.0,"g":0.0,"b":0.0,"a":0.0},{"r":0.0,"g":0.0,"b":0.0,"a":0.0},{"r":0.0,"g":0.0,"b":0.0,"a":0.0},{"r":0.0,"g":0.0,"b":0.0,"a":0.0},{"r":0.0,"g":0.0,"b":0.0,"a":0.0},{"r":0.0,"g":0.0,"b":0.0,"a":0.0},{"r":0.0,"g":0.0,"b":0.0,"a":0.0},{"r":0.0,"g":0.0,"b":0.0,"a":0.0},{"r":0.0,"g":0.0,"b":0.0,"a":0.0},{"r":0.0,"g":0.0,"b":0.0,"a":0.0},{"r":0.0,"g":0.0,"b":0.0,"a":0.0},{"r":0.0,"g":0.0,"b":0.0,"a":0.0},{"r":0.0,"g":0.0,"b":0.0,"a":0.0},{"r":0.0,"g":0.0,"b":0.0,"a":0.0},{"r":0.0,"g":0.0,"b":0.0,"a":0.0},{"r":0.0,"g":0.0,"b":0.0,"a":0.0},{"r":0.0,"g":0.0,"b":0.0,"a":0.0},{"r":0.0,"g":0.0,"b":0.0,"a":0.0},{"r":0.0,"g":0.0,"b":0.0,"a":0.0},{"r":0.0,"g":0.0,"b":0.0,"a":0.0},{"r":0.0,"g":0.0,"b":0.0,"a":0.0},{"r":0.0,"g":0.0,"b":0.0,"a":0.0},{"r":0.0,"g":0.0,"b":0.0,"a":0.0},{"r":0.0,"g":0.0,"b":0.0,"a":0.0},{"r":0.0,"g":0.0,"b":0.0,"a":0.0},{"r":0.0,"g":0.0,"b":0.0,"a":0.0},{"r":0.0,"g":0.0,"b":0.0,"a":0.0},{"r":0.0,"g":0.0,"b":0.0,"a":0.0},{"r":0.0,"g":0.0,"b":0.0,"a":0.0},{"r":0.0,"g":0.0,"b":0.0,"a":0.0},{"r":0.0,"g":0.0,"b":0.0,"a":0.0},{"r":0.0,"g":0.0,"b":0.0,"a":0.0},{"r":0.0,"g":0.0,"b":0.0,"a":0.0},{"r":0.0,"g":0.0,"b":0.0,"a":0.0},{"r":0.0,"g":0.0,"b":0.0,"a":0.0},{"r":0.0,"g":0.0,"b":0.0,"a":0.0},{"r":0.0,"g":0.0,"b":0.0,"a":0.0},{"r":0.0,"g":0.0,"b":0.0,"a":0.0},{"r":0.0,"g":0.0,"b":0.0,"a":0.0},{"r":0.0,"g":0.0,"b":0.0,"a":0.0},{"r":0.0,"g":0.0,"b":0.0,"a":0.0},{"r":0.0,"g":0.0,"b":0.0,"a":0.0},{"r":0.0,"g":0.0,"b":0.0,"a":0.0},{"r":0.0,"g":0.0,"b":0.0,"a":0.0},{"r":0.0,"g":0.0,"b":0.0,"a":0.0},{"r":0.0,"g":0.0,"b":0.0,"a":0.0},{"r":0.0,"g":0.0,"b":0.0,"a":0.0}],"distanceConstraintsData":{"batches":[{"m_IDs":[0,1,2,3,4,5,6,7,8,9,10,11,12,13,14,15,16,17,18,19,20,21,22,23,24,25,26,27,28,29,30,31,32,33,34,35,36,37,38,39,40,41,42,43,44,45,46,47,48,49,50,51,52,53,54,55,56,57,58,59,60,61,62,63,64,65,66,67,68],"m_IDToIndex":[0,1,2,3,4,5,6,7,8,9,10,11,12,13,14,15,16,17,18,19,20,21,22,23,24,25,26,27,28,29,30,31,32,33,34,35,36,37,38,39,40,41,42,43,44,45,46,47,48,49,50,51,52,53,54,55,56,57,58,59,60,61,62,63,64,65,66,67,68],"m_ConstraintCount":69,"m_ActiveConstraintCount":19,"m_InitialActiveConstraintCount":19,"particleIndices":{"serializedContents":[0,1,2,3,4,5,6,7,8,9,10,11,12,13,14,15,16,17,18,19,20,21,22,23,24,25,26,27,28,29,30,31,32,33,34,35,36,37,0,0,0,0,0,0,0,0,0,0,0,0,0,0,0,0,0,0,0,0,0,0,0,0,0,0,0,0,0,0,0,0,0,0,0,0,0,0,0,0,0,0,0,0,0,0,0,0,0,0,0,0,0,0,0,0,0,0,0,0,0,0,0,0,0,0,0,0,0,0,0,0,0,0,0,0,0,0,0,0,0,0,0,0,0,0,0,0,0,0,0,0,0,0,0,0,0,0,0,0]},"restLengths":{"serializedContents":[0.11864738166332245,0.12151327729225159,0.12111052125692368,0.12246841937303543,0.12205623090267182,0.12136472016572952,0.12093772739171982,0.12245406210422516,0.12289495021104813,0.12234174460172653,0.12248951941728592,0.12340106070041657,0.12271970510482788,0.121193066239357,0.11999580264091492,0.11967310309410095,0.11951984465122223,0.12366051971912384,0.11679373681545258,0.0,0.0,0.0,0.0,0.0,0.0,0.0,0.0,0.0,0.0,0.0,0.0,0.0,0.0,0.0,0.0,0.0,0.0,0.0,0.0,0.0,0.0,0.0,0.0,0.0,0.0,0.0,0.0,0.0,0.0,0.0,0.0,0.0,0.0,0.0,0.0,0.0,0.0,0.0,0.0,0.0,0.0,0.0,0.0,0.0,0.0,0.0,0.0,0.0,0.0]},"stiffnesses":{"serializedContents":[{"x":0.0,"y":0.0},{"x":0.0,"y":0.0},{"x":0.0,"y":0.0},{"x":0.0,"y":0.0},{"x":0.0,"y":0.0},{"x":0.0,"y":0.0},{"x":0.0,"y":0.0},{"x":0.0,"y":0.0},{"x":0.0,"y":0.0},{"x":0.0,"y":0.0},{"x":0.0,"y":0.0},{"x":0.0,"y":0.0},{"x":0.0,"y":0.0},{"x":0.0,"y":0.0},{"x":0.0,"y":0.0},{"x":0.0,"y":0.0},{"x":0.0,"y":0.0},{"x":0.0,"y":0.0},{"x":0.0,"y":0.0},{"x":0.0,"y":0.0},{"x":0.0,"y":0.0},{"x":0.0,"y":0.0},{"x":0.0,"y":0.0},{"x":0.0,"y":0.0},{"x":0.0,"y":0.0},{"x":0.0,"y":0.0},{"x":0.0,"y":0.0},{"x":0.0,"y":0.0},{"x":0.0,"y":0.0},{"x":0.0,"y":0.0},{"x":0.0,"y":0.0},{"x":0.0,"y":0.0},{"x":0.0,"y":0.0},{"x":0.0,"y":0.0},{"x":0.0,"y":0.0},{"x":0.0,"y":0.0},{"x":0.0,"y":0.0},{"x":0.0,"y":0.0},{"x":0.0,"y":0.0},{"x":0.0,"y":0.0},{"x":0.0,"y":0.0},{"x":0.0,"y":0.0},{"x":0.0,"y":0.0},{"x":0.0,"y":0.0},{"x":0.0,"y":0.0},{"x":0.0,"y":0.0},{"x":0.0,"y":0.0},{"x":0.0,"y":0.0},{"x":0.0,"y":0.0},{"x":0.0,"y":0.0},{"x":0.0,"y":0.0},{"x":0.0,"y":0.0},{"x":0.0,"y":0.0},{"x":0.0,"y":0.0},{"x":0.0,"y":0.0},{"x":0.0,"y":0.0},{"x":0.0,"y":0.0},{"x":0.0,"y":0.0},{"x":0.0,"y":0.0},{"x":0.0,"y":0.0},{"x":0.0,"y":0.0},{"x":0.0,"y":0.0},{"x":0.0,"y":0.0},{"x":0.0,"y":0.0},{"x":0.0,"y":0.0},{"x":0.0,"y":0.0},{"x":0.0,"y":0.0},{"x":0.0,"y":0.0},{"x":0.0,"y":0.0}]}},{"m_IDs":[0,1,2,3,4,5,6,7,8,9,10,11,12,13,14,15,16,17,18,19,20,21,22,23,24,25,26,27,28,29,30,31,32,33,34,35,36,37,38,39,40,41,42,43,44,45,46,47,48,49,50,51,52,53,54,55,56,57,58,59,60,61,62,63,64,65,66,67],"m_IDToIndex":[0,1,2,3,4,5,6,7,8,9,10,11,12,13,14,15,16,17,18,19,20,21,22,23,24,25,26,27,28,29,30,31,32,33,34,35,36,37,38,39,40,41,42,43,44,45,46,47,48,49,50,51,52,53,54,55,56,57,58,59,60,61,62,63,64,65,66,67],"m_ConstraintCount":68,"m_ActiveConstraintCount":18,"m_InitialActiveConstraintCount":18,"particleIndices":{"serializedContents":[1,2,3,4,5,6,7,8,9,10,11,12,13,14,15,16,17,18,19,20,21,22,23,24,25,26,27,28,29,30,31,32,33,34,35,36,0,0,0,0,0,0,0,0,0,0,0,0,0,0,0,0,0,0,0,0,0,0,0,0,0,0,0,0,0,0,0,0,0,0,0,0,0,0,0,0,0,0,0,0,0,0,0,0,0,0,0,0,0,0,0,0,0,0,0,0,0,0,0,0,0,0,0,0,0,0,0,0,0,0,0,0,0,0,0,0,0,0,0,0,0,0,0,0,0,0,0,0,0,0,0,0,0,0,0,0]},"restLengths":{"serializedContents":[0.12187203764915467,0.12484992295503617,0.12283722311258316,0.12261634320020676,0.12338753044605255,0.12417378276586533,0.12285556644201279,0.12215090543031693,0.12217489629983902,0.12259210646152497,0.12169325351715088,0.12189382314682007,0.12272870540618897,0.12409552931785584,0.12513777613639832,0.125507652759552,0.12483812868595123,0.1226479709148407,0.0,0.0,0.0,0.0,0.0,0.0,0.0,0.0,0.0,0.0,0.0,0.0,0.0,0.0,0.0,0.0,0.0,0.0,0.0,0.0,0.0,0.0,0.0,0.0,0.0,0.0,0.0,0.0,0.0,0.0,0.0,0.0,0.0,0.0,0.0,0.0,0.0,0.0,0.0,0.0,0.0,0.0,0.0,0.0,0.0,0.0,0.0,0.0,0.0,0.0]},"stiffnesses":{"serializedContents":[{"x":0.0,"y":0.0},{"x":0.0,"y":0.0},{"x":0.0,"y":0.0},{"x":0.0,"y":0.0},{"x":0.0,"y":0.0},{"x":0.0,"y":0.0},{"x":0.0,"y":0.0},{"x":0.0,"y":0.0},{"x":0.0,"y":0.0},{"x":0.0,"y":0.0},{"x":0.0,"y":0.0},{"x":0.0,"y":0.0},{"x":0.0,"y":0.0},{"x":0.0,"y":0.0},{"x":0.0,"y":0.0},{"x":0.0,"y":0.0},{"x":0.0,"y":0.0},{"x":0.0,"y":0.0},{"x":0.0,"y":0.0},{"x":0.0,"y":0.0},{"x":0.0,"y":0.0},{"x":0.0,"y":0.0},{"x":0.0,"y":0.0},{"x":0.0,"y":0.0},{"x":0.0,"y":0.0},{"x":0.0,"y":0.0},{"x":0.0,"y":0.0},{"x":0.0,"y":0.0},{"x":0.0,"y":0.0},{"x":0.0,"y":0.0},{"x":0.0,"y":0.0},{"x":0.0,"y":0.0},{"x":0.0,"y":0.0},{"x":0.0,"y":0.0},{"x":0.0,"y":0.0},{"x":0.0,"y":0.0},{"x":0.0,"y":0.0},{"x":0.0,"y":0.0},{"x":0.0,"y":0.0},{"x":0.0,"y":0.0},{"x":0.0,"y":0.0},{"x":0.0,"y":0.0},{"x":0.0,"y":0.0},{"x":0.0,"y":0.0},{"x":0.0,"y":0.0},{"x":0.0,"y":0.0},{"x":0.0,"y":0.0},{"x":0.0,"y":0.0},{"x":0.0,"y":0.0},{"x":0.0,"y":0.0},{"x":0.0,"y":0.0},{"x":0.0,"y":0.0},{"x":0.0,"y":0.0},{"x":0.0,"y":0.0},{"x":0.0,"y":0.0},{"x":0.0,"y":0.0},{"x":0.0,"y":0.0},{"x":0.0,"y":0.0},{"x":0.0,"y":0.0},{"x":0.0,"y":0.0},{"x":0.0,"y":0.0},{"x":0.0,"y":0.0},{"x":0.0,"y":0.0},{"x":0.0,"y":0.0},{"x":0.0,"y":0.0},{"x":0.0,"y":0.0},{"x":0.0,"y":0.0},{"x":0.0,"y":0.0}]}}]},"bendConstraintsData":{"batches":[{"m_IDs":[0,1,2,3,4,5,6,7,8,9,10,11,12,13,14,15,16,17,18,19,20,21,22,23,24,25,26,27,28,29,30,31,32,33,34,35,36,37,38,39,40,41,42,43,44,45],"m_IDToIndex":[0,1,2,3,4,5,6,7,8,9,10,11,12,13,14,15,16,17,18,19,20,21,22,23,24,25,26,27,28,29,30,31,32,33,34,35,36,37,38,39,40,41,42,43,44,45],"m_ConstraintCount":46,"m_ActiveConstraintCount":12,"m_InitialActiveConstraintCount":12,"particleIndices":{"serializedContents":[0,2,1,3,5,4,6,8,7,9,11,10,12,14,13,15,17,16,18,20,19,21,23,22,24,26,25,27,29,28,30,32,31,33,35,34,36,38,37,39,41,40,42,44,43,45,47,46,48,50,49,51,53,52,54,56,55,57,59,58,60,62,61,63,65,64,66,68,67,69,71,70,72,74,73,75,77,76,78,80,79,81,83,82,84,86,85,87,89,88,90,92,91,93,95,94,96,98,97,99,101,100,102,104,103,105,107,106,108,110,109,111,113,112,114,116,115,117,119,118,120,122,121,123,125,124,126,128,127,129,131,130,132,134,133,135,137,136]},"restBends":{"serializedContents":[0.0,0.0,0.0,0.0,0.0,0.0,0.0,0.0,0.0,0.0,0.0,0.0,0.0,0.0,0.0,0.0,0.0,0.0,0.0,0.0,0.0,0.0,0.0,0.0,0.0,0.0,0.0,0.0,0.0,0.0,0.0,0.0,0.0,0.0,0.0,0.0,0.0,0.0,0.0,0.0,0.0,0.0,0.0,0.0,0.0,0.0]},"bendingStiffnesses":{"serializedContents":[{"x":0.0,"y":0.0},{"x":0.0,"y":0.0},{"x":0.0,"y":0.0},{"x":0.0,"y":0.0},{"x":0.0,"y":0.0},{"x":0.0,"y":0.0},{"x":0.0,"y":0.0},{"x":0.0,"y":0.0},{"x":0.0,"y":0.0},{"x":0.0,"y":0.0},{"x":0.0,"y":0.0},{"x":0.0,"y":0.0},{"x":0.0,"y":0.0},{"x":0.0,"y":0.0},{"x":0.0,"y":0.0},{"x":0.0,"y":0.0},{"x":0.0,"y":0.0},{"x":0.0,"y":0.0},{"x":0.0,"y":0.0},{"x":0.0,"y":0.0},{"x":0.0,"y":0.0},{"x":0.0,"y":0.0},{"x":0.0,"y":0.0},{"x":0.0,"y":0.0},{"x":0.0,"y":0.0},{"x":0.0,"y":0.0},{"x":0.0,"y":0.0},{"x":0.0,"y":0.0},{"x":0.0,"y":0.0},{"x":0.0,"y":0.0},{"x":0.0,"y":0.0},{"x":0.0,"y":0.0},{"x":0.0,"y":0.0},{"x":0.0,"y":0.0},{"x":0.0,"y":0.0},{"x":0.0,"y":0.0},{"x":0.0,"y":0.0},{"x":0.0,"y":0.0},{"x":0.0,"y":0.0},{"x":0.0,"y":0.0},{"x":0.0,"y":0.0},{"x":0.0,"y":0.0},{"x":0.0,"y":0.0},{"x":0.0,"y":0.0},{"x":0.0,"y":0.0},{"x":0.0,"y":0.0}]}},{"m_IDs":[0,1,2,3,4,5,6,7,8,9,10,11,12,13,14,15,16,17,18,19,20,21,22,23,24,25,26,27,28,29,30,31,32,33,34,35,36,37,38,39,40,41,42,43,44],"m_IDToIndex":[0,1,2,3,4,5,6,7,8,9,10,11,12,13,14,15,16,17,18,19,20,21,22,23,24,25,26,27,28,29,30,31,32,33,34,35,36,37,38,39,40,41,42,43,44],"m_ConstraintCount":45,"m_ActiveConstraintCount":12,"m_InitialActiveConstraintCount":12,"particleIndices":{"serializedContents":[1,3,2,4,6,5,7,9,8,10,12,11,13,15,14,16,18,17,19,21,20,22,24,23,25,27,26,28,30,29,31,33,32,34,36,35,37,39,38,40,42,41,43,45,44,46,48,47,49,51,50,52,54,53,55,57,56,58,60,59,61,63,62,64,66,65,67,69,68,70,72,71,73,75,74,76,78,77,79,81,80,82,84,83,85,87,86,88,90,89,91,93,92,94,96,95,97,99,98,100,102,101,103,105,104,106,108,107,109,111,110,112,114,113,115,117,116,118,120,119,121,123,122,124,126,125,127,129,128,130,132,131,133,135,134]},"restBends":{"serializedContents":[0.0,0.0,0.0,0.0,0.0,0.0,0.0,0.0,0.0,0.0,0.0,0.0,0.0,0.0,0.0,0.0,0.0,0.0,0.0,0.0,0.0,0.0,0.0,0.0,0.0,0.0,0.0,0.0,0.0,0.0,0.0,0.0,0.0,0.0,0.0,0.0,0.0,0.0,0.0,0.0,0.0,0.0,0.0,0.0,0.0]},"bendingStiffnesses":{"serializedContents":[{"x":0.0,"y":0.0},{"x":0.0,"y":0.0},{"x":0.0,"y":0.0},{"x":0.0,"y":0.0},{"x":0.0,"y":0.0},{"x":0.0,"y":0.0},{"x":0.0,"y":0.0},{"x":0.0,"y":0.0},{"x":0.0,"y":0.0},{"x":0.0,"y":0.0},{"x":0.0,"y":0.0},{"x":0.0,"y":0.0},{"x":0.0,"y":0.0},{"x":0.0,"y":0.0},{"x":0.0,"y":0.0},{"x":0.0,"y":0.0},{"x":0.0,"y":0.0},{"x":0.0,"y":0.0},{"x":0.0,"y":0.0},{"x":0.0,"y":0.0},{"x":0.0,"y":0.0},{"x":0.0,"y":0.0},{"x":0.0,"y":0.0},{"x":0.0,"y":0.0},{"x":0.0,"y":0.0},{"x":0.0,"y":0.0},{"x":0.0,"y":0.0},{"x":0.0,"y":0.0},{"x":0.0,"y":0.0},{"x":0.0,"y":0.0},{"x":0.0,"y":0.0},{"x":0.0,"y":0.0},{"x":0.0,"y":0.0},{"x":0.0,"y":0.0},{"x":0.0,"y":0.0},{"x":0.0,"y":0.0},{"x":0.0,"y":0.0},{"x":0.0,"y":0.0},{"x":0.0,"y":0.0},{"x":0.0,"y":0.0},{"x":0.0,"y":0.0},{"x":0.0,"y":0.0},{"x":0.0,"y":0.0},{"x":0.0,"y":0.0},{"x":0.0,"y":0.0}]}},{"m_IDs":[0,1,2,3,4,5,6,7,8,9,10,11,12,13,14,15,16,17,18,19,20,21,22,23,24,25,26,27,28,29,30,31,32,33,34,35,36,37,38,39,40,41,42,43,44],"m_IDToIndex":[0,1,2,3,4,5,6,7,8,9,10,11,12,13,14,15,16,17,18,19,20,21,22,23,24,25,26,27,28,29,30,31,32,33,34,35,36,37,38,39,40,41,42,43,44],"m_ConstraintCount":45,"m_ActiveConstraintCount":12,"m_InitialActiveConstraintCount":12,"particleIndices":{"serializedContents":[2,4,3,5,7,6,8,10,9,11,13,12,14,16,15,17,19,18,20,22,21,23,25,24,26,28,27,29,31,30,32,34,33,35,37,36,38,40,39,41,43,42,44,46,45,47,49,48,50,52,51,53,55,54,56,58,57,59,61,60,62,64,63,65,67,66,68,70,69,71,73,72,74,76,75,77,79,78,80,82,81,83,85,84,86,88,87,89,91,90,92,94,93,95,97,96,98,100,99,101,103,102,104,106,105,107,109,108,110,112,111,113,115,114,116,118,117,119,121,120,122,124,123,125,127,126,128,130,129,131,133,132,134,136,135]},"restBends":{"serializedContents":[0.0,0.0,0.0,0.0,0.0,0.0,0.0,0.0,0.0,0.0,0.0,0.0,0.0,0.0,0.0,0.0,0.0,0.0,0.0,0.0,0.0,0.0,0.0,0.0,0.0,0.0,0.0,0.0,0.0,0.0,0.0,0.0,0.0,0.0,0.0,0.0,0.0,0.0,0.0,0.0,0.0,0.0,0.0,0.0,0.0]},"bendingStiffnesses":{"serializedContents":[{"x":0.0,"y":0.0},{"x":0.0,"y":0.0},{"x":0.0,"y":0.0},{"x":0.0,"y":0.0},{"x":0.0,"y":0.0},{"x":0.0,"y":0.0},{"x":0.0,"y":0.0},{"x":0.0,"y":0.0},{"x":0.0,"y":0.0},{"x":0.0,"y":0.0},{"x":0.0,"y":0.0},{"x":0.0,"y":0.0},{"x":0.0,"y":0.0},{"x":0.0,"y":0.0},{"x":0.0,"y":0.0},{"x":0.0,"y":0.0},{"x":0.0,"y":0.0},{"x":0.0,"y":0.0},{"x":0.0,"y":0.0},{"x":0.0,"y":0.0},{"x":0.0,"y":0.0},{"x":0.0,"y":0.0},{"x":0.0,"y":0.0},{"x":0.0,"y":0.0},{"x":0.0,"y":0.0},{"x":0.0,"y":0.0},{"x":0.0,"y":0.0},{"x":0.0,"y":0.0},{"x":0.0,"y":0.0},{"x":0.0,"y":0.0},{"x":0.0,"y":0.0},{"x":0.0,"y":0.0},{"x":0.0,"y":0.0},{"x":0.0,"y":0.0},{"x":0.0,"y":0.0},{"x":0.0,"y":0.0},{"x":0.0,"y":0.0},{"x":0.0,"y":0.0},{"x":0.0,"y":0.0},{"x":0.0,"y":0.0},{"x":0.0,"y":0.0},{"x":0.0,"y":0.0},{"x":0.0,"y":0.0},{"x":0.0,"y":0.0},{"x":0.0,"y":0.0}]}}]},"pinConstraintsData":{"batches":[{"m_IDs":[],"m_IDToIndex":[],"m_ConstraintCount":0,"m_ActiveConstraintCount":0,"m_InitialActiveConstraintCount":0,"particleIndices":{"serializedContents":[]},"offsets":{"serializedContents":[]},"restDarbouxVectors":{"serializedContents":[]},"stiffnesses":{"serializedContents":[]},"breakThresholds":{"serializedContents":[]},"constraintForces":[]}]},"skinConstraintsData":{"batches":[]},"tetherConstraintsData":{"batches":[]},"stretchShearConstraintsData":{"batches":[]},"bendTwistConstraintsData":{"batches":[]},"shapeMatchingConstraintsData":{"batches":[]},"aerodynamicConstraintsData":{"batches":[]},"chainConstraintsData":{"batches":[]},"volumeConstraintsData":{"batches":[]},"groups":[{"instanceID":0},{"instanceID":0}],"path":{"m_Names":["A","B"],"m_Points":{"data":[{"tangentMode":0,"inTangent":{"x":-0.23925630748271943,"y":0.0,"z":0.07250120490789414},"position":{"x":-2.555339813232422,"y":0.30129528045654299,"z":-1.2823047637939454},"outTangent":{"x":0.12537290155887605,"y":0.0,"z":-0.037991397082805637}},{"tangentMode":0,"inTangent":{"x":-0.22082734107971192,"y":-0.0019277334213256837,"z":0.0},"position":{"x":1.967378854751587,"y":0.32307958602905276,"z":-1.316169261932373},"outTangent":{"x":0.2499903291463852,"y":0.0021823146380484106,"z":0.0}}]},"m_Normals":{"data":[{"x":0.0,"y":1.0,"z":0.0},{"x":0.0,"y":1.0,"z":0.0}]},"m_Colors":{"data":[{"r":1.0,"g":1.0,"b":1.0,"a":1.0},{"r":1.0,"g":1.0,"b":1.0,"a":1.0}]},"m_Thickness":{"data":[1.0,1.0]},"m_Masses":{"data":[0.10000000149011612,0.10000000149011612]},"m_RotationalMasses":{"data":[1.0,1.0]},"m_Phases":{"data":[1,1]},"m_Closed":false,"m_ArcLengthTable":[0.0,0.04495223984122276,0.13960348069667817,0.27894327044487,0.4578145146369934,0.6710407733917236,0.9134398102760315,1.1798268556594849,1.4650161266326905,1.7638212442398072,2.0710554122924806,2.3815319538116457,2.690062999725342,2.991461753845215,3.280540943145752,3.5521130561828615,3.800990581512451,4.021986484527588,4.2099127769470219,4.35958194732666,4.46580696105957,4.523399829864502],"m_TotalSplineLenght":4.523399829864502,"OnPathChanged":{"m_PersistentCalls":{"m_Calls":[]}},"OnControlPointAdded":{"m_PersistentCalls":{"m_Calls":[]}},"OnControlPointRemoved":{"m_PersistentCalls":{"m_Calls":[]}},"OnControlPointRenamed":{"m_PersistentCalls":{"m_Calls":[]}}},"thickness":0.125,"resolution":1.0,"m_InterParticleDistance":0.12225405126810074,"totalParticles":138,"m_RestLength":16.748706817626954,"restLengths":[0.11864738166332245,0.12187203764915467,0.12151327729225159,0.12484992295503617,0.12111052125692368,0.12283722311258316,0.12246841937303543,0.12261634320020676,0.12205623090267182,0.12338753044605255,0.12136472016572952,0.12417378276586533,0.12093772739171982,0.12285556644201279,0.12245406210422516,0.12215090543031693,0.12289495021104813,0.12217489629983902,0.12234174460172653,0.12259210646152497,0.12248951941728592,0.12169325351715088,0.12340106070041657,0.12189382314682007,0.12271970510482788,0.12272870540618897,0.121193066239357,0.12409552931785584,0.11999580264091492,0.12513777613639832,0.11967310309410095,0.125507652759552,0.11951984465122223,0.12483812868595123,0.12366051971912384,0.1226479709148407,0.11679373681545258,0.12225405126810074,0.12225405126810074,0.12225405126810074,0.12225405126810074,0.12225405126810074,0.12225405126810074,0.12225405126810074,0.12225405126810074,0.12225405126810074,0.12225405126810074,0.12225405126810074,0.12225405126810074,0.12225405126810074,0.12225405126810074,0.12225405126810074,0.12225405126810074,0.12225405126810074,0.12225405126810074,0.12225405126810074,0.12225405126810074,0.12225405126810074,0.12225405126810074,0.12225405126810074,0.12225405126810074,0.12225405126810074,0.12225405126810074,0.12225405126810074,0.12225405126810074,0.12225405126810074,0.12225405126810074,0.12225405126810074,0.12225405126810074,0.12225405126810074,0.12225405126810074,0.12225405126810074,0.12225405126810074,0.12225405126810074,0.12225405126810074,0.12225405126810074,0.12225405126810074,0.12225405126810074,0.12225405126810074,0.12225405126810074,0.12225405126810074,0.12225405126810074,0.12225405126810074,0.12225405126810074,0.12225405126810074,0.12225405126810074,0.12225405126810074,0.12225405126810074,0.12225405126810074,0.12225405126810074,0.12225405126810074,0.12225405126810074,0.12225405126810074,0.12225405126810074,0.12225405126810074,0.12225405126810074,0.12225405126810074,0.12225405126810074,0.12225405126810074,0.12225405126810074,0.12225405126810074,0.12225405126810074,0.12225405126810074,0.12225405126810074,0.12225405126810074,0.12225405126810074,0.12225405126810074,0.12225405126810074,0.12225405126810074,0.12225405126810074,0.12225405126810074,0.12225405126810074,0.12225405126810074,0.12225405126810074,0.12225405126810074,0.12225405126810074,0.12225405126810074,0.12225405126810074,0.12225405126810074,0.12225405126810074,0.12225405126810074,0.12225405126810074,0.12225405126810074,0.12225405126810074,0.12225405126810074,0.12225405126810074,0.12225405126810074,0.12225405126810074,0.12225405126810074,0.12225405126810074,0.12225405126810074,0.12225405126810074,0.12225405126810074,0.12225405126810074,0.12225405126810074,0.12225405126810074,0.12225405126810074,0.0],"pooledParticles":100}'
  hasAnchor: 0
  a: 1
  groundIndex: 0
  _hasAnchorRopeOneA: 0
  _hasAnchorRopeOneB: 0
  _hasAnchorRopeTwoA: 0
  _hasAnchorRopeTwoB: 0
  _hasAnchorRopeThreeA: 0
  _hasAnchorRopeThreeB: 0
  _hasAnchorRopeFourA: 0
  _hasAnchorRopeFourB: 0
  _hasAnchorRopeFiveA: 0
  _hasAnchorRopeFiveB: 0
  obstacleInfos:
    obstacleIndex: -1
    overridePosition: {x: 0, y: 0, z: 0}
    overrideRotation: {x: 0, y: 0, z: 0}
  curveInfos:
    curveIndex: 4
    positionOverride: {x: -0.52, y: 0.5, z: 0.77}
    rotationOverride: {x: 0, y: -270, z: 0}
