%YAML 1.1
%TAG !u! tag:unity3d.com,2011:
--- !u!114 &11400000
MonoBehaviour:
  m_ObjectHideFlags: 0
  m_CorrespondingSourceObject: {fileID: 0}
  m_PrefabInstance: {fileID: 0}
  m_PrefabAsset: {fileID: 0}
  m_GameObject: {fileID: 0}
  m_Enabled: 1
  m_EditorHideFlags: 0
  m_Script: {fileID: 11500000, guid: 4127f02986c6bce45951f9e1b3dce8cc, type: 3}
  m_Name: Normal_18+
  m_EditorClassIdentifier: 
  ropes: 
  hasAnchor: 0
  a: 1
  groundIndex: 0
  _hasAnchorRopeOneA: 0
  _hasAnchorRopeOneB: 0
  _hasAnchorRopeTwoA: 0
  _hasAnchorRopeTwoB: 0
  _hasAnchorRopeThreeA: 0
  _hasAnchorRopeThreeB: 0
  _hasAnchorRopeFourA: 0
  _hasAnchorRopeFourB: 0
  _hasAnchorRopeFiveA: 0
  _hasAnchorRopeFiveB: 0
  obstacleInfos:
    obstacleIndex: -1
    overridePosition: {x: 0, y: 0, z: 0}
    overrideRotation: {x: 0, y: 0, z: 0}
  curveInfos:
    curveIndex: 0
    positionOverride: {x: 0, y: 0, z: 0}
    rotationOverride: {x: 0, y: 0, z: 0}
