%YAML 1.1
%TAG !u! tag:unity3d.com,2011:
--- !u!114 &11400000
MonoBehaviour:
  m_ObjectHideFlags: 0
  m_CorrespondingSourceObject: {fileID: 0}
  m_PrefabInstance: {fileID: 0}
  m_PrefabAsset: {fileID: 0}
  m_GameObject: {fileID: 0}
  m_Enabled: 1
  m_EditorHideFlags: 0
  m_Script: {fileID: 11500000, guid: 4127f02986c6bce45951f9e1b3dce8cc, type: 3}
  m_Name: 28
  m_EditorClassIdentifier: 
  ropes: '{"m_Empty":false,"m_ActiveParticleCount":35,"m_InitialActiveParticleCount":35,"_bounds":{"m_Center":{"x":-0.3272969722747803,"y":0.0,"z":0.010941429063677788},"m_Extent":{"x":2.1184651851654054,"y":0.0,"z":0.010941429063677788}},"positions":[{"x":-1.3281512260437012,"y":0.1145000159740448,"z":0.07999670505523682},{"x":-1.0974289178848267,"y":0.1802462637424469,"z":0.05900121480226517},{"x":-0.8610573410987854,"y":0.24648317694664002,"z":0.036421988159418109},{"x":-0.6343424320220947,"y":0.30930009484291079,"z":0.014231332577764988},{"x":-0.3968072533607483,"y":0.37454575300216677,"z":-0.009855753742158413},{"x":-0.17254121601581574,"y":0.43721580505371096,"z":-0.03272455930709839},{"x":0.05979565531015396,"y":0.5049387216567993,"z":-0.056223880499601367},{"x":0.2829149663448334,"y":0.5682983994483948,"z":-0.07575687021017075},{"x":0.5181293487548828,"y":0.6046319007873535,"z":-0.08418060094118118},{"x":0.7227594256401062,"y":0.590566873550415,"z":-0.07208368182182312},{"x":0.9234810471534729,"y":0.5526764988899231,"z":-0.05485258996486664},{"x":1.0600252151489258,"y":0.4399060606956482,"z":-0.00002257729101984296},{"x":1.1800110340118409,"y":0.32599377632141116,"z":0.07984314113855362},{"x":1.278061032295227,"y":0.21365073323249818,"z":0.17009852826595307},{"x":1.3539187908172608,"y":0.16600024700164796,"z":0.30892449617385867},{"x":1.3811644315719605,"y":0.16600024700164796,"z":0.44650575518608096},{"x":1.369042992591858,"y":0.17552605271339417,"z":0.5604366660118103},{"x":1.3029688596725464,"y":0.23714128136634828,"z":0.6347208023071289},{"x":1.2236884832382203,"y":0.30846238136291506,"z":0.6612997055053711},{"x":1.1361088752746583,"y":0.3850552439689636,"z":0.6561082601547241},{"x":1.0513098239898682,"y":0.44497382640838625,"z":0.5773758888244629},{"x":0.9799347519874573,"y":0.4654572010040283,"z":0.4571217894554138},{"x":0.9013106822967529,"y":0.46719110012054446,"z":0.30367136001586916},{"x":0.8275033235549927,"y":0.41824615001678469,"z":0.12688593566417695},{"x":0.7852405905723572,"y":0.3479028344154358,"z":-0.0791439414024353},{"x":0.7758438587188721,"y":0.30448225140571597,"z":-0.2815171480178833},{"x":0.7976641058921814,"y":0.2741246223449707,"z":-0.5020889043807983},{"x":0.8314886689186096,"y":0.2523173689842224,"z":-0.7154682278633118},{"x":0.8664862513542175,"y":0.23557695746421815,"z":-0.9347677230834961},{"x":0.8979827761650086,"y":0.22150546312332154,"z":-1.1460593938827515},{"x":0.927688479423523,"y":0.20877963304519654,"z":-1.3621764183044434},{"x":0.9526498317718506,"y":0.1966613531112671,"z":-1.5736829042434693},{"x":0.9762747287750244,"y":0.18382972478866578,"z":-1.7932883501052857},{"x":0.9951726198196411,"y":0.16600024700164796,"z":-2.001673698425293},{"x":1.0116751194000245,"y":0.1145000159740448,"z":-2.215566635131836},{"x":2.058969883478312e-8,"y":0.0,"z":-3.7987986090115559e-9},{"x":2.058969883478312e-8,"y":0.0,"z":-3.7987986090115559e-9},{"x":2.058969883478312e-8,"y":0.0,"z":-3.7987986090115559e-9},{"x":2.058969883478312e-8,"y":0.0,"z":-3.7987986090115559e-9},{"x":2.058969883478312e-8,"y":0.0,"z":-3.7987986090115559e-9},{"x":2.058969883478312e-8,"y":0.0,"z":-3.7987986090115559e-9},{"x":2.058969883478312e-8,"y":0.0,"z":-3.7987986090115559e-9},{"x":2.058969883478312e-8,"y":0.0,"z":-3.7987986090115559e-9},{"x":2.058969883478312e-8,"y":0.0,"z":-3.7987986090115559e-9},{"x":2.058969883478312e-8,"y":0.0,"z":-3.7987986090115559e-9},{"x":2.058969883478312e-8,"y":0.0,"z":-3.7987986090115559e-9},{"x":2.058969883478312e-8,"y":0.0,"z":-3.7987986090115559e-9},{"x":2.058969883478312e-8,"y":0.0,"z":-3.7987986090115559e-9},{"x":2.058969883478312e-8,"y":0.0,"z":-3.7987986090115559e-9},{"x":2.058969883478312e-8,"y":0.0,"z":-3.7987986090115559e-9},{"x":2.058969883478312e-8,"y":0.0,"z":-3.7987986090115559e-9},{"x":2.058969883478312e-8,"y":0.0,"z":-3.7987986090115559e-9},{"x":2.058969883478312e-8,"y":0.0,"z":-3.7987986090115559e-9},{"x":2.058969883478312e-8,"y":0.0,"z":-3.7987986090115559e-9},{"x":2.058969883478312e-8,"y":0.0,"z":-3.7987986090115559e-9},{"x":2.058969883478312e-8,"y":0.0,"z":-3.7987986090115559e-9},{"x":2.058969883478312e-8,"y":0.0,"z":-3.7987986090115559e-9},{"x":2.058969883478312e-8,"y":0.0,"z":-3.7987986090115559e-9},{"x":2.058969883478312e-8,"y":0.0,"z":-3.7987986090115559e-9},{"x":2.058969883478312e-8,"y":0.0,"z":-3.7987986090115559e-9},{"x":2.058969883478312e-8,"y":0.0,"z":-3.7987986090115559e-9},{"x":2.058969883478312e-8,"y":0.0,"z":-3.7987986090115559e-9},{"x":2.058969883478312e-8,"y":0.0,"z":-3.7987986090115559e-9},{"x":2.058969883478312e-8,"y":0.0,"z":-3.7987986090115559e-9},{"x":2.058969883478312e-8,"y":0.0,"z":-3.7987986090115559e-9},{"x":2.058969883478312e-8,"y":0.0,"z":-3.7987986090115559e-9},{"x":2.058969883478312e-8,"y":0.0,"z":-3.7987986090115559e-9},{"x":2.058969883478312e-8,"y":0.0,"z":-3.7987986090115559e-9},{"x":2.058969883478312e-8,"y":0.0,"z":-3.7987986090115559e-9},{"x":2.058969883478312e-8,"y":0.0,"z":-3.7987986090115559e-9},{"x":2.058969883478312e-8,"y":0.0,"z":-3.7987986090115559e-9},{"x":2.058969883478312e-8,"y":0.0,"z":-3.7987986090115559e-9},{"x":2.058969883478312e-8,"y":0.0,"z":-3.7987986090115559e-9},{"x":2.058969883478312e-8,"y":0.0,"z":-3.7987986090115559e-9},{"x":2.058969883478312e-8,"y":0.0,"z":-3.7987986090115559e-9},{"x":2.058969883478312e-8,"y":0.0,"z":-3.7987986090115559e-9},{"x":2.058969883478312e-8,"y":0.0,"z":-3.7987986090115559e-9},{"x":2.058969883478312e-8,"y":0.0,"z":-3.7987986090115559e-9},{"x":2.058969883478312e-8,"y":0.0,"z":-3.7987986090115559e-9},{"x":2.058969883478312e-8,"y":0.0,"z":-3.7987986090115559e-9},{"x":2.058969883478312e-8,"y":0.0,"z":-3.7987986090115559e-9},{"x":2.058969883478312e-8,"y":0.0,"z":-3.7987986090115559e-9},{"x":2.058969883478312e-8,"y":0.0,"z":-3.7987986090115559e-9},{"x":2.058969883478312e-8,"y":0.0,"z":-3.7987986090115559e-9},{"x":2.058969883478312e-8,"y":0.0,"z":-3.7987986090115559e-9},{"x":2.058969883478312e-8,"y":0.0,"z":-3.7987986090115559e-9},{"x":2.058969883478312e-8,"y":0.0,"z":-3.7987986090115559e-9},{"x":2.058969883478312e-8,"y":0.0,"z":-3.7987986090115559e-9},{"x":2.058969883478312e-8,"y":0.0,"z":-3.7987986090115559e-9},{"x":2.058969883478312e-8,"y":0.0,"z":-3.7987986090115559e-9},{"x":2.058969883478312e-8,"y":0.0,"z":-3.7987986090115559e-9},{"x":2.058969883478312e-8,"y":0.0,"z":-3.7987986090115559e-9},{"x":2.058969883478312e-8,"y":0.0,"z":-3.7987986090115559e-9},{"x":2.058969883478312e-8,"y":0.0,"z":-3.7987986090115559e-9},{"x":2.058969883478312e-8,"y":0.0,"z":-3.7987986090115559e-9},{"x":2.058969883478312e-8,"y":0.0,"z":-3.7987986090115559e-9},{"x":2.058969883478312e-8,"y":0.0,"z":-3.7987986090115559e-9},{"x":2.058969883478312e-8,"y":0.0,"z":-3.7987986090115559e-9},{"x":2.058969883478312e-8,"y":0.0,"z":-3.7987986090115559e-9},{"x":2.058969883478312e-8,"y":0.0,"z":-3.7987986090115559e-9},{"x":2.058969883478312e-8,"y":0.0,"z":-3.7987986090115559e-9},{"x":2.058969883478312e-8,"y":0.0,"z":-3.7987986090115559e-9},{"x":2.058969883478312e-8,"y":0.0,"z":-3.7987986090115559e-9},{"x":2.058969883478312e-8,"y":0.0,"z":-3.7987986090115559e-9},{"x":2.058969883478312e-8,"y":0.0,"z":-3.7987986090115559e-9},{"x":2.058969883478312e-8,"y":0.0,"z":-3.7987986090115559e-9},{"x":2.058969883478312e-8,"y":0.0,"z":-3.7987986090115559e-9},{"x":2.058969883478312e-8,"y":0.0,"z":-3.7987986090115559e-9},{"x":2.058969883478312e-8,"y":0.0,"z":-3.7987986090115559e-9},{"x":2.058969883478312e-8,"y":0.0,"z":-3.7987986090115559e-9},{"x":2.058969883478312e-8,"y":0.0,"z":-3.7987986090115559e-9},{"x":2.058969883478312e-8,"y":0.0,"z":-3.7987986090115559e-9},{"x":2.058969883478312e-8,"y":0.0,"z":-3.7987986090115559e-9},{"x":2.058969883478312e-8,"y":0.0,"z":-3.7987986090115559e-9},{"x":2.058969883478312e-8,"y":0.0,"z":-3.7987986090115559e-9},{"x":2.058969883478312e-8,"y":0.0,"z":-3.7987986090115559e-9},{"x":2.058969883478312e-8,"y":0.0,"z":-3.7987986090115559e-9},{"x":2.058969883478312e-8,"y":0.0,"z":-3.7987986090115559e-9},{"x":2.058969883478312e-8,"y":0.0,"z":-3.7987986090115559e-9},{"x":2.058969883478312e-8,"y":0.0,"z":-3.7987986090115559e-9},{"x":2.058969883478312e-8,"y":0.0,"z":-3.7987986090115559e-9},{"x":2.058969883478312e-8,"y":0.0,"z":-3.7987986090115559e-9},{"x":2.058969883478312e-8,"y":0.0,"z":-3.7987986090115559e-9},{"x":2.058969883478312e-8,"y":0.0,"z":-3.7987986090115559e-9},{"x":2.058969883478312e-8,"y":0.0,"z":-3.7987986090115559e-9},{"x":2.058969883478312e-8,"y":0.0,"z":-3.7987986090115559e-9},{"x":2.058969883478312e-8,"y":0.0,"z":-3.7987986090115559e-9},{"x":2.058969883478312e-8,"y":0.0,"z":-3.7987986090115559e-9},{"x":2.058969883478312e-8,"y":0.0,"z":-3.7987986090115559e-9},{"x":2.058969883478312e-8,"y":0.0,"z":-3.7987986090115559e-9},{"x":2.058969883478312e-8,"y":0.0,"z":-3.7987986090115559e-9},{"x":2.058969883478312e-8,"y":0.0,"z":-3.7987986090115559e-9},{"x":2.058969883478312e-8,"y":0.0,"z":-3.7987986090115559e-9},{"x":2.058969883478312e-8,"y":0.0,"z":-3.7987986090115559e-9},{"x":2.058969883478312e-8,"y":0.0,"z":-3.7987986090115559e-9}],"restPositions":[{"x":-2.4457621574401857,"y":0.0,"z":0.0,"w":1.0},{"x":-2.321721315383911,"y":0.0,"z":0.00013242514978628606,"w":1.0},{"x":-2.196953058242798,"y":0.0,"z":0.0005079790134914219,"w":1.0},{"x":-2.0720934867858888,"y":0.0,"z":0.0010930342832580209,"w":1.0},{"x":-1.9477347135543824,"y":0.0,"z":0.0018535902490839363,"w":1.0},{"x":-1.8227988481521607,"y":0.0,"z":0.0027690634597092869,"w":1.0},{"x":-1.6983312368392945,"y":0.0,"z":0.0038072161842137577,"w":1.0},{"x":-1.5736637115478516,"y":0.0,"z":0.0049503641203045849,"w":1.0},{"x":-1.4488788843154908,"y":0.0,"z":0.00617685541510582,"w":1.0},{"x":-1.3243824243545533,"y":0.0,"z":0.00746256485581398,"w":1.0},{"x":-1.1995761394500733,"y":0.0,"z":0.008794651366770268,"w":1.0},{"x":-1.0750432014465333,"y":0.0,"z":0.010148673318326474,"w":1.0},{"x":-0.9503471851348877,"y":0.0,"z":0.011511624790728093,"w":1.0},{"x":-0.8257092833518982,"y":0.0,"z":0.012863720767199993,"w":1.0},{"x":-0.701043426990509,"y":0.0,"z":0.014188677072525025,"w":1.0},{"x":-0.5764317512512207,"y":0.0,"z":0.015468397177755833,"w":1.0},{"x":-0.4517173171043396,"y":0.0,"z":0.016687020659446718,"w":1.0},{"x":-0.3271138370037079,"y":0.0,"z":0.01782466657459736,"w":1.0},{"x":-0.20242147147655488,"y":0.0,"z":0.018864795565605165,"w":1.0},{"x":-0.07773176580667496,"y":0.0,"z":0.019787397235631944,"w":1.0},{"x":0.046781450510025027,"y":0.0,"z":0.02057134546339512,"w":1.0},{"x":0.17164263129234315,"y":0.0,"z":0.021198241040110589,"w":1.0},{"x":0.29605117440223696,"y":0.0,"z":0.02164142020046711,"w":1.0},{"x":0.4209239184856415,"y":0.0,"z":0.021879294887185098,"w":1.0},{"x":0.5455943942070007,"y":0.0,"z":0.021882858127355577,"w":1.0},{"x":0.6699802279472351,"y":0.0,"z":0.02162373811006546,"w":1.0},{"x":0.7950160503387451,"y":0.0,"z":0.021065490320324899,"w":1.0},{"x":0.9194204211235046,"y":0.0,"z":0.020176487043499948,"w":1.0},{"x":1.0440919399261475,"y":0.0,"z":0.018909338861703874,"w":1.0},{"x":1.1690346002578736,"y":0.0,"z":0.01721259206533432,"w":1.0},{"x":1.2932841777801514,"y":0.0,"z":0.015044975094497204,"w":1.0},{"x":1.4179847240447999,"y":0.0,"z":0.012321120128035546,"w":1.0},{"x":1.5429824590682984,"y":0.0,"z":0.008959073573350907,"w":1.0},{"x":1.6673803329467774,"y":0.0,"z":0.004888060037046671,"w":1.0},{"x":1.7911680936813355,"y":0.0,"z":0.0,"w":1.0},{"x":0.0,"y":0.0,"z":0.0,"w":0.0},{"x":0.0,"y":0.0,"z":0.0,"w":0.0},{"x":0.0,"y":0.0,"z":0.0,"w":0.0},{"x":0.0,"y":0.0,"z":0.0,"w":0.0},{"x":0.0,"y":0.0,"z":0.0,"w":0.0},{"x":0.0,"y":0.0,"z":0.0,"w":0.0},{"x":0.0,"y":0.0,"z":0.0,"w":0.0},{"x":0.0,"y":0.0,"z":0.0,"w":0.0},{"x":0.0,"y":0.0,"z":0.0,"w":0.0},{"x":0.0,"y":0.0,"z":0.0,"w":0.0},{"x":0.0,"y":0.0,"z":0.0,"w":0.0},{"x":0.0,"y":0.0,"z":0.0,"w":0.0},{"x":0.0,"y":0.0,"z":0.0,"w":0.0},{"x":0.0,"y":0.0,"z":0.0,"w":0.0},{"x":0.0,"y":0.0,"z":0.0,"w":0.0},{"x":0.0,"y":0.0,"z":0.0,"w":0.0},{"x":0.0,"y":0.0,"z":0.0,"w":0.0},{"x":0.0,"y":0.0,"z":0.0,"w":0.0},{"x":0.0,"y":0.0,"z":0.0,"w":0.0},{"x":0.0,"y":0.0,"z":0.0,"w":0.0},{"x":0.0,"y":0.0,"z":0.0,"w":0.0},{"x":0.0,"y":0.0,"z":0.0,"w":0.0},{"x":0.0,"y":0.0,"z":0.0,"w":0.0},{"x":0.0,"y":0.0,"z":0.0,"w":0.0},{"x":0.0,"y":0.0,"z":0.0,"w":0.0},{"x":0.0,"y":0.0,"z":0.0,"w":0.0},{"x":0.0,"y":0.0,"z":0.0,"w":0.0},{"x":0.0,"y":0.0,"z":0.0,"w":0.0},{"x":0.0,"y":0.0,"z":0.0,"w":0.0},{"x":0.0,"y":0.0,"z":0.0,"w":0.0},{"x":0.0,"y":0.0,"z":0.0,"w":0.0},{"x":0.0,"y":0.0,"z":0.0,"w":0.0},{"x":0.0,"y":0.0,"z":0.0,"w":0.0},{"x":0.0,"y":0.0,"z":0.0,"w":0.0},{"x":0.0,"y":0.0,"z":0.0,"w":0.0},{"x":0.0,"y":0.0,"z":0.0,"w":0.0},{"x":0.0,"y":0.0,"z":0.0,"w":0.0},{"x":0.0,"y":0.0,"z":0.0,"w":0.0},{"x":0.0,"y":0.0,"z":0.0,"w":0.0},{"x":0.0,"y":0.0,"z":0.0,"w":0.0},{"x":0.0,"y":0.0,"z":0.0,"w":0.0},{"x":0.0,"y":0.0,"z":0.0,"w":0.0},{"x":0.0,"y":0.0,"z":0.0,"w":0.0},{"x":0.0,"y":0.0,"z":0.0,"w":0.0},{"x":0.0,"y":0.0,"z":0.0,"w":0.0},{"x":0.0,"y":0.0,"z":0.0,"w":0.0},{"x":0.0,"y":0.0,"z":0.0,"w":0.0},{"x":0.0,"y":0.0,"z":0.0,"w":0.0},{"x":0.0,"y":0.0,"z":0.0,"w":0.0},{"x":0.0,"y":0.0,"z":0.0,"w":0.0},{"x":0.0,"y":0.0,"z":0.0,"w":0.0},{"x":0.0,"y":0.0,"z":0.0,"w":0.0},{"x":0.0,"y":0.0,"z":0.0,"w":0.0},{"x":0.0,"y":0.0,"z":0.0,"w":0.0},{"x":0.0,"y":0.0,"z":0.0,"w":0.0},{"x":0.0,"y":0.0,"z":0.0,"w":0.0},{"x":0.0,"y":0.0,"z":0.0,"w":0.0},{"x":0.0,"y":0.0,"z":0.0,"w":0.0},{"x":0.0,"y":0.0,"z":0.0,"w":0.0},{"x":0.0,"y":0.0,"z":0.0,"w":0.0},{"x":0.0,"y":0.0,"z":0.0,"w":0.0},{"x":0.0,"y":0.0,"z":0.0,"w":0.0},{"x":0.0,"y":0.0,"z":0.0,"w":0.0},{"x":0.0,"y":0.0,"z":0.0,"w":0.0},{"x":0.0,"y":0.0,"z":0.0,"w":0.0},{"x":0.0,"y":0.0,"z":0.0,"w":0.0},{"x":0.0,"y":0.0,"z":0.0,"w":0.0},{"x":0.0,"y":0.0,"z":0.0,"w":0.0},{"x":0.0,"y":0.0,"z":0.0,"w":0.0},{"x":0.0,"y":0.0,"z":0.0,"w":0.0},{"x":0.0,"y":0.0,"z":0.0,"w":0.0},{"x":0.0,"y":0.0,"z":0.0,"w":0.0},{"x":0.0,"y":0.0,"z":0.0,"w":0.0},{"x":0.0,"y":0.0,"z":0.0,"w":0.0},{"x":0.0,"y":0.0,"z":0.0,"w":0.0},{"x":0.0,"y":0.0,"z":0.0,"w":0.0},{"x":0.0,"y":0.0,"z":0.0,"w":0.0},{"x":0.0,"y":0.0,"z":0.0,"w":0.0},{"x":0.0,"y":0.0,"z":0.0,"w":0.0},{"x":0.0,"y":0.0,"z":0.0,"w":0.0},{"x":0.0,"y":0.0,"z":0.0,"w":0.0},{"x":0.0,"y":0.0,"z":0.0,"w":0.0},{"x":0.0,"y":0.0,"z":0.0,"w":0.0},{"x":0.0,"y":0.0,"z":0.0,"w":0.0},{"x":0.0,"y":0.0,"z":0.0,"w":0.0},{"x":0.0,"y":0.0,"z":0.0,"w":0.0},{"x":0.0,"y":0.0,"z":0.0,"w":0.0},{"x":0.0,"y":0.0,"z":0.0,"w":0.0},{"x":0.0,"y":0.0,"z":0.0,"w":0.0},{"x":0.0,"y":0.0,"z":0.0,"w":0.0},{"x":0.0,"y":0.0,"z":0.0,"w":0.0},{"x":0.0,"y":0.0,"z":0.0,"w":0.0},{"x":0.0,"y":0.0,"z":0.0,"w":0.0},{"x":0.0,"y":0.0,"z":0.0,"w":0.0},{"x":0.0,"y":0.0,"z":0.0,"w":0.0},{"x":0.0,"y":0.0,"z":0.0,"w":0.0},{"x":0.0,"y":0.0,"z":0.0,"w":0.0},{"x":0.0,"y":0.0,"z":0.0,"w":0.0},{"x":0.0,"y":0.0,"z":0.0,"w":0.0},{"x":0.0,"y":0.0,"z":0.0,"w":0.0}],"orientations":[],"restOrientations":[],"velocities":[{"x":0.0,"y":0.0,"z":0.0},{"x":-0.19124679267406465,"y":0.10132510215044022,"z":0.13855122029781342},{"x":-0.3468497395515442,"y":0.06850147992372513,"z":0.19032804667949677},{"x":-0.43163445591926577,"y":-0.004696097690612078,"z":0.19764307141304017},{"x":-0.5201565027236939,"y":-0.12093009054660797,"z":0.16155989468097688},{"x":-0.5582954287528992,"y":-0.18241193890571595,"z":0.1287974864244461},{"x":-0.6161127090454102,"y":-0.1646622121334076,"z":0.12995432317256928},{"x":-0.6440943479537964,"y":-0.1689792275428772,"z":0.1938847154378891},{"x":-0.6473166346549988,"y":-0.18621163070201875,"z":0.24650844931602479},{"x":-0.6187213063240051,"y":-0.19499731063842774,"z":0.2625187933444977},{"x":-0.5728379487991333,"y":-0.23146900534629823,"z":0.26563459634780886},{"x":-0.518237829208374,"y":-0.22887343168258668,"z":0.22327469289302827},{"x":-0.4504152834415436,"y":-0.163689985871315,"z":0.22725550830364228},{"x":-0.3830246031284332,"y":-0.0588015653192997,"z":0.24828174710273744},{"x":-0.2486216425895691,"y":0.0,"z":0.41760963201522829},{"x":0.1778242290019989,"y":0.0,"z":0.04302563890814781},{"x":-0.3288152515888214,"y":-0.03155260160565376,"z":0.2634018659591675},{"x":-0.5259119868278503,"y":-0.10713613033294678,"z":0.37706708908081057},{"x":-0.4814753532409668,"y":-0.14511966705322267,"z":0.509536623954773},{"x":-0.5414954423904419,"y":-0.14949913322925569,"z":0.5397988557815552},{"x":-0.3670843839645386,"y":-0.1574731320142746,"z":0.5225738883018494},{"x":-0.2341698259115219,"y":-0.243019700050354,"z":0.5638002753257752},{"x":-0.24572187662124635,"y":-0.18834339082241059,"z":0.454521119594574},{"x":-0.45956793427467348,"y":-0.15535029768943788,"z":0.36482587456703188},{"x":-0.6574278473854065,"y":-0.20049169659614564,"z":0.3149026334285736},{"x":-0.8561718463897705,"y":-0.2633025646209717,"z":0.3217213749885559},{"x":-1.053816556930542,"y":-0.32384341955184939,"z":0.3109995424747467},{"x":-1.230961561203003,"y":-0.4395333230495453,"z":0.29869794845581057},{"x":-1.2125409841537476,"y":-0.4606635272502899,"z":0.20570768415927888},{"x":-1.1037715673446656,"y":-0.381066232919693,"z":0.11967407912015915},{"x":-0.9117206335067749,"y":-0.21130208671092988,"z":0.01793901063501835},{"x":-0.6624191403388977,"y":-0.07111041992902756,"z":-0.0207598228007555},{"x":-0.3473251461982727,"y":0.008504708297550679,"z":-0.031247667968273164},{"x":-0.2245185226202011,"y":0.0,"z":-0.03227222338318825},{"x":0.0,"y":0.0,"z":0.0},{"x":0.0,"y":0.0,"z":0.0},{"x":0.0,"y":0.0,"z":0.0},{"x":0.0,"y":0.0,"z":0.0},{"x":0.0,"y":0.0,"z":0.0},{"x":0.0,"y":0.0,"z":0.0},{"x":0.0,"y":0.0,"z":0.0},{"x":0.0,"y":0.0,"z":0.0},{"x":0.0,"y":0.0,"z":0.0},{"x":0.0,"y":0.0,"z":0.0},{"x":0.0,"y":0.0,"z":0.0},{"x":0.0,"y":0.0,"z":0.0},{"x":0.0,"y":0.0,"z":0.0},{"x":0.0,"y":0.0,"z":0.0},{"x":0.0,"y":0.0,"z":0.0},{"x":0.0,"y":0.0,"z":0.0},{"x":0.0,"y":0.0,"z":0.0},{"x":0.0,"y":0.0,"z":0.0},{"x":0.0,"y":0.0,"z":0.0},{"x":0.0,"y":0.0,"z":0.0},{"x":0.0,"y":0.0,"z":0.0},{"x":0.0,"y":0.0,"z":0.0},{"x":0.0,"y":0.0,"z":0.0},{"x":0.0,"y":0.0,"z":0.0},{"x":0.0,"y":0.0,"z":0.0},{"x":0.0,"y":0.0,"z":0.0},{"x":0.0,"y":0.0,"z":0.0},{"x":0.0,"y":0.0,"z":0.0},{"x":0.0,"y":0.0,"z":0.0},{"x":0.0,"y":0.0,"z":0.0},{"x":0.0,"y":0.0,"z":0.0},{"x":0.0,"y":0.0,"z":0.0},{"x":0.0,"y":0.0,"z":0.0},{"x":0.0,"y":0.0,"z":0.0},{"x":0.0,"y":0.0,"z":0.0},{"x":0.0,"y":0.0,"z":0.0},{"x":0.0,"y":0.0,"z":0.0},{"x":0.0,"y":0.0,"z":0.0},{"x":0.0,"y":0.0,"z":0.0},{"x":0.0,"y":0.0,"z":0.0},{"x":0.0,"y":0.0,"z":0.0},{"x":0.0,"y":0.0,"z":0.0},{"x":0.0,"y":0.0,"z":0.0},{"x":0.0,"y":0.0,"z":0.0},{"x":0.0,"y":0.0,"z":0.0},{"x":0.0,"y":0.0,"z":0.0},{"x":0.0,"y":0.0,"z":0.0},{"x":0.0,"y":0.0,"z":0.0},{"x":0.0,"y":0.0,"z":0.0},{"x":0.0,"y":0.0,"z":0.0},{"x":0.0,"y":0.0,"z":0.0},{"x":0.0,"y":0.0,"z":0.0},{"x":0.0,"y":0.0,"z":0.0},{"x":0.0,"y":0.0,"z":0.0},{"x":0.0,"y":0.0,"z":0.0},{"x":0.0,"y":0.0,"z":0.0},{"x":0.0,"y":0.0,"z":0.0},{"x":0.0,"y":0.0,"z":0.0},{"x":0.0,"y":0.0,"z":0.0},{"x":0.0,"y":0.0,"z":0.0},{"x":0.0,"y":0.0,"z":0.0},{"x":0.0,"y":0.0,"z":0.0},{"x":0.0,"y":0.0,"z":0.0},{"x":0.0,"y":0.0,"z":0.0},{"x":0.0,"y":0.0,"z":0.0},{"x":0.0,"y":0.0,"z":0.0},{"x":0.0,"y":0.0,"z":0.0},{"x":0.0,"y":0.0,"z":0.0},{"x":0.0,"y":0.0,"z":0.0},{"x":0.0,"y":0.0,"z":0.0},{"x":0.0,"y":0.0,"z":0.0},{"x":0.0,"y":0.0,"z":0.0},{"x":0.0,"y":0.0,"z":0.0},{"x":0.0,"y":0.0,"z":0.0},{"x":0.0,"y":0.0,"z":0.0},{"x":0.0,"y":0.0,"z":0.0},{"x":0.0,"y":0.0,"z":0.0},{"x":0.0,"y":0.0,"z":0.0},{"x":0.0,"y":0.0,"z":0.0},{"x":0.0,"y":0.0,"z":0.0},{"x":0.0,"y":0.0,"z":0.0},{"x":0.0,"y":0.0,"z":0.0},{"x":0.0,"y":0.0,"z":0.0},{"x":0.0,"y":0.0,"z":0.0},{"x":0.0,"y":0.0,"z":0.0},{"x":0.0,"y":0.0,"z":0.0},{"x":0.0,"y":0.0,"z":0.0},{"x":0.0,"y":0.0,"z":0.0},{"x":0.0,"y":0.0,"z":0.0},{"x":0.0,"y":0.0,"z":0.0},{"x":0.0,"y":0.0,"z":0.0},{"x":0.0,"y":0.0,"z":0.0},{"x":0.0,"y":0.0,"z":0.0},{"x":0.0,"y":0.0,"z":0.0},{"x":0.0,"y":0.0,"z":0.0},{"x":0.0,"y":0.0,"z":0.0},{"x":0.0,"y":0.0,"z":0.0},{"x":0.0,"y":0.0,"z":0.0},{"x":0.0,"y":0.0,"z":0.0},{"x":0.0,"y":0.0,"z":0.0},{"x":0.0,"y":0.0,"z":0.0}],"angularVelocities":[],"invMasses":[1.0,10.0,9.999999046325684,10.0,10.0,10.000000953674317,9.999999046325684,10.0,10.0,10.0,10.0,10.000000953674317,10.000000953674317,10.000000953674317,10.0,10.0,10.0,9.999999046325684,10.0,10.0,10.0,10.0,10.0,10.0,10.0,10.0,10.0,10.0,10.0,10.0,10.0,10.0,10.0,10.0,10.0,0.0,0.0,0.0,0.0,0.0,0.0,0.0,0.0,0.0,0.0,0.0,0.0,0.0,0.0,0.0,0.0,0.0,0.0,0.0,0.0,0.0,0.0,0.0,0.0,0.0,0.0,0.0,0.0,0.0,0.0,0.0,0.0,0.0,0.0,0.0,0.0,0.0,0.0,0.0,0.0,0.0,0.0,0.0,0.0,0.0,0.0,0.0,0.0,0.0,0.0,0.0,0.0,0.0,0.0,0.0,0.0,0.0,0.0,0.0,0.0,0.0,0.0,0.0,0.0,0.0,0.0,0.0,0.0,0.0,0.0,0.0,0.0,0.0,0.0,0.0,0.0,0.0,0.0,0.0,0.0,0.0,0.0,0.0,0.0,0.0,0.0,0.0,0.0,0.0,0.0,0.0,0.0,0.0,0.0,0.0,0.0,0.0,0.0,0.0,0.0],"invRotationalMasses":[],"phases":[1,1,1,1,1,1,1,1,1,1,1,1,1,1,1,1,1,1,1,1,1,1,1,1,1,1,1,1,1,1,1,1,1,1,1,0,0,0,0,0,0,0,0,0,0,0,0,0,0,0,0,0,0,0,0,0,0,0,0,0,0,0,0,0,0,0,0,0,0,0,0,0,0,0,0,0,0,0,0,0,0,0,0,0,0,0,0,0,0,0,0,0,0,0,0,0,0,0,0,0,0,0,0,0,0,0,0,0,0,0,0,0,0,0,0,0,0,0,0,0,0,0,0,0,0,0,0,0,0,0,0,0,0,0,0],"principalRadii":[{"x":0.125,"y":0.125,"z":0.125},{"x":0.125,"y":0.125,"z":0.125},{"x":0.1250000149011612,"y":0.1250000149011612,"z":0.1250000149011612},{"x":0.125,"y":0.125,"z":0.125},{"x":0.125,"y":0.125,"z":0.125},{"x":0.1249999925494194,"y":0.1249999925494194,"z":0.1249999925494194},{"x":0.1250000149011612,"y":0.1250000149011612,"z":0.1250000149011612},{"x":0.125,"y":0.125,"z":0.125},{"x":0.125,"y":0.125,"z":0.125},{"x":0.125,"y":0.125,"z":0.125},{"x":0.125,"y":0.125,"z":0.125},{"x":0.1249999925494194,"y":0.1249999925494194,"z":0.1249999925494194},{"x":0.1249999925494194,"y":0.1249999925494194,"z":0.1249999925494194},{"x":0.1249999925494194,"y":0.1249999925494194,"z":0.1249999925494194},{"x":0.125,"y":0.125,"z":0.125},{"x":0.125,"y":0.125,"z":0.125},{"x":0.125,"y":0.125,"z":0.125},{"x":0.1250000149011612,"y":0.1250000149011612,"z":0.1250000149011612},{"x":0.125,"y":0.125,"z":0.125},{"x":0.125,"y":0.125,"z":0.125},{"x":0.125,"y":0.125,"z":0.125},{"x":0.125,"y":0.125,"z":0.125},{"x":0.125,"y":0.125,"z":0.125},{"x":0.125,"y":0.125,"z":0.125},{"x":0.125,"y":0.125,"z":0.125},{"x":0.125,"y":0.125,"z":0.125},{"x":0.125,"y":0.125,"z":0.125},{"x":0.125,"y":0.125,"z":0.125},{"x":0.125,"y":0.125,"z":0.125},{"x":0.125,"y":0.125,"z":0.125},{"x":0.125,"y":0.125,"z":0.125},{"x":0.125,"y":0.125,"z":0.125},{"x":0.125,"y":0.125,"z":0.125},{"x":0.125,"y":0.125,"z":0.125},{"x":0.125,"y":0.125,"z":0.125},{"x":0.0,"y":0.0,"z":0.0},{"x":0.0,"y":0.0,"z":0.0},{"x":0.0,"y":0.0,"z":0.0},{"x":0.0,"y":0.0,"z":0.0},{"x":0.0,"y":0.0,"z":0.0},{"x":0.0,"y":0.0,"z":0.0},{"x":0.0,"y":0.0,"z":0.0},{"x":0.0,"y":0.0,"z":0.0},{"x":0.0,"y":0.0,"z":0.0},{"x":0.0,"y":0.0,"z":0.0},{"x":0.0,"y":0.0,"z":0.0},{"x":0.0,"y":0.0,"z":0.0},{"x":0.0,"y":0.0,"z":0.0},{"x":0.0,"y":0.0,"z":0.0},{"x":0.0,"y":0.0,"z":0.0},{"x":0.0,"y":0.0,"z":0.0},{"x":0.0,"y":0.0,"z":0.0},{"x":0.0,"y":0.0,"z":0.0},{"x":0.0,"y":0.0,"z":0.0},{"x":0.0,"y":0.0,"z":0.0},{"x":0.0,"y":0.0,"z":0.0},{"x":0.0,"y":0.0,"z":0.0},{"x":0.0,"y":0.0,"z":0.0},{"x":0.0,"y":0.0,"z":0.0},{"x":0.0,"y":0.0,"z":0.0},{"x":0.0,"y":0.0,"z":0.0},{"x":0.0,"y":0.0,"z":0.0},{"x":0.0,"y":0.0,"z":0.0},{"x":0.0,"y":0.0,"z":0.0},{"x":0.0,"y":0.0,"z":0.0},{"x":0.0,"y":0.0,"z":0.0},{"x":0.0,"y":0.0,"z":0.0},{"x":0.0,"y":0.0,"z":0.0},{"x":0.0,"y":0.0,"z":0.0},{"x":0.0,"y":0.0,"z":0.0},{"x":0.0,"y":0.0,"z":0.0},{"x":0.0,"y":0.0,"z":0.0},{"x":0.0,"y":0.0,"z":0.0},{"x":0.0,"y":0.0,"z":0.0},{"x":0.0,"y":0.0,"z":0.0},{"x":0.0,"y":0.0,"z":0.0},{"x":0.0,"y":0.0,"z":0.0},{"x":0.0,"y":0.0,"z":0.0},{"x":0.0,"y":0.0,"z":0.0},{"x":0.0,"y":0.0,"z":0.0},{"x":0.0,"y":0.0,"z":0.0},{"x":0.0,"y":0.0,"z":0.0},{"x":0.0,"y":0.0,"z":0.0},{"x":0.0,"y":0.0,"z":0.0},{"x":0.0,"y":0.0,"z":0.0},{"x":0.0,"y":0.0,"z":0.0},{"x":0.0,"y":0.0,"z":0.0},{"x":0.0,"y":0.0,"z":0.0},{"x":0.0,"y":0.0,"z":0.0},{"x":0.0,"y":0.0,"z":0.0},{"x":0.0,"y":0.0,"z":0.0},{"x":0.0,"y":0.0,"z":0.0},{"x":0.0,"y":0.0,"z":0.0},{"x":0.0,"y":0.0,"z":0.0},{"x":0.0,"y":0.0,"z":0.0},{"x":0.0,"y":0.0,"z":0.0},{"x":0.0,"y":0.0,"z":0.0},{"x":0.0,"y":0.0,"z":0.0},{"x":0.0,"y":0.0,"z":0.0},{"x":0.0,"y":0.0,"z":0.0},{"x":0.0,"y":0.0,"z":0.0},{"x":0.0,"y":0.0,"z":0.0},{"x":0.0,"y":0.0,"z":0.0},{"x":0.0,"y":0.0,"z":0.0},{"x":0.0,"y":0.0,"z":0.0},{"x":0.0,"y":0.0,"z":0.0},{"x":0.0,"y":0.0,"z":0.0},{"x":0.0,"y":0.0,"z":0.0},{"x":0.0,"y":0.0,"z":0.0},{"x":0.0,"y":0.0,"z":0.0},{"x":0.0,"y":0.0,"z":0.0},{"x":0.0,"y":0.0,"z":0.0},{"x":0.0,"y":0.0,"z":0.0},{"x":0.0,"y":0.0,"z":0.0},{"x":0.0,"y":0.0,"z":0.0},{"x":0.0,"y":0.0,"z":0.0},{"x":0.0,"y":0.0,"z":0.0},{"x":0.0,"y":0.0,"z":0.0},{"x":0.0,"y":0.0,"z":0.0},{"x":0.0,"y":0.0,"z":0.0},{"x":0.0,"y":0.0,"z":0.0},{"x":0.0,"y":0.0,"z":0.0},{"x":0.0,"y":0.0,"z":0.0},{"x":0.0,"y":0.0,"z":0.0},{"x":0.0,"y":0.0,"z":0.0},{"x":0.0,"y":0.0,"z":0.0},{"x":0.0,"y":0.0,"z":0.0},{"x":0.0,"y":0.0,"z":0.0},{"x":0.0,"y":0.0,"z":0.0},{"x":0.0,"y":0.0,"z":0.0},{"x":0.0,"y":0.0,"z":0.0},{"x":0.0,"y":0.0,"z":0.0},{"x":0.0,"y":0.0,"z":0.0},{"x":0.0,"y":0.0,"z":0.0},{"x":0.0,"y":0.0,"z":0.0}],"colors":[{"r":1.0,"g":1.0,"b":1.0,"a":1.0},{"r":1.0,"g":1.0,"b":1.0,"a":1.0},{"r":1.0000001192092896,"g":1.0000001192092896,"b":1.0000001192092896,"a":1.0000001192092896},{"r":1.0,"g":1.0,"b":1.0,"a":1.0},{"r":1.0,"g":1.0,"b":1.0,"a":1.0},{"r":0.9999999403953552,"g":0.9999999403953552,"b":0.9999999403953552,"a":0.9999999403953552},{"r":1.0000001192092896,"g":1.0000001192092896,"b":1.0000001192092896,"a":1.0000001192092896},{"r":1.0,"g":1.0,"b":1.0,"a":1.0},{"r":1.0,"g":1.0,"b":1.0,"a":1.0},{"r":1.0,"g":1.0,"b":1.0,"a":1.0},{"r":1.0,"g":1.0,"b":1.0,"a":1.0},{"r":0.9999999403953552,"g":0.9999999403953552,"b":0.9999999403953552,"a":0.9999999403953552},{"r":0.9999999403953552,"g":0.9999999403953552,"b":0.9999999403953552,"a":0.9999999403953552},{"r":0.9999999403953552,"g":0.9999999403953552,"b":0.9999999403953552,"a":0.9999999403953552},{"r":1.0,"g":1.0,"b":1.0,"a":1.0},{"r":1.0,"g":1.0,"b":1.0,"a":1.0},{"r":1.0,"g":1.0,"b":1.0,"a":1.0},{"r":1.0000001192092896,"g":1.0000001192092896,"b":1.0000001192092896,"a":1.0000001192092896},{"r":1.0,"g":1.0,"b":1.0,"a":1.0},{"r":1.0,"g":1.0,"b":1.0,"a":1.0},{"r":1.0,"g":1.0,"b":1.0,"a":1.0},{"r":1.0,"g":1.0,"b":1.0,"a":1.0},{"r":1.0,"g":1.0,"b":1.0,"a":1.0},{"r":1.0,"g":1.0,"b":1.0,"a":1.0},{"r":1.0,"g":1.0,"b":1.0,"a":1.0},{"r":1.0,"g":1.0,"b":1.0,"a":1.0},{"r":1.0,"g":1.0,"b":1.0,"a":1.0},{"r":1.0,"g":1.0,"b":1.0,"a":1.0},{"r":1.0,"g":1.0,"b":1.0,"a":1.0},{"r":1.0,"g":1.0,"b":1.0,"a":1.0},{"r":1.0,"g":1.0,"b":1.0,"a":1.0},{"r":1.0,"g":1.0,"b":1.0,"a":1.0},{"r":1.0,"g":1.0,"b":1.0,"a":1.0},{"r":1.0,"g":1.0,"b":1.0,"a":1.0},{"r":1.0,"g":1.0,"b":1.0,"a":1.0},{"r":0.0,"g":0.0,"b":0.0,"a":0.0},{"r":0.0,"g":0.0,"b":0.0,"a":0.0},{"r":0.0,"g":0.0,"b":0.0,"a":0.0},{"r":0.0,"g":0.0,"b":0.0,"a":0.0},{"r":0.0,"g":0.0,"b":0.0,"a":0.0},{"r":0.0,"g":0.0,"b":0.0,"a":0.0},{"r":0.0,"g":0.0,"b":0.0,"a":0.0},{"r":0.0,"g":0.0,"b":0.0,"a":0.0},{"r":0.0,"g":0.0,"b":0.0,"a":0.0},{"r":0.0,"g":0.0,"b":0.0,"a":0.0},{"r":0.0,"g":0.0,"b":0.0,"a":0.0},{"r":0.0,"g":0.0,"b":0.0,"a":0.0},{"r":0.0,"g":0.0,"b":0.0,"a":0.0},{"r":0.0,"g":0.0,"b":0.0,"a":0.0},{"r":0.0,"g":0.0,"b":0.0,"a":0.0},{"r":0.0,"g":0.0,"b":0.0,"a":0.0},{"r":0.0,"g":0.0,"b":0.0,"a":0.0},{"r":0.0,"g":0.0,"b":0.0,"a":0.0},{"r":0.0,"g":0.0,"b":0.0,"a":0.0},{"r":0.0,"g":0.0,"b":0.0,"a":0.0},{"r":0.0,"g":0.0,"b":0.0,"a":0.0},{"r":0.0,"g":0.0,"b":0.0,"a":0.0},{"r":0.0,"g":0.0,"b":0.0,"a":0.0},{"r":0.0,"g":0.0,"b":0.0,"a":0.0},{"r":0.0,"g":0.0,"b":0.0,"a":0.0},{"r":0.0,"g":0.0,"b":0.0,"a":0.0},{"r":0.0,"g":0.0,"b":0.0,"a":0.0},{"r":0.0,"g":0.0,"b":0.0,"a":0.0},{"r":0.0,"g":0.0,"b":0.0,"a":0.0},{"r":0.0,"g":0.0,"b":0.0,"a":0.0},{"r":0.0,"g":0.0,"b":0.0,"a":0.0},{"r":0.0,"g":0.0,"b":0.0,"a":0.0},{"r":0.0,"g":0.0,"b":0.0,"a":0.0},{"r":0.0,"g":0.0,"b":0.0,"a":0.0},{"r":0.0,"g":0.0,"b":0.0,"a":0.0},{"r":0.0,"g":0.0,"b":0.0,"a":0.0},{"r":0.0,"g":0.0,"b":0.0,"a":0.0},{"r":0.0,"g":0.0,"b":0.0,"a":0.0},{"r":0.0,"g":0.0,"b":0.0,"a":0.0},{"r":0.0,"g":0.0,"b":0.0,"a":0.0},{"r":0.0,"g":0.0,"b":0.0,"a":0.0},{"r":0.0,"g":0.0,"b":0.0,"a":0.0},{"r":0.0,"g":0.0,"b":0.0,"a":0.0},{"r":0.0,"g":0.0,"b":0.0,"a":0.0},{"r":0.0,"g":0.0,"b":0.0,"a":0.0},{"r":0.0,"g":0.0,"b":0.0,"a":0.0},{"r":0.0,"g":0.0,"b":0.0,"a":0.0},{"r":0.0,"g":0.0,"b":0.0,"a":0.0},{"r":0.0,"g":0.0,"b":0.0,"a":0.0},{"r":0.0,"g":0.0,"b":0.0,"a":0.0},{"r":0.0,"g":0.0,"b":0.0,"a":0.0},{"r":0.0,"g":0.0,"b":0.0,"a":0.0},{"r":0.0,"g":0.0,"b":0.0,"a":0.0},{"r":0.0,"g":0.0,"b":0.0,"a":0.0},{"r":0.0,"g":0.0,"b":0.0,"a":0.0},{"r":0.0,"g":0.0,"b":0.0,"a":0.0},{"r":0.0,"g":0.0,"b":0.0,"a":0.0},{"r":0.0,"g":0.0,"b":0.0,"a":0.0},{"r":0.0,"g":0.0,"b":0.0,"a":0.0},{"r":0.0,"g":0.0,"b":0.0,"a":0.0},{"r":0.0,"g":0.0,"b":0.0,"a":0.0},{"r":0.0,"g":0.0,"b":0.0,"a":0.0},{"r":0.0,"g":0.0,"b":0.0,"a":0.0},{"r":0.0,"g":0.0,"b":0.0,"a":0.0},{"r":0.0,"g":0.0,"b":0.0,"a":0.0},{"r":0.0,"g":0.0,"b":0.0,"a":0.0},{"r":0.0,"g":0.0,"b":0.0,"a":0.0},{"r":0.0,"g":0.0,"b":0.0,"a":0.0},{"r":0.0,"g":0.0,"b":0.0,"a":0.0},{"r":0.0,"g":0.0,"b":0.0,"a":0.0},{"r":0.0,"g":0.0,"b":0.0,"a":0.0},{"r":0.0,"g":0.0,"b":0.0,"a":0.0},{"r":0.0,"g":0.0,"b":0.0,"a":0.0},{"r":0.0,"g":0.0,"b":0.0,"a":0.0},{"r":0.0,"g":0.0,"b":0.0,"a":0.0},{"r":0.0,"g":0.0,"b":0.0,"a":0.0},{"r":0.0,"g":0.0,"b":0.0,"a":0.0},{"r":0.0,"g":0.0,"b":0.0,"a":0.0},{"r":0.0,"g":0.0,"b":0.0,"a":0.0},{"r":0.0,"g":0.0,"b":0.0,"a":0.0},{"r":0.0,"g":0.0,"b":0.0,"a":0.0},{"r":0.0,"g":0.0,"b":0.0,"a":0.0},{"r":0.0,"g":0.0,"b":0.0,"a":0.0},{"r":0.0,"g":0.0,"b":0.0,"a":0.0},{"r":0.0,"g":0.0,"b":0.0,"a":0.0},{"r":0.0,"g":0.0,"b":0.0,"a":0.0},{"r":0.0,"g":0.0,"b":0.0,"a":0.0},{"r":0.0,"g":0.0,"b":0.0,"a":0.0},{"r":0.0,"g":0.0,"b":0.0,"a":0.0},{"r":0.0,"g":0.0,"b":0.0,"a":0.0},{"r":0.0,"g":0.0,"b":0.0,"a":0.0},{"r":0.0,"g":0.0,"b":0.0,"a":0.0},{"r":0.0,"g":0.0,"b":0.0,"a":0.0},{"r":0.0,"g":0.0,"b":0.0,"a":0.0},{"r":0.0,"g":0.0,"b":0.0,"a":0.0},{"r":0.0,"g":0.0,"b":0.0,"a":0.0},{"r":0.0,"g":0.0,"b":0.0,"a":0.0},{"r":0.0,"g":0.0,"b":0.0,"a":0.0},{"r":0.0,"g":0.0,"b":0.0,"a":0.0},{"r":0.0,"g":0.0,"b":0.0,"a":0.0}],"distanceConstraintsData":{"batches":[{"m_IDs":[0,1,2,3,4,5,6,7,8,9,10,11,12,13,14,15,16,17,18,19,20,21,22,23,24,25,26,27,28,29,30,31,32,33,34,35,36,37,38,39,40,41,42,43,44,45,46,47,48,49,50,51,52,53,54,55,56,57,58,59,60,61,62,63,64,65,66],"m_IDToIndex":[0,1,2,3,4,5,6,7,8,9,10,11,12,13,14,15,16,17,18,19,20,21,22,23,24,25,26,27,28,29,30,31,32,33,34,35,36,37,38,39,40,41,42,43,44,45,46,47,48,49,50,51,52,53,54,55,56,57,58,59,60,61,62,63,64,65,66],"m_ConstraintCount":67,"m_ActiveConstraintCount":17,"m_InitialActiveConstraintCount":17,"particleIndices":{"serializedContents":[0,1,2,3,4,5,6,7,8,9,10,11,12,13,14,15,16,17,18,19,20,21,22,23,24,25,26,27,28,29,30,31,32,33,0,0,0,0,0,0,0,0,0,0,0,0,0,0,0,0,0,0,0,0,0,0,0,0,0,0,0,0,0,0,0,0,0,0,0,0,0,0,0,0,0,0,0,0,0,0,0,0,0,0,0,0,0,0,0,0,0,0,0,0,0,0,0,0,0,0,0,0,0,0,0,0,0,0,0,0,0,0,0,0,0,0,0,0,0,0,0,0,0,0,0,0,0,0,0,0,0,0,0,0]},"restLengths":{"serializedContents":[0.12404090911149979,0.12486094236373902,0.1249392181634903,0.12467276304960251,0.12450309842824936,0.1245402991771698,0.12464523315429688,0.12461824715137482,0.12460867315530777,0.1246931180357933,0.12486275285482407,0.12487296760082245,0.12438610196113587,0.12440754473209381,0.12495417892932892,0.12473028898239136,0.12446446716785431,0.0,0.0,0.0,0.0,0.0,0.0,0.0,0.0,0.0,0.0,0.0,0.0,0.0,0.0,0.0,0.0,0.0,0.0,0.0,0.0,0.0,0.0,0.0,0.0,0.0,0.0,0.0,0.0,0.0,0.0,0.0,0.0,0.0,0.0,0.0,0.0,0.0,0.0,0.0,0.0,0.0,0.0,0.0,0.0,0.0,0.0,0.0,0.0,0.0,0.0]},"stiffnesses":{"serializedContents":[{"x":0.0,"y":0.0},{"x":0.0,"y":0.0},{"x":0.0,"y":0.0},{"x":0.0,"y":0.0},{"x":0.0,"y":0.0},{"x":0.0,"y":0.0},{"x":0.0,"y":0.0},{"x":0.0,"y":0.0},{"x":0.0,"y":0.0},{"x":0.0,"y":0.0},{"x":0.0,"y":0.0},{"x":0.0,"y":0.0},{"x":0.0,"y":0.0},{"x":0.0,"y":0.0},{"x":0.0,"y":0.0},{"x":0.0,"y":0.0},{"x":0.0,"y":0.0},{"x":0.0,"y":0.0},{"x":0.0,"y":0.0},{"x":0.0,"y":0.0},{"x":0.0,"y":0.0},{"x":0.0,"y":0.0},{"x":0.0,"y":0.0},{"x":0.0,"y":0.0},{"x":0.0,"y":0.0},{"x":0.0,"y":0.0},{"x":0.0,"y":0.0},{"x":0.0,"y":0.0},{"x":0.0,"y":0.0},{"x":0.0,"y":0.0},{"x":0.0,"y":0.0},{"x":0.0,"y":0.0},{"x":0.0,"y":0.0},{"x":0.0,"y":0.0},{"x":0.0,"y":0.0},{"x":0.0,"y":0.0},{"x":0.0,"y":0.0},{"x":0.0,"y":0.0},{"x":0.0,"y":0.0},{"x":0.0,"y":0.0},{"x":0.0,"y":0.0},{"x":0.0,"y":0.0},{"x":0.0,"y":0.0},{"x":0.0,"y":0.0},{"x":0.0,"y":0.0},{"x":0.0,"y":0.0},{"x":0.0,"y":0.0},{"x":0.0,"y":0.0},{"x":0.0,"y":0.0},{"x":0.0,"y":0.0},{"x":0.0,"y":0.0},{"x":0.0,"y":0.0},{"x":0.0,"y":0.0},{"x":0.0,"y":0.0},{"x":0.0,"y":0.0},{"x":0.0,"y":0.0},{"x":0.0,"y":0.0},{"x":0.0,"y":0.0},{"x":0.0,"y":0.0},{"x":0.0,"y":0.0},{"x":0.0,"y":0.0},{"x":0.0,"y":0.0},{"x":0.0,"y":0.0},{"x":0.0,"y":0.0},{"x":0.0,"y":0.0},{"x":0.0,"y":0.0},{"x":0.0,"y":0.0}]}},{"m_IDs":[0,1,2,3,4,5,6,7,8,9,10,11,12,13,14,15,16,17,18,19,20,21,22,23,24,25,26,27,28,29,30,31,32,33,34,35,36,37,38,39,40,41,42,43,44,45,46,47,48,49,50,51,52,53,54,55,56,57,58,59,60,61,62,63,64,65,66],"m_IDToIndex":[0,1,2,3,4,5,6,7,8,9,10,11,12,13,14,15,16,17,18,19,20,21,22,23,24,25,26,27,28,29,30,31,32,33,34,35,36,37,38,39,40,41,42,43,44,45,46,47,48,49,50,51,52,53,54,55,56,57,58,59,60,61,62,63,64,65,66],"m_ConstraintCount":67,"m_ActiveConstraintCount":17,"m_InitialActiveConstraintCount":17,"particleIndices":{"serializedContents":[1,2,3,4,5,6,7,8,9,10,11,12,13,14,15,16,17,18,19,20,21,22,23,24,25,26,27,28,29,30,31,32,33,34,0,0,0,0,0,0,0,0,0,0,0,0,0,0,0,0,0,0,0,0,0,0,0,0,0,0,0,0,0,0,0,0,0,0,0,0,0,0,0,0,0,0,0,0,0,0,0,0,0,0,0,0,0,0,0,0,0,0,0,0,0,0,0,0,0,0,0,0,0,0,0,0,0,0,0,0,0,0,0,0,0,0,0,0,0,0,0,0,0,0,0,0,0,0,0,0,0,0,0,0]},"restLengths":{"serializedContents":[0.12476882338523865,0.12436109781265259,0.12447194010019303,0.12479085475206375,0.12481339275836945,0.12470346689224243,0.12467289716005326,0.12472038716077805,0.12469670176506043,0.12451568245887757,0.12440933287143707,0.12467047572135925,0.1250370740890503,0.12467795610427857,0.12426848709583283,0.12504294514656068,0.12388423085212708,0.0,0.0,0.0,0.0,0.0,0.0,0.0,0.0,0.0,0.0,0.0,0.0,0.0,0.0,0.0,0.0,0.0,0.0,0.0,0.0,0.0,0.0,0.0,0.0,0.0,0.0,0.0,0.0,0.0,0.0,0.0,0.0,0.0,0.0,0.0,0.0,0.0,0.0,0.0,0.0,0.0,0.0,0.0,0.0,0.0,0.0,0.0,0.0,0.0,0.0]},"stiffnesses":{"serializedContents":[{"x":0.0,"y":0.0},{"x":0.0,"y":0.0},{"x":0.0,"y":0.0},{"x":0.0,"y":0.0},{"x":0.0,"y":0.0},{"x":0.0,"y":0.0},{"x":0.0,"y":0.0},{"x":0.0,"y":0.0},{"x":0.0,"y":0.0},{"x":0.0,"y":0.0},{"x":0.0,"y":0.0},{"x":0.0,"y":0.0},{"x":0.0,"y":0.0},{"x":0.0,"y":0.0},{"x":0.0,"y":0.0},{"x":0.0,"y":0.0},{"x":0.0,"y":0.0},{"x":0.0,"y":0.0},{"x":0.0,"y":0.0},{"x":0.0,"y":0.0},{"x":0.0,"y":0.0},{"x":0.0,"y":0.0},{"x":0.0,"y":0.0},{"x":0.0,"y":0.0},{"x":0.0,"y":0.0},{"x":0.0,"y":0.0},{"x":0.0,"y":0.0},{"x":0.0,"y":0.0},{"x":0.0,"y":0.0},{"x":0.0,"y":0.0},{"x":0.0,"y":0.0},{"x":0.0,"y":0.0},{"x":0.0,"y":0.0},{"x":0.0,"y":0.0},{"x":0.0,"y":0.0},{"x":0.0,"y":0.0},{"x":0.0,"y":0.0},{"x":0.0,"y":0.0},{"x":0.0,"y":0.0},{"x":0.0,"y":0.0},{"x":0.0,"y":0.0},{"x":0.0,"y":0.0},{"x":0.0,"y":0.0},{"x":0.0,"y":0.0},{"x":0.0,"y":0.0},{"x":0.0,"y":0.0},{"x":0.0,"y":0.0},{"x":0.0,"y":0.0},{"x":0.0,"y":0.0},{"x":0.0,"y":0.0},{"x":0.0,"y":0.0},{"x":0.0,"y":0.0},{"x":0.0,"y":0.0},{"x":0.0,"y":0.0},{"x":0.0,"y":0.0},{"x":0.0,"y":0.0},{"x":0.0,"y":0.0},{"x":0.0,"y":0.0},{"x":0.0,"y":0.0},{"x":0.0,"y":0.0},{"x":0.0,"y":0.0},{"x":0.0,"y":0.0},{"x":0.0,"y":0.0},{"x":0.0,"y":0.0},{"x":0.0,"y":0.0},{"x":0.0,"y":0.0},{"x":0.0,"y":0.0}]}}]},"bendConstraintsData":{"batches":[{"m_IDs":[0,1,2,3,4,5,6,7,8,9,10,11,12,13,14,15,16,17,18,19,20,21,22,23,24,25,26,27,28,29,30,31,32,33,34,35,36,37,38,39,40,41,42,43,44],"m_IDToIndex":[0,1,2,3,4,5,6,7,8,9,10,11,12,13,14,15,16,17,18,19,20,21,22,23,24,25,26,27,28,29,30,31,32,33,34,35,36,37,38,39,40,41,42,43,44],"m_ConstraintCount":45,"m_ActiveConstraintCount":11,"m_InitialActiveConstraintCount":11,"particleIndices":{"serializedContents":[0,2,1,3,5,4,6,8,7,9,11,10,12,14,13,15,17,16,18,20,19,21,23,22,24,26,25,27,29,28,30,32,31,33,35,34,36,38,37,39,41,40,42,44,43,45,47,46,48,50,49,51,53,52,54,56,55,57,59,58,60,62,61,63,65,64,66,68,67,69,71,70,72,74,73,75,77,76,78,80,79,81,83,82,84,86,85,87,89,88,90,92,91,93,95,94,96,98,97,99,101,100,102,104,103,105,107,106,108,110,109,111,113,112,114,116,115,117,119,118,120,122,121,123,125,124,126,128,127,129,131,130,132,134,133]},"restBends":{"serializedContents":[0.0,0.0,0.0,0.0,0.0,0.0,0.0,0.0,0.0,0.0,0.0,0.0,0.0,0.0,0.0,0.0,0.0,0.0,0.0,0.0,0.0,0.0,0.0,0.0,0.0,0.0,0.0,0.0,0.0,0.0,0.0,0.0,0.0,0.0,0.0,0.0,0.0,0.0,0.0,0.0,0.0,0.0,0.0,0.0,0.0]},"bendingStiffnesses":{"serializedContents":[{"x":0.0,"y":0.0},{"x":0.0,"y":0.0},{"x":0.0,"y":0.0},{"x":0.0,"y":0.0},{"x":0.0,"y":0.0},{"x":0.0,"y":0.0},{"x":0.0,"y":0.0},{"x":0.0,"y":0.0},{"x":0.0,"y":0.0},{"x":0.0,"y":0.0},{"x":0.0,"y":0.0},{"x":0.0,"y":0.0},{"x":0.0,"y":0.0},{"x":0.0,"y":0.0},{"x":0.0,"y":0.0},{"x":0.0,"y":0.0},{"x":0.0,"y":0.0},{"x":0.0,"y":0.0},{"x":0.0,"y":0.0},{"x":0.0,"y":0.0},{"x":0.0,"y":0.0},{"x":0.0,"y":0.0},{"x":0.0,"y":0.0},{"x":0.0,"y":0.0},{"x":0.0,"y":0.0},{"x":0.0,"y":0.0},{"x":0.0,"y":0.0},{"x":0.0,"y":0.0},{"x":0.0,"y":0.0},{"x":0.0,"y":0.0},{"x":0.0,"y":0.0},{"x":0.0,"y":0.0},{"x":0.0,"y":0.0},{"x":0.0,"y":0.0},{"x":0.0,"y":0.0},{"x":0.0,"y":0.0},{"x":0.0,"y":0.0},{"x":0.0,"y":0.0},{"x":0.0,"y":0.0},{"x":0.0,"y":0.0},{"x":0.0,"y":0.0},{"x":0.0,"y":0.0},{"x":0.0,"y":0.0},{"x":0.0,"y":0.0},{"x":0.0,"y":0.0}]}},{"m_IDs":[0,1,2,3,4,5,6,7,8,9,10,11,12,13,14,15,16,17,18,19,20,21,22,23,24,25,26,27,28,29,30,31,32,33,34,35,36,37,38,39,40,41,42,43],"m_IDToIndex":[0,1,2,3,4,5,6,7,8,9,10,11,12,13,14,15,16,17,18,19,20,21,22,23,24,25,26,27,28,29,30,31,32,33,34,35,36,37,38,39,40,41,42,43],"m_ConstraintCount":44,"m_ActiveConstraintCount":11,"m_InitialActiveConstraintCount":11,"particleIndices":{"serializedContents":[1,3,2,4,6,5,7,9,8,10,12,11,13,15,14,16,18,17,19,21,20,22,24,23,25,27,26,28,30,29,31,33,32,34,36,35,37,39,38,40,42,41,43,45,44,46,48,47,49,51,50,52,54,53,55,57,56,58,60,59,61,63,62,64,66,65,67,69,68,70,72,71,73,75,74,76,78,77,79,81,80,82,84,83,85,87,86,88,90,89,91,93,92,94,96,95,97,99,98,100,102,101,103,105,104,106,108,107,109,111,110,112,114,113,115,117,116,118,120,119,121,123,122,124,126,125,127,129,128,130,132,131]},"restBends":{"serializedContents":[0.0,0.0,0.0,0.0,0.0,0.0,0.0,0.0,0.0,0.0,0.0,0.0,0.0,0.0,0.0,0.0,0.0,0.0,0.0,0.0,0.0,0.0,0.0,0.0,0.0,0.0,0.0,0.0,0.0,0.0,0.0,0.0,0.0,0.0,0.0,0.0,0.0,0.0,0.0,0.0,0.0,0.0,0.0,0.0]},"bendingStiffnesses":{"serializedContents":[{"x":0.0,"y":0.0},{"x":0.0,"y":0.0},{"x":0.0,"y":0.0},{"x":0.0,"y":0.0},{"x":0.0,"y":0.0},{"x":0.0,"y":0.0},{"x":0.0,"y":0.0},{"x":0.0,"y":0.0},{"x":0.0,"y":0.0},{"x":0.0,"y":0.0},{"x":0.0,"y":0.0},{"x":0.0,"y":0.0},{"x":0.0,"y":0.0},{"x":0.0,"y":0.0},{"x":0.0,"y":0.0},{"x":0.0,"y":0.0},{"x":0.0,"y":0.0},{"x":0.0,"y":0.0},{"x":0.0,"y":0.0},{"x":0.0,"y":0.0},{"x":0.0,"y":0.0},{"x":0.0,"y":0.0},{"x":0.0,"y":0.0},{"x":0.0,"y":0.0},{"x":0.0,"y":0.0},{"x":0.0,"y":0.0},{"x":0.0,"y":0.0},{"x":0.0,"y":0.0},{"x":0.0,"y":0.0},{"x":0.0,"y":0.0},{"x":0.0,"y":0.0},{"x":0.0,"y":0.0},{"x":0.0,"y":0.0},{"x":0.0,"y":0.0},{"x":0.0,"y":0.0},{"x":0.0,"y":0.0},{"x":0.0,"y":0.0},{"x":0.0,"y":0.0},{"x":0.0,"y":0.0},{"x":0.0,"y":0.0},{"x":0.0,"y":0.0},{"x":0.0,"y":0.0},{"x":0.0,"y":0.0},{"x":0.0,"y":0.0}]}},{"m_IDs":[0,1,2,3,4,5,6,7,8,9,10,11,12,13,14,15,16,17,18,19,20,21,22,23,24,25,26,27,28,29,30,31,32,33,34,35,36,37,38,39,40,41,42,43],"m_IDToIndex":[0,1,2,3,4,5,6,7,8,9,10,11,12,13,14,15,16,17,18,19,20,21,22,23,24,25,26,27,28,29,30,31,32,33,34,35,36,37,38,39,40,41,42,43],"m_ConstraintCount":44,"m_ActiveConstraintCount":11,"m_InitialActiveConstraintCount":11,"particleIndices":{"serializedContents":[2,4,3,5,7,6,8,10,9,11,13,12,14,16,15,17,19,18,20,22,21,23,25,24,26,28,27,29,31,30,32,34,33,35,37,36,38,40,39,41,43,42,44,46,45,47,49,48,50,52,51,53,55,54,56,58,57,59,61,60,62,64,63,65,67,66,68,70,69,71,73,72,74,76,75,77,79,78,80,82,81,83,85,84,86,88,87,89,91,90,92,94,93,95,97,96,98,100,99,101,103,102,104,106,105,107,109,108,110,112,111,113,115,114,116,118,117,119,121,120,122,124,123,125,127,126,128,130,129,131,133,132]},"restBends":{"serializedContents":[0.0,0.0,0.0,0.0,0.0,0.0,0.0,0.0,0.0,0.0,0.0,0.0,0.0,0.0,0.0,0.0,0.0,0.0,0.0,0.0,0.0,0.0,0.0,0.0,0.0,0.0,0.0,0.0,0.0,0.0,0.0,0.0,0.0,0.0,0.0,0.0,0.0,0.0,0.0,0.0,0.0,0.0,0.0,0.0]},"bendingStiffnesses":{"serializedContents":[{"x":0.0,"y":0.0},{"x":0.0,"y":0.0},{"x":0.0,"y":0.0},{"x":0.0,"y":0.0},{"x":0.0,"y":0.0},{"x":0.0,"y":0.0},{"x":0.0,"y":0.0},{"x":0.0,"y":0.0},{"x":0.0,"y":0.0},{"x":0.0,"y":0.0},{"x":0.0,"y":0.0},{"x":0.0,"y":0.0},{"x":0.0,"y":0.0},{"x":0.0,"y":0.0},{"x":0.0,"y":0.0},{"x":0.0,"y":0.0},{"x":0.0,"y":0.0},{"x":0.0,"y":0.0},{"x":0.0,"y":0.0},{"x":0.0,"y":0.0},{"x":0.0,"y":0.0},{"x":0.0,"y":0.0},{"x":0.0,"y":0.0},{"x":0.0,"y":0.0},{"x":0.0,"y":0.0},{"x":0.0,"y":0.0},{"x":0.0,"y":0.0},{"x":0.0,"y":0.0},{"x":0.0,"y":0.0},{"x":0.0,"y":0.0},{"x":0.0,"y":0.0},{"x":0.0,"y":0.0},{"x":0.0,"y":0.0},{"x":0.0,"y":0.0},{"x":0.0,"y":0.0},{"x":0.0,"y":0.0},{"x":0.0,"y":0.0},{"x":0.0,"y":0.0},{"x":0.0,"y":0.0},{"x":0.0,"y":0.0},{"x":0.0,"y":0.0},{"x":0.0,"y":0.0},{"x":0.0,"y":0.0},{"x":0.0,"y":0.0}]}}]},"pinConstraintsData":{"batches":[{"m_IDs":[],"m_IDToIndex":[],"m_ConstraintCount":0,"m_ActiveConstraintCount":0,"m_InitialActiveConstraintCount":0,"particleIndices":{"serializedContents":[]},"offsets":{"serializedContents":[]},"restDarbouxVectors":{"serializedContents":[]},"stiffnesses":{"serializedContents":[]},"breakThresholds":{"serializedContents":[]},"constraintForces":[]}]},"skinConstraintsData":{"batches":[]},"tetherConstraintsData":{"batches":[]},"stretchShearConstraintsData":{"batches":[]},"bendTwistConstraintsData":{"batches":[]},"shapeMatchingConstraintsData":{"batches":[]},"aerodynamicConstraintsData":{"batches":[]},"chainConstraintsData":{"batches":[]},"volumeConstraintsData":{"batches":[]},"groups":[{"instanceID":0},{"instanceID":0}],"path":{"m_Names":["A","B"],"m_Points":{"data":[{"tangentMode":0,"inTangent":{"x":-0.25,"y":0.0,"z":0.0},"position":{"x":-2.4457621574401857,"y":0.0,"z":0.0},"outTangent":{"x":1.348852515220642,"y":0.0,"z":0.0}},{"tangentMode":2,"inTangent":{"x":-1.1402534246444703,"y":0.0,"z":0.04930230602622032},"position":{"x":1.7911680936813355,"y":0.0,"z":0.0},"outTangent":{"x":0.24976660311222077,"y":0.0,"z":-0.010799415409564972}}]},"m_Normals":{"data":[{"x":0.0,"y":1.0,"z":0.0},{"x":0.0,"y":1.0,"z":0.0}]},"m_Colors":{"data":[{"r":1.0,"g":1.0,"b":1.0,"a":1.0},{"r":1.0,"g":1.0,"b":1.0,"a":1.0}]},"m_Thickness":{"data":[1.0,1.0]},"m_Masses":{"data":[0.10000000149011612,0.10000000149011612]},"m_RotationalMasses":{"data":[1.0,1.0]},"m_Phases":{"data":[1,1]},"m_Closed":false,"m_ArcLengthTable":[0.0,0.195298969745636,0.39537572860717776,0.5995790362358093,0.8072569370269775,1.0177570581436158,1.2304266691207886,1.4446126222610474,1.659661889076233,1.874921441078186,2.089738130569458,2.303459644317627,2.5154330730438234,2.7250068187713625,2.9315295219421388,3.1343507766723635,3.3328213691711427,3.5262932777404787,3.714120388031006,3.8956587314605715,4.0702667236328129,4.237307548522949],"m_TotalSplineLenght":4.237307548522949,"OnPathChanged":{"m_PersistentCalls":{"m_Calls":[]}},"OnControlPointAdded":{"m_PersistentCalls":{"m_Calls":[]}},"OnControlPointRemoved":{"m_PersistentCalls":{"m_Calls":[]}},"OnControlPointRenamed":{"m_PersistentCalls":{"m_Calls":[]}}},"thickness":0.125,"resolution":1.0,"m_InterParticleDistance":0.12462669610977173,"totalParticles":135,"m_RestLength":16.69999885559082,"restLengths":[0.12404090911149979,0.12476882338523865,0.12486094236373902,0.12436109781265259,0.1249392181634903,0.12447194010019303,0.12467276304960251,0.12479085475206375,0.12450309842824936,0.12481339275836945,0.1245402991771698,0.12470346689224243,0.12464523315429688,0.12467289716005326,0.12461824715137482,0.12472038716077805,0.12460867315530777,0.12469670176506043,0.1246931180357933,0.12451568245887757,0.12486275285482407,0.12440933287143707,0.12487296760082245,0.12467047572135925,0.12438610196113587,0.1250370740890503,0.12440754473209381,0.12467795610427857,0.12495417892932892,0.12426848709583283,0.12473028898239136,0.12504294514656068,0.12446446716785431,0.12388423085212708,0.12462669610977173,0.12462669610977173,0.12462669610977173,0.12462669610977173,0.12462669610977173,0.12462669610977173,0.12462669610977173,0.12462669610977173,0.12462669610977173,0.12462669610977173,0.12462669610977173,0.12462669610977173,0.12462669610977173,0.12462669610977173,0.12462669610977173,0.12462669610977173,0.12462669610977173,0.12462669610977173,0.12462669610977173,0.12462669610977173,0.12462669610977173,0.12462669610977173,0.12462669610977173,0.12462669610977173,0.12462669610977173,0.12462669610977173,0.12462669610977173,0.12462669610977173,0.12462669610977173,0.12462669610977173,0.12462669610977173,0.12462669610977173,0.12462669610977173,0.12462669610977173,0.12462669610977173,0.12462669610977173,0.12462669610977173,0.12462669610977173,0.12462669610977173,0.12462669610977173,0.12462669610977173,0.12462669610977173,0.12462669610977173,0.12462669610977173,0.12462669610977173,0.12462669610977173,0.12462669610977173,0.12462669610977173,0.12462669610977173,0.12462669610977173,0.12462669610977173,0.12462669610977173,0.12462669610977173,0.12462669610977173,0.12462669610977173,0.12462669610977173,0.12462669610977173,0.12462669610977173,0.12462669610977173,0.12462669610977173,0.12462669610977173,0.12462669610977173,0.12462669610977173,0.12462669610977173,0.12462669610977173,0.12462669610977173,0.12462669610977173,0.12462669610977173,0.12462669610977173,0.12462669610977173,0.12462669610977173,0.12462669610977173,0.12462669610977173,0.12462669610977173,0.12462669610977173,0.12462669610977173,0.12462669610977173,0.12462669610977173,0.12462669610977173,0.12462669610977173,0.12462669610977173,0.12462669610977173,0.12462669610977173,0.12462669610977173,0.12462669610977173,0.12462669610977173,0.12462669610977173,0.12462669610977173,0.12462669610977173,0.12462669610977173,0.12462669610977173,0.12462669610977173,0.12462669610977173,0.12462669610977173,0.12462669610977173,0.12462669610977173,0.12462669610977173,0.12462669610977173,0.12462669610977173,0.12462669610977173,0.0],"pooledParticles":100}|{"m_Empty":false,"m_ActiveParticleCount":38,"m_InitialActiveParticleCount":38,"_bounds":{"m_Center":{"x":-0.29398059844970705,"y":0.16153979301452638,"z":-0.6581498384475708},"m_Extent":{"x":2.261359214782715,"y":0.16153979301452638,"z":0.6581498384475708}},"positions":[{"x":1.3285295963287354,"y":0.114500030875206,"z":-0.9973131418228149},{"x":1.180346131324768,"y":0.24023638665676118,"z":-0.9300774335861206},{"x":1.0150864124298096,"y":0.33266937732696535,"z":-0.8792638778686523},{"x":0.8539866209030151,"y":0.35906916856765749,"z":-0.8594745397567749},{"x":0.6699300408363342,"y":0.3501916527748108,"z":-0.867982029914856},{"x":0.5418317317962647,"y":0.2550607919692993,"z":-0.9148201942443848},{"x":0.4261896014213562,"y":0.17944113910198213,"z":-1.0068618059158326},{"x":0.31592094898223879,"y":0.16600026190280915,"z":-1.1207811832427979},{"x":0.23799429833889008,"y":0.17058412730693818,"z":-1.245866060256958},{"x":0.21038375794887544,"y":0.20709781348705293,"z":-1.3730312585830689},{"x":0.21605344116687776,"y":0.26305872201919558,"z":-1.4986107349395753},{"x":0.2847920060157776,"y":0.33785635232925417,"z":-1.5864075422286988},{"x":0.3812495470046997,"y":0.39749109745025637,"z":-1.614967942237854},{"x":0.4914952516555786,"y":0.44627314805984499,"z":-1.6027954816818238},{"x":0.6053553223609924,"y":0.44817179441452029,"z":-1.520110845565796},{"x":0.6919484734535217,"y":0.4068794250488281,"z":-1.4115605354309083},{"x":0.7511269450187683,"y":0.3241589069366455,"z":-1.2941778898239136},{"x":0.7755355834960938,"y":0.21419622004032136,"z":-1.1468104124069214},{"x":0.7676780223846436,"y":0.16600026190280915,"z":-0.9816378355026245},{"x":0.7393879890441895,"y":0.16600026190280915,"z":-0.7561314105987549},{"x":0.6364086866378784,"y":0.16600026190280915,"z":-0.6300504207611084},{"x":0.5155348777770996,"y":0.16600026190280915,"z":-0.5011540651321411},{"x":0.3704864978790283,"y":0.16701774299144746,"z":-0.39257392287254336},{"x":0.20357246696949006,"y":0.16600026190280915,"z":-0.31412479281425478},{"x":0.02609945833683014,"y":0.16600026190280915,"z":-0.2518058121204376},{"x":-0.15088635683059693,"y":0.16600026190280915,"z":-0.18392106890678407},{"x":-0.3287525177001953,"y":0.16600026190280915,"z":-0.11362376809120178},{"x":-0.5067452192306519,"y":0.16600026190280915,"z":-0.04483693838119507},{"x":-0.6889641284942627,"y":0.16600026190280915,"z":0.024965405464172365},{"x":-0.8689062595367432,"y":0.16600026190280915,"z":0.09219267964363098},{"x":-1.0545978546142579,"y":0.16600026190280915,"z":0.16176331043243409},{"x":-1.235806941986084,"y":0.16600026190280915,"z":0.23020051419734956},{"x":-1.4226535558700562,"y":0.16600026190280915,"z":0.3018389642238617},{"x":-1.6035789251327515,"y":0.16708962619304658,"z":0.37252187728881838},{"x":-1.7893199920654297,"y":0.17101185023784638,"z":0.44635283946990969},{"x":-1.9706217050552369,"y":0.17687611281871797,"z":0.5197789669036865},{"x":-2.153322696685791,"y":0.16600026190280915,"z":0.5935155749320984},{"x":-2.331326961517334,"y":0.114500030875206,"z":0.6641361713409424},{"x":0.0,"y":0.0,"z":0.0},{"x":0.0,"y":0.0,"z":0.0},{"x":0.0,"y":0.0,"z":0.0},{"x":0.0,"y":0.0,"z":0.0},{"x":0.0,"y":0.0,"z":0.0},{"x":0.0,"y":0.0,"z":0.0},{"x":0.0,"y":0.0,"z":0.0},{"x":0.0,"y":0.0,"z":0.0},{"x":0.0,"y":0.0,"z":0.0},{"x":0.0,"y":0.0,"z":0.0},{"x":0.0,"y":0.0,"z":0.0},{"x":0.0,"y":0.0,"z":0.0},{"x":0.0,"y":0.0,"z":0.0},{"x":0.0,"y":0.0,"z":0.0},{"x":0.0,"y":0.0,"z":0.0},{"x":0.0,"y":0.0,"z":0.0},{"x":0.0,"y":0.0,"z":0.0},{"x":0.0,"y":0.0,"z":0.0},{"x":0.0,"y":0.0,"z":0.0},{"x":0.0,"y":0.0,"z":0.0},{"x":0.0,"y":0.0,"z":0.0},{"x":0.0,"y":0.0,"z":0.0},{"x":0.0,"y":0.0,"z":0.0},{"x":0.0,"y":0.0,"z":0.0},{"x":0.0,"y":0.0,"z":0.0},{"x":0.0,"y":0.0,"z":0.0},{"x":0.0,"y":0.0,"z":0.0},{"x":0.0,"y":0.0,"z":0.0},{"x":0.0,"y":0.0,"z":0.0},{"x":0.0,"y":0.0,"z":0.0},{"x":0.0,"y":0.0,"z":0.0},{"x":0.0,"y":0.0,"z":0.0},{"x":0.0,"y":0.0,"z":0.0},{"x":0.0,"y":0.0,"z":0.0},{"x":0.0,"y":0.0,"z":0.0},{"x":0.0,"y":0.0,"z":0.0},{"x":0.0,"y":0.0,"z":0.0},{"x":0.0,"y":0.0,"z":0.0},{"x":0.0,"y":0.0,"z":0.0},{"x":0.0,"y":0.0,"z":0.0},{"x":0.0,"y":0.0,"z":0.0},{"x":0.0,"y":0.0,"z":0.0},{"x":0.0,"y":0.0,"z":0.0},{"x":0.0,"y":0.0,"z":0.0},{"x":0.0,"y":0.0,"z":0.0},{"x":0.0,"y":0.0,"z":0.0},{"x":0.0,"y":0.0,"z":0.0},{"x":0.0,"y":0.0,"z":0.0},{"x":0.0,"y":0.0,"z":0.0},{"x":0.0,"y":0.0,"z":0.0},{"x":0.0,"y":0.0,"z":0.0},{"x":0.0,"y":0.0,"z":0.0},{"x":0.0,"y":0.0,"z":0.0},{"x":0.0,"y":0.0,"z":0.0},{"x":0.0,"y":0.0,"z":0.0},{"x":0.0,"y":0.0,"z":0.0},{"x":0.0,"y":0.0,"z":0.0},{"x":0.0,"y":0.0,"z":0.0},{"x":0.0,"y":0.0,"z":0.0},{"x":0.0,"y":0.0,"z":0.0},{"x":0.0,"y":0.0,"z":0.0},{"x":0.0,"y":0.0,"z":0.0},{"x":0.0,"y":0.0,"z":0.0},{"x":0.0,"y":0.0,"z":0.0},{"x":0.0,"y":0.0,"z":0.0},{"x":0.0,"y":0.0,"z":0.0},{"x":0.0,"y":0.0,"z":0.0},{"x":0.0,"y":0.0,"z":0.0},{"x":0.0,"y":0.0,"z":0.0},{"x":0.0,"y":0.0,"z":0.0},{"x":0.0,"y":0.0,"z":0.0},{"x":0.0,"y":0.0,"z":0.0},{"x":0.0,"y":0.0,"z":0.0},{"x":0.0,"y":0.0,"z":0.0},{"x":0.0,"y":0.0,"z":0.0},{"x":0.0,"y":0.0,"z":0.0},{"x":0.0,"y":0.0,"z":0.0},{"x":0.0,"y":0.0,"z":0.0},{"x":0.0,"y":0.0,"z":0.0},{"x":0.0,"y":0.0,"z":0.0},{"x":0.0,"y":0.0,"z":0.0},{"x":0.0,"y":0.0,"z":0.0},{"x":0.0,"y":0.0,"z":0.0},{"x":0.0,"y":0.0,"z":0.0},{"x":0.0,"y":0.0,"z":0.0},{"x":0.0,"y":0.0,"z":0.0},{"x":0.0,"y":0.0,"z":0.0},{"x":0.0,"y":0.0,"z":0.0},{"x":0.0,"y":0.0,"z":0.0},{"x":0.0,"y":0.0,"z":0.0},{"x":0.0,"y":0.0,"z":0.0},{"x":0.0,"y":0.0,"z":0.0},{"x":0.0,"y":0.0,"z":0.0},{"x":0.0,"y":0.0,"z":0.0},{"x":0.0,"y":0.0,"z":0.0},{"x":0.0,"y":0.0,"z":0.0},{"x":0.0,"y":0.0,"z":0.0},{"x":0.0,"y":0.0,"z":0.0},{"x":0.0,"y":0.0,"z":0.0},{"x":0.0,"y":0.0,"z":0.0}],"restPositions":[{"x":-2.555339813232422,"y":0.30129528045654299,"z":-1.2823047637939454,"w":1.0},{"x":-2.437030792236328,"y":0.3017166554927826,"z":-1.2912490367889405,"w":1.0},{"x":-2.315223217010498,"y":0.30223384499549868,"z":-1.2951785326004029,"w":1.0},{"x":-2.1937432289123537,"y":0.30276787281036379,"z":-1.2979720830917359,"w":1.0},{"x":-2.0689151287078859,"y":0.3033267557621002,"z":-1.3002384901046754,"w":1.0},{"x":-1.9478195905685425,"y":0.30387526750564577,"z":-1.3020628690719605,"w":1.0},{"x":-1.8249938488006592,"y":0.3044363856315613,"z":-1.3036457300186158,"w":1.0},{"x":-1.7025344371795655,"y":0.30499958992004397,"z":-1.3050200939178467,"w":1.0},{"x":-1.5799254179000855,"y":0.30556660890579226,"z":-1.3062344789505005,"w":1.0},{"x":-1.4578752517700196,"y":0.30613359808921816,"z":-1.3073111772537232,"w":1.0},{"x":-1.3344929218292237,"y":0.3067091405391693,"z":-1.3082873821258546,"w":1.0},{"x":-1.213132619857788,"y":0.3072773516178131,"z":-1.3091533184051514,"w":1.0},{"x":-1.0889627933502198,"y":0.30786070227622988,"z":-1.3099552392959595,"w":1.0},{"x":-0.9680284857749939,"y":0.308430552482605,"z":-1.3106638193130494,"w":1.0},{"x":-0.8451760411262512,"y":0.30901119112968447,"z":-1.3113188743591309,"w":1.0},{"x":-0.7227247953414917,"y":0.3095915913581848,"z":-1.3119133710861207,"w":1.0},{"x":-0.6005764603614807,"y":0.31017208099365237,"z":-1.3124531507492066,"w":1.0},{"x":-0.4776839017868042,"y":0.31075769662857058,"z":-1.3129478693008423,"w":1.0},{"x":-0.35551121830940249,"y":0.31134137511253359,"z":-1.3133949041366578,"w":1.0},{"x":-0.23317155241966248,"y":0.3119274377822876,"z":-1.313801646232605,"w":1.0},{"x":-0.1105814129114151,"y":0.3125162720680237,"z":-1.3141709566116334,"w":1.0},{"x":0.01190622616559267,"y":0.3131062388420105,"z":-1.3145041465759278,"w":1.0},{"x":0.1335977017879486,"y":0.3136940002441406,"z":-1.3148019313812256,"w":1.0},{"x":0.2569970190525055,"y":0.3142918050289154,"z":-1.315071940422058,"w":1.0},{"x":0.37888917326927187,"y":0.31488412618637087,"z":-1.315308928489685,"w":1.0},{"x":0.5016072392463684,"y":0.3154824674129486,"z":-1.315519094467163,"w":1.0},{"x":0.6243343353271484,"y":0.31608298420906069,"z":-1.3157020807266236,"w":1.0},{"x":0.7455258369445801,"y":0.31667831540107729,"z":-1.315857172012329,"w":1.0},{"x":0.8696197867393494,"y":0.3172905743122101,"z":-1.315990686416626,"w":1.0},{"x":0.9896140694618225,"y":0.31788551807403567,"z":-1.316096305847168,"w":1.0},{"x":1.1147502660751343,"y":0.3185095191001892,"z":-1.3161824941635132,"w":1.0},{"x":1.2344218492507935,"y":0.31911030411720278,"z":-1.3162426948547364,"w":1.0},{"x":1.3599278926849366,"y":0.31974560022354128,"z":-1.316282868385315,"w":1.0},{"x":1.4794461727142335,"y":0.32035699486732485,"z":-1.3162996768951417,"w":1.0},{"x":1.6042826175689698,"y":0.32100483775138857,"z":-1.3162951469421387,"w":1.0},{"x":1.7279413938522339,"y":0.3216607868671417,"z":-1.3162685632705689,"w":1.0},{"x":1.8505874872207642,"y":0.32233789563179018,"z":-1.3162211179733277,"w":1.0},{"x":1.967378854751587,"y":0.32307958602905276,"z":-1.316169261932373,"w":1.0},{"x":0.0,"y":0.0,"z":0.0,"w":0.0},{"x":0.0,"y":0.0,"z":0.0,"w":0.0},{"x":0.0,"y":0.0,"z":0.0,"w":0.0},{"x":0.0,"y":0.0,"z":0.0,"w":0.0},{"x":0.0,"y":0.0,"z":0.0,"w":0.0},{"x":0.0,"y":0.0,"z":0.0,"w":0.0},{"x":0.0,"y":0.0,"z":0.0,"w":0.0},{"x":0.0,"y":0.0,"z":0.0,"w":0.0},{"x":0.0,"y":0.0,"z":0.0,"w":0.0},{"x":0.0,"y":0.0,"z":0.0,"w":0.0},{"x":0.0,"y":0.0,"z":0.0,"w":0.0},{"x":0.0,"y":0.0,"z":0.0,"w":0.0},{"x":0.0,"y":0.0,"z":0.0,"w":0.0},{"x":0.0,"y":0.0,"z":0.0,"w":0.0},{"x":0.0,"y":0.0,"z":0.0,"w":0.0},{"x":0.0,"y":0.0,"z":0.0,"w":0.0},{"x":0.0,"y":0.0,"z":0.0,"w":0.0},{"x":0.0,"y":0.0,"z":0.0,"w":0.0},{"x":0.0,"y":0.0,"z":0.0,"w":0.0},{"x":0.0,"y":0.0,"z":0.0,"w":0.0},{"x":0.0,"y":0.0,"z":0.0,"w":0.0},{"x":0.0,"y":0.0,"z":0.0,"w":0.0},{"x":0.0,"y":0.0,"z":0.0,"w":0.0},{"x":0.0,"y":0.0,"z":0.0,"w":0.0},{"x":0.0,"y":0.0,"z":0.0,"w":0.0},{"x":0.0,"y":0.0,"z":0.0,"w":0.0},{"x":0.0,"y":0.0,"z":0.0,"w":0.0},{"x":0.0,"y":0.0,"z":0.0,"w":0.0},{"x":0.0,"y":0.0,"z":0.0,"w":0.0},{"x":0.0,"y":0.0,"z":0.0,"w":0.0},{"x":0.0,"y":0.0,"z":0.0,"w":0.0},{"x":0.0,"y":0.0,"z":0.0,"w":0.0},{"x":0.0,"y":0.0,"z":0.0,"w":0.0},{"x":0.0,"y":0.0,"z":0.0,"w":0.0},{"x":0.0,"y":0.0,"z":0.0,"w":0.0},{"x":0.0,"y":0.0,"z":0.0,"w":0.0},{"x":0.0,"y":0.0,"z":0.0,"w":0.0},{"x":0.0,"y":0.0,"z":0.0,"w":0.0},{"x":0.0,"y":0.0,"z":0.0,"w":0.0},{"x":0.0,"y":0.0,"z":0.0,"w":0.0},{"x":0.0,"y":0.0,"z":0.0,"w":0.0},{"x":0.0,"y":0.0,"z":0.0,"w":0.0},{"x":0.0,"y":0.0,"z":0.0,"w":0.0},{"x":0.0,"y":0.0,"z":0.0,"w":0.0},{"x":0.0,"y":0.0,"z":0.0,"w":0.0},{"x":0.0,"y":0.0,"z":0.0,"w":0.0},{"x":0.0,"y":0.0,"z":0.0,"w":0.0},{"x":0.0,"y":0.0,"z":0.0,"w":0.0},{"x":0.0,"y":0.0,"z":0.0,"w":0.0},{"x":0.0,"y":0.0,"z":0.0,"w":0.0},{"x":0.0,"y":0.0,"z":0.0,"w":0.0},{"x":0.0,"y":0.0,"z":0.0,"w":0.0},{"x":0.0,"y":0.0,"z":0.0,"w":0.0},{"x":0.0,"y":0.0,"z":0.0,"w":0.0},{"x":0.0,"y":0.0,"z":0.0,"w":0.0},{"x":0.0,"y":0.0,"z":0.0,"w":0.0},{"x":0.0,"y":0.0,"z":0.0,"w":0.0},{"x":0.0,"y":0.0,"z":0.0,"w":0.0},{"x":0.0,"y":0.0,"z":0.0,"w":0.0},{"x":0.0,"y":0.0,"z":0.0,"w":0.0},{"x":0.0,"y":0.0,"z":0.0,"w":0.0},{"x":0.0,"y":0.0,"z":0.0,"w":0.0},{"x":0.0,"y":0.0,"z":0.0,"w":0.0},{"x":0.0,"y":0.0,"z":0.0,"w":0.0},{"x":0.0,"y":0.0,"z":0.0,"w":0.0},{"x":0.0,"y":0.0,"z":0.0,"w":0.0},{"x":0.0,"y":0.0,"z":0.0,"w":0.0},{"x":0.0,"y":0.0,"z":0.0,"w":0.0},{"x":0.0,"y":0.0,"z":0.0,"w":0.0},{"x":0.0,"y":0.0,"z":0.0,"w":0.0},{"x":0.0,"y":0.0,"z":0.0,"w":0.0},{"x":0.0,"y":0.0,"z":0.0,"w":0.0},{"x":0.0,"y":0.0,"z":0.0,"w":0.0},{"x":0.0,"y":0.0,"z":0.0,"w":0.0},{"x":0.0,"y":0.0,"z":0.0,"w":0.0},{"x":0.0,"y":0.0,"z":0.0,"w":0.0},{"x":0.0,"y":0.0,"z":0.0,"w":0.0},{"x":0.0,"y":0.0,"z":0.0,"w":0.0},{"x":0.0,"y":0.0,"z":0.0,"w":0.0},{"x":0.0,"y":0.0,"z":0.0,"w":0.0},{"x":0.0,"y":0.0,"z":0.0,"w":0.0},{"x":0.0,"y":0.0,"z":0.0,"w":0.0},{"x":0.0,"y":0.0,"z":0.0,"w":0.0},{"x":0.0,"y":0.0,"z":0.0,"w":0.0},{"x":0.0,"y":0.0,"z":0.0,"w":0.0},{"x":0.0,"y":0.0,"z":0.0,"w":0.0},{"x":0.0,"y":0.0,"z":0.0,"w":0.0},{"x":0.0,"y":0.0,"z":0.0,"w":0.0},{"x":0.0,"y":0.0,"z":0.0,"w":0.0},{"x":0.0,"y":0.0,"z":0.0,"w":0.0},{"x":0.0,"y":0.0,"z":0.0,"w":0.0},{"x":0.0,"y":0.0,"z":0.0,"w":0.0},{"x":0.0,"y":0.0,"z":0.0,"w":0.0},{"x":0.0,"y":0.0,"z":0.0,"w":0.0},{"x":0.0,"y":0.0,"z":0.0,"w":0.0},{"x":0.0,"y":0.0,"z":0.0,"w":0.0},{"x":0.0,"y":0.0,"z":0.0,"w":0.0},{"x":0.0,"y":0.0,"z":0.0,"w":0.0},{"x":0.0,"y":0.0,"z":0.0,"w":0.0},{"x":0.0,"y":0.0,"z":0.0,"w":0.0}],"orientations":[],"restOrientations":[],"velocities":[{"x":0.0,"y":0.0,"z":0.0},{"x":0.08773183822631836,"y":-0.09823450446128845,"z":0.09567016363143921},{"x":0.2689753472805023,"y":-0.13552232086658479,"z":0.11789747327566147},{"x":0.12069818377494812,"y":0.2676731050014496,"z":1.0428993701934815},{"x":0.26632624864578249,"y":-0.1854178011417389,"z":0.38180655241012576},{"x":0.26113513112068179,"y":-0.22659897804260255,"z":0.3544594645500183},{"x":0.18705898523330689,"y":-0.18895882368087769,"z":0.27145496010780337},{"x":0.11620277166366577,"y":0.0,"z":0.09413601458072663},{"x":0.038028132170438769,"y":-0.08002988249063492,"z":0.21499474346637727},{"x":0.05175964534282684,"y":-0.11127030849456787,"z":0.38653385639190676},{"x":0.08950235694646836,"y":-0.13233362138271333,"z":0.4625990688800812},{"x":0.14245274662971497,"y":-0.13585235178470612,"z":0.4620282053947449},{"x":0.19868104159832,"y":-0.11044971644878388,"z":0.4879303276538849},{"x":0.1918398141860962,"y":-0.08077465742826462,"z":0.4947091341018677},{"x":0.21927610039710999,"y":-0.06173160672187805,"z":0.5636208653450012},{"x":0.23121033608913423,"y":-0.12527386844158173,"z":0.6523338556289673},{"x":0.3574742376804352,"y":-0.27710098028182986,"z":0.6261284947395325},{"x":0.3923850357532501,"y":-0.19924743473529817,"z":0.5925199389457703},{"x":0.33315980434417727,"y":0.0,"z":0.32318782806396487},{"x":0.2177954465150833,"y":0.0,"z":0.6501396894454956},{"x":0.1526922881603241,"y":0.0,"z":0.5556468963623047},{"x":0.08873973786830902,"y":0.0,"z":0.5618102550506592},{"x":0.05223237723112106,"y":0.008223745040595532,"z":0.5371747016906738},{"x":0.030624978244304658,"y":0.0,"z":0.4673888087272644},{"x":-0.08719221502542496,"y":0.0,"z":0.25614914298057558},{"x":-0.17558297514915467,"y":0.0,"z":0.05967121198773384},{"x":-0.22680635750293733,"y":0.0,"z":0.019310638308525087},{"x":-0.28020939230918887,"y":0.0,"z":-0.027115168049931527},{"x":-0.34828275442123415,"y":0.0,"z":-0.028760811313986779},{"x":-0.41386309266090395,"y":0.0,"z":-0.035606499761343},{"x":-0.4613324999809265,"y":0.0,"z":-0.033769089728593829},{"x":-0.4792606234550476,"y":0.0,"z":-0.015415063127875328},{"x":-0.4613146483898163,"y":0.0,"z":0.014034776017069817},{"x":-0.41309601068496706,"y":0.007331799250096083,"z":0.03168806806206703},{"x":-0.3227061927318573,"y":0.012563063763082028,"z":0.011991521343588829},{"x":-0.2359733283519745,"y":0.006355117540806532,"z":0.0030236979946494104},{"x":-0.2456955462694168,"y":0.0,"z":-0.047357890754938129},{"x":0.0,"y":0.0,"z":0.0},{"x":0.0,"y":0.0,"z":0.0},{"x":0.0,"y":0.0,"z":0.0},{"x":0.0,"y":0.0,"z":0.0},{"x":0.0,"y":0.0,"z":0.0},{"x":0.0,"y":0.0,"z":0.0},{"x":0.0,"y":0.0,"z":0.0},{"x":0.0,"y":0.0,"z":0.0},{"x":0.0,"y":0.0,"z":0.0},{"x":0.0,"y":0.0,"z":0.0},{"x":0.0,"y":0.0,"z":0.0},{"x":0.0,"y":0.0,"z":0.0},{"x":0.0,"y":0.0,"z":0.0},{"x":0.0,"y":0.0,"z":0.0},{"x":0.0,"y":0.0,"z":0.0},{"x":0.0,"y":0.0,"z":0.0},{"x":0.0,"y":0.0,"z":0.0},{"x":0.0,"y":0.0,"z":0.0},{"x":0.0,"y":0.0,"z":0.0},{"x":0.0,"y":0.0,"z":0.0},{"x":0.0,"y":0.0,"z":0.0},{"x":0.0,"y":0.0,"z":0.0},{"x":0.0,"y":0.0,"z":0.0},{"x":0.0,"y":0.0,"z":0.0},{"x":0.0,"y":0.0,"z":0.0},{"x":0.0,"y":0.0,"z":0.0},{"x":0.0,"y":0.0,"z":0.0},{"x":0.0,"y":0.0,"z":0.0},{"x":0.0,"y":0.0,"z":0.0},{"x":0.0,"y":0.0,"z":0.0},{"x":0.0,"y":0.0,"z":0.0},{"x":0.0,"y":0.0,"z":0.0},{"x":0.0,"y":0.0,"z":0.0},{"x":0.0,"y":0.0,"z":0.0},{"x":0.0,"y":0.0,"z":0.0},{"x":0.0,"y":0.0,"z":0.0},{"x":0.0,"y":0.0,"z":0.0},{"x":0.0,"y":0.0,"z":0.0},{"x":0.0,"y":0.0,"z":0.0},{"x":0.0,"y":0.0,"z":0.0},{"x":0.0,"y":0.0,"z":0.0},{"x":0.0,"y":0.0,"z":0.0},{"x":0.0,"y":0.0,"z":0.0},{"x":0.0,"y":0.0,"z":0.0},{"x":0.0,"y":0.0,"z":0.0},{"x":0.0,"y":0.0,"z":0.0},{"x":0.0,"y":0.0,"z":0.0},{"x":0.0,"y":0.0,"z":0.0},{"x":0.0,"y":0.0,"z":0.0},{"x":0.0,"y":0.0,"z":0.0},{"x":0.0,"y":0.0,"z":0.0},{"x":0.0,"y":0.0,"z":0.0},{"x":0.0,"y":0.0,"z":0.0},{"x":0.0,"y":0.0,"z":0.0},{"x":0.0,"y":0.0,"z":0.0},{"x":0.0,"y":0.0,"z":0.0},{"x":0.0,"y":0.0,"z":0.0},{"x":0.0,"y":0.0,"z":0.0},{"x":0.0,"y":0.0,"z":0.0},{"x":0.0,"y":0.0,"z":0.0},{"x":0.0,"y":0.0,"z":0.0},{"x":0.0,"y":0.0,"z":0.0},{"x":0.0,"y":0.0,"z":0.0},{"x":0.0,"y":0.0,"z":0.0},{"x":0.0,"y":0.0,"z":0.0},{"x":0.0,"y":0.0,"z":0.0},{"x":0.0,"y":0.0,"z":0.0},{"x":0.0,"y":0.0,"z":0.0},{"x":0.0,"y":0.0,"z":0.0},{"x":0.0,"y":0.0,"z":0.0},{"x":0.0,"y":0.0,"z":0.0},{"x":0.0,"y":0.0,"z":0.0},{"x":0.0,"y":0.0,"z":0.0},{"x":0.0,"y":0.0,"z":0.0},{"x":0.0,"y":0.0,"z":0.0},{"x":0.0,"y":0.0,"z":0.0},{"x":0.0,"y":0.0,"z":0.0},{"x":0.0,"y":0.0,"z":0.0},{"x":0.0,"y":0.0,"z":0.0},{"x":0.0,"y":0.0,"z":0.0},{"x":0.0,"y":0.0,"z":0.0},{"x":0.0,"y":0.0,"z":0.0},{"x":0.0,"y":0.0,"z":0.0},{"x":0.0,"y":0.0,"z":0.0},{"x":0.0,"y":0.0,"z":0.0},{"x":0.0,"y":0.0,"z":0.0},{"x":0.0,"y":0.0,"z":0.0},{"x":0.0,"y":0.0,"z":0.0},{"x":0.0,"y":0.0,"z":0.0},{"x":0.0,"y":0.0,"z":0.0},{"x":0.0,"y":0.0,"z":0.0},{"x":0.0,"y":0.0,"z":0.0},{"x":0.0,"y":0.0,"z":0.0},{"x":0.0,"y":0.0,"z":0.0},{"x":0.0,"y":0.0,"z":0.0},{"x":0.0,"y":0.0,"z":0.0},{"x":0.0,"y":0.0,"z":0.0},{"x":0.0,"y":0.0,"z":0.0},{"x":0.0,"y":0.0,"z":0.0},{"x":0.0,"y":0.0,"z":0.0},{"x":0.0,"y":0.0,"z":0.0}],"angularVelocities":[],"invMasses":[1.0,9.999999046325684,9.999999046325684,10.000000953674317,9.999999046325684,9.999999046325684,10.0,10.0,9.999999046325684,10.0,10.000000953674317,10.000000953674317,10.0,10.000000953674317,10.000000953674317,9.999999046325684,10.0,9.999999046325684,10.0,10.0,10.0,10.0,10.0,10.0,10.0,10.0,10.0,10.0,10.0,10.0,10.0,10.0,10.0,10.0,10.0,10.0,10.0,10.0,0.0,0.0,0.0,0.0,0.0,0.0,0.0,0.0,0.0,0.0,0.0,0.0,0.0,0.0,0.0,0.0,0.0,0.0,0.0,0.0,0.0,0.0,0.0,0.0,0.0,0.0,0.0,0.0,0.0,0.0,0.0,0.0,0.0,0.0,0.0,0.0,0.0,0.0,0.0,0.0,0.0,0.0,0.0,0.0,0.0,0.0,0.0,0.0,0.0,0.0,0.0,0.0,0.0,0.0,0.0,0.0,0.0,0.0,0.0,0.0,0.0,0.0,0.0,0.0,0.0,0.0,0.0,0.0,0.0,0.0,0.0,0.0,0.0,0.0,0.0,0.0,0.0,0.0,0.0,0.0,0.0,0.0,0.0,0.0,0.0,0.0,0.0,0.0,0.0,0.0,0.0,0.0,0.0,0.0,0.0,0.0,0.0,0.0,0.0,0.0],"invRotationalMasses":[],"phases":[1,1,1,1,1,1,1,1,1,1,1,1,1,1,1,1,1,1,1,1,1,1,1,1,1,1,1,1,1,1,1,1,1,1,1,1,1,1,0,0,0,0,0,0,0,0,0,0,0,0,0,0,0,0,0,0,0,0,0,0,0,0,0,0,0,0,0,0,0,0,0,0,0,0,0,0,0,0,0,0,0,0,0,0,0,0,0,0,0,0,0,0,0,0,0,0,0,0,0,0,0,0,0,0,0,0,0,0,0,0,0,0,0,0,0,0,0,0,0,0,0,0,0,0,0,0,0,0,0,0,0,0,0,0,0,0,0,0],"principalRadii":[{"x":0.125,"y":0.125,"z":0.125},{"x":0.125,"y":0.125,"z":0.125},{"x":0.1250000149011612,"y":0.1250000149011612,"z":0.1250000149011612},{"x":0.1249999925494194,"y":0.1249999925494194,"z":0.1249999925494194},{"x":0.1250000149011612,"y":0.1250000149011612,"z":0.1250000149011612},{"x":0.125,"y":0.125,"z":0.125},{"x":0.125,"y":0.125,"z":0.125},{"x":0.125,"y":0.125,"z":0.125},{"x":0.1250000149011612,"y":0.1250000149011612,"z":0.1250000149011612},{"x":0.125,"y":0.125,"z":0.125},{"x":0.1249999925494194,"y":0.1249999925494194,"z":0.1249999925494194},{"x":0.1249999925494194,"y":0.1249999925494194,"z":0.1249999925494194},{"x":0.125,"y":0.125,"z":0.125},{"x":0.1249999925494194,"y":0.1249999925494194,"z":0.1249999925494194},{"x":0.1249999925494194,"y":0.1249999925494194,"z":0.1249999925494194},{"x":0.1250000149011612,"y":0.1250000149011612,"z":0.1250000149011612},{"x":0.125,"y":0.125,"z":0.125},{"x":0.1250000149011612,"y":0.1250000149011612,"z":0.1250000149011612},{"x":0.125,"y":0.125,"z":0.125},{"x":0.125,"y":0.125,"z":0.125},{"x":0.125,"y":0.125,"z":0.125},{"x":0.125,"y":0.125,"z":0.125},{"x":0.125,"y":0.125,"z":0.125},{"x":0.125,"y":0.125,"z":0.125},{"x":0.125,"y":0.125,"z":0.125},{"x":0.125,"y":0.125,"z":0.125},{"x":0.125,"y":0.125,"z":0.125},{"x":0.125,"y":0.125,"z":0.125},{"x":0.125,"y":0.125,"z":0.125},{"x":0.125,"y":0.125,"z":0.125},{"x":0.125,"y":0.125,"z":0.125},{"x":0.125,"y":0.125,"z":0.125},{"x":0.125,"y":0.125,"z":0.125},{"x":0.125,"y":0.125,"z":0.125},{"x":0.125,"y":0.125,"z":0.125},{"x":0.125,"y":0.125,"z":0.125},{"x":0.125,"y":0.125,"z":0.125},{"x":0.125,"y":0.125,"z":0.125},{"x":0.0,"y":0.0,"z":0.0},{"x":0.0,"y":0.0,"z":0.0},{"x":0.0,"y":0.0,"z":0.0},{"x":0.0,"y":0.0,"z":0.0},{"x":0.0,"y":0.0,"z":0.0},{"x":0.0,"y":0.0,"z":0.0},{"x":0.0,"y":0.0,"z":0.0},{"x":0.0,"y":0.0,"z":0.0},{"x":0.0,"y":0.0,"z":0.0},{"x":0.0,"y":0.0,"z":0.0},{"x":0.0,"y":0.0,"z":0.0},{"x":0.0,"y":0.0,"z":0.0},{"x":0.0,"y":0.0,"z":0.0},{"x":0.0,"y":0.0,"z":0.0},{"x":0.0,"y":0.0,"z":0.0},{"x":0.0,"y":0.0,"z":0.0},{"x":0.0,"y":0.0,"z":0.0},{"x":0.0,"y":0.0,"z":0.0},{"x":0.0,"y":0.0,"z":0.0},{"x":0.0,"y":0.0,"z":0.0},{"x":0.0,"y":0.0,"z":0.0},{"x":0.0,"y":0.0,"z":0.0},{"x":0.0,"y":0.0,"z":0.0},{"x":0.0,"y":0.0,"z":0.0},{"x":0.0,"y":0.0,"z":0.0},{"x":0.0,"y":0.0,"z":0.0},{"x":0.0,"y":0.0,"z":0.0},{"x":0.0,"y":0.0,"z":0.0},{"x":0.0,"y":0.0,"z":0.0},{"x":0.0,"y":0.0,"z":0.0},{"x":0.0,"y":0.0,"z":0.0},{"x":0.0,"y":0.0,"z":0.0},{"x":0.0,"y":0.0,"z":0.0},{"x":0.0,"y":0.0,"z":0.0},{"x":0.0,"y":0.0,"z":0.0},{"x":0.0,"y":0.0,"z":0.0},{"x":0.0,"y":0.0,"z":0.0},{"x":0.0,"y":0.0,"z":0.0},{"x":0.0,"y":0.0,"z":0.0},{"x":0.0,"y":0.0,"z":0.0},{"x":0.0,"y":0.0,"z":0.0},{"x":0.0,"y":0.0,"z":0.0},{"x":0.0,"y":0.0,"z":0.0},{"x":0.0,"y":0.0,"z":0.0},{"x":0.0,"y":0.0,"z":0.0},{"x":0.0,"y":0.0,"z":0.0},{"x":0.0,"y":0.0,"z":0.0},{"x":0.0,"y":0.0,"z":0.0},{"x":0.0,"y":0.0,"z":0.0},{"x":0.0,"y":0.0,"z":0.0},{"x":0.0,"y":0.0,"z":0.0},{"x":0.0,"y":0.0,"z":0.0},{"x":0.0,"y":0.0,"z":0.0},{"x":0.0,"y":0.0,"z":0.0},{"x":0.0,"y":0.0,"z":0.0},{"x":0.0,"y":0.0,"z":0.0},{"x":0.0,"y":0.0,"z":0.0},{"x":0.0,"y":0.0,"z":0.0},{"x":0.0,"y":0.0,"z":0.0},{"x":0.0,"y":0.0,"z":0.0},{"x":0.0,"y":0.0,"z":0.0},{"x":0.0,"y":0.0,"z":0.0},{"x":0.0,"y":0.0,"z":0.0},{"x":0.0,"y":0.0,"z":0.0},{"x":0.0,"y":0.0,"z":0.0},{"x":0.0,"y":0.0,"z":0.0},{"x":0.0,"y":0.0,"z":0.0},{"x":0.0,"y":0.0,"z":0.0},{"x":0.0,"y":0.0,"z":0.0},{"x":0.0,"y":0.0,"z":0.0},{"x":0.0,"y":0.0,"z":0.0},{"x":0.0,"y":0.0,"z":0.0},{"x":0.0,"y":0.0,"z":0.0},{"x":0.0,"y":0.0,"z":0.0},{"x":0.0,"y":0.0,"z":0.0},{"x":0.0,"y":0.0,"z":0.0},{"x":0.0,"y":0.0,"z":0.0},{"x":0.0,"y":0.0,"z":0.0},{"x":0.0,"y":0.0,"z":0.0},{"x":0.0,"y":0.0,"z":0.0},{"x":0.0,"y":0.0,"z":0.0},{"x":0.0,"y":0.0,"z":0.0},{"x":0.0,"y":0.0,"z":0.0},{"x":0.0,"y":0.0,"z":0.0},{"x":0.0,"y":0.0,"z":0.0},{"x":0.0,"y":0.0,"z":0.0},{"x":0.0,"y":0.0,"z":0.0},{"x":0.0,"y":0.0,"z":0.0},{"x":0.0,"y":0.0,"z":0.0},{"x":0.0,"y":0.0,"z":0.0},{"x":0.0,"y":0.0,"z":0.0},{"x":0.0,"y":0.0,"z":0.0},{"x":0.0,"y":0.0,"z":0.0},{"x":0.0,"y":0.0,"z":0.0},{"x":0.0,"y":0.0,"z":0.0},{"x":0.0,"y":0.0,"z":0.0},{"x":0.0,"y":0.0,"z":0.0},{"x":0.0,"y":0.0,"z":0.0},{"x":0.0,"y":0.0,"z":0.0},{"x":0.0,"y":0.0,"z":0.0}],"colors":[{"r":1.0,"g":1.0,"b":1.0,"a":1.0},{"r":1.0,"g":1.0,"b":1.0,"a":1.0},{"r":1.0000001192092896,"g":1.0000001192092896,"b":1.0000001192092896,"a":1.0000001192092896},{"r":0.9999999403953552,"g":0.9999999403953552,"b":0.9999999403953552,"a":0.9999999403953552},{"r":1.0000001192092896,"g":1.0000001192092896,"b":1.0000001192092896,"a":1.0000001192092896},{"r":1.0,"g":1.0,"b":1.0,"a":1.0},{"r":1.0,"g":1.0,"b":1.0,"a":1.0},{"r":1.0,"g":1.0,"b":1.0,"a":1.0},{"r":1.0000001192092896,"g":1.0000001192092896,"b":1.0000001192092896,"a":1.0000001192092896},{"r":1.0,"g":1.0,"b":1.0,"a":1.0},{"r":0.9999999403953552,"g":0.9999999403953552,"b":0.9999999403953552,"a":0.9999999403953552},{"r":0.9999999403953552,"g":0.9999999403953552,"b":0.9999999403953552,"a":0.9999999403953552},{"r":1.0,"g":1.0,"b":1.0,"a":1.0},{"r":0.9999999403953552,"g":0.9999999403953552,"b":0.9999999403953552,"a":0.9999999403953552},{"r":0.9999999403953552,"g":0.9999999403953552,"b":0.9999999403953552,"a":0.9999999403953552},{"r":1.0000001192092896,"g":1.0000001192092896,"b":1.0000001192092896,"a":1.0000001192092896},{"r":1.0,"g":1.0,"b":1.0,"a":1.0},{"r":1.0000001192092896,"g":1.0000001192092896,"b":1.0000001192092896,"a":1.0000001192092896},{"r":1.0,"g":1.0,"b":1.0,"a":1.0},{"r":1.0,"g":1.0,"b":1.0,"a":1.0},{"r":1.0,"g":1.0,"b":1.0,"a":1.0},{"r":1.0,"g":1.0,"b":1.0,"a":1.0},{"r":1.0,"g":1.0,"b":1.0,"a":1.0},{"r":1.0,"g":1.0,"b":1.0,"a":1.0},{"r":1.0,"g":1.0,"b":1.0,"a":1.0},{"r":1.0,"g":1.0,"b":1.0,"a":1.0},{"r":1.0,"g":1.0,"b":1.0,"a":1.0},{"r":1.0,"g":1.0,"b":1.0,"a":1.0},{"r":1.0,"g":1.0,"b":1.0,"a":1.0},{"r":1.0,"g":1.0,"b":1.0,"a":1.0},{"r":1.0,"g":1.0,"b":1.0,"a":1.0},{"r":1.0,"g":1.0,"b":1.0,"a":1.0},{"r":1.0,"g":1.0,"b":1.0,"a":1.0},{"r":1.0,"g":1.0,"b":1.0,"a":1.0},{"r":1.0,"g":1.0,"b":1.0,"a":1.0},{"r":1.0,"g":1.0,"b":1.0,"a":1.0},{"r":1.0,"g":1.0,"b":1.0,"a":1.0},{"r":1.0,"g":1.0,"b":1.0,"a":1.0},{"r":0.0,"g":0.0,"b":0.0,"a":0.0},{"r":0.0,"g":0.0,"b":0.0,"a":0.0},{"r":0.0,"g":0.0,"b":0.0,"a":0.0},{"r":0.0,"g":0.0,"b":0.0,"a":0.0},{"r":0.0,"g":0.0,"b":0.0,"a":0.0},{"r":0.0,"g":0.0,"b":0.0,"a":0.0},{"r":0.0,"g":0.0,"b":0.0,"a":0.0},{"r":0.0,"g":0.0,"b":0.0,"a":0.0},{"r":0.0,"g":0.0,"b":0.0,"a":0.0},{"r":0.0,"g":0.0,"b":0.0,"a":0.0},{"r":0.0,"g":0.0,"b":0.0,"a":0.0},{"r":0.0,"g":0.0,"b":0.0,"a":0.0},{"r":0.0,"g":0.0,"b":0.0,"a":0.0},{"r":0.0,"g":0.0,"b":0.0,"a":0.0},{"r":0.0,"g":0.0,"b":0.0,"a":0.0},{"r":0.0,"g":0.0,"b":0.0,"a":0.0},{"r":0.0,"g":0.0,"b":0.0,"a":0.0},{"r":0.0,"g":0.0,"b":0.0,"a":0.0},{"r":0.0,"g":0.0,"b":0.0,"a":0.0},{"r":0.0,"g":0.0,"b":0.0,"a":0.0},{"r":0.0,"g":0.0,"b":0.0,"a":0.0},{"r":0.0,"g":0.0,"b":0.0,"a":0.0},{"r":0.0,"g":0.0,"b":0.0,"a":0.0},{"r":0.0,"g":0.0,"b":0.0,"a":0.0},{"r":0.0,"g":0.0,"b":0.0,"a":0.0},{"r":0.0,"g":0.0,"b":0.0,"a":0.0},{"r":0.0,"g":0.0,"b":0.0,"a":0.0},{"r":0.0,"g":0.0,"b":0.0,"a":0.0},{"r":0.0,"g":0.0,"b":0.0,"a":0.0},{"r":0.0,"g":0.0,"b":0.0,"a":0.0},{"r":0.0,"g":0.0,"b":0.0,"a":0.0},{"r":0.0,"g":0.0,"b":0.0,"a":0.0},{"r":0.0,"g":0.0,"b":0.0,"a":0.0},{"r":0.0,"g":0.0,"b":0.0,"a":0.0},{"r":0.0,"g":0.0,"b":0.0,"a":0.0},{"r":0.0,"g":0.0,"b":0.0,"a":0.0},{"r":0.0,"g":0.0,"b":0.0,"a":0.0},{"r":0.0,"g":0.0,"b":0.0,"a":0.0},{"r":0.0,"g":0.0,"b":0.0,"a":0.0},{"r":0.0,"g":0.0,"b":0.0,"a":0.0},{"r":0.0,"g":0.0,"b":0.0,"a":0.0},{"r":0.0,"g":0.0,"b":0.0,"a":0.0},{"r":0.0,"g":0.0,"b":0.0,"a":0.0},{"r":0.0,"g":0.0,"b":0.0,"a":0.0},{"r":0.0,"g":0.0,"b":0.0,"a":0.0},{"r":0.0,"g":0.0,"b":0.0,"a":0.0},{"r":0.0,"g":0.0,"b":0.0,"a":0.0},{"r":0.0,"g":0.0,"b":0.0,"a":0.0},{"r":0.0,"g":0.0,"b":0.0,"a":0.0},{"r":0.0,"g":0.0,"b":0.0,"a":0.0},{"r":0.0,"g":0.0,"b":0.0,"a":0.0},{"r":0.0,"g":0.0,"b":0.0,"a":0.0},{"r":0.0,"g":0.0,"b":0.0,"a":0.0},{"r":0.0,"g":0.0,"b":0.0,"a":0.0},{"r":0.0,"g":0.0,"b":0.0,"a":0.0},{"r":0.0,"g":0.0,"b":0.0,"a":0.0},{"r":0.0,"g":0.0,"b":0.0,"a":0.0},{"r":0.0,"g":0.0,"b":0.0,"a":0.0},{"r":0.0,"g":0.0,"b":0.0,"a":0.0},{"r":0.0,"g":0.0,"b":0.0,"a":0.0},{"r":0.0,"g":0.0,"b":0.0,"a":0.0},{"r":0.0,"g":0.0,"b":0.0,"a":0.0},{"r":0.0,"g":0.0,"b":0.0,"a":0.0},{"r":0.0,"g":0.0,"b":0.0,"a":0.0},{"r":0.0,"g":0.0,"b":0.0,"a":0.0},{"r":0.0,"g":0.0,"b":0.0,"a":0.0},{"r":0.0,"g":0.0,"b":0.0,"a":0.0},{"r":0.0,"g":0.0,"b":0.0,"a":0.0},{"r":0.0,"g":0.0,"b":0.0,"a":0.0},{"r":0.0,"g":0.0,"b":0.0,"a":0.0},{"r":0.0,"g":0.0,"b":0.0,"a":0.0},{"r":0.0,"g":0.0,"b":0.0,"a":0.0},{"r":0.0,"g":0.0,"b":0.0,"a":0.0},{"r":0.0,"g":0.0,"b":0.0,"a":0.0},{"r":0.0,"g":0.0,"b":0.0,"a":0.0},{"r":0.0,"g":0.0,"b":0.0,"a":0.0},{"r":0.0,"g":0.0,"b":0.0,"a":0.0},{"r":0.0,"g":0.0,"b":0.0,"a":0.0},{"r":0.0,"g":0.0,"b":0.0,"a":0.0},{"r":0.0,"g":0.0,"b":0.0,"a":0.0},{"r":0.0,"g":0.0,"b":0.0,"a":0.0},{"r":0.0,"g":0.0,"b":0.0,"a":0.0},{"r":0.0,"g":0.0,"b":0.0,"a":0.0},{"r":0.0,"g":0.0,"b":0.0,"a":0.0},{"r":0.0,"g":0.0,"b":0.0,"a":0.0},{"r":0.0,"g":0.0,"b":0.0,"a":0.0},{"r":0.0,"g":0.0,"b":0.0,"a":0.0},{"r":0.0,"g":0.0,"b":0.0,"a":0.0},{"r":0.0,"g":0.0,"b":0.0,"a":0.0},{"r":0.0,"g":0.0,"b":0.0,"a":0.0},{"r":0.0,"g":0.0,"b":0.0,"a":0.0},{"r":0.0,"g":0.0,"b":0.0,"a":0.0},{"r":0.0,"g":0.0,"b":0.0,"a":0.0},{"r":0.0,"g":0.0,"b":0.0,"a":0.0},{"r":0.0,"g":0.0,"b":0.0,"a":0.0},{"r":0.0,"g":0.0,"b":0.0,"a":0.0},{"r":0.0,"g":0.0,"b":0.0,"a":0.0},{"r":0.0,"g":0.0,"b":0.0,"a":0.0},{"r":0.0,"g":0.0,"b":0.0,"a":0.0},{"r":0.0,"g":0.0,"b":0.0,"a":0.0}],"distanceConstraintsData":{"batches":[{"m_IDs":[0,1,2,3,4,5,6,7,8,9,10,11,12,13,14,15,16,17,18,19,20,21,22,23,24,25,26,27,28,29,30,31,32,33,34,35,36,37,38,39,40,41,42,43,44,45,46,47,48,49,50,51,52,53,54,55,56,57,58,59,60,61,62,63,64,65,66,67,68],"m_IDToIndex":[0,1,2,3,4,5,6,7,8,9,10,11,12,13,14,15,16,17,18,19,20,21,22,23,24,25,26,27,28,29,30,31,32,33,34,35,36,37,38,39,40,41,42,43,44,45,46,47,48,49,50,51,52,53,54,55,56,57,58,59,60,61,62,63,64,65,66,67,68],"m_ConstraintCount":69,"m_ActiveConstraintCount":19,"m_InitialActiveConstraintCount":19,"particleIndices":{"serializedContents":[0,1,2,3,4,5,6,7,8,9,10,11,12,13,14,15,16,17,18,19,20,21,22,23,24,25,26,27,28,29,30,31,32,33,34,35,36,37,0,0,0,0,0,0,0,0,0,0,0,0,0,0,0,0,0,0,0,0,0,0,0,0,0,0,0,0,0,0,0,0,0,0,0,0,0,0,0,0,0,0,0,0,0,0,0,0,0,0,0,0,0,0,0,0,0,0,0,0,0,0,0,0,0,0,0,0,0,0,0,0,0,0,0,0,0,0,0,0,0,0,0,0,0,0,0,0,0,0,0,0,0,0,0,0,0,0,0,0]},"restLengths":{"serializedContents":[0.11864738166332245,0.12151327729225159,0.12111052125692368,0.12246841937303543,0.12205623090267182,0.12136472016572952,0.12093772739171982,0.12245406210422516,0.12289495021104813,0.12234174460172653,0.12248951941728592,0.12340106070041657,0.12271970510482788,0.121193066239357,0.11999580264091492,0.11967310309410095,0.11951984465122223,0.12366051971912384,0.11679373681545258,0.0,0.0,0.0,0.0,0.0,0.0,0.0,0.0,0.0,0.0,0.0,0.0,0.0,0.0,0.0,0.0,0.0,0.0,0.0,0.0,0.0,0.0,0.0,0.0,0.0,0.0,0.0,0.0,0.0,0.0,0.0,0.0,0.0,0.0,0.0,0.0,0.0,0.0,0.0,0.0,0.0,0.0,0.0,0.0,0.0,0.0,0.0,0.0,0.0,0.0]},"stiffnesses":{"serializedContents":[{"x":0.0,"y":0.0},{"x":0.0,"y":0.0},{"x":0.0,"y":0.0},{"x":0.0,"y":0.0},{"x":0.0,"y":0.0},{"x":0.0,"y":0.0},{"x":0.0,"y":0.0},{"x":0.0,"y":0.0},{"x":0.0,"y":0.0},{"x":0.0,"y":0.0},{"x":0.0,"y":0.0},{"x":0.0,"y":0.0},{"x":0.0,"y":0.0},{"x":0.0,"y":0.0},{"x":0.0,"y":0.0},{"x":0.0,"y":0.0},{"x":0.0,"y":0.0},{"x":0.0,"y":0.0},{"x":0.0,"y":0.0},{"x":0.0,"y":0.0},{"x":0.0,"y":0.0},{"x":0.0,"y":0.0},{"x":0.0,"y":0.0},{"x":0.0,"y":0.0},{"x":0.0,"y":0.0},{"x":0.0,"y":0.0},{"x":0.0,"y":0.0},{"x":0.0,"y":0.0},{"x":0.0,"y":0.0},{"x":0.0,"y":0.0},{"x":0.0,"y":0.0},{"x":0.0,"y":0.0},{"x":0.0,"y":0.0},{"x":0.0,"y":0.0},{"x":0.0,"y":0.0},{"x":0.0,"y":0.0},{"x":0.0,"y":0.0},{"x":0.0,"y":0.0},{"x":0.0,"y":0.0},{"x":0.0,"y":0.0},{"x":0.0,"y":0.0},{"x":0.0,"y":0.0},{"x":0.0,"y":0.0},{"x":0.0,"y":0.0},{"x":0.0,"y":0.0},{"x":0.0,"y":0.0},{"x":0.0,"y":0.0},{"x":0.0,"y":0.0},{"x":0.0,"y":0.0},{"x":0.0,"y":0.0},{"x":0.0,"y":0.0},{"x":0.0,"y":0.0},{"x":0.0,"y":0.0},{"x":0.0,"y":0.0},{"x":0.0,"y":0.0},{"x":0.0,"y":0.0},{"x":0.0,"y":0.0},{"x":0.0,"y":0.0},{"x":0.0,"y":0.0},{"x":0.0,"y":0.0},{"x":0.0,"y":0.0},{"x":0.0,"y":0.0},{"x":0.0,"y":0.0},{"x":0.0,"y":0.0},{"x":0.0,"y":0.0},{"x":0.0,"y":0.0},{"x":0.0,"y":0.0},{"x":0.0,"y":0.0},{"x":0.0,"y":0.0}]}},{"m_IDs":[0,1,2,3,4,5,6,7,8,9,10,11,12,13,14,15,16,17,18,19,20,21,22,23,24,25,26,27,28,29,30,31,32,33,34,35,36,37,38,39,40,41,42,43,44,45,46,47,48,49,50,51,52,53,54,55,56,57,58,59,60,61,62,63,64,65,66,67],"m_IDToIndex":[0,1,2,3,4,5,6,7,8,9,10,11,12,13,14,15,16,17,18,19,20,21,22,23,24,25,26,27,28,29,30,31,32,33,34,35,36,37,38,39,40,41,42,43,44,45,46,47,48,49,50,51,52,53,54,55,56,57,58,59,60,61,62,63,64,65,66,67],"m_ConstraintCount":68,"m_ActiveConstraintCount":18,"m_InitialActiveConstraintCount":18,"particleIndices":{"serializedContents":[1,2,3,4,5,6,7,8,9,10,11,12,13,14,15,16,17,18,19,20,21,22,23,24,25,26,27,28,29,30,31,32,33,34,35,36,0,0,0,0,0,0,0,0,0,0,0,0,0,0,0,0,0,0,0,0,0,0,0,0,0,0,0,0,0,0,0,0,0,0,0,0,0,0,0,0,0,0,0,0,0,0,0,0,0,0,0,0,0,0,0,0,0,0,0,0,0,0,0,0,0,0,0,0,0,0,0,0,0,0,0,0,0,0,0,0,0,0,0,0,0,0,0,0,0,0,0,0,0,0,0,0,0,0,0,0]},"restLengths":{"serializedContents":[0.12187203764915467,0.12484992295503617,0.12283722311258316,0.12261634320020676,0.12338753044605255,0.12417378276586533,0.12285556644201279,0.12215090543031693,0.12217489629983902,0.12259210646152497,0.12169325351715088,0.12189382314682007,0.12272870540618897,0.12409552931785584,0.12513777613639832,0.125507652759552,0.12483812868595123,0.1226479709148407,0.0,0.0,0.0,0.0,0.0,0.0,0.0,0.0,0.0,0.0,0.0,0.0,0.0,0.0,0.0,0.0,0.0,0.0,0.0,0.0,0.0,0.0,0.0,0.0,0.0,0.0,0.0,0.0,0.0,0.0,0.0,0.0,0.0,0.0,0.0,0.0,0.0,0.0,0.0,0.0,0.0,0.0,0.0,0.0,0.0,0.0,0.0,0.0,0.0,0.0]},"stiffnesses":{"serializedContents":[{"x":0.0,"y":0.0},{"x":0.0,"y":0.0},{"x":0.0,"y":0.0},{"x":0.0,"y":0.0},{"x":0.0,"y":0.0},{"x":0.0,"y":0.0},{"x":0.0,"y":0.0},{"x":0.0,"y":0.0},{"x":0.0,"y":0.0},{"x":0.0,"y":0.0},{"x":0.0,"y":0.0},{"x":0.0,"y":0.0},{"x":0.0,"y":0.0},{"x":0.0,"y":0.0},{"x":0.0,"y":0.0},{"x":0.0,"y":0.0},{"x":0.0,"y":0.0},{"x":0.0,"y":0.0},{"x":0.0,"y":0.0},{"x":0.0,"y":0.0},{"x":0.0,"y":0.0},{"x":0.0,"y":0.0},{"x":0.0,"y":0.0},{"x":0.0,"y":0.0},{"x":0.0,"y":0.0},{"x":0.0,"y":0.0},{"x":0.0,"y":0.0},{"x":0.0,"y":0.0},{"x":0.0,"y":0.0},{"x":0.0,"y":0.0},{"x":0.0,"y":0.0},{"x":0.0,"y":0.0},{"x":0.0,"y":0.0},{"x":0.0,"y":0.0},{"x":0.0,"y":0.0},{"x":0.0,"y":0.0},{"x":0.0,"y":0.0},{"x":0.0,"y":0.0},{"x":0.0,"y":0.0},{"x":0.0,"y":0.0},{"x":0.0,"y":0.0},{"x":0.0,"y":0.0},{"x":0.0,"y":0.0},{"x":0.0,"y":0.0},{"x":0.0,"y":0.0},{"x":0.0,"y":0.0},{"x":0.0,"y":0.0},{"x":0.0,"y":0.0},{"x":0.0,"y":0.0},{"x":0.0,"y":0.0},{"x":0.0,"y":0.0},{"x":0.0,"y":0.0},{"x":0.0,"y":0.0},{"x":0.0,"y":0.0},{"x":0.0,"y":0.0},{"x":0.0,"y":0.0},{"x":0.0,"y":0.0},{"x":0.0,"y":0.0},{"x":0.0,"y":0.0},{"x":0.0,"y":0.0},{"x":0.0,"y":0.0},{"x":0.0,"y":0.0},{"x":0.0,"y":0.0},{"x":0.0,"y":0.0},{"x":0.0,"y":0.0},{"x":0.0,"y":0.0},{"x":0.0,"y":0.0},{"x":0.0,"y":0.0}]}}]},"bendConstraintsData":{"batches":[{"m_IDs":[0,1,2,3,4,5,6,7,8,9,10,11,12,13,14,15,16,17,18,19,20,21,22,23,24,25,26,27,28,29,30,31,32,33,34,35,36,37,38,39,40,41,42,43,44,45],"m_IDToIndex":[0,1,2,3,4,5,6,7,8,9,10,11,12,13,14,15,16,17,18,19,20,21,22,23,24,25,26,27,28,29,30,31,32,33,34,35,36,37,38,39,40,41,42,43,44,45],"m_ConstraintCount":46,"m_ActiveConstraintCount":12,"m_InitialActiveConstraintCount":12,"particleIndices":{"serializedContents":[0,2,1,3,5,4,6,8,7,9,11,10,12,14,13,15,17,16,18,20,19,21,23,22,24,26,25,27,29,28,30,32,31,33,35,34,36,38,37,39,41,40,42,44,43,45,47,46,48,50,49,51,53,52,54,56,55,57,59,58,60,62,61,63,65,64,66,68,67,69,71,70,72,74,73,75,77,76,78,80,79,81,83,82,84,86,85,87,89,88,90,92,91,93,95,94,96,98,97,99,101,100,102,104,103,105,107,106,108,110,109,111,113,112,114,116,115,117,119,118,120,122,121,123,125,124,126,128,127,129,131,130,132,134,133,135,137,136]},"restBends":{"serializedContents":[0.0,0.0,0.0,0.0,0.0,0.0,0.0,0.0,0.0,0.0,0.0,0.0,0.0,0.0,0.0,0.0,0.0,0.0,0.0,0.0,0.0,0.0,0.0,0.0,0.0,0.0,0.0,0.0,0.0,0.0,0.0,0.0,0.0,0.0,0.0,0.0,0.0,0.0,0.0,0.0,0.0,0.0,0.0,0.0,0.0,0.0]},"bendingStiffnesses":{"serializedContents":[{"x":0.0,"y":0.0},{"x":0.0,"y":0.0},{"x":0.0,"y":0.0},{"x":0.0,"y":0.0},{"x":0.0,"y":0.0},{"x":0.0,"y":0.0},{"x":0.0,"y":0.0},{"x":0.0,"y":0.0},{"x":0.0,"y":0.0},{"x":0.0,"y":0.0},{"x":0.0,"y":0.0},{"x":0.0,"y":0.0},{"x":0.0,"y":0.0},{"x":0.0,"y":0.0},{"x":0.0,"y":0.0},{"x":0.0,"y":0.0},{"x":0.0,"y":0.0},{"x":0.0,"y":0.0},{"x":0.0,"y":0.0},{"x":0.0,"y":0.0},{"x":0.0,"y":0.0},{"x":0.0,"y":0.0},{"x":0.0,"y":0.0},{"x":0.0,"y":0.0},{"x":0.0,"y":0.0},{"x":0.0,"y":0.0},{"x":0.0,"y":0.0},{"x":0.0,"y":0.0},{"x":0.0,"y":0.0},{"x":0.0,"y":0.0},{"x":0.0,"y":0.0},{"x":0.0,"y":0.0},{"x":0.0,"y":0.0},{"x":0.0,"y":0.0},{"x":0.0,"y":0.0},{"x":0.0,"y":0.0},{"x":0.0,"y":0.0},{"x":0.0,"y":0.0},{"x":0.0,"y":0.0},{"x":0.0,"y":0.0},{"x":0.0,"y":0.0},{"x":0.0,"y":0.0},{"x":0.0,"y":0.0},{"x":0.0,"y":0.0},{"x":0.0,"y":0.0},{"x":0.0,"y":0.0}]}},{"m_IDs":[0,1,2,3,4,5,6,7,8,9,10,11,12,13,14,15,16,17,18,19,20,21,22,23,24,25,26,27,28,29,30,31,32,33,34,35,36,37,38,39,40,41,42,43,44],"m_IDToIndex":[0,1,2,3,4,5,6,7,8,9,10,11,12,13,14,15,16,17,18,19,20,21,22,23,24,25,26,27,28,29,30,31,32,33,34,35,36,37,38,39,40,41,42,43,44],"m_ConstraintCount":45,"m_ActiveConstraintCount":12,"m_InitialActiveConstraintCount":12,"particleIndices":{"serializedContents":[1,3,2,4,6,5,7,9,8,10,12,11,13,15,14,16,18,17,19,21,20,22,24,23,25,27,26,28,30,29,31,33,32,34,36,35,37,39,38,40,42,41,43,45,44,46,48,47,49,51,50,52,54,53,55,57,56,58,60,59,61,63,62,64,66,65,67,69,68,70,72,71,73,75,74,76,78,77,79,81,80,82,84,83,85,87,86,88,90,89,91,93,92,94,96,95,97,99,98,100,102,101,103,105,104,106,108,107,109,111,110,112,114,113,115,117,116,118,120,119,121,123,122,124,126,125,127,129,128,130,132,131,133,135,134]},"restBends":{"serializedContents":[0.0,0.0,0.0,0.0,0.0,0.0,0.0,0.0,0.0,0.0,0.0,0.0,0.0,0.0,0.0,0.0,0.0,0.0,0.0,0.0,0.0,0.0,0.0,0.0,0.0,0.0,0.0,0.0,0.0,0.0,0.0,0.0,0.0,0.0,0.0,0.0,0.0,0.0,0.0,0.0,0.0,0.0,0.0,0.0,0.0]},"bendingStiffnesses":{"serializedContents":[{"x":0.0,"y":0.0},{"x":0.0,"y":0.0},{"x":0.0,"y":0.0},{"x":0.0,"y":0.0},{"x":0.0,"y":0.0},{"x":0.0,"y":0.0},{"x":0.0,"y":0.0},{"x":0.0,"y":0.0},{"x":0.0,"y":0.0},{"x":0.0,"y":0.0},{"x":0.0,"y":0.0},{"x":0.0,"y":0.0},{"x":0.0,"y":0.0},{"x":0.0,"y":0.0},{"x":0.0,"y":0.0},{"x":0.0,"y":0.0},{"x":0.0,"y":0.0},{"x":0.0,"y":0.0},{"x":0.0,"y":0.0},{"x":0.0,"y":0.0},{"x":0.0,"y":0.0},{"x":0.0,"y":0.0},{"x":0.0,"y":0.0},{"x":0.0,"y":0.0},{"x":0.0,"y":0.0},{"x":0.0,"y":0.0},{"x":0.0,"y":0.0},{"x":0.0,"y":0.0},{"x":0.0,"y":0.0},{"x":0.0,"y":0.0},{"x":0.0,"y":0.0},{"x":0.0,"y":0.0},{"x":0.0,"y":0.0},{"x":0.0,"y":0.0},{"x":0.0,"y":0.0},{"x":0.0,"y":0.0},{"x":0.0,"y":0.0},{"x":0.0,"y":0.0},{"x":0.0,"y":0.0},{"x":0.0,"y":0.0},{"x":0.0,"y":0.0},{"x":0.0,"y":0.0},{"x":0.0,"y":0.0},{"x":0.0,"y":0.0},{"x":0.0,"y":0.0}]}},{"m_IDs":[0,1,2,3,4,5,6,7,8,9,10,11,12,13,14,15,16,17,18,19,20,21,22,23,24,25,26,27,28,29,30,31,32,33,34,35,36,37,38,39,40,41,42,43,44],"m_IDToIndex":[0,1,2,3,4,5,6,7,8,9,10,11,12,13,14,15,16,17,18,19,20,21,22,23,24,25,26,27,28,29,30,31,32,33,34,35,36,37,38,39,40,41,42,43,44],"m_ConstraintCount":45,"m_ActiveConstraintCount":12,"m_InitialActiveConstraintCount":12,"particleIndices":{"serializedContents":[2,4,3,5,7,6,8,10,9,11,13,12,14,16,15,17,19,18,20,22,21,23,25,24,26,28,27,29,31,30,32,34,33,35,37,36,38,40,39,41,43,42,44,46,45,47,49,48,50,52,51,53,55,54,56,58,57,59,61,60,62,64,63,65,67,66,68,70,69,71,73,72,74,76,75,77,79,78,80,82,81,83,85,84,86,88,87,89,91,90,92,94,93,95,97,96,98,100,99,101,103,102,104,106,105,107,109,108,110,112,111,113,115,114,116,118,117,119,121,120,122,124,123,125,127,126,128,130,129,131,133,132,134,136,135]},"restBends":{"serializedContents":[0.0,0.0,0.0,0.0,0.0,0.0,0.0,0.0,0.0,0.0,0.0,0.0,0.0,0.0,0.0,0.0,0.0,0.0,0.0,0.0,0.0,0.0,0.0,0.0,0.0,0.0,0.0,0.0,0.0,0.0,0.0,0.0,0.0,0.0,0.0,0.0,0.0,0.0,0.0,0.0,0.0,0.0,0.0,0.0,0.0]},"bendingStiffnesses":{"serializedContents":[{"x":0.0,"y":0.0},{"x":0.0,"y":0.0},{"x":0.0,"y":0.0},{"x":0.0,"y":0.0},{"x":0.0,"y":0.0},{"x":0.0,"y":0.0},{"x":0.0,"y":0.0},{"x":0.0,"y":0.0},{"x":0.0,"y":0.0},{"x":0.0,"y":0.0},{"x":0.0,"y":0.0},{"x":0.0,"y":0.0},{"x":0.0,"y":0.0},{"x":0.0,"y":0.0},{"x":0.0,"y":0.0},{"x":0.0,"y":0.0},{"x":0.0,"y":0.0},{"x":0.0,"y":0.0},{"x":0.0,"y":0.0},{"x":0.0,"y":0.0},{"x":0.0,"y":0.0},{"x":0.0,"y":0.0},{"x":0.0,"y":0.0},{"x":0.0,"y":0.0},{"x":0.0,"y":0.0},{"x":0.0,"y":0.0},{"x":0.0,"y":0.0},{"x":0.0,"y":0.0},{"x":0.0,"y":0.0},{"x":0.0,"y":0.0},{"x":0.0,"y":0.0},{"x":0.0,"y":0.0},{"x":0.0,"y":0.0},{"x":0.0,"y":0.0},{"x":0.0,"y":0.0},{"x":0.0,"y":0.0},{"x":0.0,"y":0.0},{"x":0.0,"y":0.0},{"x":0.0,"y":0.0},{"x":0.0,"y":0.0},{"x":0.0,"y":0.0},{"x":0.0,"y":0.0},{"x":0.0,"y":0.0},{"x":0.0,"y":0.0},{"x":0.0,"y":0.0}]}}]},"pinConstraintsData":{"batches":[{"m_IDs":[],"m_IDToIndex":[],"m_ConstraintCount":0,"m_ActiveConstraintCount":0,"m_InitialActiveConstraintCount":0,"particleIndices":{"serializedContents":[]},"offsets":{"serializedContents":[]},"restDarbouxVectors":{"serializedContents":[]},"stiffnesses":{"serializedContents":[]},"breakThresholds":{"serializedContents":[]},"constraintForces":[]}]},"skinConstraintsData":{"batches":[]},"tetherConstraintsData":{"batches":[]},"stretchShearConstraintsData":{"batches":[]},"bendTwistConstraintsData":{"batches":[]},"shapeMatchingConstraintsData":{"batches":[]},"aerodynamicConstraintsData":{"batches":[]},"chainConstraintsData":{"batches":[]},"volumeConstraintsData":{"batches":[]},"groups":[{"instanceID":0},{"instanceID":0}],"path":{"m_Names":["A","B"],"m_Points":{"data":[{"tangentMode":0,"inTangent":{"x":-0.23925630748271943,"y":0.0,"z":0.07250120490789414},"position":{"x":-2.555339813232422,"y":0.30129528045654299,"z":-1.2823047637939454},"outTangent":{"x":0.12537290155887605,"y":0.0,"z":-0.037991397082805637}},{"tangentMode":0,"inTangent":{"x":-0.22082734107971192,"y":-0.0019277334213256837,"z":0.0},"position":{"x":1.967378854751587,"y":0.32307958602905276,"z":-1.316169261932373},"outTangent":{"x":0.2499903291463852,"y":0.0021823146380484106,"z":0.0}}]},"m_Normals":{"data":[{"x":0.0,"y":1.0,"z":0.0},{"x":0.0,"y":1.0,"z":0.0}]},"m_Colors":{"data":[{"r":1.0,"g":1.0,"b":1.0,"a":1.0},{"r":1.0,"g":1.0,"b":1.0,"a":1.0}]},"m_Thickness":{"data":[1.0,1.0]},"m_Masses":{"data":[0.10000000149011612,0.10000000149011612]},"m_RotationalMasses":{"data":[1.0,1.0]},"m_Phases":{"data":[1,1]},"m_Closed":false,"m_ArcLengthTable":[0.0,0.04495223984122276,0.13960348069667817,0.27894327044487,0.4578145146369934,0.6710407733917236,0.9134398102760315,1.1798268556594849,1.4650161266326905,1.7638212442398072,2.0710554122924806,2.3815319538116457,2.690062999725342,2.991461753845215,3.280540943145752,3.5521130561828615,3.800990581512451,4.021986484527588,4.2099127769470219,4.35958194732666,4.46580696105957,4.523399829864502],"m_TotalSplineLenght":4.523399829864502,"OnPathChanged":{"m_PersistentCalls":{"m_Calls":[]}},"OnControlPointAdded":{"m_PersistentCalls":{"m_Calls":[]}},"OnControlPointRemoved":{"m_PersistentCalls":{"m_Calls":[]}},"OnControlPointRenamed":{"m_PersistentCalls":{"m_Calls":[]}}},"thickness":0.125,"resolution":1.0,"m_InterParticleDistance":0.12225405126810074,"totalParticles":138,"m_RestLength":16.748706817626954,"restLengths":[0.11864738166332245,0.12187203764915467,0.12151327729225159,0.12484992295503617,0.12111052125692368,0.12283722311258316,0.12246841937303543,0.12261634320020676,0.12205623090267182,0.12338753044605255,0.12136472016572952,0.12417378276586533,0.12093772739171982,0.12285556644201279,0.12245406210422516,0.12215090543031693,0.12289495021104813,0.12217489629983902,0.12234174460172653,0.12259210646152497,0.12248951941728592,0.12169325351715088,0.12340106070041657,0.12189382314682007,0.12271970510482788,0.12272870540618897,0.121193066239357,0.12409552931785584,0.11999580264091492,0.12513777613639832,0.11967310309410095,0.125507652759552,0.11951984465122223,0.12483812868595123,0.12366051971912384,0.1226479709148407,0.11679373681545258,0.12225405126810074,0.12225405126810074,0.12225405126810074,0.12225405126810074,0.12225405126810074,0.12225405126810074,0.12225405126810074,0.12225405126810074,0.12225405126810074,0.12225405126810074,0.12225405126810074,0.12225405126810074,0.12225405126810074,0.12225405126810074,0.12225405126810074,0.12225405126810074,0.12225405126810074,0.12225405126810074,0.12225405126810074,0.12225405126810074,0.12225405126810074,0.12225405126810074,0.12225405126810074,0.12225405126810074,0.12225405126810074,0.12225405126810074,0.12225405126810074,0.12225405126810074,0.12225405126810074,0.12225405126810074,0.12225405126810074,0.12225405126810074,0.12225405126810074,0.12225405126810074,0.12225405126810074,0.12225405126810074,0.12225405126810074,0.12225405126810074,0.12225405126810074,0.12225405126810074,0.12225405126810074,0.12225405126810074,0.12225405126810074,0.12225405126810074,0.12225405126810074,0.12225405126810074,0.12225405126810074,0.12225405126810074,0.12225405126810074,0.12225405126810074,0.12225405126810074,0.12225405126810074,0.12225405126810074,0.12225405126810074,0.12225405126810074,0.12225405126810074,0.12225405126810074,0.12225405126810074,0.12225405126810074,0.12225405126810074,0.12225405126810074,0.12225405126810074,0.12225405126810074,0.12225405126810074,0.12225405126810074,0.12225405126810074,0.12225405126810074,0.12225405126810074,0.12225405126810074,0.12225405126810074,0.12225405126810074,0.12225405126810074,0.12225405126810074,0.12225405126810074,0.12225405126810074,0.12225405126810074,0.12225405126810074,0.12225405126810074,0.12225405126810074,0.12225405126810074,0.12225405126810074,0.12225405126810074,0.12225405126810074,0.12225405126810074,0.12225405126810074,0.12225405126810074,0.12225405126810074,0.12225405126810074,0.12225405126810074,0.12225405126810074,0.12225405126810074,0.12225405126810074,0.12225405126810074,0.12225405126810074,0.12225405126810074,0.12225405126810074,0.12225405126810074,0.12225405126810074,0.12225405126810074,0.12225405126810074,0.0],"pooledParticles":100}'
  hasAnchor: 0
  a: 0
  groundIndex: 0
  _hasAnchorRopeOneA: 0
  _hasAnchorRopeOneB: 0
  _hasAnchorRopeTwoA: 0
  _hasAnchorRopeTwoB: 0
  _hasAnchorRopeThreeA: 0
  _hasAnchorRopeThreeB: 0
  _hasAnchorRopeFourA: 0
  _hasAnchorRopeFourB: 0
  _hasAnchorRopeFiveA: 0
  _hasAnchorRopeFiveB: 0
  obstacleInfos:
    obstacleIndex: -1
    overridePosition: {x: 0, y: 0, z: 0}
    overrideRotation: {x: 0, y: 0, z: 0}
  curveInfos:
    curveIndex: -1
    positionOverride: {x: 0, y: 0, z: 0}
    rotationOverride: {x: 0, y: 0, z: 0}
