%YAML 1.1
%TAG !u! tag:unity3d.com,2011:
--- !u!114 &11400000
MonoBehaviour:
  m_ObjectHideFlags: 0
  m_CorrespondingSourceObject: {fileID: 0}
  m_PrefabInstance: {fileID: 0}
  m_PrefabAsset: {fileID: 0}
  m_GameObject: {fileID: 0}
  m_Enabled: 1
  m_EditorHideFlags: 0
  m_Script: {fileID: 11500000, guid: 4127f02986c6bce45951f9e1b3dce8cc, type: 3}
  m_Name: 6
  m_EditorClassIdentifier: 
  ropes: '{"m_Empty":false,"m_ActiveParticleCount":35,"m_InitialActiveParticleCount":35,"_bounds":{"m_Center":{"x":-0.3272969722747803,"y":0.0,"z":0.010941429063677788},"m_Extent":{"x":2.1184651851654054,"y":0.0,"z":0.010941429063677788}},"positions":[{"x":4.090848922729492,"y":0.1145000159740448,"z":1.0843596458435059},{"x":3.8819773197174074,"y":0.16600024700164796,"z":1.0258351564407349},{"x":3.6683573722839357,"y":0.1806984543800354,"z":0.965357780456543},{"x":3.4595727920532228,"y":0.18862566351890565,"z":0.9061198830604553},{"x":3.2449302673339845,"y":0.19920510053634644,"z":0.8449774384498596},{"x":3.0383598804473879,"y":0.21166449785232545,"z":0.7858489751815796},{"x":2.8265585899353029,"y":0.22779321670532227,"z":0.7246030569076538},{"x":2.620412588119507,"y":0.24736782908439637,"z":0.6639931797981262},{"x":2.406820058822632,"y":0.27017274498939516,"z":0.6004583835601807},{"x":2.200270891189575,"y":0.2953089773654938,"z":0.5380943417549133},{"x":1.9891366958618165,"y":0.3237839937210083,"z":0.47349753975868227},{"x":1.7863824367523194,"y":0.3529117703437805,"z":0.4109314978122711},{"x":1.5793510675430298,"y":0.38469064235687258,"z":0.3463875353336334},{"x":1.3788516521453858,"y":0.41660481691360476,"z":0.28095367550849917},{"x":1.1757919788360596,"y":0.4420520067214966,"z":0.202939972281456},{"x":1.003725528717041,"y":0.4367561340332031,"z":0.10319308191537857},{"x":0.8501560688018799,"y":0.4172965884208679,"z":-0.011962991207838059},{"x":0.7622279524803162,"y":0.34847432374954226,"z":-0.15496470034122468},{"x":0.7560262084007263,"y":0.28040048480033877,"z":-0.33868566155433657},{"x":0.7898152470588684,"y":0.21332475543022157,"z":-0.5251293182373047},{"x":0.9380754232406616,"y":0.17761367559432984,"z":-0.7419448494911194},{"x":1.1034822463989258,"y":0.16600018739700318,"z":-0.9509487748146057},{"x":1.299707055091858,"y":0.16600024700164796,"z":-1.1704941987991334},{"x":1.5054712295532227,"y":0.16600024700164796,"z":-1.362666368484497},{"x":1.726121187210083,"y":0.16600024700164796,"z":-1.566832423210144},{"x":1.9335017204284669,"y":0.16600024700164796,"z":-1.75726318359375},{"x":2.163928985595703,"y":0.16600024700164796,"z":-1.9682778120040894},{"x":2.377936601638794,"y":0.16600024700164796,"z":-2.162883996963501},{"x":2.607220411300659,"y":0.16600024700164796,"z":-2.3698012828826906},{"x":2.8140370845794679,"y":0.16709855198860169,"z":-2.556529998779297},{"x":3.0361413955688478,"y":0.16979482769966126,"z":-2.757361650466919},{"x":3.2446975708007814,"y":0.17335426807403565,"z":-2.94657301902771},{"x":3.474757194519043,"y":0.17368817329406739,"z":-3.1556267738342287},{"x":3.6840877532958986,"y":0.16600024700164796,"z":-3.345703363418579},{"x":3.9049038887023927,"y":0.1145000159740448,"z":-3.545992374420166},{"x":0.14361964166164399,"y":0.0,"z":0.4580102264881134},{"x":0.14361964166164399,"y":0.0,"z":0.4580102264881134},{"x":0.14361964166164399,"y":0.0,"z":0.4580102264881134},{"x":0.14361964166164399,"y":0.0,"z":0.4580102264881134},{"x":0.14361964166164399,"y":0.0,"z":0.4580102264881134},{"x":0.14361964166164399,"y":0.0,"z":0.4580102264881134},{"x":0.14361964166164399,"y":0.0,"z":0.4580102264881134},{"x":0.14361964166164399,"y":0.0,"z":0.4580102264881134},{"x":0.14361964166164399,"y":0.0,"z":0.4580102264881134},{"x":0.14361964166164399,"y":0.0,"z":0.4580102264881134},{"x":0.14361964166164399,"y":0.0,"z":0.4580102264881134},{"x":0.14361964166164399,"y":0.0,"z":0.4580102264881134},{"x":0.14361964166164399,"y":0.0,"z":0.4580102264881134},{"x":0.14361964166164399,"y":0.0,"z":0.4580102264881134},{"x":0.14361964166164399,"y":0.0,"z":0.4580102264881134},{"x":0.14361964166164399,"y":0.0,"z":0.4580102264881134},{"x":0.14361964166164399,"y":0.0,"z":0.4580102264881134},{"x":0.14361964166164399,"y":0.0,"z":0.4580102264881134},{"x":0.14361964166164399,"y":0.0,"z":0.4580102264881134},{"x":0.14361964166164399,"y":0.0,"z":0.4580102264881134},{"x":0.14361964166164399,"y":0.0,"z":0.4580102264881134},{"x":0.14361964166164399,"y":0.0,"z":0.4580102264881134},{"x":0.14361964166164399,"y":0.0,"z":0.4580102264881134},{"x":0.14361964166164399,"y":0.0,"z":0.4580102264881134},{"x":0.14361964166164399,"y":0.0,"z":0.4580102264881134},{"x":0.14361964166164399,"y":0.0,"z":0.4580102264881134},{"x":0.14361964166164399,"y":0.0,"z":0.4580102264881134},{"x":0.14361964166164399,"y":0.0,"z":0.4580102264881134},{"x":0.14361964166164399,"y":0.0,"z":0.4580102264881134},{"x":0.14361964166164399,"y":0.0,"z":0.4580102264881134},{"x":0.14361964166164399,"y":0.0,"z":0.4580102264881134},{"x":0.14361964166164399,"y":0.0,"z":0.4580102264881134},{"x":0.14361964166164399,"y":0.0,"z":0.4580102264881134},{"x":0.14361964166164399,"y":0.0,"z":0.4580102264881134},{"x":0.14361964166164399,"y":0.0,"z":0.4580102264881134},{"x":0.14361964166164399,"y":0.0,"z":0.4580102264881134},{"x":0.14361964166164399,"y":0.0,"z":0.4580102264881134},{"x":0.14361964166164399,"y":0.0,"z":0.4580102264881134},{"x":0.14361964166164399,"y":0.0,"z":0.4580102264881134},{"x":0.14361964166164399,"y":0.0,"z":0.4580102264881134},{"x":0.14361964166164399,"y":0.0,"z":0.4580102264881134},{"x":0.14361964166164399,"y":0.0,"z":0.4580102264881134},{"x":0.14361964166164399,"y":0.0,"z":0.4580102264881134},{"x":0.14361964166164399,"y":0.0,"z":0.4580102264881134},{"x":0.14361964166164399,"y":0.0,"z":0.4580102264881134},{"x":0.14361964166164399,"y":0.0,"z":0.4580102264881134},{"x":0.14361964166164399,"y":0.0,"z":0.4580102264881134},{"x":0.14361964166164399,"y":0.0,"z":0.4580102264881134},{"x":0.14361964166164399,"y":0.0,"z":0.4580102264881134},{"x":0.14361964166164399,"y":0.0,"z":0.4580102264881134},{"x":0.14361964166164399,"y":0.0,"z":0.4580102264881134},{"x":0.14361964166164399,"y":0.0,"z":0.4580102264881134},{"x":0.14361964166164399,"y":0.0,"z":0.4580102264881134},{"x":0.14361964166164399,"y":0.0,"z":0.4580102264881134},{"x":0.14361964166164399,"y":0.0,"z":0.4580102264881134},{"x":0.14361964166164399,"y":0.0,"z":0.4580102264881134},{"x":0.14361964166164399,"y":0.0,"z":0.4580102264881134},{"x":0.14361964166164399,"y":0.0,"z":0.4580102264881134},{"x":0.14361964166164399,"y":0.0,"z":0.4580102264881134},{"x":0.14361964166164399,"y":0.0,"z":0.4580102264881134},{"x":0.14361964166164399,"y":0.0,"z":0.4580102264881134},{"x":0.14361964166164399,"y":0.0,"z":0.4580102264881134},{"x":0.14361964166164399,"y":0.0,"z":0.4580102264881134},{"x":0.14361964166164399,"y":0.0,"z":0.4580102264881134},{"x":0.14361964166164399,"y":0.0,"z":0.4580102264881134},{"x":0.14361964166164399,"y":0.0,"z":0.4580102264881134},{"x":0.14361964166164399,"y":0.0,"z":0.4580102264881134},{"x":0.14361964166164399,"y":0.0,"z":0.4580102264881134},{"x":0.14361964166164399,"y":0.0,"z":0.4580102264881134},{"x":0.14361964166164399,"y":0.0,"z":0.4580102264881134},{"x":0.14361964166164399,"y":0.0,"z":0.4580102264881134},{"x":0.14361964166164399,"y":0.0,"z":0.4580102264881134},{"x":0.14361964166164399,"y":0.0,"z":0.4580102264881134},{"x":0.14361964166164399,"y":0.0,"z":0.4580102264881134},{"x":0.14361964166164399,"y":0.0,"z":0.4580102264881134},{"x":0.14361964166164399,"y":0.0,"z":0.4580102264881134},{"x":0.14361964166164399,"y":0.0,"z":0.4580102264881134},{"x":0.14361964166164399,"y":0.0,"z":0.4580102264881134},{"x":0.14361964166164399,"y":0.0,"z":0.4580102264881134},{"x":0.14361964166164399,"y":0.0,"z":0.4580102264881134},{"x":0.14361964166164399,"y":0.0,"z":0.4580102264881134},{"x":0.14361964166164399,"y":0.0,"z":0.4580102264881134},{"x":0.14361964166164399,"y":0.0,"z":0.4580102264881134},{"x":0.14361964166164399,"y":0.0,"z":0.4580102264881134},{"x":0.14361964166164399,"y":0.0,"z":0.4580102264881134},{"x":0.14361964166164399,"y":0.0,"z":0.4580102264881134},{"x":0.14361964166164399,"y":0.0,"z":0.4580102264881134},{"x":0.14361964166164399,"y":0.0,"z":0.4580102264881134},{"x":0.14361964166164399,"y":0.0,"z":0.4580102264881134},{"x":0.14361964166164399,"y":0.0,"z":0.4580102264881134},{"x":0.14361964166164399,"y":0.0,"z":0.4580102264881134},{"x":0.14361964166164399,"y":0.0,"z":0.4580102264881134},{"x":0.14361964166164399,"y":0.0,"z":0.4580102264881134},{"x":0.14361964166164399,"y":0.0,"z":0.4580102264881134},{"x":0.14361964166164399,"y":0.0,"z":0.4580102264881134},{"x":0.14361964166164399,"y":0.0,"z":0.4580102264881134},{"x":0.14361964166164399,"y":0.0,"z":0.4580102264881134},{"x":0.14361964166164399,"y":0.0,"z":0.4580102264881134},{"x":0.14361964166164399,"y":0.0,"z":0.4580102264881134},{"x":0.14361964166164399,"y":0.0,"z":0.4580102264881134}],"restPositions":[{"x":-2.4457621574401857,"y":0.0,"z":0.0,"w":1.0},{"x":-2.321721315383911,"y":0.0,"z":0.00013242514978628606,"w":1.0},{"x":-2.196953058242798,"y":0.0,"z":0.0005079790134914219,"w":1.0},{"x":-2.0720934867858888,"y":0.0,"z":0.0010930342832580209,"w":1.0},{"x":-1.9477347135543824,"y":0.0,"z":0.0018535902490839363,"w":1.0},{"x":-1.8227988481521607,"y":0.0,"z":0.0027690634597092869,"w":1.0},{"x":-1.6983312368392945,"y":0.0,"z":0.0038072161842137577,"w":1.0},{"x":-1.5736637115478516,"y":0.0,"z":0.0049503641203045849,"w":1.0},{"x":-1.4488788843154908,"y":0.0,"z":0.00617685541510582,"w":1.0},{"x":-1.3243824243545533,"y":0.0,"z":0.00746256485581398,"w":1.0},{"x":-1.1995761394500733,"y":0.0,"z":0.008794651366770268,"w":1.0},{"x":-1.0750432014465333,"y":0.0,"z":0.010148673318326474,"w":1.0},{"x":-0.9503471851348877,"y":0.0,"z":0.011511624790728093,"w":1.0},{"x":-0.8257092833518982,"y":0.0,"z":0.012863720767199993,"w":1.0},{"x":-0.701043426990509,"y":0.0,"z":0.014188677072525025,"w":1.0},{"x":-0.5764317512512207,"y":0.0,"z":0.015468397177755833,"w":1.0},{"x":-0.4517173171043396,"y":0.0,"z":0.016687020659446718,"w":1.0},{"x":-0.3271138370037079,"y":0.0,"z":0.01782466657459736,"w":1.0},{"x":-0.20242147147655488,"y":0.0,"z":0.018864795565605165,"w":1.0},{"x":-0.07773176580667496,"y":0.0,"z":0.019787397235631944,"w":1.0},{"x":0.046781450510025027,"y":0.0,"z":0.02057134546339512,"w":1.0},{"x":0.17164263129234315,"y":0.0,"z":0.021198241040110589,"w":1.0},{"x":0.29605117440223696,"y":0.0,"z":0.02164142020046711,"w":1.0},{"x":0.4209239184856415,"y":0.0,"z":0.021879294887185098,"w":1.0},{"x":0.5455943942070007,"y":0.0,"z":0.021882858127355577,"w":1.0},{"x":0.6699802279472351,"y":0.0,"z":0.02162373811006546,"w":1.0},{"x":0.7950160503387451,"y":0.0,"z":0.021065490320324899,"w":1.0},{"x":0.9194204211235046,"y":0.0,"z":0.020176487043499948,"w":1.0},{"x":1.0440919399261475,"y":0.0,"z":0.018909338861703874,"w":1.0},{"x":1.1690346002578736,"y":0.0,"z":0.01721259206533432,"w":1.0},{"x":1.2932841777801514,"y":0.0,"z":0.015044975094497204,"w":1.0},{"x":1.4179847240447999,"y":0.0,"z":0.012321120128035546,"w":1.0},{"x":1.5429824590682984,"y":0.0,"z":0.008959073573350907,"w":1.0},{"x":1.6673803329467774,"y":0.0,"z":0.004888060037046671,"w":1.0},{"x":1.7911680936813355,"y":0.0,"z":0.0,"w":1.0},{"x":0.0,"y":0.0,"z":0.0,"w":0.0},{"x":0.0,"y":0.0,"z":0.0,"w":0.0},{"x":0.0,"y":0.0,"z":0.0,"w":0.0},{"x":0.0,"y":0.0,"z":0.0,"w":0.0},{"x":0.0,"y":0.0,"z":0.0,"w":0.0},{"x":0.0,"y":0.0,"z":0.0,"w":0.0},{"x":0.0,"y":0.0,"z":0.0,"w":0.0},{"x":0.0,"y":0.0,"z":0.0,"w":0.0},{"x":0.0,"y":0.0,"z":0.0,"w":0.0},{"x":0.0,"y":0.0,"z":0.0,"w":0.0},{"x":0.0,"y":0.0,"z":0.0,"w":0.0},{"x":0.0,"y":0.0,"z":0.0,"w":0.0},{"x":0.0,"y":0.0,"z":0.0,"w":0.0},{"x":0.0,"y":0.0,"z":0.0,"w":0.0},{"x":0.0,"y":0.0,"z":0.0,"w":0.0},{"x":0.0,"y":0.0,"z":0.0,"w":0.0},{"x":0.0,"y":0.0,"z":0.0,"w":0.0},{"x":0.0,"y":0.0,"z":0.0,"w":0.0},{"x":0.0,"y":0.0,"z":0.0,"w":0.0},{"x":0.0,"y":0.0,"z":0.0,"w":0.0},{"x":0.0,"y":0.0,"z":0.0,"w":0.0},{"x":0.0,"y":0.0,"z":0.0,"w":0.0},{"x":0.0,"y":0.0,"z":0.0,"w":0.0},{"x":0.0,"y":0.0,"z":0.0,"w":0.0},{"x":0.0,"y":0.0,"z":0.0,"w":0.0},{"x":0.0,"y":0.0,"z":0.0,"w":0.0},{"x":0.0,"y":0.0,"z":0.0,"w":0.0},{"x":0.0,"y":0.0,"z":0.0,"w":0.0},{"x":0.0,"y":0.0,"z":0.0,"w":0.0},{"x":0.0,"y":0.0,"z":0.0,"w":0.0},{"x":0.0,"y":0.0,"z":0.0,"w":0.0},{"x":0.0,"y":0.0,"z":0.0,"w":0.0},{"x":0.0,"y":0.0,"z":0.0,"w":0.0},{"x":0.0,"y":0.0,"z":0.0,"w":0.0},{"x":0.0,"y":0.0,"z":0.0,"w":0.0},{"x":0.0,"y":0.0,"z":0.0,"w":0.0},{"x":0.0,"y":0.0,"z":0.0,"w":0.0},{"x":0.0,"y":0.0,"z":0.0,"w":0.0},{"x":0.0,"y":0.0,"z":0.0,"w":0.0},{"x":0.0,"y":0.0,"z":0.0,"w":0.0},{"x":0.0,"y":0.0,"z":0.0,"w":0.0},{"x":0.0,"y":0.0,"z":0.0,"w":0.0},{"x":0.0,"y":0.0,"z":0.0,"w":0.0},{"x":0.0,"y":0.0,"z":0.0,"w":0.0},{"x":0.0,"y":0.0,"z":0.0,"w":0.0},{"x":0.0,"y":0.0,"z":0.0,"w":0.0},{"x":0.0,"y":0.0,"z":0.0,"w":0.0},{"x":0.0,"y":0.0,"z":0.0,"w":0.0},{"x":0.0,"y":0.0,"z":0.0,"w":0.0},{"x":0.0,"y":0.0,"z":0.0,"w":0.0},{"x":0.0,"y":0.0,"z":0.0,"w":0.0},{"x":0.0,"y":0.0,"z":0.0,"w":0.0},{"x":0.0,"y":0.0,"z":0.0,"w":0.0},{"x":0.0,"y":0.0,"z":0.0,"w":0.0},{"x":0.0,"y":0.0,"z":0.0,"w":0.0},{"x":0.0,"y":0.0,"z":0.0,"w":0.0},{"x":0.0,"y":0.0,"z":0.0,"w":0.0},{"x":0.0,"y":0.0,"z":0.0,"w":0.0},{"x":0.0,"y":0.0,"z":0.0,"w":0.0},{"x":0.0,"y":0.0,"z":0.0,"w":0.0},{"x":0.0,"y":0.0,"z":0.0,"w":0.0},{"x":0.0,"y":0.0,"z":0.0,"w":0.0},{"x":0.0,"y":0.0,"z":0.0,"w":0.0},{"x":0.0,"y":0.0,"z":0.0,"w":0.0},{"x":0.0,"y":0.0,"z":0.0,"w":0.0},{"x":0.0,"y":0.0,"z":0.0,"w":0.0},{"x":0.0,"y":0.0,"z":0.0,"w":0.0},{"x":0.0,"y":0.0,"z":0.0,"w":0.0},{"x":0.0,"y":0.0,"z":0.0,"w":0.0},{"x":0.0,"y":0.0,"z":0.0,"w":0.0},{"x":0.0,"y":0.0,"z":0.0,"w":0.0},{"x":0.0,"y":0.0,"z":0.0,"w":0.0},{"x":0.0,"y":0.0,"z":0.0,"w":0.0},{"x":0.0,"y":0.0,"z":0.0,"w":0.0},{"x":0.0,"y":0.0,"z":0.0,"w":0.0},{"x":0.0,"y":0.0,"z":0.0,"w":0.0},{"x":0.0,"y":0.0,"z":0.0,"w":0.0},{"x":0.0,"y":0.0,"z":0.0,"w":0.0},{"x":0.0,"y":0.0,"z":0.0,"w":0.0},{"x":0.0,"y":0.0,"z":0.0,"w":0.0},{"x":0.0,"y":0.0,"z":0.0,"w":0.0},{"x":0.0,"y":0.0,"z":0.0,"w":0.0},{"x":0.0,"y":0.0,"z":0.0,"w":0.0},{"x":0.0,"y":0.0,"z":0.0,"w":0.0},{"x":0.0,"y":0.0,"z":0.0,"w":0.0},{"x":0.0,"y":0.0,"z":0.0,"w":0.0},{"x":0.0,"y":0.0,"z":0.0,"w":0.0},{"x":0.0,"y":0.0,"z":0.0,"w":0.0},{"x":0.0,"y":0.0,"z":0.0,"w":0.0},{"x":0.0,"y":0.0,"z":0.0,"w":0.0},{"x":0.0,"y":0.0,"z":0.0,"w":0.0},{"x":0.0,"y":0.0,"z":0.0,"w":0.0},{"x":0.0,"y":0.0,"z":0.0,"w":0.0},{"x":0.0,"y":0.0,"z":0.0,"w":0.0},{"x":0.0,"y":0.0,"z":0.0,"w":0.0},{"x":0.0,"y":0.0,"z":0.0,"w":0.0},{"x":0.0,"y":0.0,"z":0.0,"w":0.0},{"x":0.0,"y":0.0,"z":0.0,"w":0.0},{"x":0.0,"y":0.0,"z":0.0,"w":0.0},{"x":0.0,"y":0.0,"z":0.0,"w":0.0}],"orientations":[],"restOrientations":[],"velocities":[{"x":0.0,"y":0.0,"z":0.0},{"x":0.0,"y":0.0,"z":0.0},{"x":0.11472546309232712,"y":0.02435905486345291,"z":-0.025841880589723588},{"x":0.16806969046592713,"y":0.08741074055433274,"z":-0.04436393827199936},{"x":0.20746053755283357,"y":0.13423793017864228,"z":-0.0518176443874836},{"x":0.2146463245153427,"y":0.15548408031463624,"z":-0.06336252391338349},{"x":0.21510455012321473,"y":0.15426212549209596,"z":-0.08014511317014694},{"x":0.20977899432182313,"y":0.12471640110015869,"z":-0.09689013659954071},{"x":0.19213427603244782,"y":0.08617985248565674,"z":-0.11381040513515473},{"x":0.16342800855636598,"y":0.051487602293491366,"z":-0.12141041457653046},{"x":0.1284371167421341,"y":0.020363135263323785,"z":-0.1274697184562683},{"x":0.10190141946077347,"y":-0.0037818525452166797,"z":-0.13434821367263795},{"x":0.07314225286245346,"y":-0.024171745404601098,"z":-0.16012226045131684},{"x":0.03509293496608734,"y":-0.011746932752430439,"z":-0.183029904961586},{"x":-0.06147802248597145,"y":-0.02064855769276619,"z":-0.15110266208648683},{"x":-0.08333227783441544,"y":-0.05141178518533707,"z":-0.11974011361598969},{"x":-0.0825001522898674,"y":-0.05072498694062233,"z":-0.08685876429080963},{"x":-0.07717181742191315,"y":-0.09841735661029816,"z":-0.09967672824859619},{"x":-0.12335692346096039,"y":-0.12287452816963196,"z":-0.10256235301494599},{"x":-0.17996864020824433,"y":-0.14433921873569489,"z":-0.1137775108218193},{"x":-0.16468429565429688,"y":-0.12440422177314758,"z":-0.10611358284950257},{"x":0.0,"y":0.0,"z":0.0},{"x":-0.6426185965538025,"y":0.0,"z":0.17044998705387116},{"x":0.0,"y":0.0,"z":0.0},{"x":0.0,"y":0.0,"z":0.0},{"x":0.017215335741639139,"y":0.0,"z":0.07576780766248703},{"x":0.03504447266459465,"y":0.0,"z":0.028766771778464319},{"x":0.0656350776553154,"y":0.0,"z":0.0507228709757328},{"x":0.05996350944042206,"y":0.0,"z":0.05016440153121948},{"x":0.049789369106292728,"y":-0.002399335615336895,"z":0.04740959405899048},{"x":0.050883322954177859,"y":-0.00526248337700963,"z":0.04302835837006569},{"x":0.04822039604187012,"y":0.005423033609986305,"z":0.04049820452928543},{"x":-0.0010192180052399636,"y":-0.00656472472473979,"z":0.05255454033613205},{"x":0.046800874173641208,"y":0.0,"z":0.034063421189785007},{"x":0.0,"y":0.0,"z":0.0},{"x":0.0,"y":0.0,"z":0.0},{"x":0.0,"y":0.0,"z":0.0},{"x":0.0,"y":0.0,"z":0.0},{"x":0.0,"y":0.0,"z":0.0},{"x":0.0,"y":0.0,"z":0.0},{"x":0.0,"y":0.0,"z":0.0},{"x":0.0,"y":0.0,"z":0.0},{"x":0.0,"y":0.0,"z":0.0},{"x":0.0,"y":0.0,"z":0.0},{"x":0.0,"y":0.0,"z":0.0},{"x":0.0,"y":0.0,"z":0.0},{"x":0.0,"y":0.0,"z":0.0},{"x":0.0,"y":0.0,"z":0.0},{"x":0.0,"y":0.0,"z":0.0},{"x":0.0,"y":0.0,"z":0.0},{"x":0.0,"y":0.0,"z":0.0},{"x":0.0,"y":0.0,"z":0.0},{"x":0.0,"y":0.0,"z":0.0},{"x":0.0,"y":0.0,"z":0.0},{"x":0.0,"y":0.0,"z":0.0},{"x":0.0,"y":0.0,"z":0.0},{"x":0.0,"y":0.0,"z":0.0},{"x":0.0,"y":0.0,"z":0.0},{"x":0.0,"y":0.0,"z":0.0},{"x":0.0,"y":0.0,"z":0.0},{"x":0.0,"y":0.0,"z":0.0},{"x":0.0,"y":0.0,"z":0.0},{"x":0.0,"y":0.0,"z":0.0},{"x":0.0,"y":0.0,"z":0.0},{"x":0.0,"y":0.0,"z":0.0},{"x":0.0,"y":0.0,"z":0.0},{"x":0.0,"y":0.0,"z":0.0},{"x":0.0,"y":0.0,"z":0.0},{"x":0.0,"y":0.0,"z":0.0},{"x":0.0,"y":0.0,"z":0.0},{"x":0.0,"y":0.0,"z":0.0},{"x":0.0,"y":0.0,"z":0.0},{"x":0.0,"y":0.0,"z":0.0},{"x":0.0,"y":0.0,"z":0.0},{"x":0.0,"y":0.0,"z":0.0},{"x":0.0,"y":0.0,"z":0.0},{"x":0.0,"y":0.0,"z":0.0},{"x":0.0,"y":0.0,"z":0.0},{"x":0.0,"y":0.0,"z":0.0},{"x":0.0,"y":0.0,"z":0.0},{"x":0.0,"y":0.0,"z":0.0},{"x":0.0,"y":0.0,"z":0.0},{"x":0.0,"y":0.0,"z":0.0},{"x":0.0,"y":0.0,"z":0.0},{"x":0.0,"y":0.0,"z":0.0},{"x":0.0,"y":0.0,"z":0.0},{"x":0.0,"y":0.0,"z":0.0},{"x":0.0,"y":0.0,"z":0.0},{"x":0.0,"y":0.0,"z":0.0},{"x":0.0,"y":0.0,"z":0.0},{"x":0.0,"y":0.0,"z":0.0},{"x":0.0,"y":0.0,"z":0.0},{"x":0.0,"y":0.0,"z":0.0},{"x":0.0,"y":0.0,"z":0.0},{"x":0.0,"y":0.0,"z":0.0},{"x":0.0,"y":0.0,"z":0.0},{"x":0.0,"y":0.0,"z":0.0},{"x":0.0,"y":0.0,"z":0.0},{"x":0.0,"y":0.0,"z":0.0},{"x":0.0,"y":0.0,"z":0.0},{"x":0.0,"y":0.0,"z":0.0},{"x":0.0,"y":0.0,"z":0.0},{"x":0.0,"y":0.0,"z":0.0},{"x":0.0,"y":0.0,"z":0.0},{"x":0.0,"y":0.0,"z":0.0},{"x":0.0,"y":0.0,"z":0.0},{"x":0.0,"y":0.0,"z":0.0},{"x":0.0,"y":0.0,"z":0.0},{"x":0.0,"y":0.0,"z":0.0},{"x":0.0,"y":0.0,"z":0.0},{"x":0.0,"y":0.0,"z":0.0},{"x":0.0,"y":0.0,"z":0.0},{"x":0.0,"y":0.0,"z":0.0},{"x":0.0,"y":0.0,"z":0.0},{"x":0.0,"y":0.0,"z":0.0},{"x":0.0,"y":0.0,"z":0.0},{"x":0.0,"y":0.0,"z":0.0},{"x":0.0,"y":0.0,"z":0.0},{"x":0.0,"y":0.0,"z":0.0},{"x":0.0,"y":0.0,"z":0.0},{"x":0.0,"y":0.0,"z":0.0},{"x":0.0,"y":0.0,"z":0.0},{"x":0.0,"y":0.0,"z":0.0},{"x":0.0,"y":0.0,"z":0.0},{"x":0.0,"y":0.0,"z":0.0},{"x":0.0,"y":0.0,"z":0.0},{"x":0.0,"y":0.0,"z":0.0},{"x":0.0,"y":0.0,"z":0.0},{"x":0.0,"y":0.0,"z":0.0},{"x":0.0,"y":0.0,"z":0.0},{"x":0.0,"y":0.0,"z":0.0},{"x":0.0,"y":0.0,"z":0.0},{"x":0.0,"y":0.0,"z":0.0},{"x":0.0,"y":0.0,"z":0.0},{"x":0.0,"y":0.0,"z":0.0}],"angularVelocities":[],"invMasses":[1.0,10.0,9.999999046325684,10.0,10.0,10.000000953674317,9.999999046325684,10.0,10.0,10.0,10.0,10.000000953674317,10.000000953674317,10.000000953674317,10.0,10.0,10.0,9.999999046325684,10.0,10.0,10.0,10.0,10.0,10.0,10.0,10.0,10.0,10.0,10.0,10.0,10.0,10.0,10.0,10.0,10.0,0.0,0.0,0.0,0.0,0.0,0.0,0.0,0.0,0.0,0.0,0.0,0.0,0.0,0.0,0.0,0.0,0.0,0.0,0.0,0.0,0.0,0.0,0.0,0.0,0.0,0.0,0.0,0.0,0.0,0.0,0.0,0.0,0.0,0.0,0.0,0.0,0.0,0.0,0.0,0.0,0.0,0.0,0.0,0.0,0.0,0.0,0.0,0.0,0.0,0.0,0.0,0.0,0.0,0.0,0.0,0.0,0.0,0.0,0.0,0.0,0.0,0.0,0.0,0.0,0.0,0.0,0.0,0.0,0.0,0.0,0.0,0.0,0.0,0.0,0.0,0.0,0.0,0.0,0.0,0.0,0.0,0.0,0.0,0.0,0.0,0.0,0.0,0.0,0.0,0.0,0.0,0.0,0.0,0.0,0.0,0.0,0.0,0.0,0.0,0.0],"invRotationalMasses":[],"phases":[1,1,1,1,1,1,1,1,1,1,1,1,1,1,1,1,1,1,1,1,1,1,1,1,1,1,1,1,1,1,1,1,1,1,1,0,0,0,0,0,0,0,0,0,0,0,0,0,0,0,0,0,0,0,0,0,0,0,0,0,0,0,0,0,0,0,0,0,0,0,0,0,0,0,0,0,0,0,0,0,0,0,0,0,0,0,0,0,0,0,0,0,0,0,0,0,0,0,0,0,0,0,0,0,0,0,0,0,0,0,0,0,0,0,0,0,0,0,0,0,0,0,0,0,0,0,0,0,0,0,0,0,0,0,0],"principalRadii":[{"x":0.125,"y":0.125,"z":0.125},{"x":0.125,"y":0.125,"z":0.125},{"x":0.1250000149011612,"y":0.1250000149011612,"z":0.1250000149011612},{"x":0.125,"y":0.125,"z":0.125},{"x":0.125,"y":0.125,"z":0.125},{"x":0.1249999925494194,"y":0.1249999925494194,"z":0.1249999925494194},{"x":0.1250000149011612,"y":0.1250000149011612,"z":0.1250000149011612},{"x":0.125,"y":0.125,"z":0.125},{"x":0.125,"y":0.125,"z":0.125},{"x":0.125,"y":0.125,"z":0.125},{"x":0.125,"y":0.125,"z":0.125},{"x":0.1249999925494194,"y":0.1249999925494194,"z":0.1249999925494194},{"x":0.1249999925494194,"y":0.1249999925494194,"z":0.1249999925494194},{"x":0.1249999925494194,"y":0.1249999925494194,"z":0.1249999925494194},{"x":0.125,"y":0.125,"z":0.125},{"x":0.125,"y":0.125,"z":0.125},{"x":0.125,"y":0.125,"z":0.125},{"x":0.1250000149011612,"y":0.1250000149011612,"z":0.1250000149011612},{"x":0.125,"y":0.125,"z":0.125},{"x":0.125,"y":0.125,"z":0.125},{"x":0.125,"y":0.125,"z":0.125},{"x":0.125,"y":0.125,"z":0.125},{"x":0.125,"y":0.125,"z":0.125},{"x":0.125,"y":0.125,"z":0.125},{"x":0.125,"y":0.125,"z":0.125},{"x":0.125,"y":0.125,"z":0.125},{"x":0.125,"y":0.125,"z":0.125},{"x":0.125,"y":0.125,"z":0.125},{"x":0.125,"y":0.125,"z":0.125},{"x":0.125,"y":0.125,"z":0.125},{"x":0.125,"y":0.125,"z":0.125},{"x":0.125,"y":0.125,"z":0.125},{"x":0.125,"y":0.125,"z":0.125},{"x":0.125,"y":0.125,"z":0.125},{"x":0.125,"y":0.125,"z":0.125},{"x":0.0,"y":0.0,"z":0.0},{"x":0.0,"y":0.0,"z":0.0},{"x":0.0,"y":0.0,"z":0.0},{"x":0.0,"y":0.0,"z":0.0},{"x":0.0,"y":0.0,"z":0.0},{"x":0.0,"y":0.0,"z":0.0},{"x":0.0,"y":0.0,"z":0.0},{"x":0.0,"y":0.0,"z":0.0},{"x":0.0,"y":0.0,"z":0.0},{"x":0.0,"y":0.0,"z":0.0},{"x":0.0,"y":0.0,"z":0.0},{"x":0.0,"y":0.0,"z":0.0},{"x":0.0,"y":0.0,"z":0.0},{"x":0.0,"y":0.0,"z":0.0},{"x":0.0,"y":0.0,"z":0.0},{"x":0.0,"y":0.0,"z":0.0},{"x":0.0,"y":0.0,"z":0.0},{"x":0.0,"y":0.0,"z":0.0},{"x":0.0,"y":0.0,"z":0.0},{"x":0.0,"y":0.0,"z":0.0},{"x":0.0,"y":0.0,"z":0.0},{"x":0.0,"y":0.0,"z":0.0},{"x":0.0,"y":0.0,"z":0.0},{"x":0.0,"y":0.0,"z":0.0},{"x":0.0,"y":0.0,"z":0.0},{"x":0.0,"y":0.0,"z":0.0},{"x":0.0,"y":0.0,"z":0.0},{"x":0.0,"y":0.0,"z":0.0},{"x":0.0,"y":0.0,"z":0.0},{"x":0.0,"y":0.0,"z":0.0},{"x":0.0,"y":0.0,"z":0.0},{"x":0.0,"y":0.0,"z":0.0},{"x":0.0,"y":0.0,"z":0.0},{"x":0.0,"y":0.0,"z":0.0},{"x":0.0,"y":0.0,"z":0.0},{"x":0.0,"y":0.0,"z":0.0},{"x":0.0,"y":0.0,"z":0.0},{"x":0.0,"y":0.0,"z":0.0},{"x":0.0,"y":0.0,"z":0.0},{"x":0.0,"y":0.0,"z":0.0},{"x":0.0,"y":0.0,"z":0.0},{"x":0.0,"y":0.0,"z":0.0},{"x":0.0,"y":0.0,"z":0.0},{"x":0.0,"y":0.0,"z":0.0},{"x":0.0,"y":0.0,"z":0.0},{"x":0.0,"y":0.0,"z":0.0},{"x":0.0,"y":0.0,"z":0.0},{"x":0.0,"y":0.0,"z":0.0},{"x":0.0,"y":0.0,"z":0.0},{"x":0.0,"y":0.0,"z":0.0},{"x":0.0,"y":0.0,"z":0.0},{"x":0.0,"y":0.0,"z":0.0},{"x":0.0,"y":0.0,"z":0.0},{"x":0.0,"y":0.0,"z":0.0},{"x":0.0,"y":0.0,"z":0.0},{"x":0.0,"y":0.0,"z":0.0},{"x":0.0,"y":0.0,"z":0.0},{"x":0.0,"y":0.0,"z":0.0},{"x":0.0,"y":0.0,"z":0.0},{"x":0.0,"y":0.0,"z":0.0},{"x":0.0,"y":0.0,"z":0.0},{"x":0.0,"y":0.0,"z":0.0},{"x":0.0,"y":0.0,"z":0.0},{"x":0.0,"y":0.0,"z":0.0},{"x":0.0,"y":0.0,"z":0.0},{"x":0.0,"y":0.0,"z":0.0},{"x":0.0,"y":0.0,"z":0.0},{"x":0.0,"y":0.0,"z":0.0},{"x":0.0,"y":0.0,"z":0.0},{"x":0.0,"y":0.0,"z":0.0},{"x":0.0,"y":0.0,"z":0.0},{"x":0.0,"y":0.0,"z":0.0},{"x":0.0,"y":0.0,"z":0.0},{"x":0.0,"y":0.0,"z":0.0},{"x":0.0,"y":0.0,"z":0.0},{"x":0.0,"y":0.0,"z":0.0},{"x":0.0,"y":0.0,"z":0.0},{"x":0.0,"y":0.0,"z":0.0},{"x":0.0,"y":0.0,"z":0.0},{"x":0.0,"y":0.0,"z":0.0},{"x":0.0,"y":0.0,"z":0.0},{"x":0.0,"y":0.0,"z":0.0},{"x":0.0,"y":0.0,"z":0.0},{"x":0.0,"y":0.0,"z":0.0},{"x":0.0,"y":0.0,"z":0.0},{"x":0.0,"y":0.0,"z":0.0},{"x":0.0,"y":0.0,"z":0.0},{"x":0.0,"y":0.0,"z":0.0},{"x":0.0,"y":0.0,"z":0.0},{"x":0.0,"y":0.0,"z":0.0},{"x":0.0,"y":0.0,"z":0.0},{"x":0.0,"y":0.0,"z":0.0},{"x":0.0,"y":0.0,"z":0.0},{"x":0.0,"y":0.0,"z":0.0},{"x":0.0,"y":0.0,"z":0.0},{"x":0.0,"y":0.0,"z":0.0},{"x":0.0,"y":0.0,"z":0.0},{"x":0.0,"y":0.0,"z":0.0},{"x":0.0,"y":0.0,"z":0.0},{"x":0.0,"y":0.0,"z":0.0}],"colors":[{"r":1.0,"g":1.0,"b":1.0,"a":1.0},{"r":1.0,"g":1.0,"b":1.0,"a":1.0},{"r":1.0000001192092896,"g":1.0000001192092896,"b":1.0000001192092896,"a":1.0000001192092896},{"r":1.0,"g":1.0,"b":1.0,"a":1.0},{"r":1.0,"g":1.0,"b":1.0,"a":1.0},{"r":0.9999999403953552,"g":0.9999999403953552,"b":0.9999999403953552,"a":0.9999999403953552},{"r":1.0000001192092896,"g":1.0000001192092896,"b":1.0000001192092896,"a":1.0000001192092896},{"r":1.0,"g":1.0,"b":1.0,"a":1.0},{"r":1.0,"g":1.0,"b":1.0,"a":1.0},{"r":1.0,"g":1.0,"b":1.0,"a":1.0},{"r":1.0,"g":1.0,"b":1.0,"a":1.0},{"r":0.9999999403953552,"g":0.9999999403953552,"b":0.9999999403953552,"a":0.9999999403953552},{"r":0.9999999403953552,"g":0.9999999403953552,"b":0.9999999403953552,"a":0.9999999403953552},{"r":0.9999999403953552,"g":0.9999999403953552,"b":0.9999999403953552,"a":0.9999999403953552},{"r":1.0,"g":1.0,"b":1.0,"a":1.0},{"r":1.0,"g":1.0,"b":1.0,"a":1.0},{"r":1.0,"g":1.0,"b":1.0,"a":1.0},{"r":1.0000001192092896,"g":1.0000001192092896,"b":1.0000001192092896,"a":1.0000001192092896},{"r":1.0,"g":1.0,"b":1.0,"a":1.0},{"r":1.0,"g":1.0,"b":1.0,"a":1.0},{"r":1.0,"g":1.0,"b":1.0,"a":1.0},{"r":1.0,"g":1.0,"b":1.0,"a":1.0},{"r":1.0,"g":1.0,"b":1.0,"a":1.0},{"r":1.0,"g":1.0,"b":1.0,"a":1.0},{"r":1.0,"g":1.0,"b":1.0,"a":1.0},{"r":1.0,"g":1.0,"b":1.0,"a":1.0},{"r":1.0,"g":1.0,"b":1.0,"a":1.0},{"r":1.0,"g":1.0,"b":1.0,"a":1.0},{"r":1.0,"g":1.0,"b":1.0,"a":1.0},{"r":1.0,"g":1.0,"b":1.0,"a":1.0},{"r":1.0,"g":1.0,"b":1.0,"a":1.0},{"r":1.0,"g":1.0,"b":1.0,"a":1.0},{"r":1.0,"g":1.0,"b":1.0,"a":1.0},{"r":1.0,"g":1.0,"b":1.0,"a":1.0},{"r":1.0,"g":1.0,"b":1.0,"a":1.0},{"r":0.0,"g":0.0,"b":0.0,"a":0.0},{"r":0.0,"g":0.0,"b":0.0,"a":0.0},{"r":0.0,"g":0.0,"b":0.0,"a":0.0},{"r":0.0,"g":0.0,"b":0.0,"a":0.0},{"r":0.0,"g":0.0,"b":0.0,"a":0.0},{"r":0.0,"g":0.0,"b":0.0,"a":0.0},{"r":0.0,"g":0.0,"b":0.0,"a":0.0},{"r":0.0,"g":0.0,"b":0.0,"a":0.0},{"r":0.0,"g":0.0,"b":0.0,"a":0.0},{"r":0.0,"g":0.0,"b":0.0,"a":0.0},{"r":0.0,"g":0.0,"b":0.0,"a":0.0},{"r":0.0,"g":0.0,"b":0.0,"a":0.0},{"r":0.0,"g":0.0,"b":0.0,"a":0.0},{"r":0.0,"g":0.0,"b":0.0,"a":0.0},{"r":0.0,"g":0.0,"b":0.0,"a":0.0},{"r":0.0,"g":0.0,"b":0.0,"a":0.0},{"r":0.0,"g":0.0,"b":0.0,"a":0.0},{"r":0.0,"g":0.0,"b":0.0,"a":0.0},{"r":0.0,"g":0.0,"b":0.0,"a":0.0},{"r":0.0,"g":0.0,"b":0.0,"a":0.0},{"r":0.0,"g":0.0,"b":0.0,"a":0.0},{"r":0.0,"g":0.0,"b":0.0,"a":0.0},{"r":0.0,"g":0.0,"b":0.0,"a":0.0},{"r":0.0,"g":0.0,"b":0.0,"a":0.0},{"r":0.0,"g":0.0,"b":0.0,"a":0.0},{"r":0.0,"g":0.0,"b":0.0,"a":0.0},{"r":0.0,"g":0.0,"b":0.0,"a":0.0},{"r":0.0,"g":0.0,"b":0.0,"a":0.0},{"r":0.0,"g":0.0,"b":0.0,"a":0.0},{"r":0.0,"g":0.0,"b":0.0,"a":0.0},{"r":0.0,"g":0.0,"b":0.0,"a":0.0},{"r":0.0,"g":0.0,"b":0.0,"a":0.0},{"r":0.0,"g":0.0,"b":0.0,"a":0.0},{"r":0.0,"g":0.0,"b":0.0,"a":0.0},{"r":0.0,"g":0.0,"b":0.0,"a":0.0},{"r":0.0,"g":0.0,"b":0.0,"a":0.0},{"r":0.0,"g":0.0,"b":0.0,"a":0.0},{"r":0.0,"g":0.0,"b":0.0,"a":0.0},{"r":0.0,"g":0.0,"b":0.0,"a":0.0},{"r":0.0,"g":0.0,"b":0.0,"a":0.0},{"r":0.0,"g":0.0,"b":0.0,"a":0.0},{"r":0.0,"g":0.0,"b":0.0,"a":0.0},{"r":0.0,"g":0.0,"b":0.0,"a":0.0},{"r":0.0,"g":0.0,"b":0.0,"a":0.0},{"r":0.0,"g":0.0,"b":0.0,"a":0.0},{"r":0.0,"g":0.0,"b":0.0,"a":0.0},{"r":0.0,"g":0.0,"b":0.0,"a":0.0},{"r":0.0,"g":0.0,"b":0.0,"a":0.0},{"r":0.0,"g":0.0,"b":0.0,"a":0.0},{"r":0.0,"g":0.0,"b":0.0,"a":0.0},{"r":0.0,"g":0.0,"b":0.0,"a":0.0},{"r":0.0,"g":0.0,"b":0.0,"a":0.0},{"r":0.0,"g":0.0,"b":0.0,"a":0.0},{"r":0.0,"g":0.0,"b":0.0,"a":0.0},{"r":0.0,"g":0.0,"b":0.0,"a":0.0},{"r":0.0,"g":0.0,"b":0.0,"a":0.0},{"r":0.0,"g":0.0,"b":0.0,"a":0.0},{"r":0.0,"g":0.0,"b":0.0,"a":0.0},{"r":0.0,"g":0.0,"b":0.0,"a":0.0},{"r":0.0,"g":0.0,"b":0.0,"a":0.0},{"r":0.0,"g":0.0,"b":0.0,"a":0.0},{"r":0.0,"g":0.0,"b":0.0,"a":0.0},{"r":0.0,"g":0.0,"b":0.0,"a":0.0},{"r":0.0,"g":0.0,"b":0.0,"a":0.0},{"r":0.0,"g":0.0,"b":0.0,"a":0.0},{"r":0.0,"g":0.0,"b":0.0,"a":0.0},{"r":0.0,"g":0.0,"b":0.0,"a":0.0},{"r":0.0,"g":0.0,"b":0.0,"a":0.0},{"r":0.0,"g":0.0,"b":0.0,"a":0.0},{"r":0.0,"g":0.0,"b":0.0,"a":0.0},{"r":0.0,"g":0.0,"b":0.0,"a":0.0},{"r":0.0,"g":0.0,"b":0.0,"a":0.0},{"r":0.0,"g":0.0,"b":0.0,"a":0.0},{"r":0.0,"g":0.0,"b":0.0,"a":0.0},{"r":0.0,"g":0.0,"b":0.0,"a":0.0},{"r":0.0,"g":0.0,"b":0.0,"a":0.0},{"r":0.0,"g":0.0,"b":0.0,"a":0.0},{"r":0.0,"g":0.0,"b":0.0,"a":0.0},{"r":0.0,"g":0.0,"b":0.0,"a":0.0},{"r":0.0,"g":0.0,"b":0.0,"a":0.0},{"r":0.0,"g":0.0,"b":0.0,"a":0.0},{"r":0.0,"g":0.0,"b":0.0,"a":0.0},{"r":0.0,"g":0.0,"b":0.0,"a":0.0},{"r":0.0,"g":0.0,"b":0.0,"a":0.0},{"r":0.0,"g":0.0,"b":0.0,"a":0.0},{"r":0.0,"g":0.0,"b":0.0,"a":0.0},{"r":0.0,"g":0.0,"b":0.0,"a":0.0},{"r":0.0,"g":0.0,"b":0.0,"a":0.0},{"r":0.0,"g":0.0,"b":0.0,"a":0.0},{"r":0.0,"g":0.0,"b":0.0,"a":0.0},{"r":0.0,"g":0.0,"b":0.0,"a":0.0},{"r":0.0,"g":0.0,"b":0.0,"a":0.0},{"r":0.0,"g":0.0,"b":0.0,"a":0.0},{"r":0.0,"g":0.0,"b":0.0,"a":0.0},{"r":0.0,"g":0.0,"b":0.0,"a":0.0},{"r":0.0,"g":0.0,"b":0.0,"a":0.0},{"r":0.0,"g":0.0,"b":0.0,"a":0.0},{"r":0.0,"g":0.0,"b":0.0,"a":0.0},{"r":0.0,"g":0.0,"b":0.0,"a":0.0},{"r":0.0,"g":0.0,"b":0.0,"a":0.0}],"distanceConstraintsData":{"batches":[{"m_IDs":[0,1,2,3,4,5,6,7,8,9,10,11,12,13,14,15,16,17,18,19,20,21,22,23,24,25,26,27,28,29,30,31,32,33,34,35,36,37,38,39,40,41,42,43,44,45,46,47,48,49,50,51,52,53,54,55,56,57,58,59,60,61,62,63,64,65,66],"m_IDToIndex":[0,1,2,3,4,5,6,7,8,9,10,11,12,13,14,15,16,17,18,19,20,21,22,23,24,25,26,27,28,29,30,31,32,33,34,35,36,37,38,39,40,41,42,43,44,45,46,47,48,49,50,51,52,53,54,55,56,57,58,59,60,61,62,63,64,65,66],"m_ConstraintCount":67,"m_ActiveConstraintCount":17,"m_InitialActiveConstraintCount":17,"particleIndices":{"serializedContents":[0,1,2,3,4,5,6,7,8,9,10,11,12,13,14,15,16,17,18,19,20,21,22,23,24,25,26,27,28,29,30,31,32,33,0,0,0,0,0,0,0,0,0,0,0,0,0,0,0,0,0,0,0,0,0,0,0,0,0,0,0,0,0,0,0,0,0,0,0,0,0,0,0,0,0,0,0,0,0,0,0,0,0,0,0,0,0,0,0,0,0,0,0,0,0,0,0,0,0,0,0,0,0,0,0,0,0,0,0,0,0,0,0,0,0,0,0,0,0,0,0,0,0,0,0,0,0,0,0,0,0,0,0,0]},"restLengths":{"serializedContents":[0.12404090911149979,0.12486094236373902,0.1249392181634903,0.12467276304960251,0.12450309842824936,0.1245402991771698,0.12464523315429688,0.12461824715137482,0.12460867315530777,0.1246931180357933,0.12486275285482407,0.12487296760082245,0.12438610196113587,0.12440754473209381,0.12495417892932892,0.12473028898239136,0.12446446716785431,0.0,0.0,0.0,0.0,0.0,0.0,0.0,0.0,0.0,0.0,0.0,0.0,0.0,0.0,0.0,0.0,0.0,0.0,0.0,0.0,0.0,0.0,0.0,0.0,0.0,0.0,0.0,0.0,0.0,0.0,0.0,0.0,0.0,0.0,0.0,0.0,0.0,0.0,0.0,0.0,0.0,0.0,0.0,0.0,0.0,0.0,0.0,0.0,0.0,0.0]},"stiffnesses":{"serializedContents":[{"x":0.0,"y":0.0},{"x":0.0,"y":0.0},{"x":0.0,"y":0.0},{"x":0.0,"y":0.0},{"x":0.0,"y":0.0},{"x":0.0,"y":0.0},{"x":0.0,"y":0.0},{"x":0.0,"y":0.0},{"x":0.0,"y":0.0},{"x":0.0,"y":0.0},{"x":0.0,"y":0.0},{"x":0.0,"y":0.0},{"x":0.0,"y":0.0},{"x":0.0,"y":0.0},{"x":0.0,"y":0.0},{"x":0.0,"y":0.0},{"x":0.0,"y":0.0},{"x":0.0,"y":0.0},{"x":0.0,"y":0.0},{"x":0.0,"y":0.0},{"x":0.0,"y":0.0},{"x":0.0,"y":0.0},{"x":0.0,"y":0.0},{"x":0.0,"y":0.0},{"x":0.0,"y":0.0},{"x":0.0,"y":0.0},{"x":0.0,"y":0.0},{"x":0.0,"y":0.0},{"x":0.0,"y":0.0},{"x":0.0,"y":0.0},{"x":0.0,"y":0.0},{"x":0.0,"y":0.0},{"x":0.0,"y":0.0},{"x":0.0,"y":0.0},{"x":0.0,"y":0.0},{"x":0.0,"y":0.0},{"x":0.0,"y":0.0},{"x":0.0,"y":0.0},{"x":0.0,"y":0.0},{"x":0.0,"y":0.0},{"x":0.0,"y":0.0},{"x":0.0,"y":0.0},{"x":0.0,"y":0.0},{"x":0.0,"y":0.0},{"x":0.0,"y":0.0},{"x":0.0,"y":0.0},{"x":0.0,"y":0.0},{"x":0.0,"y":0.0},{"x":0.0,"y":0.0},{"x":0.0,"y":0.0},{"x":0.0,"y":0.0},{"x":0.0,"y":0.0},{"x":0.0,"y":0.0},{"x":0.0,"y":0.0},{"x":0.0,"y":0.0},{"x":0.0,"y":0.0},{"x":0.0,"y":0.0},{"x":0.0,"y":0.0},{"x":0.0,"y":0.0},{"x":0.0,"y":0.0},{"x":0.0,"y":0.0},{"x":0.0,"y":0.0},{"x":0.0,"y":0.0},{"x":0.0,"y":0.0},{"x":0.0,"y":0.0},{"x":0.0,"y":0.0},{"x":0.0,"y":0.0}]}},{"m_IDs":[0,1,2,3,4,5,6,7,8,9,10,11,12,13,14,15,16,17,18,19,20,21,22,23,24,25,26,27,28,29,30,31,32,33,34,35,36,37,38,39,40,41,42,43,44,45,46,47,48,49,50,51,52,53,54,55,56,57,58,59,60,61,62,63,64,65,66],"m_IDToIndex":[0,1,2,3,4,5,6,7,8,9,10,11,12,13,14,15,16,17,18,19,20,21,22,23,24,25,26,27,28,29,30,31,32,33,34,35,36,37,38,39,40,41,42,43,44,45,46,47,48,49,50,51,52,53,54,55,56,57,58,59,60,61,62,63,64,65,66],"m_ConstraintCount":67,"m_ActiveConstraintCount":17,"m_InitialActiveConstraintCount":17,"particleIndices":{"serializedContents":[1,2,3,4,5,6,7,8,9,10,11,12,13,14,15,16,17,18,19,20,21,22,23,24,25,26,27,28,29,30,31,32,33,34,0,0,0,0,0,0,0,0,0,0,0,0,0,0,0,0,0,0,0,0,0,0,0,0,0,0,0,0,0,0,0,0,0,0,0,0,0,0,0,0,0,0,0,0,0,0,0,0,0,0,0,0,0,0,0,0,0,0,0,0,0,0,0,0,0,0,0,0,0,0,0,0,0,0,0,0,0,0,0,0,0,0,0,0,0,0,0,0,0,0,0,0,0,0,0,0,0,0,0,0]},"restLengths":{"serializedContents":[0.12476882338523865,0.12436109781265259,0.12447194010019303,0.12479085475206375,0.12481339275836945,0.12470346689224243,0.12467289716005326,0.12472038716077805,0.12469670176506043,0.12451568245887757,0.12440933287143707,0.12467047572135925,0.1250370740890503,0.12467795610427857,0.12426848709583283,0.12504294514656068,0.12388423085212708,0.0,0.0,0.0,0.0,0.0,0.0,0.0,0.0,0.0,0.0,0.0,0.0,0.0,0.0,0.0,0.0,0.0,0.0,0.0,0.0,0.0,0.0,0.0,0.0,0.0,0.0,0.0,0.0,0.0,0.0,0.0,0.0,0.0,0.0,0.0,0.0,0.0,0.0,0.0,0.0,0.0,0.0,0.0,0.0,0.0,0.0,0.0,0.0,0.0,0.0]},"stiffnesses":{"serializedContents":[{"x":0.0,"y":0.0},{"x":0.0,"y":0.0},{"x":0.0,"y":0.0},{"x":0.0,"y":0.0},{"x":0.0,"y":0.0},{"x":0.0,"y":0.0},{"x":0.0,"y":0.0},{"x":0.0,"y":0.0},{"x":0.0,"y":0.0},{"x":0.0,"y":0.0},{"x":0.0,"y":0.0},{"x":0.0,"y":0.0},{"x":0.0,"y":0.0},{"x":0.0,"y":0.0},{"x":0.0,"y":0.0},{"x":0.0,"y":0.0},{"x":0.0,"y":0.0},{"x":0.0,"y":0.0},{"x":0.0,"y":0.0},{"x":0.0,"y":0.0},{"x":0.0,"y":0.0},{"x":0.0,"y":0.0},{"x":0.0,"y":0.0},{"x":0.0,"y":0.0},{"x":0.0,"y":0.0},{"x":0.0,"y":0.0},{"x":0.0,"y":0.0},{"x":0.0,"y":0.0},{"x":0.0,"y":0.0},{"x":0.0,"y":0.0},{"x":0.0,"y":0.0},{"x":0.0,"y":0.0},{"x":0.0,"y":0.0},{"x":0.0,"y":0.0},{"x":0.0,"y":0.0},{"x":0.0,"y":0.0},{"x":0.0,"y":0.0},{"x":0.0,"y":0.0},{"x":0.0,"y":0.0},{"x":0.0,"y":0.0},{"x":0.0,"y":0.0},{"x":0.0,"y":0.0},{"x":0.0,"y":0.0},{"x":0.0,"y":0.0},{"x":0.0,"y":0.0},{"x":0.0,"y":0.0},{"x":0.0,"y":0.0},{"x":0.0,"y":0.0},{"x":0.0,"y":0.0},{"x":0.0,"y":0.0},{"x":0.0,"y":0.0},{"x":0.0,"y":0.0},{"x":0.0,"y":0.0},{"x":0.0,"y":0.0},{"x":0.0,"y":0.0},{"x":0.0,"y":0.0},{"x":0.0,"y":0.0},{"x":0.0,"y":0.0},{"x":0.0,"y":0.0},{"x":0.0,"y":0.0},{"x":0.0,"y":0.0},{"x":0.0,"y":0.0},{"x":0.0,"y":0.0},{"x":0.0,"y":0.0},{"x":0.0,"y":0.0},{"x":0.0,"y":0.0},{"x":0.0,"y":0.0}]}}]},"bendConstraintsData":{"batches":[{"m_IDs":[0,1,2,3,4,5,6,7,8,9,10,11,12,13,14,15,16,17,18,19,20,21,22,23,24,25,26,27,28,29,30,31,32,33,34,35,36,37,38,39,40,41,42,43,44],"m_IDToIndex":[0,1,2,3,4,5,6,7,8,9,10,11,12,13,14,15,16,17,18,19,20,21,22,23,24,25,26,27,28,29,30,31,32,33,34,35,36,37,38,39,40,41,42,43,44],"m_ConstraintCount":45,"m_ActiveConstraintCount":11,"m_InitialActiveConstraintCount":11,"particleIndices":{"serializedContents":[0,2,1,3,5,4,6,8,7,9,11,10,12,14,13,15,17,16,18,20,19,21,23,22,24,26,25,27,29,28,30,32,31,33,35,34,36,38,37,39,41,40,42,44,43,45,47,46,48,50,49,51,53,52,54,56,55,57,59,58,60,62,61,63,65,64,66,68,67,69,71,70,72,74,73,75,77,76,78,80,79,81,83,82,84,86,85,87,89,88,90,92,91,93,95,94,96,98,97,99,101,100,102,104,103,105,107,106,108,110,109,111,113,112,114,116,115,117,119,118,120,122,121,123,125,124,126,128,127,129,131,130,132,134,133]},"restBends":{"serializedContents":[0.0,0.0,0.0,0.0,0.0,0.0,0.0,0.0,0.0,0.0,0.0,0.0,0.0,0.0,0.0,0.0,0.0,0.0,0.0,0.0,0.0,0.0,0.0,0.0,0.0,0.0,0.0,0.0,0.0,0.0,0.0,0.0,0.0,0.0,0.0,0.0,0.0,0.0,0.0,0.0,0.0,0.0,0.0,0.0,0.0]},"bendingStiffnesses":{"serializedContents":[{"x":0.0,"y":0.0},{"x":0.0,"y":0.0},{"x":0.0,"y":0.0},{"x":0.0,"y":0.0},{"x":0.0,"y":0.0},{"x":0.0,"y":0.0},{"x":0.0,"y":0.0},{"x":0.0,"y":0.0},{"x":0.0,"y":0.0},{"x":0.0,"y":0.0},{"x":0.0,"y":0.0},{"x":0.0,"y":0.0},{"x":0.0,"y":0.0},{"x":0.0,"y":0.0},{"x":0.0,"y":0.0},{"x":0.0,"y":0.0},{"x":0.0,"y":0.0},{"x":0.0,"y":0.0},{"x":0.0,"y":0.0},{"x":0.0,"y":0.0},{"x":0.0,"y":0.0},{"x":0.0,"y":0.0},{"x":0.0,"y":0.0},{"x":0.0,"y":0.0},{"x":0.0,"y":0.0},{"x":0.0,"y":0.0},{"x":0.0,"y":0.0},{"x":0.0,"y":0.0},{"x":0.0,"y":0.0},{"x":0.0,"y":0.0},{"x":0.0,"y":0.0},{"x":0.0,"y":0.0},{"x":0.0,"y":0.0},{"x":0.0,"y":0.0},{"x":0.0,"y":0.0},{"x":0.0,"y":0.0},{"x":0.0,"y":0.0},{"x":0.0,"y":0.0},{"x":0.0,"y":0.0},{"x":0.0,"y":0.0},{"x":0.0,"y":0.0},{"x":0.0,"y":0.0},{"x":0.0,"y":0.0},{"x":0.0,"y":0.0},{"x":0.0,"y":0.0}]}},{"m_IDs":[0,1,2,3,4,5,6,7,8,9,10,11,12,13,14,15,16,17,18,19,20,21,22,23,24,25,26,27,28,29,30,31,32,33,34,35,36,37,38,39,40,41,42,43],"m_IDToIndex":[0,1,2,3,4,5,6,7,8,9,10,11,12,13,14,15,16,17,18,19,20,21,22,23,24,25,26,27,28,29,30,31,32,33,34,35,36,37,38,39,40,41,42,43],"m_ConstraintCount":44,"m_ActiveConstraintCount":11,"m_InitialActiveConstraintCount":11,"particleIndices":{"serializedContents":[1,3,2,4,6,5,7,9,8,10,12,11,13,15,14,16,18,17,19,21,20,22,24,23,25,27,26,28,30,29,31,33,32,34,36,35,37,39,38,40,42,41,43,45,44,46,48,47,49,51,50,52,54,53,55,57,56,58,60,59,61,63,62,64,66,65,67,69,68,70,72,71,73,75,74,76,78,77,79,81,80,82,84,83,85,87,86,88,90,89,91,93,92,94,96,95,97,99,98,100,102,101,103,105,104,106,108,107,109,111,110,112,114,113,115,117,116,118,120,119,121,123,122,124,126,125,127,129,128,130,132,131]},"restBends":{"serializedContents":[0.0,0.0,0.0,0.0,0.0,0.0,0.0,0.0,0.0,0.0,0.0,0.0,0.0,0.0,0.0,0.0,0.0,0.0,0.0,0.0,0.0,0.0,0.0,0.0,0.0,0.0,0.0,0.0,0.0,0.0,0.0,0.0,0.0,0.0,0.0,0.0,0.0,0.0,0.0,0.0,0.0,0.0,0.0,0.0]},"bendingStiffnesses":{"serializedContents":[{"x":0.0,"y":0.0},{"x":0.0,"y":0.0},{"x":0.0,"y":0.0},{"x":0.0,"y":0.0},{"x":0.0,"y":0.0},{"x":0.0,"y":0.0},{"x":0.0,"y":0.0},{"x":0.0,"y":0.0},{"x":0.0,"y":0.0},{"x":0.0,"y":0.0},{"x":0.0,"y":0.0},{"x":0.0,"y":0.0},{"x":0.0,"y":0.0},{"x":0.0,"y":0.0},{"x":0.0,"y":0.0},{"x":0.0,"y":0.0},{"x":0.0,"y":0.0},{"x":0.0,"y":0.0},{"x":0.0,"y":0.0},{"x":0.0,"y":0.0},{"x":0.0,"y":0.0},{"x":0.0,"y":0.0},{"x":0.0,"y":0.0},{"x":0.0,"y":0.0},{"x":0.0,"y":0.0},{"x":0.0,"y":0.0},{"x":0.0,"y":0.0},{"x":0.0,"y":0.0},{"x":0.0,"y":0.0},{"x":0.0,"y":0.0},{"x":0.0,"y":0.0},{"x":0.0,"y":0.0},{"x":0.0,"y":0.0},{"x":0.0,"y":0.0},{"x":0.0,"y":0.0},{"x":0.0,"y":0.0},{"x":0.0,"y":0.0},{"x":0.0,"y":0.0},{"x":0.0,"y":0.0},{"x":0.0,"y":0.0},{"x":0.0,"y":0.0},{"x":0.0,"y":0.0},{"x":0.0,"y":0.0},{"x":0.0,"y":0.0}]}},{"m_IDs":[0,1,2,3,4,5,6,7,8,9,10,11,12,13,14,15,16,17,18,19,20,21,22,23,24,25,26,27,28,29,30,31,32,33,34,35,36,37,38,39,40,41,42,43],"m_IDToIndex":[0,1,2,3,4,5,6,7,8,9,10,11,12,13,14,15,16,17,18,19,20,21,22,23,24,25,26,27,28,29,30,31,32,33,34,35,36,37,38,39,40,41,42,43],"m_ConstraintCount":44,"m_ActiveConstraintCount":11,"m_InitialActiveConstraintCount":11,"particleIndices":{"serializedContents":[2,4,3,5,7,6,8,10,9,11,13,12,14,16,15,17,19,18,20,22,21,23,25,24,26,28,27,29,31,30,32,34,33,35,37,36,38,40,39,41,43,42,44,46,45,47,49,48,50,52,51,53,55,54,56,58,57,59,61,60,62,64,63,65,67,66,68,70,69,71,73,72,74,76,75,77,79,78,80,82,81,83,85,84,86,88,87,89,91,90,92,94,93,95,97,96,98,100,99,101,103,102,104,106,105,107,109,108,110,112,111,113,115,114,116,118,117,119,121,120,122,124,123,125,127,126,128,130,129,131,133,132]},"restBends":{"serializedContents":[0.0,0.0,0.0,0.0,0.0,0.0,0.0,0.0,0.0,0.0,0.0,0.0,0.0,0.0,0.0,0.0,0.0,0.0,0.0,0.0,0.0,0.0,0.0,0.0,0.0,0.0,0.0,0.0,0.0,0.0,0.0,0.0,0.0,0.0,0.0,0.0,0.0,0.0,0.0,0.0,0.0,0.0,0.0,0.0]},"bendingStiffnesses":{"serializedContents":[{"x":0.0,"y":0.0},{"x":0.0,"y":0.0},{"x":0.0,"y":0.0},{"x":0.0,"y":0.0},{"x":0.0,"y":0.0},{"x":0.0,"y":0.0},{"x":0.0,"y":0.0},{"x":0.0,"y":0.0},{"x":0.0,"y":0.0},{"x":0.0,"y":0.0},{"x":0.0,"y":0.0},{"x":0.0,"y":0.0},{"x":0.0,"y":0.0},{"x":0.0,"y":0.0},{"x":0.0,"y":0.0},{"x":0.0,"y":0.0},{"x":0.0,"y":0.0},{"x":0.0,"y":0.0},{"x":0.0,"y":0.0},{"x":0.0,"y":0.0},{"x":0.0,"y":0.0},{"x":0.0,"y":0.0},{"x":0.0,"y":0.0},{"x":0.0,"y":0.0},{"x":0.0,"y":0.0},{"x":0.0,"y":0.0},{"x":0.0,"y":0.0},{"x":0.0,"y":0.0},{"x":0.0,"y":0.0},{"x":0.0,"y":0.0},{"x":0.0,"y":0.0},{"x":0.0,"y":0.0},{"x":0.0,"y":0.0},{"x":0.0,"y":0.0},{"x":0.0,"y":0.0},{"x":0.0,"y":0.0},{"x":0.0,"y":0.0},{"x":0.0,"y":0.0},{"x":0.0,"y":0.0},{"x":0.0,"y":0.0},{"x":0.0,"y":0.0},{"x":0.0,"y":0.0},{"x":0.0,"y":0.0},{"x":0.0,"y":0.0}]}}]},"pinConstraintsData":{"batches":[{"m_IDs":[],"m_IDToIndex":[],"m_ConstraintCount":0,"m_ActiveConstraintCount":0,"m_InitialActiveConstraintCount":0,"particleIndices":{"serializedContents":[]},"offsets":{"serializedContents":[]},"restDarbouxVectors":{"serializedContents":[]},"stiffnesses":{"serializedContents":[]},"breakThresholds":{"serializedContents":[]},"constraintForces":[]}]},"skinConstraintsData":{"batches":[]},"tetherConstraintsData":{"batches":[]},"stretchShearConstraintsData":{"batches":[]},"bendTwistConstraintsData":{"batches":[]},"shapeMatchingConstraintsData":{"batches":[]},"aerodynamicConstraintsData":{"batches":[]},"chainConstraintsData":{"batches":[]},"volumeConstraintsData":{"batches":[]},"groups":[{"instanceID":0},{"instanceID":0}],"path":{"m_Names":["A","B"],"m_Points":{"data":[{"tangentMode":0,"inTangent":{"x":-0.25,"y":0.0,"z":0.0},"position":{"x":-2.4457621574401857,"y":0.0,"z":0.0},"outTangent":{"x":1.348852515220642,"y":0.0,"z":0.0}},{"tangentMode":2,"inTangent":{"x":-1.1402534246444703,"y":0.0,"z":0.04930230602622032},"position":{"x":1.7911680936813355,"y":0.0,"z":0.0},"outTangent":{"x":0.24976660311222077,"y":0.0,"z":-0.010799415409564972}}]},"m_Normals":{"data":[{"x":0.0,"y":1.0,"z":0.0},{"x":0.0,"y":1.0,"z":0.0}]},"m_Colors":{"data":[{"r":1.0,"g":1.0,"b":1.0,"a":1.0},{"r":1.0,"g":1.0,"b":1.0,"a":1.0}]},"m_Thickness":{"data":[1.0,1.0]},"m_Masses":{"data":[0.10000000149011612,0.10000000149011612]},"m_RotationalMasses":{"data":[1.0,1.0]},"m_Phases":{"data":[1,1]},"m_Closed":false,"m_ArcLengthTable":[0.0,0.195298969745636,0.39537572860717776,0.5995790362358093,0.8072569370269775,1.0177570581436158,1.2304266691207886,1.4446126222610474,1.659661889076233,1.874921441078186,2.089738130569458,2.303459644317627,2.5154330730438234,2.7250068187713625,2.9315295219421388,3.1343507766723635,3.3328213691711427,3.5262932777404787,3.714120388031006,3.8956587314605715,4.0702667236328129,4.237307548522949],"m_TotalSplineLenght":4.237307548522949,"OnPathChanged":{"m_PersistentCalls":{"m_Calls":[]}},"OnControlPointAdded":{"m_PersistentCalls":{"m_Calls":[]}},"OnControlPointRemoved":{"m_PersistentCalls":{"m_Calls":[]}},"OnControlPointRenamed":{"m_PersistentCalls":{"m_Calls":[]}}},"thickness":0.125,"resolution":1.0,"m_InterParticleDistance":0.12462669610977173,"totalParticles":135,"m_RestLength":16.69999885559082,"restLengths":[0.12404090911149979,0.12476882338523865,0.12486094236373902,0.12436109781265259,0.1249392181634903,0.12447194010019303,0.12467276304960251,0.12479085475206375,0.12450309842824936,0.12481339275836945,0.1245402991771698,0.12470346689224243,0.12464523315429688,0.12467289716005326,0.12461824715137482,0.12472038716077805,0.12460867315530777,0.12469670176506043,0.1246931180357933,0.12451568245887757,0.12486275285482407,0.12440933287143707,0.12487296760082245,0.12467047572135925,0.12438610196113587,0.1250370740890503,0.12440754473209381,0.12467795610427857,0.12495417892932892,0.12426848709583283,0.12473028898239136,0.12504294514656068,0.12446446716785431,0.12388423085212708,0.12462669610977173,0.12462669610977173,0.12462669610977173,0.12462669610977173,0.12462669610977173,0.12462669610977173,0.12462669610977173,0.12462669610977173,0.12462669610977173,0.12462669610977173,0.12462669610977173,0.12462669610977173,0.12462669610977173,0.12462669610977173,0.12462669610977173,0.12462669610977173,0.12462669610977173,0.12462669610977173,0.12462669610977173,0.12462669610977173,0.12462669610977173,0.12462669610977173,0.12462669610977173,0.12462669610977173,0.12462669610977173,0.12462669610977173,0.12462669610977173,0.12462669610977173,0.12462669610977173,0.12462669610977173,0.12462669610977173,0.12462669610977173,0.12462669610977173,0.12462669610977173,0.12462669610977173,0.12462669610977173,0.12462669610977173,0.12462669610977173,0.12462669610977173,0.12462669610977173,0.12462669610977173,0.12462669610977173,0.12462669610977173,0.12462669610977173,0.12462669610977173,0.12462669610977173,0.12462669610977173,0.12462669610977173,0.12462669610977173,0.12462669610977173,0.12462669610977173,0.12462669610977173,0.12462669610977173,0.12462669610977173,0.12462669610977173,0.12462669610977173,0.12462669610977173,0.12462669610977173,0.12462669610977173,0.12462669610977173,0.12462669610977173,0.12462669610977173,0.12462669610977173,0.12462669610977173,0.12462669610977173,0.12462669610977173,0.12462669610977173,0.12462669610977173,0.12462669610977173,0.12462669610977173,0.12462669610977173,0.12462669610977173,0.12462669610977173,0.12462669610977173,0.12462669610977173,0.12462669610977173,0.12462669610977173,0.12462669610977173,0.12462669610977173,0.12462669610977173,0.12462669610977173,0.12462669610977173,0.12462669610977173,0.12462669610977173,0.12462669610977173,0.12462669610977173,0.12462669610977173,0.12462669610977173,0.12462669610977173,0.12462669610977173,0.12462669610977173,0.12462669610977173,0.12462669610977173,0.12462669610977173,0.12462669610977173,0.12462669610977173,0.12462669610977173,0.12462669610977173,0.12462669610977173,0.12462669610977173,0.0],"pooledParticles":100}|{"m_Empty":false,"m_ActiveParticleCount":38,"m_InitialActiveParticleCount":38,"_bounds":{"m_Center":{"x":-0.29398059844970705,"y":0.16153979301452638,"z":-0.6581498384475708},"m_Extent":{"x":2.261359214782715,"y":0.16153979301452638,"z":0.6581498384475708}},"positions":[{"x":-2.5600645542144777,"y":0.114500030875206,"z":2.8352527618408205},{"x":-2.4491641521453859,"y":0.16600026190280915,"z":2.6166961193084719},{"x":-2.3324644565582277,"y":0.17741556465625764,"z":2.3889918327331545},{"x":-2.221173048019409,"y":0.18078698217868806,"z":2.171309232711792},{"x":-2.103738784790039,"y":0.18505840003490449,"z":1.939588189125061},{"x":-1.9955090284347535,"y":0.19104383885860444,"z":1.7246718406677247},{"x":-1.8817408084869385,"y":0.20033593475818635,"z":1.4964615106582642},{"x":-1.774405837059021,"y":0.2124367207288742,"z":1.2787437438964844},{"x":-1.6589235067367554,"y":0.2275761514902115,"z":1.0433167219161988},{"x":-1.5499944686889649,"y":0.24407102167606355,"z":0.820466160774231},{"x":-1.435152530670166,"y":0.2640955448150635,"z":0.5855700373649597},{"x":-1.3283957242965699,"y":0.2836814522743225,"z":0.3675723075866699},{"x":-1.2144213914871216,"y":0.30600494146347048,"z":0.13559690117835999},{"x":-1.1062968969345093,"y":0.3285149335861206,"z":-0.08384433388710022},{"x":-0.9884442090988159,"y":0.35406172275543215,"z":-0.3229558765888214},{"x":-0.8773226737976074,"y":0.3789822459220886,"z":-0.5475889444351196},{"x":-0.7591395378112793,"y":0.40557676553726199,"z":-0.7827415466308594},{"x":-0.6416674852371216,"y":0.42597484588623049,"z":-0.9960061311721802},{"x":-0.494465172290802,"y":0.4196445345878601,"z":-1.177224040031433},{"x":-0.3468524217605591,"y":0.4043121933937073,"z":-1.328995704650879},{"x":-0.18171310424804688,"y":0.3457512855529785,"z":-1.3858106136322022},{"x":-0.028472647070884706,"y":0.2801993489265442,"z":-1.343164086341858},{"x":0.126368448138237,"y":0.2129322737455368,"z":-1.2586077451705933},{"x":0.2803047299385071,"y":0.1716257482767105,"z":-1.067203164100647},{"x":0.42898625135421755,"y":0.16600026190280915,"z":-0.8570410013198853},{"x":0.5668545961380005,"y":0.16600026190280915,"z":-0.6260099411010742},{"x":0.7065331339836121,"y":0.16600026190280915,"z":-0.35865625739097597},{"x":0.833787202835083,"y":0.16600026190280915,"z":-0.10353502631187439},{"x":0.970381498336792,"y":0.16600026190280915,"z":0.1747497022151947},{"x":1.0940195322036744,"y":0.16600026190280915,"z":0.42568400502204897},{"x":1.2281914949417115,"y":0.16600026190280915,"z":0.6997345685958862},{"x":1.3519600629806519,"y":0.16600026190280915,"z":0.9545232057571411},{"x":1.4894589185714722,"y":0.16600026190280915,"z":1.237769365310669},{"x":1.615854263305664,"y":0.16729669272899629,"z":1.4993717670440674},{"x":1.7524816989898682,"y":0.16981132328510285,"z":1.7804088592529297},{"x":1.8756263256072999,"y":0.17422394454479218,"z":2.0332493782043459},{"x":2.008268117904663,"y":0.16600026190280915,"z":2.304816961288452},{"x":2.135587692260742,"y":0.114500030875206,"z":2.566772699356079},{"x":0.47999995946884158,"y":0.0,"z":0.0},{"x":0.47999995946884158,"y":0.0,"z":0.0},{"x":0.47999995946884158,"y":0.0,"z":0.0},{"x":0.47999995946884158,"y":0.0,"z":0.0},{"x":0.47999995946884158,"y":0.0,"z":0.0},{"x":0.47999995946884158,"y":0.0,"z":0.0},{"x":0.47999995946884158,"y":0.0,"z":0.0},{"x":0.47999995946884158,"y":0.0,"z":0.0},{"x":0.47999995946884158,"y":0.0,"z":0.0},{"x":0.47999995946884158,"y":0.0,"z":0.0},{"x":0.47999995946884158,"y":0.0,"z":0.0},{"x":0.47999995946884158,"y":0.0,"z":0.0},{"x":0.47999995946884158,"y":0.0,"z":0.0},{"x":0.47999995946884158,"y":0.0,"z":0.0},{"x":0.47999995946884158,"y":0.0,"z":0.0},{"x":0.47999995946884158,"y":0.0,"z":0.0},{"x":0.47999995946884158,"y":0.0,"z":0.0},{"x":0.47999995946884158,"y":0.0,"z":0.0},{"x":0.47999995946884158,"y":0.0,"z":0.0},{"x":0.47999995946884158,"y":0.0,"z":0.0},{"x":0.47999995946884158,"y":0.0,"z":0.0},{"x":0.47999995946884158,"y":0.0,"z":0.0},{"x":0.47999995946884158,"y":0.0,"z":0.0},{"x":0.47999995946884158,"y":0.0,"z":0.0},{"x":0.47999995946884158,"y":0.0,"z":0.0},{"x":0.47999995946884158,"y":0.0,"z":0.0},{"x":0.47999995946884158,"y":0.0,"z":0.0},{"x":0.47999995946884158,"y":0.0,"z":0.0},{"x":0.47999995946884158,"y":0.0,"z":0.0},{"x":0.47999995946884158,"y":0.0,"z":0.0},{"x":0.47999995946884158,"y":0.0,"z":0.0},{"x":0.47999995946884158,"y":0.0,"z":0.0},{"x":0.47999995946884158,"y":0.0,"z":0.0},{"x":0.47999995946884158,"y":0.0,"z":0.0},{"x":0.47999995946884158,"y":0.0,"z":0.0},{"x":0.47999995946884158,"y":0.0,"z":0.0},{"x":0.47999995946884158,"y":0.0,"z":0.0},{"x":0.47999995946884158,"y":0.0,"z":0.0},{"x":0.47999995946884158,"y":0.0,"z":0.0},{"x":0.47999995946884158,"y":0.0,"z":0.0},{"x":0.47999995946884158,"y":0.0,"z":0.0},{"x":0.47999995946884158,"y":0.0,"z":0.0},{"x":0.47999995946884158,"y":0.0,"z":0.0},{"x":0.47999995946884158,"y":0.0,"z":0.0},{"x":0.47999995946884158,"y":0.0,"z":0.0},{"x":0.47999995946884158,"y":0.0,"z":0.0},{"x":0.47999995946884158,"y":0.0,"z":0.0},{"x":0.47999995946884158,"y":0.0,"z":0.0},{"x":0.47999995946884158,"y":0.0,"z":0.0},{"x":0.47999995946884158,"y":0.0,"z":0.0},{"x":0.47999995946884158,"y":0.0,"z":0.0},{"x":0.47999995946884158,"y":0.0,"z":0.0},{"x":0.47999995946884158,"y":0.0,"z":0.0},{"x":0.47999995946884158,"y":0.0,"z":0.0},{"x":0.47999995946884158,"y":0.0,"z":0.0},{"x":0.47999995946884158,"y":0.0,"z":0.0},{"x":0.47999995946884158,"y":0.0,"z":0.0},{"x":0.47999995946884158,"y":0.0,"z":0.0},{"x":0.47999995946884158,"y":0.0,"z":0.0},{"x":0.47999995946884158,"y":0.0,"z":0.0},{"x":0.47999995946884158,"y":0.0,"z":0.0},{"x":0.47999995946884158,"y":0.0,"z":0.0},{"x":0.47999995946884158,"y":0.0,"z":0.0},{"x":0.47999995946884158,"y":0.0,"z":0.0},{"x":0.47999995946884158,"y":0.0,"z":0.0},{"x":0.47999995946884158,"y":0.0,"z":0.0},{"x":0.47999995946884158,"y":0.0,"z":0.0},{"x":0.47999995946884158,"y":0.0,"z":0.0},{"x":0.47999995946884158,"y":0.0,"z":0.0},{"x":0.47999995946884158,"y":0.0,"z":0.0},{"x":0.47999995946884158,"y":0.0,"z":0.0},{"x":0.47999995946884158,"y":0.0,"z":0.0},{"x":0.47999995946884158,"y":0.0,"z":0.0},{"x":0.47999995946884158,"y":0.0,"z":0.0},{"x":0.47999995946884158,"y":0.0,"z":0.0},{"x":0.47999995946884158,"y":0.0,"z":0.0},{"x":0.47999995946884158,"y":0.0,"z":0.0},{"x":0.47999995946884158,"y":0.0,"z":0.0},{"x":0.47999995946884158,"y":0.0,"z":0.0},{"x":0.47999995946884158,"y":0.0,"z":0.0},{"x":0.47999995946884158,"y":0.0,"z":0.0},{"x":0.47999995946884158,"y":0.0,"z":0.0},{"x":0.47999995946884158,"y":0.0,"z":0.0},{"x":0.47999995946884158,"y":0.0,"z":0.0},{"x":0.47999995946884158,"y":0.0,"z":0.0},{"x":0.47999995946884158,"y":0.0,"z":0.0},{"x":0.47999995946884158,"y":0.0,"z":0.0},{"x":0.47999995946884158,"y":0.0,"z":0.0},{"x":0.47999995946884158,"y":0.0,"z":0.0},{"x":0.47999995946884158,"y":0.0,"z":0.0},{"x":0.47999995946884158,"y":0.0,"z":0.0},{"x":0.47999995946884158,"y":0.0,"z":0.0},{"x":0.47999995946884158,"y":0.0,"z":0.0},{"x":0.47999995946884158,"y":0.0,"z":0.0},{"x":0.47999995946884158,"y":0.0,"z":0.0},{"x":0.47999995946884158,"y":0.0,"z":0.0},{"x":0.47999995946884158,"y":0.0,"z":0.0},{"x":0.47999995946884158,"y":0.0,"z":0.0},{"x":0.47999995946884158,"y":0.0,"z":0.0},{"x":0.47999995946884158,"y":0.0,"z":0.0}],"restPositions":[{"x":-2.555339813232422,"y":0.30129528045654299,"z":-1.2823047637939454,"w":1.0},{"x":-2.437030792236328,"y":0.3017166554927826,"z":-1.2912490367889405,"w":1.0},{"x":-2.315223217010498,"y":0.30223384499549868,"z":-1.2951785326004029,"w":1.0},{"x":-2.1937432289123537,"y":0.30276787281036379,"z":-1.2979720830917359,"w":1.0},{"x":-2.0689151287078859,"y":0.3033267557621002,"z":-1.3002384901046754,"w":1.0},{"x":-1.9478195905685425,"y":0.30387526750564577,"z":-1.3020628690719605,"w":1.0},{"x":-1.8249938488006592,"y":0.3044363856315613,"z":-1.3036457300186158,"w":1.0},{"x":-1.7025344371795655,"y":0.30499958992004397,"z":-1.3050200939178467,"w":1.0},{"x":-1.5799254179000855,"y":0.30556660890579226,"z":-1.3062344789505005,"w":1.0},{"x":-1.4578752517700196,"y":0.30613359808921816,"z":-1.3073111772537232,"w":1.0},{"x":-1.3344929218292237,"y":0.3067091405391693,"z":-1.3082873821258546,"w":1.0},{"x":-1.213132619857788,"y":0.3072773516178131,"z":-1.3091533184051514,"w":1.0},{"x":-1.0889627933502198,"y":0.30786070227622988,"z":-1.3099552392959595,"w":1.0},{"x":-0.9680284857749939,"y":0.308430552482605,"z":-1.3106638193130494,"w":1.0},{"x":-0.8451760411262512,"y":0.30901119112968447,"z":-1.3113188743591309,"w":1.0},{"x":-0.7227247953414917,"y":0.3095915913581848,"z":-1.3119133710861207,"w":1.0},{"x":-0.6005764603614807,"y":0.31017208099365237,"z":-1.3124531507492066,"w":1.0},{"x":-0.4776839017868042,"y":0.31075769662857058,"z":-1.3129478693008423,"w":1.0},{"x":-0.35551121830940249,"y":0.31134137511253359,"z":-1.3133949041366578,"w":1.0},{"x":-0.23317155241966248,"y":0.3119274377822876,"z":-1.313801646232605,"w":1.0},{"x":-0.1105814129114151,"y":0.3125162720680237,"z":-1.3141709566116334,"w":1.0},{"x":0.01190622616559267,"y":0.3131062388420105,"z":-1.3145041465759278,"w":1.0},{"x":0.1335977017879486,"y":0.3136940002441406,"z":-1.3148019313812256,"w":1.0},{"x":0.2569970190525055,"y":0.3142918050289154,"z":-1.315071940422058,"w":1.0},{"x":0.37888917326927187,"y":0.31488412618637087,"z":-1.315308928489685,"w":1.0},{"x":0.5016072392463684,"y":0.3154824674129486,"z":-1.315519094467163,"w":1.0},{"x":0.6243343353271484,"y":0.31608298420906069,"z":-1.3157020807266236,"w":1.0},{"x":0.7455258369445801,"y":0.31667831540107729,"z":-1.315857172012329,"w":1.0},{"x":0.8696197867393494,"y":0.3172905743122101,"z":-1.315990686416626,"w":1.0},{"x":0.9896140694618225,"y":0.31788551807403567,"z":-1.316096305847168,"w":1.0},{"x":1.1147502660751343,"y":0.3185095191001892,"z":-1.3161824941635132,"w":1.0},{"x":1.2344218492507935,"y":0.31911030411720278,"z":-1.3162426948547364,"w":1.0},{"x":1.3599278926849366,"y":0.31974560022354128,"z":-1.316282868385315,"w":1.0},{"x":1.4794461727142335,"y":0.32035699486732485,"z":-1.3162996768951417,"w":1.0},{"x":1.6042826175689698,"y":0.32100483775138857,"z":-1.3162951469421387,"w":1.0},{"x":1.7279413938522339,"y":0.3216607868671417,"z":-1.3162685632705689,"w":1.0},{"x":1.8505874872207642,"y":0.32233789563179018,"z":-1.3162211179733277,"w":1.0},{"x":1.967378854751587,"y":0.32307958602905276,"z":-1.316169261932373,"w":1.0},{"x":0.0,"y":0.0,"z":0.0,"w":0.0},{"x":0.0,"y":0.0,"z":0.0,"w":0.0},{"x":0.0,"y":0.0,"z":0.0,"w":0.0},{"x":0.0,"y":0.0,"z":0.0,"w":0.0},{"x":0.0,"y":0.0,"z":0.0,"w":0.0},{"x":0.0,"y":0.0,"z":0.0,"w":0.0},{"x":0.0,"y":0.0,"z":0.0,"w":0.0},{"x":0.0,"y":0.0,"z":0.0,"w":0.0},{"x":0.0,"y":0.0,"z":0.0,"w":0.0},{"x":0.0,"y":0.0,"z":0.0,"w":0.0},{"x":0.0,"y":0.0,"z":0.0,"w":0.0},{"x":0.0,"y":0.0,"z":0.0,"w":0.0},{"x":0.0,"y":0.0,"z":0.0,"w":0.0},{"x":0.0,"y":0.0,"z":0.0,"w":0.0},{"x":0.0,"y":0.0,"z":0.0,"w":0.0},{"x":0.0,"y":0.0,"z":0.0,"w":0.0},{"x":0.0,"y":0.0,"z":0.0,"w":0.0},{"x":0.0,"y":0.0,"z":0.0,"w":0.0},{"x":0.0,"y":0.0,"z":0.0,"w":0.0},{"x":0.0,"y":0.0,"z":0.0,"w":0.0},{"x":0.0,"y":0.0,"z":0.0,"w":0.0},{"x":0.0,"y":0.0,"z":0.0,"w":0.0},{"x":0.0,"y":0.0,"z":0.0,"w":0.0},{"x":0.0,"y":0.0,"z":0.0,"w":0.0},{"x":0.0,"y":0.0,"z":0.0,"w":0.0},{"x":0.0,"y":0.0,"z":0.0,"w":0.0},{"x":0.0,"y":0.0,"z":0.0,"w":0.0},{"x":0.0,"y":0.0,"z":0.0,"w":0.0},{"x":0.0,"y":0.0,"z":0.0,"w":0.0},{"x":0.0,"y":0.0,"z":0.0,"w":0.0},{"x":0.0,"y":0.0,"z":0.0,"w":0.0},{"x":0.0,"y":0.0,"z":0.0,"w":0.0},{"x":0.0,"y":0.0,"z":0.0,"w":0.0},{"x":0.0,"y":0.0,"z":0.0,"w":0.0},{"x":0.0,"y":0.0,"z":0.0,"w":0.0},{"x":0.0,"y":0.0,"z":0.0,"w":0.0},{"x":0.0,"y":0.0,"z":0.0,"w":0.0},{"x":0.0,"y":0.0,"z":0.0,"w":0.0},{"x":0.0,"y":0.0,"z":0.0,"w":0.0},{"x":0.0,"y":0.0,"z":0.0,"w":0.0},{"x":0.0,"y":0.0,"z":0.0,"w":0.0},{"x":0.0,"y":0.0,"z":0.0,"w":0.0},{"x":0.0,"y":0.0,"z":0.0,"w":0.0},{"x":0.0,"y":0.0,"z":0.0,"w":0.0},{"x":0.0,"y":0.0,"z":0.0,"w":0.0},{"x":0.0,"y":0.0,"z":0.0,"w":0.0},{"x":0.0,"y":0.0,"z":0.0,"w":0.0},{"x":0.0,"y":0.0,"z":0.0,"w":0.0},{"x":0.0,"y":0.0,"z":0.0,"w":0.0},{"x":0.0,"y":0.0,"z":0.0,"w":0.0},{"x":0.0,"y":0.0,"z":0.0,"w":0.0},{"x":0.0,"y":0.0,"z":0.0,"w":0.0},{"x":0.0,"y":0.0,"z":0.0,"w":0.0},{"x":0.0,"y":0.0,"z":0.0,"w":0.0},{"x":0.0,"y":0.0,"z":0.0,"w":0.0},{"x":0.0,"y":0.0,"z":0.0,"w":0.0},{"x":0.0,"y":0.0,"z":0.0,"w":0.0},{"x":0.0,"y":0.0,"z":0.0,"w":0.0},{"x":0.0,"y":0.0,"z":0.0,"w":0.0},{"x":0.0,"y":0.0,"z":0.0,"w":0.0},{"x":0.0,"y":0.0,"z":0.0,"w":0.0},{"x":0.0,"y":0.0,"z":0.0,"w":0.0},{"x":0.0,"y":0.0,"z":0.0,"w":0.0},{"x":0.0,"y":0.0,"z":0.0,"w":0.0},{"x":0.0,"y":0.0,"z":0.0,"w":0.0},{"x":0.0,"y":0.0,"z":0.0,"w":0.0},{"x":0.0,"y":0.0,"z":0.0,"w":0.0},{"x":0.0,"y":0.0,"z":0.0,"w":0.0},{"x":0.0,"y":0.0,"z":0.0,"w":0.0},{"x":0.0,"y":0.0,"z":0.0,"w":0.0},{"x":0.0,"y":0.0,"z":0.0,"w":0.0},{"x":0.0,"y":0.0,"z":0.0,"w":0.0},{"x":0.0,"y":0.0,"z":0.0,"w":0.0},{"x":0.0,"y":0.0,"z":0.0,"w":0.0},{"x":0.0,"y":0.0,"z":0.0,"w":0.0},{"x":0.0,"y":0.0,"z":0.0,"w":0.0},{"x":0.0,"y":0.0,"z":0.0,"w":0.0},{"x":0.0,"y":0.0,"z":0.0,"w":0.0},{"x":0.0,"y":0.0,"z":0.0,"w":0.0},{"x":0.0,"y":0.0,"z":0.0,"w":0.0},{"x":0.0,"y":0.0,"z":0.0,"w":0.0},{"x":0.0,"y":0.0,"z":0.0,"w":0.0},{"x":0.0,"y":0.0,"z":0.0,"w":0.0},{"x":0.0,"y":0.0,"z":0.0,"w":0.0},{"x":0.0,"y":0.0,"z":0.0,"w":0.0},{"x":0.0,"y":0.0,"z":0.0,"w":0.0},{"x":0.0,"y":0.0,"z":0.0,"w":0.0},{"x":0.0,"y":0.0,"z":0.0,"w":0.0},{"x":0.0,"y":0.0,"z":0.0,"w":0.0},{"x":0.0,"y":0.0,"z":0.0,"w":0.0},{"x":0.0,"y":0.0,"z":0.0,"w":0.0},{"x":0.0,"y":0.0,"z":0.0,"w":0.0},{"x":0.0,"y":0.0,"z":0.0,"w":0.0},{"x":0.0,"y":0.0,"z":0.0,"w":0.0},{"x":0.0,"y":0.0,"z":0.0,"w":0.0},{"x":0.0,"y":0.0,"z":0.0,"w":0.0},{"x":0.0,"y":0.0,"z":0.0,"w":0.0},{"x":0.0,"y":0.0,"z":0.0,"w":0.0},{"x":0.0,"y":0.0,"z":0.0,"w":0.0},{"x":0.0,"y":0.0,"z":0.0,"w":0.0}],"orientations":[],"restOrientations":[],"velocities":[{"x":0.0,"y":0.0,"z":0.0},{"x":0.0,"y":0.0,"z":0.0},{"x":0.06910800188779831,"y":-0.049859799444675449,"z":0.027757370844483377},{"x":0.061758365482091907,"y":-0.12835107743740083,"z":0.0381753034889698},{"x":0.03173545002937317,"y":-0.2026635855436325,"z":0.0441335029900074},{"x":-0.008776752278208733,"y":-0.2534242570400238,"z":0.04714828357100487},{"x":-0.06363145262002945,"y":-0.2864173352718353,"z":0.05704889073967934},{"x":-0.11079757660627365,"y":-0.29518070816993716,"z":0.06842120736837387},{"x":-0.15714310109615327,"y":-0.2982936203479767,"z":0.10167296230792999},{"x":-0.1793525665998459,"y":-0.29596564173698428,"z":0.13103137910366059},{"x":-0.18390148878097535,"y":-0.2913631796836853,"z":0.17459626495838166},{"x":-0.17681944370269776,"y":-0.28588664531707766,"z":0.20120970904827119},{"x":-0.16772158443927766,"y":-0.274991512298584,"z":0.22272346913814546},{"x":-0.16619636118412019,"y":-0.26266929507255556,"z":0.23430539667606355},{"x":-0.16696342825889588,"y":-0.24575798213481904,"z":0.23186145722866059},{"x":-0.16665124893188477,"y":-0.22803500294685365,"z":0.21972206234931947},{"x":-0.15646523237228394,"y":-0.20069684088230134,"z":0.19838669896125794},{"x":-0.14020058512687684,"y":-0.1653400957584381,"z":0.14381742477416993},{"x":-0.12684814631938935,"y":-0.15139004588127137,"z":0.12091224640607834},{"x":-0.13385215401649476,"y":-0.13544204831123353,"z":0.1367710530757904},{"x":-0.15208464860916139,"y":-0.14636839926242829,"z":0.13757380843162538},{"x":-0.13477754592895509,"y":-0.12287452816963196,"z":0.08701828122138977},{"x":-0.1181962713599205,"y":-0.09841735661029816,"z":0.043812405318021777},{"x":-0.10755980759859085,"y":-0.05072498694062233,"z":0.052731867879629138},{"x":-0.23765018582344056,"y":0.0,"z":0.3768116533756256},{"x":0.09866710007190705,"y":0.0,"z":0.14701059460639954},{"x":0.06166917085647583,"y":0.0,"z":0.08779427409172058},{"x":0.04334859177470207,"y":0.0,"z":0.03171761333942413},{"x":0.0,"y":0.0,"z":0.0},{"x":0.0,"y":0.0,"z":0.0},{"x":0.0,"y":0.0,"z":0.0},{"x":-0.03524972125887871,"y":0.0,"z":0.03436669334769249},{"x":0.0,"y":0.0,"z":0.0},{"x":0.0,"y":0.0,"z":0.0},{"x":0.0,"y":0.0,"z":0.0},{"x":0.0,"y":0.0,"z":0.0},{"x":0.0,"y":0.0,"z":0.0},{"x":0.0,"y":0.0,"z":0.0},{"x":0.0,"y":0.0,"z":0.0},{"x":0.0,"y":0.0,"z":0.0},{"x":0.0,"y":0.0,"z":0.0},{"x":0.0,"y":0.0,"z":0.0},{"x":0.0,"y":0.0,"z":0.0},{"x":0.0,"y":0.0,"z":0.0},{"x":0.0,"y":0.0,"z":0.0},{"x":0.0,"y":0.0,"z":0.0},{"x":0.0,"y":0.0,"z":0.0},{"x":0.0,"y":0.0,"z":0.0},{"x":0.0,"y":0.0,"z":0.0},{"x":0.0,"y":0.0,"z":0.0},{"x":0.0,"y":0.0,"z":0.0},{"x":0.0,"y":0.0,"z":0.0},{"x":0.0,"y":0.0,"z":0.0},{"x":0.0,"y":0.0,"z":0.0},{"x":0.0,"y":0.0,"z":0.0},{"x":0.0,"y":0.0,"z":0.0},{"x":0.0,"y":0.0,"z":0.0},{"x":0.0,"y":0.0,"z":0.0},{"x":0.0,"y":0.0,"z":0.0},{"x":0.0,"y":0.0,"z":0.0},{"x":0.0,"y":0.0,"z":0.0},{"x":0.0,"y":0.0,"z":0.0},{"x":0.0,"y":0.0,"z":0.0},{"x":0.0,"y":0.0,"z":0.0},{"x":0.0,"y":0.0,"z":0.0},{"x":0.0,"y":0.0,"z":0.0},{"x":0.0,"y":0.0,"z":0.0},{"x":0.0,"y":0.0,"z":0.0},{"x":0.0,"y":0.0,"z":0.0},{"x":0.0,"y":0.0,"z":0.0},{"x":0.0,"y":0.0,"z":0.0},{"x":0.0,"y":0.0,"z":0.0},{"x":0.0,"y":0.0,"z":0.0},{"x":0.0,"y":0.0,"z":0.0},{"x":0.0,"y":0.0,"z":0.0},{"x":0.0,"y":0.0,"z":0.0},{"x":0.0,"y":0.0,"z":0.0},{"x":0.0,"y":0.0,"z":0.0},{"x":0.0,"y":0.0,"z":0.0},{"x":0.0,"y":0.0,"z":0.0},{"x":0.0,"y":0.0,"z":0.0},{"x":0.0,"y":0.0,"z":0.0},{"x":0.0,"y":0.0,"z":0.0},{"x":0.0,"y":0.0,"z":0.0},{"x":0.0,"y":0.0,"z":0.0},{"x":0.0,"y":0.0,"z":0.0},{"x":0.0,"y":0.0,"z":0.0},{"x":0.0,"y":0.0,"z":0.0},{"x":0.0,"y":0.0,"z":0.0},{"x":0.0,"y":0.0,"z":0.0},{"x":0.0,"y":0.0,"z":0.0},{"x":0.0,"y":0.0,"z":0.0},{"x":0.0,"y":0.0,"z":0.0},{"x":0.0,"y":0.0,"z":0.0},{"x":0.0,"y":0.0,"z":0.0},{"x":0.0,"y":0.0,"z":0.0},{"x":0.0,"y":0.0,"z":0.0},{"x":0.0,"y":0.0,"z":0.0},{"x":0.0,"y":0.0,"z":0.0},{"x":0.0,"y":0.0,"z":0.0},{"x":0.0,"y":0.0,"z":0.0},{"x":0.0,"y":0.0,"z":0.0},{"x":0.0,"y":0.0,"z":0.0},{"x":0.0,"y":0.0,"z":0.0},{"x":0.0,"y":0.0,"z":0.0},{"x":0.0,"y":0.0,"z":0.0},{"x":0.0,"y":0.0,"z":0.0},{"x":0.0,"y":0.0,"z":0.0},{"x":0.0,"y":0.0,"z":0.0},{"x":0.0,"y":0.0,"z":0.0},{"x":0.0,"y":0.0,"z":0.0},{"x":0.0,"y":0.0,"z":0.0},{"x":0.0,"y":0.0,"z":0.0},{"x":0.0,"y":0.0,"z":0.0},{"x":0.0,"y":0.0,"z":0.0},{"x":0.0,"y":0.0,"z":0.0},{"x":0.0,"y":0.0,"z":0.0},{"x":0.0,"y":0.0,"z":0.0},{"x":0.0,"y":0.0,"z":0.0},{"x":0.0,"y":0.0,"z":0.0},{"x":0.0,"y":0.0,"z":0.0},{"x":0.0,"y":0.0,"z":0.0},{"x":0.0,"y":0.0,"z":0.0},{"x":0.0,"y":0.0,"z":0.0},{"x":0.0,"y":0.0,"z":0.0},{"x":0.0,"y":0.0,"z":0.0},{"x":0.0,"y":0.0,"z":0.0},{"x":0.0,"y":0.0,"z":0.0},{"x":0.0,"y":0.0,"z":0.0},{"x":0.0,"y":0.0,"z":0.0},{"x":0.0,"y":0.0,"z":0.0},{"x":0.0,"y":0.0,"z":0.0},{"x":0.0,"y":0.0,"z":0.0},{"x":0.0,"y":0.0,"z":0.0},{"x":0.0,"y":0.0,"z":0.0},{"x":0.0,"y":0.0,"z":0.0},{"x":0.0,"y":0.0,"z":0.0},{"x":0.0,"y":0.0,"z":0.0}],"angularVelocities":[],"invMasses":[1.0,9.999999046325684,9.999999046325684,10.000000953674317,9.999999046325684,9.999999046325684,10.0,10.0,9.999999046325684,10.0,10.000000953674317,10.000000953674317,10.0,10.000000953674317,10.000000953674317,9.999999046325684,10.0,9.999999046325684,10.0,10.0,10.0,10.0,10.0,10.0,10.0,10.0,10.0,10.0,10.0,10.0,10.0,10.0,10.0,10.0,10.0,10.0,10.0,10.0,0.0,0.0,0.0,0.0,0.0,0.0,0.0,0.0,0.0,0.0,0.0,0.0,0.0,0.0,0.0,0.0,0.0,0.0,0.0,0.0,0.0,0.0,0.0,0.0,0.0,0.0,0.0,0.0,0.0,0.0,0.0,0.0,0.0,0.0,0.0,0.0,0.0,0.0,0.0,0.0,0.0,0.0,0.0,0.0,0.0,0.0,0.0,0.0,0.0,0.0,0.0,0.0,0.0,0.0,0.0,0.0,0.0,0.0,0.0,0.0,0.0,0.0,0.0,0.0,0.0,0.0,0.0,0.0,0.0,0.0,0.0,0.0,0.0,0.0,0.0,0.0,0.0,0.0,0.0,0.0,0.0,0.0,0.0,0.0,0.0,0.0,0.0,0.0,0.0,0.0,0.0,0.0,0.0,0.0,0.0,0.0,0.0,0.0,0.0,0.0],"invRotationalMasses":[],"phases":[1,1,1,1,1,1,1,1,1,1,1,1,1,1,1,1,1,1,1,1,1,1,1,1,1,1,1,1,1,1,1,1,1,1,1,1,1,1,0,0,0,0,0,0,0,0,0,0,0,0,0,0,0,0,0,0,0,0,0,0,0,0,0,0,0,0,0,0,0,0,0,0,0,0,0,0,0,0,0,0,0,0,0,0,0,0,0,0,0,0,0,0,0,0,0,0,0,0,0,0,0,0,0,0,0,0,0,0,0,0,0,0,0,0,0,0,0,0,0,0,0,0,0,0,0,0,0,0,0,0,0,0,0,0,0,0,0,0],"principalRadii":[{"x":0.125,"y":0.125,"z":0.125},{"x":0.125,"y":0.125,"z":0.125},{"x":0.1250000149011612,"y":0.1250000149011612,"z":0.1250000149011612},{"x":0.1249999925494194,"y":0.1249999925494194,"z":0.1249999925494194},{"x":0.1250000149011612,"y":0.1250000149011612,"z":0.1250000149011612},{"x":0.125,"y":0.125,"z":0.125},{"x":0.125,"y":0.125,"z":0.125},{"x":0.125,"y":0.125,"z":0.125},{"x":0.1250000149011612,"y":0.1250000149011612,"z":0.1250000149011612},{"x":0.125,"y":0.125,"z":0.125},{"x":0.1249999925494194,"y":0.1249999925494194,"z":0.1249999925494194},{"x":0.1249999925494194,"y":0.1249999925494194,"z":0.1249999925494194},{"x":0.125,"y":0.125,"z":0.125},{"x":0.1249999925494194,"y":0.1249999925494194,"z":0.1249999925494194},{"x":0.1249999925494194,"y":0.1249999925494194,"z":0.1249999925494194},{"x":0.1250000149011612,"y":0.1250000149011612,"z":0.1250000149011612},{"x":0.125,"y":0.125,"z":0.125},{"x":0.1250000149011612,"y":0.1250000149011612,"z":0.1250000149011612},{"x":0.125,"y":0.125,"z":0.125},{"x":0.125,"y":0.125,"z":0.125},{"x":0.125,"y":0.125,"z":0.125},{"x":0.125,"y":0.125,"z":0.125},{"x":0.125,"y":0.125,"z":0.125},{"x":0.125,"y":0.125,"z":0.125},{"x":0.125,"y":0.125,"z":0.125},{"x":0.125,"y":0.125,"z":0.125},{"x":0.125,"y":0.125,"z":0.125},{"x":0.125,"y":0.125,"z":0.125},{"x":0.125,"y":0.125,"z":0.125},{"x":0.125,"y":0.125,"z":0.125},{"x":0.125,"y":0.125,"z":0.125},{"x":0.125,"y":0.125,"z":0.125},{"x":0.125,"y":0.125,"z":0.125},{"x":0.125,"y":0.125,"z":0.125},{"x":0.125,"y":0.125,"z":0.125},{"x":0.125,"y":0.125,"z":0.125},{"x":0.125,"y":0.125,"z":0.125},{"x":0.125,"y":0.125,"z":0.125},{"x":0.0,"y":0.0,"z":0.0},{"x":0.0,"y":0.0,"z":0.0},{"x":0.0,"y":0.0,"z":0.0},{"x":0.0,"y":0.0,"z":0.0},{"x":0.0,"y":0.0,"z":0.0},{"x":0.0,"y":0.0,"z":0.0},{"x":0.0,"y":0.0,"z":0.0},{"x":0.0,"y":0.0,"z":0.0},{"x":0.0,"y":0.0,"z":0.0},{"x":0.0,"y":0.0,"z":0.0},{"x":0.0,"y":0.0,"z":0.0},{"x":0.0,"y":0.0,"z":0.0},{"x":0.0,"y":0.0,"z":0.0},{"x":0.0,"y":0.0,"z":0.0},{"x":0.0,"y":0.0,"z":0.0},{"x":0.0,"y":0.0,"z":0.0},{"x":0.0,"y":0.0,"z":0.0},{"x":0.0,"y":0.0,"z":0.0},{"x":0.0,"y":0.0,"z":0.0},{"x":0.0,"y":0.0,"z":0.0},{"x":0.0,"y":0.0,"z":0.0},{"x":0.0,"y":0.0,"z":0.0},{"x":0.0,"y":0.0,"z":0.0},{"x":0.0,"y":0.0,"z":0.0},{"x":0.0,"y":0.0,"z":0.0},{"x":0.0,"y":0.0,"z":0.0},{"x":0.0,"y":0.0,"z":0.0},{"x":0.0,"y":0.0,"z":0.0},{"x":0.0,"y":0.0,"z":0.0},{"x":0.0,"y":0.0,"z":0.0},{"x":0.0,"y":0.0,"z":0.0},{"x":0.0,"y":0.0,"z":0.0},{"x":0.0,"y":0.0,"z":0.0},{"x":0.0,"y":0.0,"z":0.0},{"x":0.0,"y":0.0,"z":0.0},{"x":0.0,"y":0.0,"z":0.0},{"x":0.0,"y":0.0,"z":0.0},{"x":0.0,"y":0.0,"z":0.0},{"x":0.0,"y":0.0,"z":0.0},{"x":0.0,"y":0.0,"z":0.0},{"x":0.0,"y":0.0,"z":0.0},{"x":0.0,"y":0.0,"z":0.0},{"x":0.0,"y":0.0,"z":0.0},{"x":0.0,"y":0.0,"z":0.0},{"x":0.0,"y":0.0,"z":0.0},{"x":0.0,"y":0.0,"z":0.0},{"x":0.0,"y":0.0,"z":0.0},{"x":0.0,"y":0.0,"z":0.0},{"x":0.0,"y":0.0,"z":0.0},{"x":0.0,"y":0.0,"z":0.0},{"x":0.0,"y":0.0,"z":0.0},{"x":0.0,"y":0.0,"z":0.0},{"x":0.0,"y":0.0,"z":0.0},{"x":0.0,"y":0.0,"z":0.0},{"x":0.0,"y":0.0,"z":0.0},{"x":0.0,"y":0.0,"z":0.0},{"x":0.0,"y":0.0,"z":0.0},{"x":0.0,"y":0.0,"z":0.0},{"x":0.0,"y":0.0,"z":0.0},{"x":0.0,"y":0.0,"z":0.0},{"x":0.0,"y":0.0,"z":0.0},{"x":0.0,"y":0.0,"z":0.0},{"x":0.0,"y":0.0,"z":0.0},{"x":0.0,"y":0.0,"z":0.0},{"x":0.0,"y":0.0,"z":0.0},{"x":0.0,"y":0.0,"z":0.0},{"x":0.0,"y":0.0,"z":0.0},{"x":0.0,"y":0.0,"z":0.0},{"x":0.0,"y":0.0,"z":0.0},{"x":0.0,"y":0.0,"z":0.0},{"x":0.0,"y":0.0,"z":0.0},{"x":0.0,"y":0.0,"z":0.0},{"x":0.0,"y":0.0,"z":0.0},{"x":0.0,"y":0.0,"z":0.0},{"x":0.0,"y":0.0,"z":0.0},{"x":0.0,"y":0.0,"z":0.0},{"x":0.0,"y":0.0,"z":0.0},{"x":0.0,"y":0.0,"z":0.0},{"x":0.0,"y":0.0,"z":0.0},{"x":0.0,"y":0.0,"z":0.0},{"x":0.0,"y":0.0,"z":0.0},{"x":0.0,"y":0.0,"z":0.0},{"x":0.0,"y":0.0,"z":0.0},{"x":0.0,"y":0.0,"z":0.0},{"x":0.0,"y":0.0,"z":0.0},{"x":0.0,"y":0.0,"z":0.0},{"x":0.0,"y":0.0,"z":0.0},{"x":0.0,"y":0.0,"z":0.0},{"x":0.0,"y":0.0,"z":0.0},{"x":0.0,"y":0.0,"z":0.0},{"x":0.0,"y":0.0,"z":0.0},{"x":0.0,"y":0.0,"z":0.0},{"x":0.0,"y":0.0,"z":0.0},{"x":0.0,"y":0.0,"z":0.0},{"x":0.0,"y":0.0,"z":0.0},{"x":0.0,"y":0.0,"z":0.0},{"x":0.0,"y":0.0,"z":0.0},{"x":0.0,"y":0.0,"z":0.0},{"x":0.0,"y":0.0,"z":0.0},{"x":0.0,"y":0.0,"z":0.0}],"colors":[{"r":1.0,"g":1.0,"b":1.0,"a":1.0},{"r":1.0,"g":1.0,"b":1.0,"a":1.0},{"r":1.0000001192092896,"g":1.0000001192092896,"b":1.0000001192092896,"a":1.0000001192092896},{"r":0.9999999403953552,"g":0.9999999403953552,"b":0.9999999403953552,"a":0.9999999403953552},{"r":1.0000001192092896,"g":1.0000001192092896,"b":1.0000001192092896,"a":1.0000001192092896},{"r":1.0,"g":1.0,"b":1.0,"a":1.0},{"r":1.0,"g":1.0,"b":1.0,"a":1.0},{"r":1.0,"g":1.0,"b":1.0,"a":1.0},{"r":1.0000001192092896,"g":1.0000001192092896,"b":1.0000001192092896,"a":1.0000001192092896},{"r":1.0,"g":1.0,"b":1.0,"a":1.0},{"r":0.9999999403953552,"g":0.9999999403953552,"b":0.9999999403953552,"a":0.9999999403953552},{"r":0.9999999403953552,"g":0.9999999403953552,"b":0.9999999403953552,"a":0.9999999403953552},{"r":1.0,"g":1.0,"b":1.0,"a":1.0},{"r":0.9999999403953552,"g":0.9999999403953552,"b":0.9999999403953552,"a":0.9999999403953552},{"r":0.9999999403953552,"g":0.9999999403953552,"b":0.9999999403953552,"a":0.9999999403953552},{"r":1.0000001192092896,"g":1.0000001192092896,"b":1.0000001192092896,"a":1.0000001192092896},{"r":1.0,"g":1.0,"b":1.0,"a":1.0},{"r":1.0000001192092896,"g":1.0000001192092896,"b":1.0000001192092896,"a":1.0000001192092896},{"r":1.0,"g":1.0,"b":1.0,"a":1.0},{"r":1.0,"g":1.0,"b":1.0,"a":1.0},{"r":1.0,"g":1.0,"b":1.0,"a":1.0},{"r":1.0,"g":1.0,"b":1.0,"a":1.0},{"r":1.0,"g":1.0,"b":1.0,"a":1.0},{"r":1.0,"g":1.0,"b":1.0,"a":1.0},{"r":1.0,"g":1.0,"b":1.0,"a":1.0},{"r":1.0,"g":1.0,"b":1.0,"a":1.0},{"r":1.0,"g":1.0,"b":1.0,"a":1.0},{"r":1.0,"g":1.0,"b":1.0,"a":1.0},{"r":1.0,"g":1.0,"b":1.0,"a":1.0},{"r":1.0,"g":1.0,"b":1.0,"a":1.0},{"r":1.0,"g":1.0,"b":1.0,"a":1.0},{"r":1.0,"g":1.0,"b":1.0,"a":1.0},{"r":1.0,"g":1.0,"b":1.0,"a":1.0},{"r":1.0,"g":1.0,"b":1.0,"a":1.0},{"r":1.0,"g":1.0,"b":1.0,"a":1.0},{"r":1.0,"g":1.0,"b":1.0,"a":1.0},{"r":1.0,"g":1.0,"b":1.0,"a":1.0},{"r":1.0,"g":1.0,"b":1.0,"a":1.0},{"r":0.0,"g":0.0,"b":0.0,"a":0.0},{"r":0.0,"g":0.0,"b":0.0,"a":0.0},{"r":0.0,"g":0.0,"b":0.0,"a":0.0},{"r":0.0,"g":0.0,"b":0.0,"a":0.0},{"r":0.0,"g":0.0,"b":0.0,"a":0.0},{"r":0.0,"g":0.0,"b":0.0,"a":0.0},{"r":0.0,"g":0.0,"b":0.0,"a":0.0},{"r":0.0,"g":0.0,"b":0.0,"a":0.0},{"r":0.0,"g":0.0,"b":0.0,"a":0.0},{"r":0.0,"g":0.0,"b":0.0,"a":0.0},{"r":0.0,"g":0.0,"b":0.0,"a":0.0},{"r":0.0,"g":0.0,"b":0.0,"a":0.0},{"r":0.0,"g":0.0,"b":0.0,"a":0.0},{"r":0.0,"g":0.0,"b":0.0,"a":0.0},{"r":0.0,"g":0.0,"b":0.0,"a":0.0},{"r":0.0,"g":0.0,"b":0.0,"a":0.0},{"r":0.0,"g":0.0,"b":0.0,"a":0.0},{"r":0.0,"g":0.0,"b":0.0,"a":0.0},{"r":0.0,"g":0.0,"b":0.0,"a":0.0},{"r":0.0,"g":0.0,"b":0.0,"a":0.0},{"r":0.0,"g":0.0,"b":0.0,"a":0.0},{"r":0.0,"g":0.0,"b":0.0,"a":0.0},{"r":0.0,"g":0.0,"b":0.0,"a":0.0},{"r":0.0,"g":0.0,"b":0.0,"a":0.0},{"r":0.0,"g":0.0,"b":0.0,"a":0.0},{"r":0.0,"g":0.0,"b":0.0,"a":0.0},{"r":0.0,"g":0.0,"b":0.0,"a":0.0},{"r":0.0,"g":0.0,"b":0.0,"a":0.0},{"r":0.0,"g":0.0,"b":0.0,"a":0.0},{"r":0.0,"g":0.0,"b":0.0,"a":0.0},{"r":0.0,"g":0.0,"b":0.0,"a":0.0},{"r":0.0,"g":0.0,"b":0.0,"a":0.0},{"r":0.0,"g":0.0,"b":0.0,"a":0.0},{"r":0.0,"g":0.0,"b":0.0,"a":0.0},{"r":0.0,"g":0.0,"b":0.0,"a":0.0},{"r":0.0,"g":0.0,"b":0.0,"a":0.0},{"r":0.0,"g":0.0,"b":0.0,"a":0.0},{"r":0.0,"g":0.0,"b":0.0,"a":0.0},{"r":0.0,"g":0.0,"b":0.0,"a":0.0},{"r":0.0,"g":0.0,"b":0.0,"a":0.0},{"r":0.0,"g":0.0,"b":0.0,"a":0.0},{"r":0.0,"g":0.0,"b":0.0,"a":0.0},{"r":0.0,"g":0.0,"b":0.0,"a":0.0},{"r":0.0,"g":0.0,"b":0.0,"a":0.0},{"r":0.0,"g":0.0,"b":0.0,"a":0.0},{"r":0.0,"g":0.0,"b":0.0,"a":0.0},{"r":0.0,"g":0.0,"b":0.0,"a":0.0},{"r":0.0,"g":0.0,"b":0.0,"a":0.0},{"r":0.0,"g":0.0,"b":0.0,"a":0.0},{"r":0.0,"g":0.0,"b":0.0,"a":0.0},{"r":0.0,"g":0.0,"b":0.0,"a":0.0},{"r":0.0,"g":0.0,"b":0.0,"a":0.0},{"r":0.0,"g":0.0,"b":0.0,"a":0.0},{"r":0.0,"g":0.0,"b":0.0,"a":0.0},{"r":0.0,"g":0.0,"b":0.0,"a":0.0},{"r":0.0,"g":0.0,"b":0.0,"a":0.0},{"r":0.0,"g":0.0,"b":0.0,"a":0.0},{"r":0.0,"g":0.0,"b":0.0,"a":0.0},{"r":0.0,"g":0.0,"b":0.0,"a":0.0},{"r":0.0,"g":0.0,"b":0.0,"a":0.0},{"r":0.0,"g":0.0,"b":0.0,"a":0.0},{"r":0.0,"g":0.0,"b":0.0,"a":0.0},{"r":0.0,"g":0.0,"b":0.0,"a":0.0},{"r":0.0,"g":0.0,"b":0.0,"a":0.0},{"r":0.0,"g":0.0,"b":0.0,"a":0.0},{"r":0.0,"g":0.0,"b":0.0,"a":0.0},{"r":0.0,"g":0.0,"b":0.0,"a":0.0},{"r":0.0,"g":0.0,"b":0.0,"a":0.0},{"r":0.0,"g":0.0,"b":0.0,"a":0.0},{"r":0.0,"g":0.0,"b":0.0,"a":0.0},{"r":0.0,"g":0.0,"b":0.0,"a":0.0},{"r":0.0,"g":0.0,"b":0.0,"a":0.0},{"r":0.0,"g":0.0,"b":0.0,"a":0.0},{"r":0.0,"g":0.0,"b":0.0,"a":0.0},{"r":0.0,"g":0.0,"b":0.0,"a":0.0},{"r":0.0,"g":0.0,"b":0.0,"a":0.0},{"r":0.0,"g":0.0,"b":0.0,"a":0.0},{"r":0.0,"g":0.0,"b":0.0,"a":0.0},{"r":0.0,"g":0.0,"b":0.0,"a":0.0},{"r":0.0,"g":0.0,"b":0.0,"a":0.0},{"r":0.0,"g":0.0,"b":0.0,"a":0.0},{"r":0.0,"g":0.0,"b":0.0,"a":0.0},{"r":0.0,"g":0.0,"b":0.0,"a":0.0},{"r":0.0,"g":0.0,"b":0.0,"a":0.0},{"r":0.0,"g":0.0,"b":0.0,"a":0.0},{"r":0.0,"g":0.0,"b":0.0,"a":0.0},{"r":0.0,"g":0.0,"b":0.0,"a":0.0},{"r":0.0,"g":0.0,"b":0.0,"a":0.0},{"r":0.0,"g":0.0,"b":0.0,"a":0.0},{"r":0.0,"g":0.0,"b":0.0,"a":0.0},{"r":0.0,"g":0.0,"b":0.0,"a":0.0},{"r":0.0,"g":0.0,"b":0.0,"a":0.0},{"r":0.0,"g":0.0,"b":0.0,"a":0.0},{"r":0.0,"g":0.0,"b":0.0,"a":0.0},{"r":0.0,"g":0.0,"b":0.0,"a":0.0},{"r":0.0,"g":0.0,"b":0.0,"a":0.0},{"r":0.0,"g":0.0,"b":0.0,"a":0.0},{"r":0.0,"g":0.0,"b":0.0,"a":0.0},{"r":0.0,"g":0.0,"b":0.0,"a":0.0},{"r":0.0,"g":0.0,"b":0.0,"a":0.0}],"distanceConstraintsData":{"batches":[{"m_IDs":[0,1,2,3,4,5,6,7,8,9,10,11,12,13,14,15,16,17,18,19,20,21,22,23,24,25,26,27,28,29,30,31,32,33,34,35,36,37,38,39,40,41,42,43,44,45,46,47,48,49,50,51,52,53,54,55,56,57,58,59,60,61,62,63,64,65,66,67,68],"m_IDToIndex":[0,1,2,3,4,5,6,7,8,9,10,11,12,13,14,15,16,17,18,19,20,21,22,23,24,25,26,27,28,29,30,31,32,33,34,35,36,37,38,39,40,41,42,43,44,45,46,47,48,49,50,51,52,53,54,55,56,57,58,59,60,61,62,63,64,65,66,67,68],"m_ConstraintCount":69,"m_ActiveConstraintCount":19,"m_InitialActiveConstraintCount":19,"particleIndices":{"serializedContents":[0,1,2,3,4,5,6,7,8,9,10,11,12,13,14,15,16,17,18,19,20,21,22,23,24,25,26,27,28,29,30,31,32,33,34,35,36,37,0,0,0,0,0,0,0,0,0,0,0,0,0,0,0,0,0,0,0,0,0,0,0,0,0,0,0,0,0,0,0,0,0,0,0,0,0,0,0,0,0,0,0,0,0,0,0,0,0,0,0,0,0,0,0,0,0,0,0,0,0,0,0,0,0,0,0,0,0,0,0,0,0,0,0,0,0,0,0,0,0,0,0,0,0,0,0,0,0,0,0,0,0,0,0,0,0,0,0,0]},"restLengths":{"serializedContents":[0.11864738166332245,0.12151327729225159,0.12111052125692368,0.12246841937303543,0.12205623090267182,0.12136472016572952,0.12093772739171982,0.12245406210422516,0.12289495021104813,0.12234174460172653,0.12248951941728592,0.12340106070041657,0.12271970510482788,0.121193066239357,0.11999580264091492,0.11967310309410095,0.11951984465122223,0.12366051971912384,0.11679373681545258,0.0,0.0,0.0,0.0,0.0,0.0,0.0,0.0,0.0,0.0,0.0,0.0,0.0,0.0,0.0,0.0,0.0,0.0,0.0,0.0,0.0,0.0,0.0,0.0,0.0,0.0,0.0,0.0,0.0,0.0,0.0,0.0,0.0,0.0,0.0,0.0,0.0,0.0,0.0,0.0,0.0,0.0,0.0,0.0,0.0,0.0,0.0,0.0,0.0,0.0]},"stiffnesses":{"serializedContents":[{"x":0.0,"y":0.0},{"x":0.0,"y":0.0},{"x":0.0,"y":0.0},{"x":0.0,"y":0.0},{"x":0.0,"y":0.0},{"x":0.0,"y":0.0},{"x":0.0,"y":0.0},{"x":0.0,"y":0.0},{"x":0.0,"y":0.0},{"x":0.0,"y":0.0},{"x":0.0,"y":0.0},{"x":0.0,"y":0.0},{"x":0.0,"y":0.0},{"x":0.0,"y":0.0},{"x":0.0,"y":0.0},{"x":0.0,"y":0.0},{"x":0.0,"y":0.0},{"x":0.0,"y":0.0},{"x":0.0,"y":0.0},{"x":0.0,"y":0.0},{"x":0.0,"y":0.0},{"x":0.0,"y":0.0},{"x":0.0,"y":0.0},{"x":0.0,"y":0.0},{"x":0.0,"y":0.0},{"x":0.0,"y":0.0},{"x":0.0,"y":0.0},{"x":0.0,"y":0.0},{"x":0.0,"y":0.0},{"x":0.0,"y":0.0},{"x":0.0,"y":0.0},{"x":0.0,"y":0.0},{"x":0.0,"y":0.0},{"x":0.0,"y":0.0},{"x":0.0,"y":0.0},{"x":0.0,"y":0.0},{"x":0.0,"y":0.0},{"x":0.0,"y":0.0},{"x":0.0,"y":0.0},{"x":0.0,"y":0.0},{"x":0.0,"y":0.0},{"x":0.0,"y":0.0},{"x":0.0,"y":0.0},{"x":0.0,"y":0.0},{"x":0.0,"y":0.0},{"x":0.0,"y":0.0},{"x":0.0,"y":0.0},{"x":0.0,"y":0.0},{"x":0.0,"y":0.0},{"x":0.0,"y":0.0},{"x":0.0,"y":0.0},{"x":0.0,"y":0.0},{"x":0.0,"y":0.0},{"x":0.0,"y":0.0},{"x":0.0,"y":0.0},{"x":0.0,"y":0.0},{"x":0.0,"y":0.0},{"x":0.0,"y":0.0},{"x":0.0,"y":0.0},{"x":0.0,"y":0.0},{"x":0.0,"y":0.0},{"x":0.0,"y":0.0},{"x":0.0,"y":0.0},{"x":0.0,"y":0.0},{"x":0.0,"y":0.0},{"x":0.0,"y":0.0},{"x":0.0,"y":0.0},{"x":0.0,"y":0.0},{"x":0.0,"y":0.0}]}},{"m_IDs":[0,1,2,3,4,5,6,7,8,9,10,11,12,13,14,15,16,17,18,19,20,21,22,23,24,25,26,27,28,29,30,31,32,33,34,35,36,37,38,39,40,41,42,43,44,45,46,47,48,49,50,51,52,53,54,55,56,57,58,59,60,61,62,63,64,65,66,67],"m_IDToIndex":[0,1,2,3,4,5,6,7,8,9,10,11,12,13,14,15,16,17,18,19,20,21,22,23,24,25,26,27,28,29,30,31,32,33,34,35,36,37,38,39,40,41,42,43,44,45,46,47,48,49,50,51,52,53,54,55,56,57,58,59,60,61,62,63,64,65,66,67],"m_ConstraintCount":68,"m_ActiveConstraintCount":18,"m_InitialActiveConstraintCount":18,"particleIndices":{"serializedContents":[1,2,3,4,5,6,7,8,9,10,11,12,13,14,15,16,17,18,19,20,21,22,23,24,25,26,27,28,29,30,31,32,33,34,35,36,0,0,0,0,0,0,0,0,0,0,0,0,0,0,0,0,0,0,0,0,0,0,0,0,0,0,0,0,0,0,0,0,0,0,0,0,0,0,0,0,0,0,0,0,0,0,0,0,0,0,0,0,0,0,0,0,0,0,0,0,0,0,0,0,0,0,0,0,0,0,0,0,0,0,0,0,0,0,0,0,0,0,0,0,0,0,0,0,0,0,0,0,0,0,0,0,0,0,0,0]},"restLengths":{"serializedContents":[0.12187203764915467,0.12484992295503617,0.12283722311258316,0.12261634320020676,0.12338753044605255,0.12417378276586533,0.12285556644201279,0.12215090543031693,0.12217489629983902,0.12259210646152497,0.12169325351715088,0.12189382314682007,0.12272870540618897,0.12409552931785584,0.12513777613639832,0.125507652759552,0.12483812868595123,0.1226479709148407,0.0,0.0,0.0,0.0,0.0,0.0,0.0,0.0,0.0,0.0,0.0,0.0,0.0,0.0,0.0,0.0,0.0,0.0,0.0,0.0,0.0,0.0,0.0,0.0,0.0,0.0,0.0,0.0,0.0,0.0,0.0,0.0,0.0,0.0,0.0,0.0,0.0,0.0,0.0,0.0,0.0,0.0,0.0,0.0,0.0,0.0,0.0,0.0,0.0,0.0]},"stiffnesses":{"serializedContents":[{"x":0.0,"y":0.0},{"x":0.0,"y":0.0},{"x":0.0,"y":0.0},{"x":0.0,"y":0.0},{"x":0.0,"y":0.0},{"x":0.0,"y":0.0},{"x":0.0,"y":0.0},{"x":0.0,"y":0.0},{"x":0.0,"y":0.0},{"x":0.0,"y":0.0},{"x":0.0,"y":0.0},{"x":0.0,"y":0.0},{"x":0.0,"y":0.0},{"x":0.0,"y":0.0},{"x":0.0,"y":0.0},{"x":0.0,"y":0.0},{"x":0.0,"y":0.0},{"x":0.0,"y":0.0},{"x":0.0,"y":0.0},{"x":0.0,"y":0.0},{"x":0.0,"y":0.0},{"x":0.0,"y":0.0},{"x":0.0,"y":0.0},{"x":0.0,"y":0.0},{"x":0.0,"y":0.0},{"x":0.0,"y":0.0},{"x":0.0,"y":0.0},{"x":0.0,"y":0.0},{"x":0.0,"y":0.0},{"x":0.0,"y":0.0},{"x":0.0,"y":0.0},{"x":0.0,"y":0.0},{"x":0.0,"y":0.0},{"x":0.0,"y":0.0},{"x":0.0,"y":0.0},{"x":0.0,"y":0.0},{"x":0.0,"y":0.0},{"x":0.0,"y":0.0},{"x":0.0,"y":0.0},{"x":0.0,"y":0.0},{"x":0.0,"y":0.0},{"x":0.0,"y":0.0},{"x":0.0,"y":0.0},{"x":0.0,"y":0.0},{"x":0.0,"y":0.0},{"x":0.0,"y":0.0},{"x":0.0,"y":0.0},{"x":0.0,"y":0.0},{"x":0.0,"y":0.0},{"x":0.0,"y":0.0},{"x":0.0,"y":0.0},{"x":0.0,"y":0.0},{"x":0.0,"y":0.0},{"x":0.0,"y":0.0},{"x":0.0,"y":0.0},{"x":0.0,"y":0.0},{"x":0.0,"y":0.0},{"x":0.0,"y":0.0},{"x":0.0,"y":0.0},{"x":0.0,"y":0.0},{"x":0.0,"y":0.0},{"x":0.0,"y":0.0},{"x":0.0,"y":0.0},{"x":0.0,"y":0.0},{"x":0.0,"y":0.0},{"x":0.0,"y":0.0},{"x":0.0,"y":0.0},{"x":0.0,"y":0.0}]}}]},"bendConstraintsData":{"batches":[{"m_IDs":[0,1,2,3,4,5,6,7,8,9,10,11,12,13,14,15,16,17,18,19,20,21,22,23,24,25,26,27,28,29,30,31,32,33,34,35,36,37,38,39,40,41,42,43,44,45],"m_IDToIndex":[0,1,2,3,4,5,6,7,8,9,10,11,12,13,14,15,16,17,18,19,20,21,22,23,24,25,26,27,28,29,30,31,32,33,34,35,36,37,38,39,40,41,42,43,44,45],"m_ConstraintCount":46,"m_ActiveConstraintCount":12,"m_InitialActiveConstraintCount":12,"particleIndices":{"serializedContents":[0,2,1,3,5,4,6,8,7,9,11,10,12,14,13,15,17,16,18,20,19,21,23,22,24,26,25,27,29,28,30,32,31,33,35,34,36,38,37,39,41,40,42,44,43,45,47,46,48,50,49,51,53,52,54,56,55,57,59,58,60,62,61,63,65,64,66,68,67,69,71,70,72,74,73,75,77,76,78,80,79,81,83,82,84,86,85,87,89,88,90,92,91,93,95,94,96,98,97,99,101,100,102,104,103,105,107,106,108,110,109,111,113,112,114,116,115,117,119,118,120,122,121,123,125,124,126,128,127,129,131,130,132,134,133,135,137,136]},"restBends":{"serializedContents":[0.0,0.0,0.0,0.0,0.0,0.0,0.0,0.0,0.0,0.0,0.0,0.0,0.0,0.0,0.0,0.0,0.0,0.0,0.0,0.0,0.0,0.0,0.0,0.0,0.0,0.0,0.0,0.0,0.0,0.0,0.0,0.0,0.0,0.0,0.0,0.0,0.0,0.0,0.0,0.0,0.0,0.0,0.0,0.0,0.0,0.0]},"bendingStiffnesses":{"serializedContents":[{"x":0.0,"y":0.0},{"x":0.0,"y":0.0},{"x":0.0,"y":0.0},{"x":0.0,"y":0.0},{"x":0.0,"y":0.0},{"x":0.0,"y":0.0},{"x":0.0,"y":0.0},{"x":0.0,"y":0.0},{"x":0.0,"y":0.0},{"x":0.0,"y":0.0},{"x":0.0,"y":0.0},{"x":0.0,"y":0.0},{"x":0.0,"y":0.0},{"x":0.0,"y":0.0},{"x":0.0,"y":0.0},{"x":0.0,"y":0.0},{"x":0.0,"y":0.0},{"x":0.0,"y":0.0},{"x":0.0,"y":0.0},{"x":0.0,"y":0.0},{"x":0.0,"y":0.0},{"x":0.0,"y":0.0},{"x":0.0,"y":0.0},{"x":0.0,"y":0.0},{"x":0.0,"y":0.0},{"x":0.0,"y":0.0},{"x":0.0,"y":0.0},{"x":0.0,"y":0.0},{"x":0.0,"y":0.0},{"x":0.0,"y":0.0},{"x":0.0,"y":0.0},{"x":0.0,"y":0.0},{"x":0.0,"y":0.0},{"x":0.0,"y":0.0},{"x":0.0,"y":0.0},{"x":0.0,"y":0.0},{"x":0.0,"y":0.0},{"x":0.0,"y":0.0},{"x":0.0,"y":0.0},{"x":0.0,"y":0.0},{"x":0.0,"y":0.0},{"x":0.0,"y":0.0},{"x":0.0,"y":0.0},{"x":0.0,"y":0.0},{"x":0.0,"y":0.0},{"x":0.0,"y":0.0}]}},{"m_IDs":[0,1,2,3,4,5,6,7,8,9,10,11,12,13,14,15,16,17,18,19,20,21,22,23,24,25,26,27,28,29,30,31,32,33,34,35,36,37,38,39,40,41,42,43,44],"m_IDToIndex":[0,1,2,3,4,5,6,7,8,9,10,11,12,13,14,15,16,17,18,19,20,21,22,23,24,25,26,27,28,29,30,31,32,33,34,35,36,37,38,39,40,41,42,43,44],"m_ConstraintCount":45,"m_ActiveConstraintCount":12,"m_InitialActiveConstraintCount":12,"particleIndices":{"serializedContents":[1,3,2,4,6,5,7,9,8,10,12,11,13,15,14,16,18,17,19,21,20,22,24,23,25,27,26,28,30,29,31,33,32,34,36,35,37,39,38,40,42,41,43,45,44,46,48,47,49,51,50,52,54,53,55,57,56,58,60,59,61,63,62,64,66,65,67,69,68,70,72,71,73,75,74,76,78,77,79,81,80,82,84,83,85,87,86,88,90,89,91,93,92,94,96,95,97,99,98,100,102,101,103,105,104,106,108,107,109,111,110,112,114,113,115,117,116,118,120,119,121,123,122,124,126,125,127,129,128,130,132,131,133,135,134]},"restBends":{"serializedContents":[0.0,0.0,0.0,0.0,0.0,0.0,0.0,0.0,0.0,0.0,0.0,0.0,0.0,0.0,0.0,0.0,0.0,0.0,0.0,0.0,0.0,0.0,0.0,0.0,0.0,0.0,0.0,0.0,0.0,0.0,0.0,0.0,0.0,0.0,0.0,0.0,0.0,0.0,0.0,0.0,0.0,0.0,0.0,0.0,0.0]},"bendingStiffnesses":{"serializedContents":[{"x":0.0,"y":0.0},{"x":0.0,"y":0.0},{"x":0.0,"y":0.0},{"x":0.0,"y":0.0},{"x":0.0,"y":0.0},{"x":0.0,"y":0.0},{"x":0.0,"y":0.0},{"x":0.0,"y":0.0},{"x":0.0,"y":0.0},{"x":0.0,"y":0.0},{"x":0.0,"y":0.0},{"x":0.0,"y":0.0},{"x":0.0,"y":0.0},{"x":0.0,"y":0.0},{"x":0.0,"y":0.0},{"x":0.0,"y":0.0},{"x":0.0,"y":0.0},{"x":0.0,"y":0.0},{"x":0.0,"y":0.0},{"x":0.0,"y":0.0},{"x":0.0,"y":0.0},{"x":0.0,"y":0.0},{"x":0.0,"y":0.0},{"x":0.0,"y":0.0},{"x":0.0,"y":0.0},{"x":0.0,"y":0.0},{"x":0.0,"y":0.0},{"x":0.0,"y":0.0},{"x":0.0,"y":0.0},{"x":0.0,"y":0.0},{"x":0.0,"y":0.0},{"x":0.0,"y":0.0},{"x":0.0,"y":0.0},{"x":0.0,"y":0.0},{"x":0.0,"y":0.0},{"x":0.0,"y":0.0},{"x":0.0,"y":0.0},{"x":0.0,"y":0.0},{"x":0.0,"y":0.0},{"x":0.0,"y":0.0},{"x":0.0,"y":0.0},{"x":0.0,"y":0.0},{"x":0.0,"y":0.0},{"x":0.0,"y":0.0},{"x":0.0,"y":0.0}]}},{"m_IDs":[0,1,2,3,4,5,6,7,8,9,10,11,12,13,14,15,16,17,18,19,20,21,22,23,24,25,26,27,28,29,30,31,32,33,34,35,36,37,38,39,40,41,42,43,44],"m_IDToIndex":[0,1,2,3,4,5,6,7,8,9,10,11,12,13,14,15,16,17,18,19,20,21,22,23,24,25,26,27,28,29,30,31,32,33,34,35,36,37,38,39,40,41,42,43,44],"m_ConstraintCount":45,"m_ActiveConstraintCount":12,"m_InitialActiveConstraintCount":12,"particleIndices":{"serializedContents":[2,4,3,5,7,6,8,10,9,11,13,12,14,16,15,17,19,18,20,22,21,23,25,24,26,28,27,29,31,30,32,34,33,35,37,36,38,40,39,41,43,42,44,46,45,47,49,48,50,52,51,53,55,54,56,58,57,59,61,60,62,64,63,65,67,66,68,70,69,71,73,72,74,76,75,77,79,78,80,82,81,83,85,84,86,88,87,89,91,90,92,94,93,95,97,96,98,100,99,101,103,102,104,106,105,107,109,108,110,112,111,113,115,114,116,118,117,119,121,120,122,124,123,125,127,126,128,130,129,131,133,132,134,136,135]},"restBends":{"serializedContents":[0.0,0.0,0.0,0.0,0.0,0.0,0.0,0.0,0.0,0.0,0.0,0.0,0.0,0.0,0.0,0.0,0.0,0.0,0.0,0.0,0.0,0.0,0.0,0.0,0.0,0.0,0.0,0.0,0.0,0.0,0.0,0.0,0.0,0.0,0.0,0.0,0.0,0.0,0.0,0.0,0.0,0.0,0.0,0.0,0.0]},"bendingStiffnesses":{"serializedContents":[{"x":0.0,"y":0.0},{"x":0.0,"y":0.0},{"x":0.0,"y":0.0},{"x":0.0,"y":0.0},{"x":0.0,"y":0.0},{"x":0.0,"y":0.0},{"x":0.0,"y":0.0},{"x":0.0,"y":0.0},{"x":0.0,"y":0.0},{"x":0.0,"y":0.0},{"x":0.0,"y":0.0},{"x":0.0,"y":0.0},{"x":0.0,"y":0.0},{"x":0.0,"y":0.0},{"x":0.0,"y":0.0},{"x":0.0,"y":0.0},{"x":0.0,"y":0.0},{"x":0.0,"y":0.0},{"x":0.0,"y":0.0},{"x":0.0,"y":0.0},{"x":0.0,"y":0.0},{"x":0.0,"y":0.0},{"x":0.0,"y":0.0},{"x":0.0,"y":0.0},{"x":0.0,"y":0.0},{"x":0.0,"y":0.0},{"x":0.0,"y":0.0},{"x":0.0,"y":0.0},{"x":0.0,"y":0.0},{"x":0.0,"y":0.0},{"x":0.0,"y":0.0},{"x":0.0,"y":0.0},{"x":0.0,"y":0.0},{"x":0.0,"y":0.0},{"x":0.0,"y":0.0},{"x":0.0,"y":0.0},{"x":0.0,"y":0.0},{"x":0.0,"y":0.0},{"x":0.0,"y":0.0},{"x":0.0,"y":0.0},{"x":0.0,"y":0.0},{"x":0.0,"y":0.0},{"x":0.0,"y":0.0},{"x":0.0,"y":0.0},{"x":0.0,"y":0.0}]}}]},"pinConstraintsData":{"batches":[{"m_IDs":[],"m_IDToIndex":[],"m_ConstraintCount":0,"m_ActiveConstraintCount":0,"m_InitialActiveConstraintCount":0,"particleIndices":{"serializedContents":[]},"offsets":{"serializedContents":[]},"restDarbouxVectors":{"serializedContents":[]},"stiffnesses":{"serializedContents":[]},"breakThresholds":{"serializedContents":[]},"constraintForces":[]}]},"skinConstraintsData":{"batches":[]},"tetherConstraintsData":{"batches":[]},"stretchShearConstraintsData":{"batches":[]},"bendTwistConstraintsData":{"batches":[]},"shapeMatchingConstraintsData":{"batches":[]},"aerodynamicConstraintsData":{"batches":[]},"chainConstraintsData":{"batches":[]},"volumeConstraintsData":{"batches":[]},"groups":[{"instanceID":0},{"instanceID":0}],"path":{"m_Names":["A","B"],"m_Points":{"data":[{"tangentMode":0,"inTangent":{"x":-0.23925630748271943,"y":0.0,"z":0.07250120490789414},"position":{"x":-2.555339813232422,"y":0.30129528045654299,"z":-1.2823047637939454},"outTangent":{"x":0.12537290155887605,"y":0.0,"z":-0.037991397082805637}},{"tangentMode":0,"inTangent":{"x":-0.22082734107971192,"y":-0.0019277334213256837,"z":0.0},"position":{"x":1.967378854751587,"y":0.32307958602905276,"z":-1.316169261932373},"outTangent":{"x":0.2499903291463852,"y":0.0021823146380484106,"z":0.0}}]},"m_Normals":{"data":[{"x":0.0,"y":1.0,"z":0.0},{"x":0.0,"y":1.0,"z":0.0}]},"m_Colors":{"data":[{"r":1.0,"g":1.0,"b":1.0,"a":1.0},{"r":1.0,"g":1.0,"b":1.0,"a":1.0}]},"m_Thickness":{"data":[1.0,1.0]},"m_Masses":{"data":[0.10000000149011612,0.10000000149011612]},"m_RotationalMasses":{"data":[1.0,1.0]},"m_Phases":{"data":[1,1]},"m_Closed":false,"m_ArcLengthTable":[0.0,0.04495223984122276,0.13960348069667817,0.27894327044487,0.4578145146369934,0.6710407733917236,0.9134398102760315,1.1798268556594849,1.4650161266326905,1.7638212442398072,2.0710554122924806,2.3815319538116457,2.690062999725342,2.991461753845215,3.280540943145752,3.5521130561828615,3.800990581512451,4.021986484527588,4.2099127769470219,4.35958194732666,4.46580696105957,4.523399829864502],"m_TotalSplineLenght":4.523399829864502,"OnPathChanged":{"m_PersistentCalls":{"m_Calls":[]}},"OnControlPointAdded":{"m_PersistentCalls":{"m_Calls":[]}},"OnControlPointRemoved":{"m_PersistentCalls":{"m_Calls":[]}},"OnControlPointRenamed":{"m_PersistentCalls":{"m_Calls":[]}}},"thickness":0.125,"resolution":1.0,"m_InterParticleDistance":0.12225405126810074,"totalParticles":138,"m_RestLength":16.748706817626954,"restLengths":[0.11864738166332245,0.12187203764915467,0.12151327729225159,0.12484992295503617,0.12111052125692368,0.12283722311258316,0.12246841937303543,0.12261634320020676,0.12205623090267182,0.12338753044605255,0.12136472016572952,0.12417378276586533,0.12093772739171982,0.12285556644201279,0.12245406210422516,0.12215090543031693,0.12289495021104813,0.12217489629983902,0.12234174460172653,0.12259210646152497,0.12248951941728592,0.12169325351715088,0.12340106070041657,0.12189382314682007,0.12271970510482788,0.12272870540618897,0.121193066239357,0.12409552931785584,0.11999580264091492,0.12513777613639832,0.11967310309410095,0.125507652759552,0.11951984465122223,0.12483812868595123,0.12366051971912384,0.1226479709148407,0.11679373681545258,0.12225405126810074,0.12225405126810074,0.12225405126810074,0.12225405126810074,0.12225405126810074,0.12225405126810074,0.12225405126810074,0.12225405126810074,0.12225405126810074,0.12225405126810074,0.12225405126810074,0.12225405126810074,0.12225405126810074,0.12225405126810074,0.12225405126810074,0.12225405126810074,0.12225405126810074,0.12225405126810074,0.12225405126810074,0.12225405126810074,0.12225405126810074,0.12225405126810074,0.12225405126810074,0.12225405126810074,0.12225405126810074,0.12225405126810074,0.12225405126810074,0.12225405126810074,0.12225405126810074,0.12225405126810074,0.12225405126810074,0.12225405126810074,0.12225405126810074,0.12225405126810074,0.12225405126810074,0.12225405126810074,0.12225405126810074,0.12225405126810074,0.12225405126810074,0.12225405126810074,0.12225405126810074,0.12225405126810074,0.12225405126810074,0.12225405126810074,0.12225405126810074,0.12225405126810074,0.12225405126810074,0.12225405126810074,0.12225405126810074,0.12225405126810074,0.12225405126810074,0.12225405126810074,0.12225405126810074,0.12225405126810074,0.12225405126810074,0.12225405126810074,0.12225405126810074,0.12225405126810074,0.12225405126810074,0.12225405126810074,0.12225405126810074,0.12225405126810074,0.12225405126810074,0.12225405126810074,0.12225405126810074,0.12225405126810074,0.12225405126810074,0.12225405126810074,0.12225405126810074,0.12225405126810074,0.12225405126810074,0.12225405126810074,0.12225405126810074,0.12225405126810074,0.12225405126810074,0.12225405126810074,0.12225405126810074,0.12225405126810074,0.12225405126810074,0.12225405126810074,0.12225405126810074,0.12225405126810074,0.12225405126810074,0.12225405126810074,0.12225405126810074,0.12225405126810074,0.12225405126810074,0.12225405126810074,0.12225405126810074,0.12225405126810074,0.12225405126810074,0.12225405126810074,0.12225405126810074,0.12225405126810074,0.12225405126810074,0.12225405126810074,0.12225405126810074,0.12225405126810074,0.12225405126810074,0.12225405126810074,0.0],"pooledParticles":100}'
  hasAnchor: 0
  a: 0
  groundIndex: 0
  _hasAnchorRopeOneA: 0
  _hasAnchorRopeOneB: 0
  _hasAnchorRopeTwoA: 0
  _hasAnchorRopeTwoB: 0
  _hasAnchorRopeThreeA: 0
  _hasAnchorRopeThreeB: 0
  _hasAnchorRopeFourA: 0
  _hasAnchorRopeFourB: 0
  _hasAnchorRopeFiveA: 0
  _hasAnchorRopeFiveB: 0
  obstacleInfos:
    obstacleIndex: -1
    overridePosition: {x: 0, y: 0, z: 0}
    overrideRotation: {x: 0, y: 0, z: 0}
  curveInfos:
    curveIndex: -1
    positionOverride: {x: 0, y: 0, z: 0}
    rotationOverride: {x: 0, y: 0, z: 0}
