%YAML 1.1
%TAG !u! tag:unity3d.com,2011:
--- !u!114 &11400000
MonoBehaviour:
  m_ObjectHideFlags: 0
  m_CorrespondingSourceObject: {fileID: 0}
  m_PrefabInstance: {fileID: 0}
  m_PrefabAsset: {fileID: 0}
  m_GameObject: {fileID: 0}
  m_Enabled: 1
  m_EditorHideFlags: 0
  m_Script: {fileID: 11500000, guid: 4127f02986c6bce45951f9e1b3dce8cc, type: 3}
  m_Name: 92
  m_EditorClassIdentifier: 
  ropes: '{"m_Empty":false,"m_ActiveParticleCount":35,"m_InitialActiveParticleCount":35,"_bounds":{"m_Center":{"x":-0.3272969722747803,"y":0.0,"z":0.010941429063677788},"m_Extent":{"x":2.1184651851654054,"y":0.0,"z":0.010941429063677788}},"positions":[{"x":1.993086338043213,"y":-0.10550002008676529,"z":-3.2872211933135988},{"x":1.9178180694580079,"y":-0.053999751806259158,"z":-3.141174077987671},{"x":1.8391625881195069,"y":-0.037300243973731998,"z":-2.9918811321258547},{"x":1.7594116926193238,"y":-0.02972877025604248,"z":-2.841618537902832},{"x":1.6818485260009766,"y":-0.01756766438484192,"z":-2.691474676132202},{"x":1.6055465936660767,"y":-0.0011464953422546387,"z":-2.5404860973358156},{"x":1.524071216583252,"y":0.00008456408977508545,"z":-2.389137029647827},{"x":1.4437929391860963,"y":0.006625145673751831,"z":-2.2375705242156984},{"x":1.3645033836364747,"y":0.017368778586387636,"z":-2.0859317779541017},{"x":1.2863742113113404,"y":0.032130151987075809,"z":-1.9347071647644044},{"x":1.209075927734375,"y":0.05058732628822327,"z":-1.7834749221801758},{"x":1.132733702659607,"y":0.07215225696563721,"z":-1.6328340768814088},{"x":1.0570367574691773,"y":0.09640699625015259,"z":-1.4824328422546387},{"x":0.9821003675460815,"y":0.1229497492313385,"z":-1.3324029445648194},{"x":0.9080537557601929,"y":0.15175440907478333,"z":-1.182555913925171},{"x":0.8351871967315674,"y":0.18308699131011964,"z":-1.0327441692352296},{"x":0.7648400068283081,"y":0.2163335680961609,"z":-0.8821041584014893},{"x":0.6805144548416138,"y":0.2654770314693451,"z":-0.7460328340530396},{"x":0.5750141739845276,"y":0.3262506127357483,"z":-0.6359439492225647},{"x":0.45371758937835696,"y":0.41150325536727908,"z":-0.5498927235603333},{"x":0.3152303397655487,"y":0.4362959861755371,"z":-0.47583654522895815},{"x":0.20042739808559419,"y":0.3883137106895447,"z":-0.38590922951698305},{"x":0.09708921611309052,"y":0.3125059902667999,"z":-0.29330334067344668},{"x":0.029765930026769639,"y":0.19384953379631043,"z":-0.1900850534439087},{"x":-0.004129400476813316,"y":0.09089517593383789,"z":-0.0538933165371418},{"x":-0.019238311797380449,"y":0.0027034878730773927,"z":0.10338137298822403},{"x":-0.015211719088256359,"y":-0.03802590072154999,"z":0.29822996258735659},{"x":-0.0035972115583717825,"y":-0.053999751806259158,"z":0.4967977702617645},{"x":0.021839862689375879,"y":-0.053999751806259158,"z":0.7122461199760437},{"x":0.04736805334687233,"y":-0.053999751806259158,"z":0.9230545163154602},{"x":0.07393656671047211,"y":-0.05195900797843933,"z":1.1378353834152222},{"x":0.10012369602918625,"y":-0.04782481491565704,"z":1.348758578300476},{"x":0.1275738924741745,"y":-0.0431639701128006,"z":1.5689196586608887},{"x":0.15359099209308625,"y":-0.053999751806259158,"z":1.7760251760482789},{"x":0.1806894987821579,"y":-0.10550002008676529,"z":1.9907751083374024},{"x":2.058969883478312e-8,"y":0.0,"z":-3.7987986090115559e-9},{"x":2.058969883478312e-8,"y":0.0,"z":-3.7987986090115559e-9},{"x":2.058969883478312e-8,"y":0.0,"z":-3.7987986090115559e-9},{"x":2.058969883478312e-8,"y":0.0,"z":-3.7987986090115559e-9},{"x":2.058969883478312e-8,"y":0.0,"z":-3.7987986090115559e-9},{"x":2.058969883478312e-8,"y":0.0,"z":-3.7987986090115559e-9},{"x":2.058969883478312e-8,"y":0.0,"z":-3.7987986090115559e-9},{"x":2.058969883478312e-8,"y":0.0,"z":-3.7987986090115559e-9},{"x":2.058969883478312e-8,"y":0.0,"z":-3.7987986090115559e-9},{"x":2.058969883478312e-8,"y":0.0,"z":-3.7987986090115559e-9},{"x":2.058969883478312e-8,"y":0.0,"z":-3.7987986090115559e-9},{"x":2.058969883478312e-8,"y":0.0,"z":-3.7987986090115559e-9},{"x":2.058969883478312e-8,"y":0.0,"z":-3.7987986090115559e-9},{"x":2.058969883478312e-8,"y":0.0,"z":-3.7987986090115559e-9},{"x":2.058969883478312e-8,"y":0.0,"z":-3.7987986090115559e-9},{"x":2.058969883478312e-8,"y":0.0,"z":-3.7987986090115559e-9},{"x":2.058969883478312e-8,"y":0.0,"z":-3.7987986090115559e-9},{"x":2.058969883478312e-8,"y":0.0,"z":-3.7987986090115559e-9},{"x":2.058969883478312e-8,"y":0.0,"z":-3.7987986090115559e-9},{"x":2.058969883478312e-8,"y":0.0,"z":-3.7987986090115559e-9},{"x":2.058969883478312e-8,"y":0.0,"z":-3.7987986090115559e-9},{"x":2.058969883478312e-8,"y":0.0,"z":-3.7987986090115559e-9},{"x":2.058969883478312e-8,"y":0.0,"z":-3.7987986090115559e-9},{"x":2.058969883478312e-8,"y":0.0,"z":-3.7987986090115559e-9},{"x":2.058969883478312e-8,"y":0.0,"z":-3.7987986090115559e-9},{"x":2.058969883478312e-8,"y":0.0,"z":-3.7987986090115559e-9},{"x":2.058969883478312e-8,"y":0.0,"z":-3.7987986090115559e-9},{"x":2.058969883478312e-8,"y":0.0,"z":-3.7987986090115559e-9},{"x":2.058969883478312e-8,"y":0.0,"z":-3.7987986090115559e-9},{"x":2.058969883478312e-8,"y":0.0,"z":-3.7987986090115559e-9},{"x":2.058969883478312e-8,"y":0.0,"z":-3.7987986090115559e-9},{"x":2.058969883478312e-8,"y":0.0,"z":-3.7987986090115559e-9},{"x":2.058969883478312e-8,"y":0.0,"z":-3.7987986090115559e-9},{"x":2.058969883478312e-8,"y":0.0,"z":-3.7987986090115559e-9},{"x":2.058969883478312e-8,"y":0.0,"z":-3.7987986090115559e-9},{"x":2.058969883478312e-8,"y":0.0,"z":-3.7987986090115559e-9},{"x":2.058969883478312e-8,"y":0.0,"z":-3.7987986090115559e-9},{"x":2.058969883478312e-8,"y":0.0,"z":-3.7987986090115559e-9},{"x":2.058969883478312e-8,"y":0.0,"z":-3.7987986090115559e-9},{"x":2.058969883478312e-8,"y":0.0,"z":-3.7987986090115559e-9},{"x":2.058969883478312e-8,"y":0.0,"z":-3.7987986090115559e-9},{"x":2.058969883478312e-8,"y":0.0,"z":-3.7987986090115559e-9},{"x":2.058969883478312e-8,"y":0.0,"z":-3.7987986090115559e-9},{"x":2.058969883478312e-8,"y":0.0,"z":-3.7987986090115559e-9},{"x":2.058969883478312e-8,"y":0.0,"z":-3.7987986090115559e-9},{"x":2.058969883478312e-8,"y":0.0,"z":-3.7987986090115559e-9},{"x":2.058969883478312e-8,"y":0.0,"z":-3.7987986090115559e-9},{"x":2.058969883478312e-8,"y":0.0,"z":-3.7987986090115559e-9},{"x":2.058969883478312e-8,"y":0.0,"z":-3.7987986090115559e-9},{"x":2.058969883478312e-8,"y":0.0,"z":-3.7987986090115559e-9},{"x":2.058969883478312e-8,"y":0.0,"z":-3.7987986090115559e-9},{"x":2.058969883478312e-8,"y":0.0,"z":-3.7987986090115559e-9},{"x":2.058969883478312e-8,"y":0.0,"z":-3.7987986090115559e-9},{"x":2.058969883478312e-8,"y":0.0,"z":-3.7987986090115559e-9},{"x":2.058969883478312e-8,"y":0.0,"z":-3.7987986090115559e-9},{"x":2.058969883478312e-8,"y":0.0,"z":-3.7987986090115559e-9},{"x":2.058969883478312e-8,"y":0.0,"z":-3.7987986090115559e-9},{"x":2.058969883478312e-8,"y":0.0,"z":-3.7987986090115559e-9},{"x":2.058969883478312e-8,"y":0.0,"z":-3.7987986090115559e-9},{"x":2.058969883478312e-8,"y":0.0,"z":-3.7987986090115559e-9},{"x":2.058969883478312e-8,"y":0.0,"z":-3.7987986090115559e-9},{"x":2.058969883478312e-8,"y":0.0,"z":-3.7987986090115559e-9},{"x":2.058969883478312e-8,"y":0.0,"z":-3.7987986090115559e-9},{"x":2.058969883478312e-8,"y":0.0,"z":-3.7987986090115559e-9},{"x":2.058969883478312e-8,"y":0.0,"z":-3.7987986090115559e-9},{"x":2.058969883478312e-8,"y":0.0,"z":-3.7987986090115559e-9},{"x":2.058969883478312e-8,"y":0.0,"z":-3.7987986090115559e-9},{"x":2.058969883478312e-8,"y":0.0,"z":-3.7987986090115559e-9},{"x":2.058969883478312e-8,"y":0.0,"z":-3.7987986090115559e-9},{"x":2.058969883478312e-8,"y":0.0,"z":-3.7987986090115559e-9},{"x":2.058969883478312e-8,"y":0.0,"z":-3.7987986090115559e-9},{"x":2.058969883478312e-8,"y":0.0,"z":-3.7987986090115559e-9},{"x":2.058969883478312e-8,"y":0.0,"z":-3.7987986090115559e-9},{"x":2.058969883478312e-8,"y":0.0,"z":-3.7987986090115559e-9},{"x":2.058969883478312e-8,"y":0.0,"z":-3.7987986090115559e-9},{"x":2.058969883478312e-8,"y":0.0,"z":-3.7987986090115559e-9},{"x":2.058969883478312e-8,"y":0.0,"z":-3.7987986090115559e-9},{"x":2.058969883478312e-8,"y":0.0,"z":-3.7987986090115559e-9},{"x":2.058969883478312e-8,"y":0.0,"z":-3.7987986090115559e-9},{"x":2.058969883478312e-8,"y":0.0,"z":-3.7987986090115559e-9},{"x":2.058969883478312e-8,"y":0.0,"z":-3.7987986090115559e-9},{"x":2.058969883478312e-8,"y":0.0,"z":-3.7987986090115559e-9},{"x":2.058969883478312e-8,"y":0.0,"z":-3.7987986090115559e-9},{"x":2.058969883478312e-8,"y":0.0,"z":-3.7987986090115559e-9},{"x":2.058969883478312e-8,"y":0.0,"z":-3.7987986090115559e-9},{"x":2.058969883478312e-8,"y":0.0,"z":-3.7987986090115559e-9},{"x":2.058969883478312e-8,"y":0.0,"z":-3.7987986090115559e-9},{"x":2.058969883478312e-8,"y":0.0,"z":-3.7987986090115559e-9},{"x":2.058969883478312e-8,"y":0.0,"z":-3.7987986090115559e-9},{"x":2.058969883478312e-8,"y":0.0,"z":-3.7987986090115559e-9},{"x":2.058969883478312e-8,"y":0.0,"z":-3.7987986090115559e-9},{"x":2.058969883478312e-8,"y":0.0,"z":-3.7987986090115559e-9},{"x":2.058969883478312e-8,"y":0.0,"z":-3.7987986090115559e-9},{"x":2.058969883478312e-8,"y":0.0,"z":-3.7987986090115559e-9},{"x":2.058969883478312e-8,"y":0.0,"z":-3.7987986090115559e-9},{"x":2.058969883478312e-8,"y":0.0,"z":-3.7987986090115559e-9},{"x":2.058969883478312e-8,"y":0.0,"z":-3.7987986090115559e-9},{"x":2.058969883478312e-8,"y":0.0,"z":-3.7987986090115559e-9},{"x":2.058969883478312e-8,"y":0.0,"z":-3.7987986090115559e-9},{"x":2.058969883478312e-8,"y":0.0,"z":-3.7987986090115559e-9}],"restPositions":[{"x":-2.4457621574401857,"y":0.0,"z":0.0,"w":1.0},{"x":-2.321721315383911,"y":0.0,"z":0.00013242514978628606,"w":1.0},{"x":-2.196953058242798,"y":0.0,"z":0.0005079790134914219,"w":1.0},{"x":-2.0720934867858888,"y":0.0,"z":0.0010930342832580209,"w":1.0},{"x":-1.9477347135543824,"y":0.0,"z":0.0018535902490839363,"w":1.0},{"x":-1.8227988481521607,"y":0.0,"z":0.0027690634597092869,"w":1.0},{"x":-1.6983312368392945,"y":0.0,"z":0.0038072161842137577,"w":1.0},{"x":-1.5736637115478516,"y":0.0,"z":0.0049503641203045849,"w":1.0},{"x":-1.4488788843154908,"y":0.0,"z":0.00617685541510582,"w":1.0},{"x":-1.3243824243545533,"y":0.0,"z":0.00746256485581398,"w":1.0},{"x":-1.1995761394500733,"y":0.0,"z":0.008794651366770268,"w":1.0},{"x":-1.0750432014465333,"y":0.0,"z":0.010148673318326474,"w":1.0},{"x":-0.9503471851348877,"y":0.0,"z":0.011511624790728093,"w":1.0},{"x":-0.8257092833518982,"y":0.0,"z":0.012863720767199993,"w":1.0},{"x":-0.701043426990509,"y":0.0,"z":0.014188677072525025,"w":1.0},{"x":-0.5764317512512207,"y":0.0,"z":0.015468397177755833,"w":1.0},{"x":-0.4517173171043396,"y":0.0,"z":0.016687020659446718,"w":1.0},{"x":-0.3271138370037079,"y":0.0,"z":0.01782466657459736,"w":1.0},{"x":-0.20242147147655488,"y":0.0,"z":0.018864795565605165,"w":1.0},{"x":-0.07773176580667496,"y":0.0,"z":0.019787397235631944,"w":1.0},{"x":0.046781450510025027,"y":0.0,"z":0.02057134546339512,"w":1.0},{"x":0.17164263129234315,"y":0.0,"z":0.021198241040110589,"w":1.0},{"x":0.29605117440223696,"y":0.0,"z":0.02164142020046711,"w":1.0},{"x":0.4209239184856415,"y":0.0,"z":0.021879294887185098,"w":1.0},{"x":0.5455943942070007,"y":0.0,"z":0.021882858127355577,"w":1.0},{"x":0.6699802279472351,"y":0.0,"z":0.02162373811006546,"w":1.0},{"x":0.7950160503387451,"y":0.0,"z":0.021065490320324899,"w":1.0},{"x":0.9194204211235046,"y":0.0,"z":0.020176487043499948,"w":1.0},{"x":1.0440919399261475,"y":0.0,"z":0.018909338861703874,"w":1.0},{"x":1.1690346002578736,"y":0.0,"z":0.01721259206533432,"w":1.0},{"x":1.2932841777801514,"y":0.0,"z":0.015044975094497204,"w":1.0},{"x":1.4179847240447999,"y":0.0,"z":0.012321120128035546,"w":1.0},{"x":1.5429824590682984,"y":0.0,"z":0.008959073573350907,"w":1.0},{"x":1.6673803329467774,"y":0.0,"z":0.004888060037046671,"w":1.0},{"x":1.7911680936813355,"y":0.0,"z":0.0,"w":1.0},{"x":0.0,"y":0.0,"z":0.0,"w":0.0},{"x":0.0,"y":0.0,"z":0.0,"w":0.0},{"x":0.0,"y":0.0,"z":0.0,"w":0.0},{"x":0.0,"y":0.0,"z":0.0,"w":0.0},{"x":0.0,"y":0.0,"z":0.0,"w":0.0},{"x":0.0,"y":0.0,"z":0.0,"w":0.0},{"x":0.0,"y":0.0,"z":0.0,"w":0.0},{"x":0.0,"y":0.0,"z":0.0,"w":0.0},{"x":0.0,"y":0.0,"z":0.0,"w":0.0},{"x":0.0,"y":0.0,"z":0.0,"w":0.0},{"x":0.0,"y":0.0,"z":0.0,"w":0.0},{"x":0.0,"y":0.0,"z":0.0,"w":0.0},{"x":0.0,"y":0.0,"z":0.0,"w":0.0},{"x":0.0,"y":0.0,"z":0.0,"w":0.0},{"x":0.0,"y":0.0,"z":0.0,"w":0.0},{"x":0.0,"y":0.0,"z":0.0,"w":0.0},{"x":0.0,"y":0.0,"z":0.0,"w":0.0},{"x":0.0,"y":0.0,"z":0.0,"w":0.0},{"x":0.0,"y":0.0,"z":0.0,"w":0.0},{"x":0.0,"y":0.0,"z":0.0,"w":0.0},{"x":0.0,"y":0.0,"z":0.0,"w":0.0},{"x":0.0,"y":0.0,"z":0.0,"w":0.0},{"x":0.0,"y":0.0,"z":0.0,"w":0.0},{"x":0.0,"y":0.0,"z":0.0,"w":0.0},{"x":0.0,"y":0.0,"z":0.0,"w":0.0},{"x":0.0,"y":0.0,"z":0.0,"w":0.0},{"x":0.0,"y":0.0,"z":0.0,"w":0.0},{"x":0.0,"y":0.0,"z":0.0,"w":0.0},{"x":0.0,"y":0.0,"z":0.0,"w":0.0},{"x":0.0,"y":0.0,"z":0.0,"w":0.0},{"x":0.0,"y":0.0,"z":0.0,"w":0.0},{"x":0.0,"y":0.0,"z":0.0,"w":0.0},{"x":0.0,"y":0.0,"z":0.0,"w":0.0},{"x":0.0,"y":0.0,"z":0.0,"w":0.0},{"x":0.0,"y":0.0,"z":0.0,"w":0.0},{"x":0.0,"y":0.0,"z":0.0,"w":0.0},{"x":0.0,"y":0.0,"z":0.0,"w":0.0},{"x":0.0,"y":0.0,"z":0.0,"w":0.0},{"x":0.0,"y":0.0,"z":0.0,"w":0.0},{"x":0.0,"y":0.0,"z":0.0,"w":0.0},{"x":0.0,"y":0.0,"z":0.0,"w":0.0},{"x":0.0,"y":0.0,"z":0.0,"w":0.0},{"x":0.0,"y":0.0,"z":0.0,"w":0.0},{"x":0.0,"y":0.0,"z":0.0,"w":0.0},{"x":0.0,"y":0.0,"z":0.0,"w":0.0},{"x":0.0,"y":0.0,"z":0.0,"w":0.0},{"x":0.0,"y":0.0,"z":0.0,"w":0.0},{"x":0.0,"y":0.0,"z":0.0,"w":0.0},{"x":0.0,"y":0.0,"z":0.0,"w":0.0},{"x":0.0,"y":0.0,"z":0.0,"w":0.0},{"x":0.0,"y":0.0,"z":0.0,"w":0.0},{"x":0.0,"y":0.0,"z":0.0,"w":0.0},{"x":0.0,"y":0.0,"z":0.0,"w":0.0},{"x":0.0,"y":0.0,"z":0.0,"w":0.0},{"x":0.0,"y":0.0,"z":0.0,"w":0.0},{"x":0.0,"y":0.0,"z":0.0,"w":0.0},{"x":0.0,"y":0.0,"z":0.0,"w":0.0},{"x":0.0,"y":0.0,"z":0.0,"w":0.0},{"x":0.0,"y":0.0,"z":0.0,"w":0.0},{"x":0.0,"y":0.0,"z":0.0,"w":0.0},{"x":0.0,"y":0.0,"z":0.0,"w":0.0},{"x":0.0,"y":0.0,"z":0.0,"w":0.0},{"x":0.0,"y":0.0,"z":0.0,"w":0.0},{"x":0.0,"y":0.0,"z":0.0,"w":0.0},{"x":0.0,"y":0.0,"z":0.0,"w":0.0},{"x":0.0,"y":0.0,"z":0.0,"w":0.0},{"x":0.0,"y":0.0,"z":0.0,"w":0.0},{"x":0.0,"y":0.0,"z":0.0,"w":0.0},{"x":0.0,"y":0.0,"z":0.0,"w":0.0},{"x":0.0,"y":0.0,"z":0.0,"w":0.0},{"x":0.0,"y":0.0,"z":0.0,"w":0.0},{"x":0.0,"y":0.0,"z":0.0,"w":0.0},{"x":0.0,"y":0.0,"z":0.0,"w":0.0},{"x":0.0,"y":0.0,"z":0.0,"w":0.0},{"x":0.0,"y":0.0,"z":0.0,"w":0.0},{"x":0.0,"y":0.0,"z":0.0,"w":0.0},{"x":0.0,"y":0.0,"z":0.0,"w":0.0},{"x":0.0,"y":0.0,"z":0.0,"w":0.0},{"x":0.0,"y":0.0,"z":0.0,"w":0.0},{"x":0.0,"y":0.0,"z":0.0,"w":0.0},{"x":0.0,"y":0.0,"z":0.0,"w":0.0},{"x":0.0,"y":0.0,"z":0.0,"w":0.0},{"x":0.0,"y":0.0,"z":0.0,"w":0.0},{"x":0.0,"y":0.0,"z":0.0,"w":0.0},{"x":0.0,"y":0.0,"z":0.0,"w":0.0},{"x":0.0,"y":0.0,"z":0.0,"w":0.0},{"x":0.0,"y":0.0,"z":0.0,"w":0.0},{"x":0.0,"y":0.0,"z":0.0,"w":0.0},{"x":0.0,"y":0.0,"z":0.0,"w":0.0},{"x":0.0,"y":0.0,"z":0.0,"w":0.0},{"x":0.0,"y":0.0,"z":0.0,"w":0.0},{"x":0.0,"y":0.0,"z":0.0,"w":0.0},{"x":0.0,"y":0.0,"z":0.0,"w":0.0},{"x":0.0,"y":0.0,"z":0.0,"w":0.0},{"x":0.0,"y":0.0,"z":0.0,"w":0.0},{"x":0.0,"y":0.0,"z":0.0,"w":0.0},{"x":0.0,"y":0.0,"z":0.0,"w":0.0},{"x":0.0,"y":0.0,"z":0.0,"w":0.0},{"x":0.0,"y":0.0,"z":0.0,"w":0.0},{"x":0.0,"y":0.0,"z":0.0,"w":0.0}],"orientations":[],"restOrientations":[],"velocities":[{"x":0.0,"y":0.0,"z":0.0},{"x":0.0,"y":0.0,"z":0.0},{"x":0.0,"y":0.0,"z":0.0},{"x":0.0,"y":0.0,"z":0.0},{"x":0.0,"y":0.0,"z":0.0},{"x":0.0,"y":0.0,"z":0.0},{"x":-0.0044137900695204739,"y":-0.13096894323825837,"z":0.026585441082715989},{"x":-0.03260072320699692,"y":-0.2431378811597824,"z":0.057129453867673877},{"x":-0.04729869216680527,"y":-0.33437061309814455,"z":0.09467962384223938},{"x":-0.044107310473918918,"y":-0.3957967162132263,"z":0.13705222308635713},{"x":-0.023463867604732515,"y":-0.4277662932872772,"z":0.17999093234539033},{"x":0.011628486216068268,"y":-0.44075530767440798,"z":0.21964210271835328},{"x":0.05512683093547821,"y":-0.4471862316131592,"z":0.25223591923713686},{"x":0.09709025919437409,"y":-0.4541656970977783,"z":0.27301883697509768},{"x":0.13163022696971894,"y":-0.4584961235523224,"z":0.2793691158294678},{"x":0.16206397116184236,"y":-0.4574034810066223,"z":0.2750092148780823},{"x":0.20818443596363069,"y":-0.46876686811447146,"z":0.27709251642227175},{"x":0.22175510227680207,"y":-0.45689061284065249,"z":0.24381721019744874},{"x":0.21732889115810395,"y":-0.4106699228286743,"z":0.16280750930309297},{"x":0.23729561269283296,"y":-0.354878693819046,"z":0.11368027329444885},{"x":0.18671458959579469,"y":-0.29744625091552737,"z":-0.017636077478528024},{"x":0.21260234713554383,"y":-0.2917734980583191,"z":-0.002509551588445902},{"x":0.27500301599502566,"y":-0.3643020987510681,"z":0.08508824557065964},{"x":0.18378174304962159,"y":-0.31529855728149416,"z":0.10900547355413437},{"x":0.1365301012992859,"y":-0.2449730634689331,"z":0.10766713321208954},{"x":0.0972617045044899,"y":-0.19091887772083283,"z":0.10811840742826462},{"x":0.08745799958705902,"y":-0.09195297956466675,"z":0.12234438955783844},{"x":0.04527955502271652,"y":0.0,"z":0.17775656282901765},{"x":0.053213931620121,"y":0.0,"z":0.11333070695400238},{"x":0.0375237874686718,"y":0.0,"z":0.09769511222839356},{"x":0.04452601447701454,"y":-0.010368876159191132,"z":0.10413668304681778},{"x":0.04548308625817299,"y":-0.01446514017879963,"z":0.1066969707608223},{"x":0.02824031375348568,"y":0.00223432551138103,"z":0.06983353942632675},{"x":0.027876760810613633,"y":0.0,"z":0.08439908176660538},{"x":0.0,"y":0.0,"z":0.0},{"x":0.0,"y":0.0,"z":0.0},{"x":0.0,"y":0.0,"z":0.0},{"x":0.0,"y":0.0,"z":0.0},{"x":0.0,"y":0.0,"z":0.0},{"x":0.0,"y":0.0,"z":0.0},{"x":0.0,"y":0.0,"z":0.0},{"x":0.0,"y":0.0,"z":0.0},{"x":0.0,"y":0.0,"z":0.0},{"x":0.0,"y":0.0,"z":0.0},{"x":0.0,"y":0.0,"z":0.0},{"x":0.0,"y":0.0,"z":0.0},{"x":0.0,"y":0.0,"z":0.0},{"x":0.0,"y":0.0,"z":0.0},{"x":0.0,"y":0.0,"z":0.0},{"x":0.0,"y":0.0,"z":0.0},{"x":0.0,"y":0.0,"z":0.0},{"x":0.0,"y":0.0,"z":0.0},{"x":0.0,"y":0.0,"z":0.0},{"x":0.0,"y":0.0,"z":0.0},{"x":0.0,"y":0.0,"z":0.0},{"x":0.0,"y":0.0,"z":0.0},{"x":0.0,"y":0.0,"z":0.0},{"x":0.0,"y":0.0,"z":0.0},{"x":0.0,"y":0.0,"z":0.0},{"x":0.0,"y":0.0,"z":0.0},{"x":0.0,"y":0.0,"z":0.0},{"x":0.0,"y":0.0,"z":0.0},{"x":0.0,"y":0.0,"z":0.0},{"x":0.0,"y":0.0,"z":0.0},{"x":0.0,"y":0.0,"z":0.0},{"x":0.0,"y":0.0,"z":0.0},{"x":0.0,"y":0.0,"z":0.0},{"x":0.0,"y":0.0,"z":0.0},{"x":0.0,"y":0.0,"z":0.0},{"x":0.0,"y":0.0,"z":0.0},{"x":0.0,"y":0.0,"z":0.0},{"x":0.0,"y":0.0,"z":0.0},{"x":0.0,"y":0.0,"z":0.0},{"x":0.0,"y":0.0,"z":0.0},{"x":0.0,"y":0.0,"z":0.0},{"x":0.0,"y":0.0,"z":0.0},{"x":0.0,"y":0.0,"z":0.0},{"x":0.0,"y":0.0,"z":0.0},{"x":0.0,"y":0.0,"z":0.0},{"x":0.0,"y":0.0,"z":0.0},{"x":0.0,"y":0.0,"z":0.0},{"x":0.0,"y":0.0,"z":0.0},{"x":0.0,"y":0.0,"z":0.0},{"x":0.0,"y":0.0,"z":0.0},{"x":0.0,"y":0.0,"z":0.0},{"x":0.0,"y":0.0,"z":0.0},{"x":0.0,"y":0.0,"z":0.0},{"x":0.0,"y":0.0,"z":0.0},{"x":0.0,"y":0.0,"z":0.0},{"x":0.0,"y":0.0,"z":0.0},{"x":0.0,"y":0.0,"z":0.0},{"x":0.0,"y":0.0,"z":0.0},{"x":0.0,"y":0.0,"z":0.0},{"x":0.0,"y":0.0,"z":0.0},{"x":0.0,"y":0.0,"z":0.0},{"x":0.0,"y":0.0,"z":0.0},{"x":0.0,"y":0.0,"z":0.0},{"x":0.0,"y":0.0,"z":0.0},{"x":0.0,"y":0.0,"z":0.0},{"x":0.0,"y":0.0,"z":0.0},{"x":0.0,"y":0.0,"z":0.0},{"x":0.0,"y":0.0,"z":0.0},{"x":0.0,"y":0.0,"z":0.0},{"x":0.0,"y":0.0,"z":0.0},{"x":0.0,"y":0.0,"z":0.0},{"x":0.0,"y":0.0,"z":0.0},{"x":0.0,"y":0.0,"z":0.0},{"x":0.0,"y":0.0,"z":0.0},{"x":0.0,"y":0.0,"z":0.0},{"x":0.0,"y":0.0,"z":0.0},{"x":0.0,"y":0.0,"z":0.0},{"x":0.0,"y":0.0,"z":0.0},{"x":0.0,"y":0.0,"z":0.0},{"x":0.0,"y":0.0,"z":0.0},{"x":0.0,"y":0.0,"z":0.0},{"x":0.0,"y":0.0,"z":0.0},{"x":0.0,"y":0.0,"z":0.0},{"x":0.0,"y":0.0,"z":0.0},{"x":0.0,"y":0.0,"z":0.0},{"x":0.0,"y":0.0,"z":0.0},{"x":0.0,"y":0.0,"z":0.0},{"x":0.0,"y":0.0,"z":0.0},{"x":0.0,"y":0.0,"z":0.0},{"x":0.0,"y":0.0,"z":0.0},{"x":0.0,"y":0.0,"z":0.0},{"x":0.0,"y":0.0,"z":0.0},{"x":0.0,"y":0.0,"z":0.0},{"x":0.0,"y":0.0,"z":0.0},{"x":0.0,"y":0.0,"z":0.0},{"x":0.0,"y":0.0,"z":0.0},{"x":0.0,"y":0.0,"z":0.0},{"x":0.0,"y":0.0,"z":0.0},{"x":0.0,"y":0.0,"z":0.0},{"x":0.0,"y":0.0,"z":0.0},{"x":0.0,"y":0.0,"z":0.0}],"angularVelocities":[],"invMasses":[1.0,10.0,9.999999046325684,10.0,10.0,10.000000953674317,9.999999046325684,10.0,10.0,10.0,10.0,10.000000953674317,10.000000953674317,10.000000953674317,10.0,10.0,10.0,9.999999046325684,10.0,10.0,10.0,10.0,10.0,10.0,10.0,10.0,10.0,10.0,10.0,10.0,10.0,10.0,10.0,10.0,10.0,0.0,0.0,0.0,0.0,0.0,0.0,0.0,0.0,0.0,0.0,0.0,0.0,0.0,0.0,0.0,0.0,0.0,0.0,0.0,0.0,0.0,0.0,0.0,0.0,0.0,0.0,0.0,0.0,0.0,0.0,0.0,0.0,0.0,0.0,0.0,0.0,0.0,0.0,0.0,0.0,0.0,0.0,0.0,0.0,0.0,0.0,0.0,0.0,0.0,0.0,0.0,0.0,0.0,0.0,0.0,0.0,0.0,0.0,0.0,0.0,0.0,0.0,0.0,0.0,0.0,0.0,0.0,0.0,0.0,0.0,0.0,0.0,0.0,0.0,0.0,0.0,0.0,0.0,0.0,0.0,0.0,0.0,0.0,0.0,0.0,0.0,0.0,0.0,0.0,0.0,0.0,0.0,0.0,0.0,0.0,0.0,0.0,0.0,0.0,0.0],"invRotationalMasses":[],"phases":[1,1,1,1,1,1,1,1,1,1,1,1,1,1,1,1,1,1,1,1,1,1,1,1,1,1,1,1,1,1,1,1,1,1,1,0,0,0,0,0,0,0,0,0,0,0,0,0,0,0,0,0,0,0,0,0,0,0,0,0,0,0,0,0,0,0,0,0,0,0,0,0,0,0,0,0,0,0,0,0,0,0,0,0,0,0,0,0,0,0,0,0,0,0,0,0,0,0,0,0,0,0,0,0,0,0,0,0,0,0,0,0,0,0,0,0,0,0,0,0,0,0,0,0,0,0,0,0,0,0,0,0,0,0,0],"principalRadii":[{"x":0.125,"y":0.125,"z":0.125},{"x":0.125,"y":0.125,"z":0.125},{"x":0.1250000149011612,"y":0.1250000149011612,"z":0.1250000149011612},{"x":0.125,"y":0.125,"z":0.125},{"x":0.125,"y":0.125,"z":0.125},{"x":0.1249999925494194,"y":0.1249999925494194,"z":0.1249999925494194},{"x":0.1250000149011612,"y":0.1250000149011612,"z":0.1250000149011612},{"x":0.125,"y":0.125,"z":0.125},{"x":0.125,"y":0.125,"z":0.125},{"x":0.125,"y":0.125,"z":0.125},{"x":0.125,"y":0.125,"z":0.125},{"x":0.1249999925494194,"y":0.1249999925494194,"z":0.1249999925494194},{"x":0.1249999925494194,"y":0.1249999925494194,"z":0.1249999925494194},{"x":0.1249999925494194,"y":0.1249999925494194,"z":0.1249999925494194},{"x":0.125,"y":0.125,"z":0.125},{"x":0.125,"y":0.125,"z":0.125},{"x":0.125,"y":0.125,"z":0.125},{"x":0.1250000149011612,"y":0.1250000149011612,"z":0.1250000149011612},{"x":0.125,"y":0.125,"z":0.125},{"x":0.125,"y":0.125,"z":0.125},{"x":0.125,"y":0.125,"z":0.125},{"x":0.125,"y":0.125,"z":0.125},{"x":0.125,"y":0.125,"z":0.125},{"x":0.125,"y":0.125,"z":0.125},{"x":0.125,"y":0.125,"z":0.125},{"x":0.125,"y":0.125,"z":0.125},{"x":0.125,"y":0.125,"z":0.125},{"x":0.125,"y":0.125,"z":0.125},{"x":0.125,"y":0.125,"z":0.125},{"x":0.125,"y":0.125,"z":0.125},{"x":0.125,"y":0.125,"z":0.125},{"x":0.125,"y":0.125,"z":0.125},{"x":0.125,"y":0.125,"z":0.125},{"x":0.125,"y":0.125,"z":0.125},{"x":0.125,"y":0.125,"z":0.125},{"x":0.0,"y":0.0,"z":0.0},{"x":0.0,"y":0.0,"z":0.0},{"x":0.0,"y":0.0,"z":0.0},{"x":0.0,"y":0.0,"z":0.0},{"x":0.0,"y":0.0,"z":0.0},{"x":0.0,"y":0.0,"z":0.0},{"x":0.0,"y":0.0,"z":0.0},{"x":0.0,"y":0.0,"z":0.0},{"x":0.0,"y":0.0,"z":0.0},{"x":0.0,"y":0.0,"z":0.0},{"x":0.0,"y":0.0,"z":0.0},{"x":0.0,"y":0.0,"z":0.0},{"x":0.0,"y":0.0,"z":0.0},{"x":0.0,"y":0.0,"z":0.0},{"x":0.0,"y":0.0,"z":0.0},{"x":0.0,"y":0.0,"z":0.0},{"x":0.0,"y":0.0,"z":0.0},{"x":0.0,"y":0.0,"z":0.0},{"x":0.0,"y":0.0,"z":0.0},{"x":0.0,"y":0.0,"z":0.0},{"x":0.0,"y":0.0,"z":0.0},{"x":0.0,"y":0.0,"z":0.0},{"x":0.0,"y":0.0,"z":0.0},{"x":0.0,"y":0.0,"z":0.0},{"x":0.0,"y":0.0,"z":0.0},{"x":0.0,"y":0.0,"z":0.0},{"x":0.0,"y":0.0,"z":0.0},{"x":0.0,"y":0.0,"z":0.0},{"x":0.0,"y":0.0,"z":0.0},{"x":0.0,"y":0.0,"z":0.0},{"x":0.0,"y":0.0,"z":0.0},{"x":0.0,"y":0.0,"z":0.0},{"x":0.0,"y":0.0,"z":0.0},{"x":0.0,"y":0.0,"z":0.0},{"x":0.0,"y":0.0,"z":0.0},{"x":0.0,"y":0.0,"z":0.0},{"x":0.0,"y":0.0,"z":0.0},{"x":0.0,"y":0.0,"z":0.0},{"x":0.0,"y":0.0,"z":0.0},{"x":0.0,"y":0.0,"z":0.0},{"x":0.0,"y":0.0,"z":0.0},{"x":0.0,"y":0.0,"z":0.0},{"x":0.0,"y":0.0,"z":0.0},{"x":0.0,"y":0.0,"z":0.0},{"x":0.0,"y":0.0,"z":0.0},{"x":0.0,"y":0.0,"z":0.0},{"x":0.0,"y":0.0,"z":0.0},{"x":0.0,"y":0.0,"z":0.0},{"x":0.0,"y":0.0,"z":0.0},{"x":0.0,"y":0.0,"z":0.0},{"x":0.0,"y":0.0,"z":0.0},{"x":0.0,"y":0.0,"z":0.0},{"x":0.0,"y":0.0,"z":0.0},{"x":0.0,"y":0.0,"z":0.0},{"x":0.0,"y":0.0,"z":0.0},{"x":0.0,"y":0.0,"z":0.0},{"x":0.0,"y":0.0,"z":0.0},{"x":0.0,"y":0.0,"z":0.0},{"x":0.0,"y":0.0,"z":0.0},{"x":0.0,"y":0.0,"z":0.0},{"x":0.0,"y":0.0,"z":0.0},{"x":0.0,"y":0.0,"z":0.0},{"x":0.0,"y":0.0,"z":0.0},{"x":0.0,"y":0.0,"z":0.0},{"x":0.0,"y":0.0,"z":0.0},{"x":0.0,"y":0.0,"z":0.0},{"x":0.0,"y":0.0,"z":0.0},{"x":0.0,"y":0.0,"z":0.0},{"x":0.0,"y":0.0,"z":0.0},{"x":0.0,"y":0.0,"z":0.0},{"x":0.0,"y":0.0,"z":0.0},{"x":0.0,"y":0.0,"z":0.0},{"x":0.0,"y":0.0,"z":0.0},{"x":0.0,"y":0.0,"z":0.0},{"x":0.0,"y":0.0,"z":0.0},{"x":0.0,"y":0.0,"z":0.0},{"x":0.0,"y":0.0,"z":0.0},{"x":0.0,"y":0.0,"z":0.0},{"x":0.0,"y":0.0,"z":0.0},{"x":0.0,"y":0.0,"z":0.0},{"x":0.0,"y":0.0,"z":0.0},{"x":0.0,"y":0.0,"z":0.0},{"x":0.0,"y":0.0,"z":0.0},{"x":0.0,"y":0.0,"z":0.0},{"x":0.0,"y":0.0,"z":0.0},{"x":0.0,"y":0.0,"z":0.0},{"x":0.0,"y":0.0,"z":0.0},{"x":0.0,"y":0.0,"z":0.0},{"x":0.0,"y":0.0,"z":0.0},{"x":0.0,"y":0.0,"z":0.0},{"x":0.0,"y":0.0,"z":0.0},{"x":0.0,"y":0.0,"z":0.0},{"x":0.0,"y":0.0,"z":0.0},{"x":0.0,"y":0.0,"z":0.0},{"x":0.0,"y":0.0,"z":0.0},{"x":0.0,"y":0.0,"z":0.0},{"x":0.0,"y":0.0,"z":0.0},{"x":0.0,"y":0.0,"z":0.0},{"x":0.0,"y":0.0,"z":0.0},{"x":0.0,"y":0.0,"z":0.0}],"colors":[{"r":1.0,"g":1.0,"b":1.0,"a":1.0},{"r":1.0,"g":1.0,"b":1.0,"a":1.0},{"r":1.0000001192092896,"g":1.0000001192092896,"b":1.0000001192092896,"a":1.0000001192092896},{"r":1.0,"g":1.0,"b":1.0,"a":1.0},{"r":1.0,"g":1.0,"b":1.0,"a":1.0},{"r":0.9999999403953552,"g":0.9999999403953552,"b":0.9999999403953552,"a":0.9999999403953552},{"r":1.0000001192092896,"g":1.0000001192092896,"b":1.0000001192092896,"a":1.0000001192092896},{"r":1.0,"g":1.0,"b":1.0,"a":1.0},{"r":1.0,"g":1.0,"b":1.0,"a":1.0},{"r":1.0,"g":1.0,"b":1.0,"a":1.0},{"r":1.0,"g":1.0,"b":1.0,"a":1.0},{"r":0.9999999403953552,"g":0.9999999403953552,"b":0.9999999403953552,"a":0.9999999403953552},{"r":0.9999999403953552,"g":0.9999999403953552,"b":0.9999999403953552,"a":0.9999999403953552},{"r":0.9999999403953552,"g":0.9999999403953552,"b":0.9999999403953552,"a":0.9999999403953552},{"r":1.0,"g":1.0,"b":1.0,"a":1.0},{"r":1.0,"g":1.0,"b":1.0,"a":1.0},{"r":1.0,"g":1.0,"b":1.0,"a":1.0},{"r":1.0000001192092896,"g":1.0000001192092896,"b":1.0000001192092896,"a":1.0000001192092896},{"r":1.0,"g":1.0,"b":1.0,"a":1.0},{"r":1.0,"g":1.0,"b":1.0,"a":1.0},{"r":1.0,"g":1.0,"b":1.0,"a":1.0},{"r":1.0,"g":1.0,"b":1.0,"a":1.0},{"r":1.0,"g":1.0,"b":1.0,"a":1.0},{"r":1.0,"g":1.0,"b":1.0,"a":1.0},{"r":1.0,"g":1.0,"b":1.0,"a":1.0},{"r":1.0,"g":1.0,"b":1.0,"a":1.0},{"r":1.0,"g":1.0,"b":1.0,"a":1.0},{"r":1.0,"g":1.0,"b":1.0,"a":1.0},{"r":1.0,"g":1.0,"b":1.0,"a":1.0},{"r":1.0,"g":1.0,"b":1.0,"a":1.0},{"r":1.0,"g":1.0,"b":1.0,"a":1.0},{"r":1.0,"g":1.0,"b":1.0,"a":1.0},{"r":1.0,"g":1.0,"b":1.0,"a":1.0},{"r":1.0,"g":1.0,"b":1.0,"a":1.0},{"r":1.0,"g":1.0,"b":1.0,"a":1.0},{"r":0.0,"g":0.0,"b":0.0,"a":0.0},{"r":0.0,"g":0.0,"b":0.0,"a":0.0},{"r":0.0,"g":0.0,"b":0.0,"a":0.0},{"r":0.0,"g":0.0,"b":0.0,"a":0.0},{"r":0.0,"g":0.0,"b":0.0,"a":0.0},{"r":0.0,"g":0.0,"b":0.0,"a":0.0},{"r":0.0,"g":0.0,"b":0.0,"a":0.0},{"r":0.0,"g":0.0,"b":0.0,"a":0.0},{"r":0.0,"g":0.0,"b":0.0,"a":0.0},{"r":0.0,"g":0.0,"b":0.0,"a":0.0},{"r":0.0,"g":0.0,"b":0.0,"a":0.0},{"r":0.0,"g":0.0,"b":0.0,"a":0.0},{"r":0.0,"g":0.0,"b":0.0,"a":0.0},{"r":0.0,"g":0.0,"b":0.0,"a":0.0},{"r":0.0,"g":0.0,"b":0.0,"a":0.0},{"r":0.0,"g":0.0,"b":0.0,"a":0.0},{"r":0.0,"g":0.0,"b":0.0,"a":0.0},{"r":0.0,"g":0.0,"b":0.0,"a":0.0},{"r":0.0,"g":0.0,"b":0.0,"a":0.0},{"r":0.0,"g":0.0,"b":0.0,"a":0.0},{"r":0.0,"g":0.0,"b":0.0,"a":0.0},{"r":0.0,"g":0.0,"b":0.0,"a":0.0},{"r":0.0,"g":0.0,"b":0.0,"a":0.0},{"r":0.0,"g":0.0,"b":0.0,"a":0.0},{"r":0.0,"g":0.0,"b":0.0,"a":0.0},{"r":0.0,"g":0.0,"b":0.0,"a":0.0},{"r":0.0,"g":0.0,"b":0.0,"a":0.0},{"r":0.0,"g":0.0,"b":0.0,"a":0.0},{"r":0.0,"g":0.0,"b":0.0,"a":0.0},{"r":0.0,"g":0.0,"b":0.0,"a":0.0},{"r":0.0,"g":0.0,"b":0.0,"a":0.0},{"r":0.0,"g":0.0,"b":0.0,"a":0.0},{"r":0.0,"g":0.0,"b":0.0,"a":0.0},{"r":0.0,"g":0.0,"b":0.0,"a":0.0},{"r":0.0,"g":0.0,"b":0.0,"a":0.0},{"r":0.0,"g":0.0,"b":0.0,"a":0.0},{"r":0.0,"g":0.0,"b":0.0,"a":0.0},{"r":0.0,"g":0.0,"b":0.0,"a":0.0},{"r":0.0,"g":0.0,"b":0.0,"a":0.0},{"r":0.0,"g":0.0,"b":0.0,"a":0.0},{"r":0.0,"g":0.0,"b":0.0,"a":0.0},{"r":0.0,"g":0.0,"b":0.0,"a":0.0},{"r":0.0,"g":0.0,"b":0.0,"a":0.0},{"r":0.0,"g":0.0,"b":0.0,"a":0.0},{"r":0.0,"g":0.0,"b":0.0,"a":0.0},{"r":0.0,"g":0.0,"b":0.0,"a":0.0},{"r":0.0,"g":0.0,"b":0.0,"a":0.0},{"r":0.0,"g":0.0,"b":0.0,"a":0.0},{"r":0.0,"g":0.0,"b":0.0,"a":0.0},{"r":0.0,"g":0.0,"b":0.0,"a":0.0},{"r":0.0,"g":0.0,"b":0.0,"a":0.0},{"r":0.0,"g":0.0,"b":0.0,"a":0.0},{"r":0.0,"g":0.0,"b":0.0,"a":0.0},{"r":0.0,"g":0.0,"b":0.0,"a":0.0},{"r":0.0,"g":0.0,"b":0.0,"a":0.0},{"r":0.0,"g":0.0,"b":0.0,"a":0.0},{"r":0.0,"g":0.0,"b":0.0,"a":0.0},{"r":0.0,"g":0.0,"b":0.0,"a":0.0},{"r":0.0,"g":0.0,"b":0.0,"a":0.0},{"r":0.0,"g":0.0,"b":0.0,"a":0.0},{"r":0.0,"g":0.0,"b":0.0,"a":0.0},{"r":0.0,"g":0.0,"b":0.0,"a":0.0},{"r":0.0,"g":0.0,"b":0.0,"a":0.0},{"r":0.0,"g":0.0,"b":0.0,"a":0.0},{"r":0.0,"g":0.0,"b":0.0,"a":0.0},{"r":0.0,"g":0.0,"b":0.0,"a":0.0},{"r":0.0,"g":0.0,"b":0.0,"a":0.0},{"r":0.0,"g":0.0,"b":0.0,"a":0.0},{"r":0.0,"g":0.0,"b":0.0,"a":0.0},{"r":0.0,"g":0.0,"b":0.0,"a":0.0},{"r":0.0,"g":0.0,"b":0.0,"a":0.0},{"r":0.0,"g":0.0,"b":0.0,"a":0.0},{"r":0.0,"g":0.0,"b":0.0,"a":0.0},{"r":0.0,"g":0.0,"b":0.0,"a":0.0},{"r":0.0,"g":0.0,"b":0.0,"a":0.0},{"r":0.0,"g":0.0,"b":0.0,"a":0.0},{"r":0.0,"g":0.0,"b":0.0,"a":0.0},{"r":0.0,"g":0.0,"b":0.0,"a":0.0},{"r":0.0,"g":0.0,"b":0.0,"a":0.0},{"r":0.0,"g":0.0,"b":0.0,"a":0.0},{"r":0.0,"g":0.0,"b":0.0,"a":0.0},{"r":0.0,"g":0.0,"b":0.0,"a":0.0},{"r":0.0,"g":0.0,"b":0.0,"a":0.0},{"r":0.0,"g":0.0,"b":0.0,"a":0.0},{"r":0.0,"g":0.0,"b":0.0,"a":0.0},{"r":0.0,"g":0.0,"b":0.0,"a":0.0},{"r":0.0,"g":0.0,"b":0.0,"a":0.0},{"r":0.0,"g":0.0,"b":0.0,"a":0.0},{"r":0.0,"g":0.0,"b":0.0,"a":0.0},{"r":0.0,"g":0.0,"b":0.0,"a":0.0},{"r":0.0,"g":0.0,"b":0.0,"a":0.0},{"r":0.0,"g":0.0,"b":0.0,"a":0.0},{"r":0.0,"g":0.0,"b":0.0,"a":0.0},{"r":0.0,"g":0.0,"b":0.0,"a":0.0},{"r":0.0,"g":0.0,"b":0.0,"a":0.0},{"r":0.0,"g":0.0,"b":0.0,"a":0.0},{"r":0.0,"g":0.0,"b":0.0,"a":0.0},{"r":0.0,"g":0.0,"b":0.0,"a":0.0},{"r":0.0,"g":0.0,"b":0.0,"a":0.0},{"r":0.0,"g":0.0,"b":0.0,"a":0.0}],"distanceConstraintsData":{"batches":[{"m_IDs":[0,1,2,3,4,5,6,7,8,9,10,11,12,13,14,15,16,17,18,19,20,21,22,23,24,25,26,27,28,29,30,31,32,33,34,35,36,37,38,39,40,41,42,43,44,45,46,47,48,49,50,51,52,53,54,55,56,57,58,59,60,61,62,63,64,65,66],"m_IDToIndex":[0,1,2,3,4,5,6,7,8,9,10,11,12,13,14,15,16,17,18,19,20,21,22,23,24,25,26,27,28,29,30,31,32,33,34,35,36,37,38,39,40,41,42,43,44,45,46,47,48,49,50,51,52,53,54,55,56,57,58,59,60,61,62,63,64,65,66],"m_ConstraintCount":67,"m_ActiveConstraintCount":17,"m_InitialActiveConstraintCount":17,"particleIndices":{"serializedContents":[0,1,2,3,4,5,6,7,8,9,10,11,12,13,14,15,16,17,18,19,20,21,22,23,24,25,26,27,28,29,30,31,32,33,0,0,0,0,0,0,0,0,0,0,0,0,0,0,0,0,0,0,0,0,0,0,0,0,0,0,0,0,0,0,0,0,0,0,0,0,0,0,0,0,0,0,0,0,0,0,0,0,0,0,0,0,0,0,0,0,0,0,0,0,0,0,0,0,0,0,0,0,0,0,0,0,0,0,0,0,0,0,0,0,0,0,0,0,0,0,0,0,0,0,0,0,0,0,0,0,0,0,0,0]},"restLengths":{"serializedContents":[0.12404090911149979,0.12486094236373902,0.1249392181634903,0.12467276304960251,0.12450309842824936,0.1245402991771698,0.12464523315429688,0.12461824715137482,0.12460867315530777,0.1246931180357933,0.12486275285482407,0.12487296760082245,0.12438610196113587,0.12440754473209381,0.12495417892932892,0.12473028898239136,0.12446446716785431,0.0,0.0,0.0,0.0,0.0,0.0,0.0,0.0,0.0,0.0,0.0,0.0,0.0,0.0,0.0,0.0,0.0,0.0,0.0,0.0,0.0,0.0,0.0,0.0,0.0,0.0,0.0,0.0,0.0,0.0,0.0,0.0,0.0,0.0,0.0,0.0,0.0,0.0,0.0,0.0,0.0,0.0,0.0,0.0,0.0,0.0,0.0,0.0,0.0,0.0]},"stiffnesses":{"serializedContents":[{"x":0.0,"y":0.0},{"x":0.0,"y":0.0},{"x":0.0,"y":0.0},{"x":0.0,"y":0.0},{"x":0.0,"y":0.0},{"x":0.0,"y":0.0},{"x":0.0,"y":0.0},{"x":0.0,"y":0.0},{"x":0.0,"y":0.0},{"x":0.0,"y":0.0},{"x":0.0,"y":0.0},{"x":0.0,"y":0.0},{"x":0.0,"y":0.0},{"x":0.0,"y":0.0},{"x":0.0,"y":0.0},{"x":0.0,"y":0.0},{"x":0.0,"y":0.0},{"x":0.0,"y":0.0},{"x":0.0,"y":0.0},{"x":0.0,"y":0.0},{"x":0.0,"y":0.0},{"x":0.0,"y":0.0},{"x":0.0,"y":0.0},{"x":0.0,"y":0.0},{"x":0.0,"y":0.0},{"x":0.0,"y":0.0},{"x":0.0,"y":0.0},{"x":0.0,"y":0.0},{"x":0.0,"y":0.0},{"x":0.0,"y":0.0},{"x":0.0,"y":0.0},{"x":0.0,"y":0.0},{"x":0.0,"y":0.0},{"x":0.0,"y":0.0},{"x":0.0,"y":0.0},{"x":0.0,"y":0.0},{"x":0.0,"y":0.0},{"x":0.0,"y":0.0},{"x":0.0,"y":0.0},{"x":0.0,"y":0.0},{"x":0.0,"y":0.0},{"x":0.0,"y":0.0},{"x":0.0,"y":0.0},{"x":0.0,"y":0.0},{"x":0.0,"y":0.0},{"x":0.0,"y":0.0},{"x":0.0,"y":0.0},{"x":0.0,"y":0.0},{"x":0.0,"y":0.0},{"x":0.0,"y":0.0},{"x":0.0,"y":0.0},{"x":0.0,"y":0.0},{"x":0.0,"y":0.0},{"x":0.0,"y":0.0},{"x":0.0,"y":0.0},{"x":0.0,"y":0.0},{"x":0.0,"y":0.0},{"x":0.0,"y":0.0},{"x":0.0,"y":0.0},{"x":0.0,"y":0.0},{"x":0.0,"y":0.0},{"x":0.0,"y":0.0},{"x":0.0,"y":0.0},{"x":0.0,"y":0.0},{"x":0.0,"y":0.0},{"x":0.0,"y":0.0},{"x":0.0,"y":0.0}]}},{"m_IDs":[0,1,2,3,4,5,6,7,8,9,10,11,12,13,14,15,16,17,18,19,20,21,22,23,24,25,26,27,28,29,30,31,32,33,34,35,36,37,38,39,40,41,42,43,44,45,46,47,48,49,50,51,52,53,54,55,56,57,58,59,60,61,62,63,64,65,66],"m_IDToIndex":[0,1,2,3,4,5,6,7,8,9,10,11,12,13,14,15,16,17,18,19,20,21,22,23,24,25,26,27,28,29,30,31,32,33,34,35,36,37,38,39,40,41,42,43,44,45,46,47,48,49,50,51,52,53,54,55,56,57,58,59,60,61,62,63,64,65,66],"m_ConstraintCount":67,"m_ActiveConstraintCount":17,"m_InitialActiveConstraintCount":17,"particleIndices":{"serializedContents":[1,2,3,4,5,6,7,8,9,10,11,12,13,14,15,16,17,18,19,20,21,22,23,24,25,26,27,28,29,30,31,32,33,34,0,0,0,0,0,0,0,0,0,0,0,0,0,0,0,0,0,0,0,0,0,0,0,0,0,0,0,0,0,0,0,0,0,0,0,0,0,0,0,0,0,0,0,0,0,0,0,0,0,0,0,0,0,0,0,0,0,0,0,0,0,0,0,0,0,0,0,0,0,0,0,0,0,0,0,0,0,0,0,0,0,0,0,0,0,0,0,0,0,0,0,0,0,0,0,0,0,0,0,0]},"restLengths":{"serializedContents":[0.12476882338523865,0.12436109781265259,0.12447194010019303,0.12479085475206375,0.12481339275836945,0.12470346689224243,0.12467289716005326,0.12472038716077805,0.12469670176506043,0.12451568245887757,0.12440933287143707,0.12467047572135925,0.1250370740890503,0.12467795610427857,0.12426848709583283,0.12504294514656068,0.12388423085212708,0.0,0.0,0.0,0.0,0.0,0.0,0.0,0.0,0.0,0.0,0.0,0.0,0.0,0.0,0.0,0.0,0.0,0.0,0.0,0.0,0.0,0.0,0.0,0.0,0.0,0.0,0.0,0.0,0.0,0.0,0.0,0.0,0.0,0.0,0.0,0.0,0.0,0.0,0.0,0.0,0.0,0.0,0.0,0.0,0.0,0.0,0.0,0.0,0.0,0.0]},"stiffnesses":{"serializedContents":[{"x":0.0,"y":0.0},{"x":0.0,"y":0.0},{"x":0.0,"y":0.0},{"x":0.0,"y":0.0},{"x":0.0,"y":0.0},{"x":0.0,"y":0.0},{"x":0.0,"y":0.0},{"x":0.0,"y":0.0},{"x":0.0,"y":0.0},{"x":0.0,"y":0.0},{"x":0.0,"y":0.0},{"x":0.0,"y":0.0},{"x":0.0,"y":0.0},{"x":0.0,"y":0.0},{"x":0.0,"y":0.0},{"x":0.0,"y":0.0},{"x":0.0,"y":0.0},{"x":0.0,"y":0.0},{"x":0.0,"y":0.0},{"x":0.0,"y":0.0},{"x":0.0,"y":0.0},{"x":0.0,"y":0.0},{"x":0.0,"y":0.0},{"x":0.0,"y":0.0},{"x":0.0,"y":0.0},{"x":0.0,"y":0.0},{"x":0.0,"y":0.0},{"x":0.0,"y":0.0},{"x":0.0,"y":0.0},{"x":0.0,"y":0.0},{"x":0.0,"y":0.0},{"x":0.0,"y":0.0},{"x":0.0,"y":0.0},{"x":0.0,"y":0.0},{"x":0.0,"y":0.0},{"x":0.0,"y":0.0},{"x":0.0,"y":0.0},{"x":0.0,"y":0.0},{"x":0.0,"y":0.0},{"x":0.0,"y":0.0},{"x":0.0,"y":0.0},{"x":0.0,"y":0.0},{"x":0.0,"y":0.0},{"x":0.0,"y":0.0},{"x":0.0,"y":0.0},{"x":0.0,"y":0.0},{"x":0.0,"y":0.0},{"x":0.0,"y":0.0},{"x":0.0,"y":0.0},{"x":0.0,"y":0.0},{"x":0.0,"y":0.0},{"x":0.0,"y":0.0},{"x":0.0,"y":0.0},{"x":0.0,"y":0.0},{"x":0.0,"y":0.0},{"x":0.0,"y":0.0},{"x":0.0,"y":0.0},{"x":0.0,"y":0.0},{"x":0.0,"y":0.0},{"x":0.0,"y":0.0},{"x":0.0,"y":0.0},{"x":0.0,"y":0.0},{"x":0.0,"y":0.0},{"x":0.0,"y":0.0},{"x":0.0,"y":0.0},{"x":0.0,"y":0.0},{"x":0.0,"y":0.0}]}}]},"bendConstraintsData":{"batches":[{"m_IDs":[0,1,2,3,4,5,6,7,8,9,10,11,12,13,14,15,16,17,18,19,20,21,22,23,24,25,26,27,28,29,30,31,32,33,34,35,36,37,38,39,40,41,42,43,44],"m_IDToIndex":[0,1,2,3,4,5,6,7,8,9,10,11,12,13,14,15,16,17,18,19,20,21,22,23,24,25,26,27,28,29,30,31,32,33,34,35,36,37,38,39,40,41,42,43,44],"m_ConstraintCount":45,"m_ActiveConstraintCount":11,"m_InitialActiveConstraintCount":11,"particleIndices":{"serializedContents":[0,2,1,3,5,4,6,8,7,9,11,10,12,14,13,15,17,16,18,20,19,21,23,22,24,26,25,27,29,28,30,32,31,33,35,34,36,38,37,39,41,40,42,44,43,45,47,46,48,50,49,51,53,52,54,56,55,57,59,58,60,62,61,63,65,64,66,68,67,69,71,70,72,74,73,75,77,76,78,80,79,81,83,82,84,86,85,87,89,88,90,92,91,93,95,94,96,98,97,99,101,100,102,104,103,105,107,106,108,110,109,111,113,112,114,116,115,117,119,118,120,122,121,123,125,124,126,128,127,129,131,130,132,134,133]},"restBends":{"serializedContents":[0.0,0.0,0.0,0.0,0.0,0.0,0.0,0.0,0.0,0.0,0.0,0.0,0.0,0.0,0.0,0.0,0.0,0.0,0.0,0.0,0.0,0.0,0.0,0.0,0.0,0.0,0.0,0.0,0.0,0.0,0.0,0.0,0.0,0.0,0.0,0.0,0.0,0.0,0.0,0.0,0.0,0.0,0.0,0.0,0.0]},"bendingStiffnesses":{"serializedContents":[{"x":0.0,"y":0.0},{"x":0.0,"y":0.0},{"x":0.0,"y":0.0},{"x":0.0,"y":0.0},{"x":0.0,"y":0.0},{"x":0.0,"y":0.0},{"x":0.0,"y":0.0},{"x":0.0,"y":0.0},{"x":0.0,"y":0.0},{"x":0.0,"y":0.0},{"x":0.0,"y":0.0},{"x":0.0,"y":0.0},{"x":0.0,"y":0.0},{"x":0.0,"y":0.0},{"x":0.0,"y":0.0},{"x":0.0,"y":0.0},{"x":0.0,"y":0.0},{"x":0.0,"y":0.0},{"x":0.0,"y":0.0},{"x":0.0,"y":0.0},{"x":0.0,"y":0.0},{"x":0.0,"y":0.0},{"x":0.0,"y":0.0},{"x":0.0,"y":0.0},{"x":0.0,"y":0.0},{"x":0.0,"y":0.0},{"x":0.0,"y":0.0},{"x":0.0,"y":0.0},{"x":0.0,"y":0.0},{"x":0.0,"y":0.0},{"x":0.0,"y":0.0},{"x":0.0,"y":0.0},{"x":0.0,"y":0.0},{"x":0.0,"y":0.0},{"x":0.0,"y":0.0},{"x":0.0,"y":0.0},{"x":0.0,"y":0.0},{"x":0.0,"y":0.0},{"x":0.0,"y":0.0},{"x":0.0,"y":0.0},{"x":0.0,"y":0.0},{"x":0.0,"y":0.0},{"x":0.0,"y":0.0},{"x":0.0,"y":0.0},{"x":0.0,"y":0.0}]}},{"m_IDs":[0,1,2,3,4,5,6,7,8,9,10,11,12,13,14,15,16,17,18,19,20,21,22,23,24,25,26,27,28,29,30,31,32,33,34,35,36,37,38,39,40,41,42,43],"m_IDToIndex":[0,1,2,3,4,5,6,7,8,9,10,11,12,13,14,15,16,17,18,19,20,21,22,23,24,25,26,27,28,29,30,31,32,33,34,35,36,37,38,39,40,41,42,43],"m_ConstraintCount":44,"m_ActiveConstraintCount":11,"m_InitialActiveConstraintCount":11,"particleIndices":{"serializedContents":[1,3,2,4,6,5,7,9,8,10,12,11,13,15,14,16,18,17,19,21,20,22,24,23,25,27,26,28,30,29,31,33,32,34,36,35,37,39,38,40,42,41,43,45,44,46,48,47,49,51,50,52,54,53,55,57,56,58,60,59,61,63,62,64,66,65,67,69,68,70,72,71,73,75,74,76,78,77,79,81,80,82,84,83,85,87,86,88,90,89,91,93,92,94,96,95,97,99,98,100,102,101,103,105,104,106,108,107,109,111,110,112,114,113,115,117,116,118,120,119,121,123,122,124,126,125,127,129,128,130,132,131]},"restBends":{"serializedContents":[0.0,0.0,0.0,0.0,0.0,0.0,0.0,0.0,0.0,0.0,0.0,0.0,0.0,0.0,0.0,0.0,0.0,0.0,0.0,0.0,0.0,0.0,0.0,0.0,0.0,0.0,0.0,0.0,0.0,0.0,0.0,0.0,0.0,0.0,0.0,0.0,0.0,0.0,0.0,0.0,0.0,0.0,0.0,0.0]},"bendingStiffnesses":{"serializedContents":[{"x":0.0,"y":0.0},{"x":0.0,"y":0.0},{"x":0.0,"y":0.0},{"x":0.0,"y":0.0},{"x":0.0,"y":0.0},{"x":0.0,"y":0.0},{"x":0.0,"y":0.0},{"x":0.0,"y":0.0},{"x":0.0,"y":0.0},{"x":0.0,"y":0.0},{"x":0.0,"y":0.0},{"x":0.0,"y":0.0},{"x":0.0,"y":0.0},{"x":0.0,"y":0.0},{"x":0.0,"y":0.0},{"x":0.0,"y":0.0},{"x":0.0,"y":0.0},{"x":0.0,"y":0.0},{"x":0.0,"y":0.0},{"x":0.0,"y":0.0},{"x":0.0,"y":0.0},{"x":0.0,"y":0.0},{"x":0.0,"y":0.0},{"x":0.0,"y":0.0},{"x":0.0,"y":0.0},{"x":0.0,"y":0.0},{"x":0.0,"y":0.0},{"x":0.0,"y":0.0},{"x":0.0,"y":0.0},{"x":0.0,"y":0.0},{"x":0.0,"y":0.0},{"x":0.0,"y":0.0},{"x":0.0,"y":0.0},{"x":0.0,"y":0.0},{"x":0.0,"y":0.0},{"x":0.0,"y":0.0},{"x":0.0,"y":0.0},{"x":0.0,"y":0.0},{"x":0.0,"y":0.0},{"x":0.0,"y":0.0},{"x":0.0,"y":0.0},{"x":0.0,"y":0.0},{"x":0.0,"y":0.0},{"x":0.0,"y":0.0}]}},{"m_IDs":[0,1,2,3,4,5,6,7,8,9,10,11,12,13,14,15,16,17,18,19,20,21,22,23,24,25,26,27,28,29,30,31,32,33,34,35,36,37,38,39,40,41,42,43],"m_IDToIndex":[0,1,2,3,4,5,6,7,8,9,10,11,12,13,14,15,16,17,18,19,20,21,22,23,24,25,26,27,28,29,30,31,32,33,34,35,36,37,38,39,40,41,42,43],"m_ConstraintCount":44,"m_ActiveConstraintCount":11,"m_InitialActiveConstraintCount":11,"particleIndices":{"serializedContents":[2,4,3,5,7,6,8,10,9,11,13,12,14,16,15,17,19,18,20,22,21,23,25,24,26,28,27,29,31,30,32,34,33,35,37,36,38,40,39,41,43,42,44,46,45,47,49,48,50,52,51,53,55,54,56,58,57,59,61,60,62,64,63,65,67,66,68,70,69,71,73,72,74,76,75,77,79,78,80,82,81,83,85,84,86,88,87,89,91,90,92,94,93,95,97,96,98,100,99,101,103,102,104,106,105,107,109,108,110,112,111,113,115,114,116,118,117,119,121,120,122,124,123,125,127,126,128,130,129,131,133,132]},"restBends":{"serializedContents":[0.0,0.0,0.0,0.0,0.0,0.0,0.0,0.0,0.0,0.0,0.0,0.0,0.0,0.0,0.0,0.0,0.0,0.0,0.0,0.0,0.0,0.0,0.0,0.0,0.0,0.0,0.0,0.0,0.0,0.0,0.0,0.0,0.0,0.0,0.0,0.0,0.0,0.0,0.0,0.0,0.0,0.0,0.0,0.0]},"bendingStiffnesses":{"serializedContents":[{"x":0.0,"y":0.0},{"x":0.0,"y":0.0},{"x":0.0,"y":0.0},{"x":0.0,"y":0.0},{"x":0.0,"y":0.0},{"x":0.0,"y":0.0},{"x":0.0,"y":0.0},{"x":0.0,"y":0.0},{"x":0.0,"y":0.0},{"x":0.0,"y":0.0},{"x":0.0,"y":0.0},{"x":0.0,"y":0.0},{"x":0.0,"y":0.0},{"x":0.0,"y":0.0},{"x":0.0,"y":0.0},{"x":0.0,"y":0.0},{"x":0.0,"y":0.0},{"x":0.0,"y":0.0},{"x":0.0,"y":0.0},{"x":0.0,"y":0.0},{"x":0.0,"y":0.0},{"x":0.0,"y":0.0},{"x":0.0,"y":0.0},{"x":0.0,"y":0.0},{"x":0.0,"y":0.0},{"x":0.0,"y":0.0},{"x":0.0,"y":0.0},{"x":0.0,"y":0.0},{"x":0.0,"y":0.0},{"x":0.0,"y":0.0},{"x":0.0,"y":0.0},{"x":0.0,"y":0.0},{"x":0.0,"y":0.0},{"x":0.0,"y":0.0},{"x":0.0,"y":0.0},{"x":0.0,"y":0.0},{"x":0.0,"y":0.0},{"x":0.0,"y":0.0},{"x":0.0,"y":0.0},{"x":0.0,"y":0.0},{"x":0.0,"y":0.0},{"x":0.0,"y":0.0},{"x":0.0,"y":0.0},{"x":0.0,"y":0.0}]}}]},"pinConstraintsData":{"batches":[{"m_IDs":[],"m_IDToIndex":[],"m_ConstraintCount":0,"m_ActiveConstraintCount":0,"m_InitialActiveConstraintCount":0,"particleIndices":{"serializedContents":[]},"offsets":{"serializedContents":[]},"restDarbouxVectors":{"serializedContents":[]},"stiffnesses":{"serializedContents":[]},"breakThresholds":{"serializedContents":[]},"constraintForces":[]}]},"skinConstraintsData":{"batches":[]},"tetherConstraintsData":{"batches":[]},"stretchShearConstraintsData":{"batches":[]},"bendTwistConstraintsData":{"batches":[]},"shapeMatchingConstraintsData":{"batches":[]},"aerodynamicConstraintsData":{"batches":[]},"chainConstraintsData":{"batches":[]},"volumeConstraintsData":{"batches":[]},"groups":[{"instanceID":0},{"instanceID":0}],"path":{"m_Names":["A","B"],"m_Points":{"data":[{"tangentMode":0,"inTangent":{"x":-0.25,"y":0.0,"z":0.0},"position":{"x":-2.4457621574401857,"y":0.0,"z":0.0},"outTangent":{"x":1.348852515220642,"y":0.0,"z":0.0}},{"tangentMode":2,"inTangent":{"x":-1.1402534246444703,"y":0.0,"z":0.04930230602622032},"position":{"x":1.7911680936813355,"y":0.0,"z":0.0},"outTangent":{"x":0.24976660311222077,"y":0.0,"z":-0.010799415409564972}}]},"m_Normals":{"data":[{"x":0.0,"y":1.0,"z":0.0},{"x":0.0,"y":1.0,"z":0.0}]},"m_Colors":{"data":[{"r":1.0,"g":1.0,"b":1.0,"a":1.0},{"r":1.0,"g":1.0,"b":1.0,"a":1.0}]},"m_Thickness":{"data":[1.0,1.0]},"m_Masses":{"data":[0.10000000149011612,0.10000000149011612]},"m_RotationalMasses":{"data":[1.0,1.0]},"m_Phases":{"data":[1,1]},"m_Closed":false,"m_ArcLengthTable":[0.0,0.195298969745636,0.39537572860717776,0.5995790362358093,0.8072569370269775,1.0177570581436158,1.2304266691207886,1.4446126222610474,1.659661889076233,1.874921441078186,2.089738130569458,2.303459644317627,2.5154330730438234,2.7250068187713625,2.9315295219421388,3.1343507766723635,3.3328213691711427,3.5262932777404787,3.714120388031006,3.8956587314605715,4.0702667236328129,4.237307548522949],"m_TotalSplineLenght":4.237307548522949,"OnPathChanged":{"m_PersistentCalls":{"m_Calls":[]}},"OnControlPointAdded":{"m_PersistentCalls":{"m_Calls":[]}},"OnControlPointRemoved":{"m_PersistentCalls":{"m_Calls":[]}},"OnControlPointRenamed":{"m_PersistentCalls":{"m_Calls":[]}}},"thickness":0.125,"resolution":1.0,"m_InterParticleDistance":0.12462669610977173,"totalParticles":135,"m_RestLength":16.69999885559082,"restLengths":[0.12404090911149979,0.12476882338523865,0.12486094236373902,0.12436109781265259,0.1249392181634903,0.12447194010019303,0.12467276304960251,0.12479085475206375,0.12450309842824936,0.12481339275836945,0.1245402991771698,0.12470346689224243,0.12464523315429688,0.12467289716005326,0.12461824715137482,0.12472038716077805,0.12460867315530777,0.12469670176506043,0.1246931180357933,0.12451568245887757,0.12486275285482407,0.12440933287143707,0.12487296760082245,0.12467047572135925,0.12438610196113587,0.1250370740890503,0.12440754473209381,0.12467795610427857,0.12495417892932892,0.12426848709583283,0.12473028898239136,0.12504294514656068,0.12446446716785431,0.12388423085212708,0.12462669610977173,0.12462669610977173,0.12462669610977173,0.12462669610977173,0.12462669610977173,0.12462669610977173,0.12462669610977173,0.12462669610977173,0.12462669610977173,0.12462669610977173,0.12462669610977173,0.12462669610977173,0.12462669610977173,0.12462669610977173,0.12462669610977173,0.12462669610977173,0.12462669610977173,0.12462669610977173,0.12462669610977173,0.12462669610977173,0.12462669610977173,0.12462669610977173,0.12462669610977173,0.12462669610977173,0.12462669610977173,0.12462669610977173,0.12462669610977173,0.12462669610977173,0.12462669610977173,0.12462669610977173,0.12462669610977173,0.12462669610977173,0.12462669610977173,0.12462669610977173,0.12462669610977173,0.12462669610977173,0.12462669610977173,0.12462669610977173,0.12462669610977173,0.12462669610977173,0.12462669610977173,0.12462669610977173,0.12462669610977173,0.12462669610977173,0.12462669610977173,0.12462669610977173,0.12462669610977173,0.12462669610977173,0.12462669610977173,0.12462669610977173,0.12462669610977173,0.12462669610977173,0.12462669610977173,0.12462669610977173,0.12462669610977173,0.12462669610977173,0.12462669610977173,0.12462669610977173,0.12462669610977173,0.12462669610977173,0.12462669610977173,0.12462669610977173,0.12462669610977173,0.12462669610977173,0.12462669610977173,0.12462669610977173,0.12462669610977173,0.12462669610977173,0.12462669610977173,0.12462669610977173,0.12462669610977173,0.12462669610977173,0.12462669610977173,0.12462669610977173,0.12462669610977173,0.12462669610977173,0.12462669610977173,0.12462669610977173,0.12462669610977173,0.12462669610977173,0.12462669610977173,0.12462669610977173,0.12462669610977173,0.12462669610977173,0.12462669610977173,0.12462669610977173,0.12462669610977173,0.12462669610977173,0.12462669610977173,0.12462669610977173,0.12462669610977173,0.12462669610977173,0.12462669610977173,0.12462669610977173,0.12462669610977173,0.12462669610977173,0.12462669610977173,0.12462669610977173,0.12462669610977173,0.12462669610977173,0.0],"pooledParticles":100}|{"m_Empty":false,"m_ActiveParticleCount":38,"m_InitialActiveParticleCount":38,"_bounds":{"m_Center":{"x":-0.29398059844970705,"y":0.16153979301452638,"z":-0.6581498384475708},"m_Extent":{"x":2.261359214782715,"y":0.16153979301452638,"z":0.6581498384475708}},"positions":[{"x":-0.3193414509296417,"y":-0.1055000051856041,"z":1.393473744392395},{"x":-0.23497982323169709,"y":-0.048556044697761539,"z":1.1520739793777466},{"x":-0.14726653695106507,"y":0.012951686978340149,"z":0.9004577398300171},{"x":-0.06519472599029541,"y":0.07137148082256317,"z":0.6638282537460327},{"x":0.020108625292778016,"y":0.1337345987558365,"z":0.4073747992515564},{"x":0.09073849022388458,"y":0.18367977440357209,"z":0.1686534583568573},{"x":0.13455428183078767,"y":0.20662786066532136,"z":-0.09271535277366638},{"x":0.15900541841983796,"y":0.20075981318950654,"z":-0.3676701486110687},{"x":0.12851817905902863,"y":0.1754002422094345,"z":-0.6385130882263184},{"x":0.05976690351963043,"y":0.20195169746875764,"z":-0.8519600629806519},{"x":-0.03252337872982025,"y":0.25225120782852175,"z":-1.0596339702606202},{"x":-0.16442710161209107,"y":0.38525646924972536,"z":-1.145031213760376},{"x":-0.3029739558696747,"y":0.48730945587158205,"z":-1.151800513267517},{"x":-0.460394948720932,"y":0.5535115003585815,"z":-1.1244667768478394},{"x":-0.588597297668457,"y":0.5239229202270508,"z":-1.019492268562317},{"x":-0.6319434642791748,"y":0.43988656997680666,"z":-0.9278098344802856},{"x":-0.6351456046104431,"y":0.337272047996521,"z":-0.843017578125},{"x":-0.5366615653038025,"y":0.23116688430309297,"z":-0.7836048603057861},{"x":-0.4139357805252075,"y":0.19559119641780854,"z":-0.7579649686813355},{"x":-0.28155654668807986,"y":0.19929639995098115,"z":-0.7483229637145996},{"x":-0.1588020920753479,"y":0.30359017848968508,"z":-0.7858062982559204},{"x":-0.08479215204715729,"y":0.40532606840133669,"z":-0.8687236309051514},{"x":0.004439935088157654,"y":0.4863963723182678,"z":-0.9889400005340576},{"x":0.07186861336231232,"y":0.49036186933517458,"z":-1.1821142435073853},{"x":0.1320972591638565,"y":0.48038816452026369,"z":-1.390291452407837},{"x":0.1794128566980362,"y":0.44690704345703127,"z":-1.608873724937439},{"x":0.2170788198709488,"y":0.39089757204055788,"z":-1.8496190309524537},{"x":0.2517898678779602,"y":0.3375115394592285,"z":-2.078965187072754},{"x":0.2876247763633728,"y":0.28340286016464236,"z":-2.321406602859497},{"x":0.321164608001709,"y":0.23446710407733918,"z":-2.548088788986206},{"x":0.3567863702774048,"y":0.18508239090442658,"z":-2.7891881465911867},{"x":0.39053958654403689,"y":0.1409972459077835,"z":-3.0177531242370607},{"x":0.4269804358482361,"y":0.09536541998386383,"z":-3.264435052871704},{"x":0.4614350199699402,"y":0.054563820362091067,"z":-3.497476816177368},{"x":0.4979950785636902,"y":0.014553964138031006,"z":-3.7445688247680666},{"x":0.532105565071106,"y":-0.021421387791633607,"z":-3.9749317169189455},{"x":0.5675002932548523,"y":-0.05399973690509796,"z":-4.21602201461792},{"x":0.6028953790664673,"y":-0.1055000051856041,"z":-4.446880340576172},{"x":0.0,"y":0.0,"z":0.0},{"x":0.0,"y":0.0,"z":0.0},{"x":0.0,"y":0.0,"z":0.0},{"x":0.0,"y":0.0,"z":0.0},{"x":0.0,"y":0.0,"z":0.0},{"x":0.0,"y":0.0,"z":0.0},{"x":0.0,"y":0.0,"z":0.0},{"x":0.0,"y":0.0,"z":0.0},{"x":0.0,"y":0.0,"z":0.0},{"x":0.0,"y":0.0,"z":0.0},{"x":0.0,"y":0.0,"z":0.0},{"x":0.0,"y":0.0,"z":0.0},{"x":0.0,"y":0.0,"z":0.0},{"x":0.0,"y":0.0,"z":0.0},{"x":0.0,"y":0.0,"z":0.0},{"x":0.0,"y":0.0,"z":0.0},{"x":0.0,"y":0.0,"z":0.0},{"x":0.0,"y":0.0,"z":0.0},{"x":0.0,"y":0.0,"z":0.0},{"x":0.0,"y":0.0,"z":0.0},{"x":0.0,"y":0.0,"z":0.0},{"x":0.0,"y":0.0,"z":0.0},{"x":0.0,"y":0.0,"z":0.0},{"x":0.0,"y":0.0,"z":0.0},{"x":0.0,"y":0.0,"z":0.0},{"x":0.0,"y":0.0,"z":0.0},{"x":0.0,"y":0.0,"z":0.0},{"x":0.0,"y":0.0,"z":0.0},{"x":0.0,"y":0.0,"z":0.0},{"x":0.0,"y":0.0,"z":0.0},{"x":0.0,"y":0.0,"z":0.0},{"x":0.0,"y":0.0,"z":0.0},{"x":0.0,"y":0.0,"z":0.0},{"x":0.0,"y":0.0,"z":0.0},{"x":0.0,"y":0.0,"z":0.0},{"x":0.0,"y":0.0,"z":0.0},{"x":0.0,"y":0.0,"z":0.0},{"x":0.0,"y":0.0,"z":0.0},{"x":0.0,"y":0.0,"z":0.0},{"x":0.0,"y":0.0,"z":0.0},{"x":0.0,"y":0.0,"z":0.0},{"x":0.0,"y":0.0,"z":0.0},{"x":0.0,"y":0.0,"z":0.0},{"x":0.0,"y":0.0,"z":0.0},{"x":0.0,"y":0.0,"z":0.0},{"x":0.0,"y":0.0,"z":0.0},{"x":0.0,"y":0.0,"z":0.0},{"x":0.0,"y":0.0,"z":0.0},{"x":0.0,"y":0.0,"z":0.0},{"x":0.0,"y":0.0,"z":0.0},{"x":0.0,"y":0.0,"z":0.0},{"x":0.0,"y":0.0,"z":0.0},{"x":0.0,"y":0.0,"z":0.0},{"x":0.0,"y":0.0,"z":0.0},{"x":0.0,"y":0.0,"z":0.0},{"x":0.0,"y":0.0,"z":0.0},{"x":0.0,"y":0.0,"z":0.0},{"x":0.0,"y":0.0,"z":0.0},{"x":0.0,"y":0.0,"z":0.0},{"x":0.0,"y":0.0,"z":0.0},{"x":0.0,"y":0.0,"z":0.0},{"x":0.0,"y":0.0,"z":0.0},{"x":0.0,"y":0.0,"z":0.0},{"x":0.0,"y":0.0,"z":0.0},{"x":0.0,"y":0.0,"z":0.0},{"x":0.0,"y":0.0,"z":0.0},{"x":0.0,"y":0.0,"z":0.0},{"x":0.0,"y":0.0,"z":0.0},{"x":0.0,"y":0.0,"z":0.0},{"x":0.0,"y":0.0,"z":0.0},{"x":0.0,"y":0.0,"z":0.0},{"x":0.0,"y":0.0,"z":0.0},{"x":0.0,"y":0.0,"z":0.0},{"x":0.0,"y":0.0,"z":0.0},{"x":0.0,"y":0.0,"z":0.0},{"x":0.0,"y":0.0,"z":0.0},{"x":0.0,"y":0.0,"z":0.0},{"x":0.0,"y":0.0,"z":0.0},{"x":0.0,"y":0.0,"z":0.0},{"x":0.0,"y":0.0,"z":0.0},{"x":0.0,"y":0.0,"z":0.0},{"x":0.0,"y":0.0,"z":0.0},{"x":0.0,"y":0.0,"z":0.0},{"x":0.0,"y":0.0,"z":0.0},{"x":0.0,"y":0.0,"z":0.0},{"x":0.0,"y":0.0,"z":0.0},{"x":0.0,"y":0.0,"z":0.0},{"x":0.0,"y":0.0,"z":0.0},{"x":0.0,"y":0.0,"z":0.0},{"x":0.0,"y":0.0,"z":0.0},{"x":0.0,"y":0.0,"z":0.0},{"x":0.0,"y":0.0,"z":0.0},{"x":0.0,"y":0.0,"z":0.0},{"x":0.0,"y":0.0,"z":0.0},{"x":0.0,"y":0.0,"z":0.0},{"x":0.0,"y":0.0,"z":0.0},{"x":0.0,"y":0.0,"z":0.0},{"x":0.0,"y":0.0,"z":0.0},{"x":0.0,"y":0.0,"z":0.0},{"x":0.0,"y":0.0,"z":0.0}],"restPositions":[{"x":-2.555339813232422,"y":0.30129528045654299,"z":-1.2823047637939454,"w":1.0},{"x":-2.437030792236328,"y":0.3017166554927826,"z":-1.2912490367889405,"w":1.0},{"x":-2.315223217010498,"y":0.30223384499549868,"z":-1.2951785326004029,"w":1.0},{"x":-2.1937432289123537,"y":0.30276787281036379,"z":-1.2979720830917359,"w":1.0},{"x":-2.0689151287078859,"y":0.3033267557621002,"z":-1.3002384901046754,"w":1.0},{"x":-1.9478195905685425,"y":0.30387526750564577,"z":-1.3020628690719605,"w":1.0},{"x":-1.8249938488006592,"y":0.3044363856315613,"z":-1.3036457300186158,"w":1.0},{"x":-1.7025344371795655,"y":0.30499958992004397,"z":-1.3050200939178467,"w":1.0},{"x":-1.5799254179000855,"y":0.30556660890579226,"z":-1.3062344789505005,"w":1.0},{"x":-1.4578752517700196,"y":0.30613359808921816,"z":-1.3073111772537232,"w":1.0},{"x":-1.3344929218292237,"y":0.3067091405391693,"z":-1.3082873821258546,"w":1.0},{"x":-1.213132619857788,"y":0.3072773516178131,"z":-1.3091533184051514,"w":1.0},{"x":-1.0889627933502198,"y":0.30786070227622988,"z":-1.3099552392959595,"w":1.0},{"x":-0.9680284857749939,"y":0.308430552482605,"z":-1.3106638193130494,"w":1.0},{"x":-0.8451760411262512,"y":0.30901119112968447,"z":-1.3113188743591309,"w":1.0},{"x":-0.7227247953414917,"y":0.3095915913581848,"z":-1.3119133710861207,"w":1.0},{"x":-0.6005764603614807,"y":0.31017208099365237,"z":-1.3124531507492066,"w":1.0},{"x":-0.4776839017868042,"y":0.31075769662857058,"z":-1.3129478693008423,"w":1.0},{"x":-0.35551121830940249,"y":0.31134137511253359,"z":-1.3133949041366578,"w":1.0},{"x":-0.23317155241966248,"y":0.3119274377822876,"z":-1.313801646232605,"w":1.0},{"x":-0.1105814129114151,"y":0.3125162720680237,"z":-1.3141709566116334,"w":1.0},{"x":0.01190622616559267,"y":0.3131062388420105,"z":-1.3145041465759278,"w":1.0},{"x":0.1335977017879486,"y":0.3136940002441406,"z":-1.3148019313812256,"w":1.0},{"x":0.2569970190525055,"y":0.3142918050289154,"z":-1.315071940422058,"w":1.0},{"x":0.37888917326927187,"y":0.31488412618637087,"z":-1.315308928489685,"w":1.0},{"x":0.5016072392463684,"y":0.3154824674129486,"z":-1.315519094467163,"w":1.0},{"x":0.6243343353271484,"y":0.31608298420906069,"z":-1.3157020807266236,"w":1.0},{"x":0.7455258369445801,"y":0.31667831540107729,"z":-1.315857172012329,"w":1.0},{"x":0.8696197867393494,"y":0.3172905743122101,"z":-1.315990686416626,"w":1.0},{"x":0.9896140694618225,"y":0.31788551807403567,"z":-1.316096305847168,"w":1.0},{"x":1.1147502660751343,"y":0.3185095191001892,"z":-1.3161824941635132,"w":1.0},{"x":1.2344218492507935,"y":0.31911030411720278,"z":-1.3162426948547364,"w":1.0},{"x":1.3599278926849366,"y":0.31974560022354128,"z":-1.316282868385315,"w":1.0},{"x":1.4794461727142335,"y":0.32035699486732485,"z":-1.3162996768951417,"w":1.0},{"x":1.6042826175689698,"y":0.32100483775138857,"z":-1.3162951469421387,"w":1.0},{"x":1.7279413938522339,"y":0.3216607868671417,"z":-1.3162685632705689,"w":1.0},{"x":1.8505874872207642,"y":0.32233789563179018,"z":-1.3162211179733277,"w":1.0},{"x":1.967378854751587,"y":0.32307958602905276,"z":-1.316169261932373,"w":1.0},{"x":0.0,"y":0.0,"z":0.0,"w":0.0},{"x":0.0,"y":0.0,"z":0.0,"w":0.0},{"x":0.0,"y":0.0,"z":0.0,"w":0.0},{"x":0.0,"y":0.0,"z":0.0,"w":0.0},{"x":0.0,"y":0.0,"z":0.0,"w":0.0},{"x":0.0,"y":0.0,"z":0.0,"w":0.0},{"x":0.0,"y":0.0,"z":0.0,"w":0.0},{"x":0.0,"y":0.0,"z":0.0,"w":0.0},{"x":0.0,"y":0.0,"z":0.0,"w":0.0},{"x":0.0,"y":0.0,"z":0.0,"w":0.0},{"x":0.0,"y":0.0,"z":0.0,"w":0.0},{"x":0.0,"y":0.0,"z":0.0,"w":0.0},{"x":0.0,"y":0.0,"z":0.0,"w":0.0},{"x":0.0,"y":0.0,"z":0.0,"w":0.0},{"x":0.0,"y":0.0,"z":0.0,"w":0.0},{"x":0.0,"y":0.0,"z":0.0,"w":0.0},{"x":0.0,"y":0.0,"z":0.0,"w":0.0},{"x":0.0,"y":0.0,"z":0.0,"w":0.0},{"x":0.0,"y":0.0,"z":0.0,"w":0.0},{"x":0.0,"y":0.0,"z":0.0,"w":0.0},{"x":0.0,"y":0.0,"z":0.0,"w":0.0},{"x":0.0,"y":0.0,"z":0.0,"w":0.0},{"x":0.0,"y":0.0,"z":0.0,"w":0.0},{"x":0.0,"y":0.0,"z":0.0,"w":0.0},{"x":0.0,"y":0.0,"z":0.0,"w":0.0},{"x":0.0,"y":0.0,"z":0.0,"w":0.0},{"x":0.0,"y":0.0,"z":0.0,"w":0.0},{"x":0.0,"y":0.0,"z":0.0,"w":0.0},{"x":0.0,"y":0.0,"z":0.0,"w":0.0},{"x":0.0,"y":0.0,"z":0.0,"w":0.0},{"x":0.0,"y":0.0,"z":0.0,"w":0.0},{"x":0.0,"y":0.0,"z":0.0,"w":0.0},{"x":0.0,"y":0.0,"z":0.0,"w":0.0},{"x":0.0,"y":0.0,"z":0.0,"w":0.0},{"x":0.0,"y":0.0,"z":0.0,"w":0.0},{"x":0.0,"y":0.0,"z":0.0,"w":0.0},{"x":0.0,"y":0.0,"z":0.0,"w":0.0},{"x":0.0,"y":0.0,"z":0.0,"w":0.0},{"x":0.0,"y":0.0,"z":0.0,"w":0.0},{"x":0.0,"y":0.0,"z":0.0,"w":0.0},{"x":0.0,"y":0.0,"z":0.0,"w":0.0},{"x":0.0,"y":0.0,"z":0.0,"w":0.0},{"x":0.0,"y":0.0,"z":0.0,"w":0.0},{"x":0.0,"y":0.0,"z":0.0,"w":0.0},{"x":0.0,"y":0.0,"z":0.0,"w":0.0},{"x":0.0,"y":0.0,"z":0.0,"w":0.0},{"x":0.0,"y":0.0,"z":0.0,"w":0.0},{"x":0.0,"y":0.0,"z":0.0,"w":0.0},{"x":0.0,"y":0.0,"z":0.0,"w":0.0},{"x":0.0,"y":0.0,"z":0.0,"w":0.0},{"x":0.0,"y":0.0,"z":0.0,"w":0.0},{"x":0.0,"y":0.0,"z":0.0,"w":0.0},{"x":0.0,"y":0.0,"z":0.0,"w":0.0},{"x":0.0,"y":0.0,"z":0.0,"w":0.0},{"x":0.0,"y":0.0,"z":0.0,"w":0.0},{"x":0.0,"y":0.0,"z":0.0,"w":0.0},{"x":0.0,"y":0.0,"z":0.0,"w":0.0},{"x":0.0,"y":0.0,"z":0.0,"w":0.0},{"x":0.0,"y":0.0,"z":0.0,"w":0.0},{"x":0.0,"y":0.0,"z":0.0,"w":0.0},{"x":0.0,"y":0.0,"z":0.0,"w":0.0},{"x":0.0,"y":0.0,"z":0.0,"w":0.0},{"x":0.0,"y":0.0,"z":0.0,"w":0.0},{"x":0.0,"y":0.0,"z":0.0,"w":0.0},{"x":0.0,"y":0.0,"z":0.0,"w":0.0},{"x":0.0,"y":0.0,"z":0.0,"w":0.0},{"x":0.0,"y":0.0,"z":0.0,"w":0.0},{"x":0.0,"y":0.0,"z":0.0,"w":0.0},{"x":0.0,"y":0.0,"z":0.0,"w":0.0},{"x":0.0,"y":0.0,"z":0.0,"w":0.0},{"x":0.0,"y":0.0,"z":0.0,"w":0.0},{"x":0.0,"y":0.0,"z":0.0,"w":0.0},{"x":0.0,"y":0.0,"z":0.0,"w":0.0},{"x":0.0,"y":0.0,"z":0.0,"w":0.0},{"x":0.0,"y":0.0,"z":0.0,"w":0.0},{"x":0.0,"y":0.0,"z":0.0,"w":0.0},{"x":0.0,"y":0.0,"z":0.0,"w":0.0},{"x":0.0,"y":0.0,"z":0.0,"w":0.0},{"x":0.0,"y":0.0,"z":0.0,"w":0.0},{"x":0.0,"y":0.0,"z":0.0,"w":0.0},{"x":0.0,"y":0.0,"z":0.0,"w":0.0},{"x":0.0,"y":0.0,"z":0.0,"w":0.0},{"x":0.0,"y":0.0,"z":0.0,"w":0.0},{"x":0.0,"y":0.0,"z":0.0,"w":0.0},{"x":0.0,"y":0.0,"z":0.0,"w":0.0},{"x":0.0,"y":0.0,"z":0.0,"w":0.0},{"x":0.0,"y":0.0,"z":0.0,"w":0.0},{"x":0.0,"y":0.0,"z":0.0,"w":0.0},{"x":0.0,"y":0.0,"z":0.0,"w":0.0},{"x":0.0,"y":0.0,"z":0.0,"w":0.0},{"x":0.0,"y":0.0,"z":0.0,"w":0.0},{"x":0.0,"y":0.0,"z":0.0,"w":0.0},{"x":0.0,"y":0.0,"z":0.0,"w":0.0},{"x":0.0,"y":0.0,"z":0.0,"w":0.0},{"x":0.0,"y":0.0,"z":0.0,"w":0.0},{"x":0.0,"y":0.0,"z":0.0,"w":0.0},{"x":0.0,"y":0.0,"z":0.0,"w":0.0},{"x":0.0,"y":0.0,"z":0.0,"w":0.0},{"x":0.0,"y":0.0,"z":0.0,"w":0.0},{"x":0.0,"y":0.0,"z":0.0,"w":0.0}],"orientations":[],"restOrientations":[],"velocities":[{"x":0.0,"y":0.0,"z":0.0},{"x":0.038695838302373889,"y":-0.04096263647079468,"z":-0.007991839200258255},{"x":0.06880362331867218,"y":-0.06580111384391785,"z":-0.024006735533475877},{"x":0.09183702617883682,"y":-0.08591227233409882,"z":-0.039626944810152057},{"x":0.11597532778978348,"y":-0.10785860568284989,"z":-0.06777287274599076},{"x":0.15489539504051209,"y":-0.1566213220357895,"z":-0.09457752853631973},{"x":0.14140471816062928,"y":-0.172756627202034,"z":-0.09564340114593506},{"x":0.12831540405750276,"y":-0.21791140735149384,"z":-0.10433988273143769},{"x":0.06324345618486405,"y":-0.19987624883651734,"z":-0.08380727469921112},{"x":0.014302359893918038,"y":-0.2134695053100586,"z":-0.12085872888565064},{"x":0.0512356273829937,"y":-0.2808917462825775,"z":-0.10526750236749649},{"x":0.1395561546087265,"y":-0.33181294798851015,"z":-0.14246167242527009},{"x":0.21977446973323823,"y":-0.40836870670318606,"z":-0.1611211895942688},{"x":0.245200514793396,"y":-0.4139879643917084,"z":-0.16536684334278108},{"x":0.23180347681045533,"y":-0.40703079104423525,"z":-0.15692903101444245},{"x":0.20164676010608674,"y":-0.38901346921920779,"z":-0.162869393825531},{"x":0.22580067813396455,"y":-0.40652236342430117,"z":-0.16306562721729279},{"x":0.19471187889575959,"y":-0.3688911497592926,"z":-0.1815110743045807},{"x":0.10820423811674118,"y":-0.33460474014282229,"z":-0.18308089673519135},{"x":0.02500515803694725,"y":-0.3001042604446411,"z":-0.20229342579841615},{"x":0.029656101018190385,"y":-0.26613450050354006,"z":-0.16773942112922669},{"x":0.009184817783534527,"y":-0.22073888778686524,"z":-0.142729252576828},{"x":0.12408757954835892,"y":-0.3032706677913666,"z":-0.13541530072689057},{"x":0.19892187416553498,"y":-0.4195536971092224,"z":-0.128957599401474},{"x":0.24296173453330995,"y":-0.5070714950561523,"z":-0.1028592512011528},{"x":0.2365753948688507,"y":-0.5692758560180664,"z":-0.07877670228481293},{"x":0.197860449552536,"y":-0.6001996397972107,"z":-0.050805263221263888},{"x":0.1828266978263855,"y":-0.6070675849914551,"z":-0.020942900329828264},{"x":0.16709722578525544,"y":-0.5906111598014832,"z":0.005101933144032955},{"x":0.15472592413425446,"y":-0.5651862621307373,"z":0.01976553164422512},{"x":0.142470583319664,"y":-0.5183769464492798,"z":0.03061159886419773},{"x":0.1301974058151245,"y":-0.45837125182151797,"z":0.034857261925935748},{"x":0.11550705134868622,"y":-0.38272523880004885,"z":0.036034632474184039},{"x":0.09897927939891815,"y":-0.3018747866153717,"z":0.03325175866484642},{"x":0.07473618537187576,"y":-0.20620237290859223,"z":0.026044832542538644},{"x":0.056620754301548007,"y":-0.11523724347352982,"z":0.013557584024965763},{"x":0.0,"y":0.0,"z":0.0},{"x":0.0,"y":0.0,"z":0.0},{"x":0.0,"y":0.0,"z":0.0},{"x":0.0,"y":0.0,"z":0.0},{"x":0.0,"y":0.0,"z":0.0},{"x":0.0,"y":0.0,"z":0.0},{"x":0.0,"y":0.0,"z":0.0},{"x":0.0,"y":0.0,"z":0.0},{"x":0.0,"y":0.0,"z":0.0},{"x":0.0,"y":0.0,"z":0.0},{"x":0.0,"y":0.0,"z":0.0},{"x":0.0,"y":0.0,"z":0.0},{"x":0.0,"y":0.0,"z":0.0},{"x":0.0,"y":0.0,"z":0.0},{"x":0.0,"y":0.0,"z":0.0},{"x":0.0,"y":0.0,"z":0.0},{"x":0.0,"y":0.0,"z":0.0},{"x":0.0,"y":0.0,"z":0.0},{"x":0.0,"y":0.0,"z":0.0},{"x":0.0,"y":0.0,"z":0.0},{"x":0.0,"y":0.0,"z":0.0},{"x":0.0,"y":0.0,"z":0.0},{"x":0.0,"y":0.0,"z":0.0},{"x":0.0,"y":0.0,"z":0.0},{"x":0.0,"y":0.0,"z":0.0},{"x":0.0,"y":0.0,"z":0.0},{"x":0.0,"y":0.0,"z":0.0},{"x":0.0,"y":0.0,"z":0.0},{"x":0.0,"y":0.0,"z":0.0},{"x":0.0,"y":0.0,"z":0.0},{"x":0.0,"y":0.0,"z":0.0},{"x":0.0,"y":0.0,"z":0.0},{"x":0.0,"y":0.0,"z":0.0},{"x":0.0,"y":0.0,"z":0.0},{"x":0.0,"y":0.0,"z":0.0},{"x":0.0,"y":0.0,"z":0.0},{"x":0.0,"y":0.0,"z":0.0},{"x":0.0,"y":0.0,"z":0.0},{"x":0.0,"y":0.0,"z":0.0},{"x":0.0,"y":0.0,"z":0.0},{"x":0.0,"y":0.0,"z":0.0},{"x":0.0,"y":0.0,"z":0.0},{"x":0.0,"y":0.0,"z":0.0},{"x":0.0,"y":0.0,"z":0.0},{"x":0.0,"y":0.0,"z":0.0},{"x":0.0,"y":0.0,"z":0.0},{"x":0.0,"y":0.0,"z":0.0},{"x":0.0,"y":0.0,"z":0.0},{"x":0.0,"y":0.0,"z":0.0},{"x":0.0,"y":0.0,"z":0.0},{"x":0.0,"y":0.0,"z":0.0},{"x":0.0,"y":0.0,"z":0.0},{"x":0.0,"y":0.0,"z":0.0},{"x":0.0,"y":0.0,"z":0.0},{"x":0.0,"y":0.0,"z":0.0},{"x":0.0,"y":0.0,"z":0.0},{"x":0.0,"y":0.0,"z":0.0},{"x":0.0,"y":0.0,"z":0.0},{"x":0.0,"y":0.0,"z":0.0},{"x":0.0,"y":0.0,"z":0.0},{"x":0.0,"y":0.0,"z":0.0},{"x":0.0,"y":0.0,"z":0.0},{"x":0.0,"y":0.0,"z":0.0},{"x":0.0,"y":0.0,"z":0.0},{"x":0.0,"y":0.0,"z":0.0},{"x":0.0,"y":0.0,"z":0.0},{"x":0.0,"y":0.0,"z":0.0},{"x":0.0,"y":0.0,"z":0.0},{"x":0.0,"y":0.0,"z":0.0},{"x":0.0,"y":0.0,"z":0.0},{"x":0.0,"y":0.0,"z":0.0},{"x":0.0,"y":0.0,"z":0.0},{"x":0.0,"y":0.0,"z":0.0},{"x":0.0,"y":0.0,"z":0.0},{"x":0.0,"y":0.0,"z":0.0},{"x":0.0,"y":0.0,"z":0.0},{"x":0.0,"y":0.0,"z":0.0},{"x":0.0,"y":0.0,"z":0.0},{"x":0.0,"y":0.0,"z":0.0},{"x":0.0,"y":0.0,"z":0.0},{"x":0.0,"y":0.0,"z":0.0},{"x":0.0,"y":0.0,"z":0.0},{"x":0.0,"y":0.0,"z":0.0},{"x":0.0,"y":0.0,"z":0.0},{"x":0.0,"y":0.0,"z":0.0},{"x":0.0,"y":0.0,"z":0.0},{"x":0.0,"y":0.0,"z":0.0},{"x":0.0,"y":0.0,"z":0.0},{"x":0.0,"y":0.0,"z":0.0},{"x":0.0,"y":0.0,"z":0.0},{"x":0.0,"y":0.0,"z":0.0},{"x":0.0,"y":0.0,"z":0.0},{"x":0.0,"y":0.0,"z":0.0},{"x":0.0,"y":0.0,"z":0.0},{"x":0.0,"y":0.0,"z":0.0},{"x":0.0,"y":0.0,"z":0.0},{"x":0.0,"y":0.0,"z":0.0},{"x":0.0,"y":0.0,"z":0.0},{"x":0.0,"y":0.0,"z":0.0},{"x":0.0,"y":0.0,"z":0.0},{"x":0.0,"y":0.0,"z":0.0},{"x":0.0,"y":0.0,"z":0.0}],"angularVelocities":[],"invMasses":[1.0,9.999999046325684,9.999999046325684,10.000000953674317,9.999999046325684,9.999999046325684,10.0,10.0,9.999999046325684,10.0,10.000000953674317,10.000000953674317,10.0,10.000000953674317,10.000000953674317,9.999999046325684,10.0,9.999999046325684,10.0,10.0,10.0,10.0,10.0,10.0,10.0,10.0,10.0,10.0,10.0,10.0,10.0,10.0,10.0,10.0,10.0,10.0,10.0,10.0,0.0,0.0,0.0,0.0,0.0,0.0,0.0,0.0,0.0,0.0,0.0,0.0,0.0,0.0,0.0,0.0,0.0,0.0,0.0,0.0,0.0,0.0,0.0,0.0,0.0,0.0,0.0,0.0,0.0,0.0,0.0,0.0,0.0,0.0,0.0,0.0,0.0,0.0,0.0,0.0,0.0,0.0,0.0,0.0,0.0,0.0,0.0,0.0,0.0,0.0,0.0,0.0,0.0,0.0,0.0,0.0,0.0,0.0,0.0,0.0,0.0,0.0,0.0,0.0,0.0,0.0,0.0,0.0,0.0,0.0,0.0,0.0,0.0,0.0,0.0,0.0,0.0,0.0,0.0,0.0,0.0,0.0,0.0,0.0,0.0,0.0,0.0,0.0,0.0,0.0,0.0,0.0,0.0,0.0,0.0,0.0,0.0,0.0,0.0,0.0],"invRotationalMasses":[],"phases":[1,1,1,1,1,1,1,1,1,1,1,1,1,1,1,1,1,1,1,1,1,1,1,1,1,1,1,1,1,1,1,1,1,1,1,1,1,1,0,0,0,0,0,0,0,0,0,0,0,0,0,0,0,0,0,0,0,0,0,0,0,0,0,0,0,0,0,0,0,0,0,0,0,0,0,0,0,0,0,0,0,0,0,0,0,0,0,0,0,0,0,0,0,0,0,0,0,0,0,0,0,0,0,0,0,0,0,0,0,0,0,0,0,0,0,0,0,0,0,0,0,0,0,0,0,0,0,0,0,0,0,0,0,0,0,0,0,0],"principalRadii":[{"x":0.125,"y":0.125,"z":0.125},{"x":0.125,"y":0.125,"z":0.125},{"x":0.1250000149011612,"y":0.1250000149011612,"z":0.1250000149011612},{"x":0.1249999925494194,"y":0.1249999925494194,"z":0.1249999925494194},{"x":0.1250000149011612,"y":0.1250000149011612,"z":0.1250000149011612},{"x":0.125,"y":0.125,"z":0.125},{"x":0.125,"y":0.125,"z":0.125},{"x":0.125,"y":0.125,"z":0.125},{"x":0.1250000149011612,"y":0.1250000149011612,"z":0.1250000149011612},{"x":0.125,"y":0.125,"z":0.125},{"x":0.1249999925494194,"y":0.1249999925494194,"z":0.1249999925494194},{"x":0.1249999925494194,"y":0.1249999925494194,"z":0.1249999925494194},{"x":0.125,"y":0.125,"z":0.125},{"x":0.1249999925494194,"y":0.1249999925494194,"z":0.1249999925494194},{"x":0.1249999925494194,"y":0.1249999925494194,"z":0.1249999925494194},{"x":0.1250000149011612,"y":0.1250000149011612,"z":0.1250000149011612},{"x":0.125,"y":0.125,"z":0.125},{"x":0.1250000149011612,"y":0.1250000149011612,"z":0.1250000149011612},{"x":0.125,"y":0.125,"z":0.125},{"x":0.125,"y":0.125,"z":0.125},{"x":0.125,"y":0.125,"z":0.125},{"x":0.125,"y":0.125,"z":0.125},{"x":0.125,"y":0.125,"z":0.125},{"x":0.125,"y":0.125,"z":0.125},{"x":0.125,"y":0.125,"z":0.125},{"x":0.125,"y":0.125,"z":0.125},{"x":0.125,"y":0.125,"z":0.125},{"x":0.125,"y":0.125,"z":0.125},{"x":0.125,"y":0.125,"z":0.125},{"x":0.125,"y":0.125,"z":0.125},{"x":0.125,"y":0.125,"z":0.125},{"x":0.125,"y":0.125,"z":0.125},{"x":0.125,"y":0.125,"z":0.125},{"x":0.125,"y":0.125,"z":0.125},{"x":0.125,"y":0.125,"z":0.125},{"x":0.125,"y":0.125,"z":0.125},{"x":0.125,"y":0.125,"z":0.125},{"x":0.125,"y":0.125,"z":0.125},{"x":0.0,"y":0.0,"z":0.0},{"x":0.0,"y":0.0,"z":0.0},{"x":0.0,"y":0.0,"z":0.0},{"x":0.0,"y":0.0,"z":0.0},{"x":0.0,"y":0.0,"z":0.0},{"x":0.0,"y":0.0,"z":0.0},{"x":0.0,"y":0.0,"z":0.0},{"x":0.0,"y":0.0,"z":0.0},{"x":0.0,"y":0.0,"z":0.0},{"x":0.0,"y":0.0,"z":0.0},{"x":0.0,"y":0.0,"z":0.0},{"x":0.0,"y":0.0,"z":0.0},{"x":0.0,"y":0.0,"z":0.0},{"x":0.0,"y":0.0,"z":0.0},{"x":0.0,"y":0.0,"z":0.0},{"x":0.0,"y":0.0,"z":0.0},{"x":0.0,"y":0.0,"z":0.0},{"x":0.0,"y":0.0,"z":0.0},{"x":0.0,"y":0.0,"z":0.0},{"x":0.0,"y":0.0,"z":0.0},{"x":0.0,"y":0.0,"z":0.0},{"x":0.0,"y":0.0,"z":0.0},{"x":0.0,"y":0.0,"z":0.0},{"x":0.0,"y":0.0,"z":0.0},{"x":0.0,"y":0.0,"z":0.0},{"x":0.0,"y":0.0,"z":0.0},{"x":0.0,"y":0.0,"z":0.0},{"x":0.0,"y":0.0,"z":0.0},{"x":0.0,"y":0.0,"z":0.0},{"x":0.0,"y":0.0,"z":0.0},{"x":0.0,"y":0.0,"z":0.0},{"x":0.0,"y":0.0,"z":0.0},{"x":0.0,"y":0.0,"z":0.0},{"x":0.0,"y":0.0,"z":0.0},{"x":0.0,"y":0.0,"z":0.0},{"x":0.0,"y":0.0,"z":0.0},{"x":0.0,"y":0.0,"z":0.0},{"x":0.0,"y":0.0,"z":0.0},{"x":0.0,"y":0.0,"z":0.0},{"x":0.0,"y":0.0,"z":0.0},{"x":0.0,"y":0.0,"z":0.0},{"x":0.0,"y":0.0,"z":0.0},{"x":0.0,"y":0.0,"z":0.0},{"x":0.0,"y":0.0,"z":0.0},{"x":0.0,"y":0.0,"z":0.0},{"x":0.0,"y":0.0,"z":0.0},{"x":0.0,"y":0.0,"z":0.0},{"x":0.0,"y":0.0,"z":0.0},{"x":0.0,"y":0.0,"z":0.0},{"x":0.0,"y":0.0,"z":0.0},{"x":0.0,"y":0.0,"z":0.0},{"x":0.0,"y":0.0,"z":0.0},{"x":0.0,"y":0.0,"z":0.0},{"x":0.0,"y":0.0,"z":0.0},{"x":0.0,"y":0.0,"z":0.0},{"x":0.0,"y":0.0,"z":0.0},{"x":0.0,"y":0.0,"z":0.0},{"x":0.0,"y":0.0,"z":0.0},{"x":0.0,"y":0.0,"z":0.0},{"x":0.0,"y":0.0,"z":0.0},{"x":0.0,"y":0.0,"z":0.0},{"x":0.0,"y":0.0,"z":0.0},{"x":0.0,"y":0.0,"z":0.0},{"x":0.0,"y":0.0,"z":0.0},{"x":0.0,"y":0.0,"z":0.0},{"x":0.0,"y":0.0,"z":0.0},{"x":0.0,"y":0.0,"z":0.0},{"x":0.0,"y":0.0,"z":0.0},{"x":0.0,"y":0.0,"z":0.0},{"x":0.0,"y":0.0,"z":0.0},{"x":0.0,"y":0.0,"z":0.0},{"x":0.0,"y":0.0,"z":0.0},{"x":0.0,"y":0.0,"z":0.0},{"x":0.0,"y":0.0,"z":0.0},{"x":0.0,"y":0.0,"z":0.0},{"x":0.0,"y":0.0,"z":0.0},{"x":0.0,"y":0.0,"z":0.0},{"x":0.0,"y":0.0,"z":0.0},{"x":0.0,"y":0.0,"z":0.0},{"x":0.0,"y":0.0,"z":0.0},{"x":0.0,"y":0.0,"z":0.0},{"x":0.0,"y":0.0,"z":0.0},{"x":0.0,"y":0.0,"z":0.0},{"x":0.0,"y":0.0,"z":0.0},{"x":0.0,"y":0.0,"z":0.0},{"x":0.0,"y":0.0,"z":0.0},{"x":0.0,"y":0.0,"z":0.0},{"x":0.0,"y":0.0,"z":0.0},{"x":0.0,"y":0.0,"z":0.0},{"x":0.0,"y":0.0,"z":0.0},{"x":0.0,"y":0.0,"z":0.0},{"x":0.0,"y":0.0,"z":0.0},{"x":0.0,"y":0.0,"z":0.0},{"x":0.0,"y":0.0,"z":0.0},{"x":0.0,"y":0.0,"z":0.0},{"x":0.0,"y":0.0,"z":0.0},{"x":0.0,"y":0.0,"z":0.0},{"x":0.0,"y":0.0,"z":0.0},{"x":0.0,"y":0.0,"z":0.0},{"x":0.0,"y":0.0,"z":0.0}],"colors":[{"r":1.0,"g":1.0,"b":1.0,"a":1.0},{"r":1.0,"g":1.0,"b":1.0,"a":1.0},{"r":1.0000001192092896,"g":1.0000001192092896,"b":1.0000001192092896,"a":1.0000001192092896},{"r":0.9999999403953552,"g":0.9999999403953552,"b":0.9999999403953552,"a":0.9999999403953552},{"r":1.0000001192092896,"g":1.0000001192092896,"b":1.0000001192092896,"a":1.0000001192092896},{"r":1.0,"g":1.0,"b":1.0,"a":1.0},{"r":1.0,"g":1.0,"b":1.0,"a":1.0},{"r":1.0,"g":1.0,"b":1.0,"a":1.0},{"r":1.0000001192092896,"g":1.0000001192092896,"b":1.0000001192092896,"a":1.0000001192092896},{"r":1.0,"g":1.0,"b":1.0,"a":1.0},{"r":0.9999999403953552,"g":0.9999999403953552,"b":0.9999999403953552,"a":0.9999999403953552},{"r":0.9999999403953552,"g":0.9999999403953552,"b":0.9999999403953552,"a":0.9999999403953552},{"r":1.0,"g":1.0,"b":1.0,"a":1.0},{"r":0.9999999403953552,"g":0.9999999403953552,"b":0.9999999403953552,"a":0.9999999403953552},{"r":0.9999999403953552,"g":0.9999999403953552,"b":0.9999999403953552,"a":0.9999999403953552},{"r":1.0000001192092896,"g":1.0000001192092896,"b":1.0000001192092896,"a":1.0000001192092896},{"r":1.0,"g":1.0,"b":1.0,"a":1.0},{"r":1.0000001192092896,"g":1.0000001192092896,"b":1.0000001192092896,"a":1.0000001192092896},{"r":1.0,"g":1.0,"b":1.0,"a":1.0},{"r":1.0,"g":1.0,"b":1.0,"a":1.0},{"r":1.0,"g":1.0,"b":1.0,"a":1.0},{"r":1.0,"g":1.0,"b":1.0,"a":1.0},{"r":1.0,"g":1.0,"b":1.0,"a":1.0},{"r":1.0,"g":1.0,"b":1.0,"a":1.0},{"r":1.0,"g":1.0,"b":1.0,"a":1.0},{"r":1.0,"g":1.0,"b":1.0,"a":1.0},{"r":1.0,"g":1.0,"b":1.0,"a":1.0},{"r":1.0,"g":1.0,"b":1.0,"a":1.0},{"r":1.0,"g":1.0,"b":1.0,"a":1.0},{"r":1.0,"g":1.0,"b":1.0,"a":1.0},{"r":1.0,"g":1.0,"b":1.0,"a":1.0},{"r":1.0,"g":1.0,"b":1.0,"a":1.0},{"r":1.0,"g":1.0,"b":1.0,"a":1.0},{"r":1.0,"g":1.0,"b":1.0,"a":1.0},{"r":1.0,"g":1.0,"b":1.0,"a":1.0},{"r":1.0,"g":1.0,"b":1.0,"a":1.0},{"r":1.0,"g":1.0,"b":1.0,"a":1.0},{"r":1.0,"g":1.0,"b":1.0,"a":1.0},{"r":0.0,"g":0.0,"b":0.0,"a":0.0},{"r":0.0,"g":0.0,"b":0.0,"a":0.0},{"r":0.0,"g":0.0,"b":0.0,"a":0.0},{"r":0.0,"g":0.0,"b":0.0,"a":0.0},{"r":0.0,"g":0.0,"b":0.0,"a":0.0},{"r":0.0,"g":0.0,"b":0.0,"a":0.0},{"r":0.0,"g":0.0,"b":0.0,"a":0.0},{"r":0.0,"g":0.0,"b":0.0,"a":0.0},{"r":0.0,"g":0.0,"b":0.0,"a":0.0},{"r":0.0,"g":0.0,"b":0.0,"a":0.0},{"r":0.0,"g":0.0,"b":0.0,"a":0.0},{"r":0.0,"g":0.0,"b":0.0,"a":0.0},{"r":0.0,"g":0.0,"b":0.0,"a":0.0},{"r":0.0,"g":0.0,"b":0.0,"a":0.0},{"r":0.0,"g":0.0,"b":0.0,"a":0.0},{"r":0.0,"g":0.0,"b":0.0,"a":0.0},{"r":0.0,"g":0.0,"b":0.0,"a":0.0},{"r":0.0,"g":0.0,"b":0.0,"a":0.0},{"r":0.0,"g":0.0,"b":0.0,"a":0.0},{"r":0.0,"g":0.0,"b":0.0,"a":0.0},{"r":0.0,"g":0.0,"b":0.0,"a":0.0},{"r":0.0,"g":0.0,"b":0.0,"a":0.0},{"r":0.0,"g":0.0,"b":0.0,"a":0.0},{"r":0.0,"g":0.0,"b":0.0,"a":0.0},{"r":0.0,"g":0.0,"b":0.0,"a":0.0},{"r":0.0,"g":0.0,"b":0.0,"a":0.0},{"r":0.0,"g":0.0,"b":0.0,"a":0.0},{"r":0.0,"g":0.0,"b":0.0,"a":0.0},{"r":0.0,"g":0.0,"b":0.0,"a":0.0},{"r":0.0,"g":0.0,"b":0.0,"a":0.0},{"r":0.0,"g":0.0,"b":0.0,"a":0.0},{"r":0.0,"g":0.0,"b":0.0,"a":0.0},{"r":0.0,"g":0.0,"b":0.0,"a":0.0},{"r":0.0,"g":0.0,"b":0.0,"a":0.0},{"r":0.0,"g":0.0,"b":0.0,"a":0.0},{"r":0.0,"g":0.0,"b":0.0,"a":0.0},{"r":0.0,"g":0.0,"b":0.0,"a":0.0},{"r":0.0,"g":0.0,"b":0.0,"a":0.0},{"r":0.0,"g":0.0,"b":0.0,"a":0.0},{"r":0.0,"g":0.0,"b":0.0,"a":0.0},{"r":0.0,"g":0.0,"b":0.0,"a":0.0},{"r":0.0,"g":0.0,"b":0.0,"a":0.0},{"r":0.0,"g":0.0,"b":0.0,"a":0.0},{"r":0.0,"g":0.0,"b":0.0,"a":0.0},{"r":0.0,"g":0.0,"b":0.0,"a":0.0},{"r":0.0,"g":0.0,"b":0.0,"a":0.0},{"r":0.0,"g":0.0,"b":0.0,"a":0.0},{"r":0.0,"g":0.0,"b":0.0,"a":0.0},{"r":0.0,"g":0.0,"b":0.0,"a":0.0},{"r":0.0,"g":0.0,"b":0.0,"a":0.0},{"r":0.0,"g":0.0,"b":0.0,"a":0.0},{"r":0.0,"g":0.0,"b":0.0,"a":0.0},{"r":0.0,"g":0.0,"b":0.0,"a":0.0},{"r":0.0,"g":0.0,"b":0.0,"a":0.0},{"r":0.0,"g":0.0,"b":0.0,"a":0.0},{"r":0.0,"g":0.0,"b":0.0,"a":0.0},{"r":0.0,"g":0.0,"b":0.0,"a":0.0},{"r":0.0,"g":0.0,"b":0.0,"a":0.0},{"r":0.0,"g":0.0,"b":0.0,"a":0.0},{"r":0.0,"g":0.0,"b":0.0,"a":0.0},{"r":0.0,"g":0.0,"b":0.0,"a":0.0},{"r":0.0,"g":0.0,"b":0.0,"a":0.0},{"r":0.0,"g":0.0,"b":0.0,"a":0.0},{"r":0.0,"g":0.0,"b":0.0,"a":0.0},{"r":0.0,"g":0.0,"b":0.0,"a":0.0},{"r":0.0,"g":0.0,"b":0.0,"a":0.0},{"r":0.0,"g":0.0,"b":0.0,"a":0.0},{"r":0.0,"g":0.0,"b":0.0,"a":0.0},{"r":0.0,"g":0.0,"b":0.0,"a":0.0},{"r":0.0,"g":0.0,"b":0.0,"a":0.0},{"r":0.0,"g":0.0,"b":0.0,"a":0.0},{"r":0.0,"g":0.0,"b":0.0,"a":0.0},{"r":0.0,"g":0.0,"b":0.0,"a":0.0},{"r":0.0,"g":0.0,"b":0.0,"a":0.0},{"r":0.0,"g":0.0,"b":0.0,"a":0.0},{"r":0.0,"g":0.0,"b":0.0,"a":0.0},{"r":0.0,"g":0.0,"b":0.0,"a":0.0},{"r":0.0,"g":0.0,"b":0.0,"a":0.0},{"r":0.0,"g":0.0,"b":0.0,"a":0.0},{"r":0.0,"g":0.0,"b":0.0,"a":0.0},{"r":0.0,"g":0.0,"b":0.0,"a":0.0},{"r":0.0,"g":0.0,"b":0.0,"a":0.0},{"r":0.0,"g":0.0,"b":0.0,"a":0.0},{"r":0.0,"g":0.0,"b":0.0,"a":0.0},{"r":0.0,"g":0.0,"b":0.0,"a":0.0},{"r":0.0,"g":0.0,"b":0.0,"a":0.0},{"r":0.0,"g":0.0,"b":0.0,"a":0.0},{"r":0.0,"g":0.0,"b":0.0,"a":0.0},{"r":0.0,"g":0.0,"b":0.0,"a":0.0},{"r":0.0,"g":0.0,"b":0.0,"a":0.0},{"r":0.0,"g":0.0,"b":0.0,"a":0.0},{"r":0.0,"g":0.0,"b":0.0,"a":0.0},{"r":0.0,"g":0.0,"b":0.0,"a":0.0},{"r":0.0,"g":0.0,"b":0.0,"a":0.0},{"r":0.0,"g":0.0,"b":0.0,"a":0.0},{"r":0.0,"g":0.0,"b":0.0,"a":0.0},{"r":0.0,"g":0.0,"b":0.0,"a":0.0},{"r":0.0,"g":0.0,"b":0.0,"a":0.0},{"r":0.0,"g":0.0,"b":0.0,"a":0.0},{"r":0.0,"g":0.0,"b":0.0,"a":0.0}],"distanceConstraintsData":{"batches":[{"m_IDs":[0,1,2,3,4,5,6,7,8,9,10,11,12,13,14,15,16,17,18,19,20,21,22,23,24,25,26,27,28,29,30,31,32,33,34,35,36,37,38,39,40,41,42,43,44,45,46,47,48,49,50,51,52,53,54,55,56,57,58,59,60,61,62,63,64,65,66,67,68],"m_IDToIndex":[0,1,2,3,4,5,6,7,8,9,10,11,12,13,14,15,16,17,18,19,20,21,22,23,24,25,26,27,28,29,30,31,32,33,34,35,36,37,38,39,40,41,42,43,44,45,46,47,48,49,50,51,52,53,54,55,56,57,58,59,60,61,62,63,64,65,66,67,68],"m_ConstraintCount":69,"m_ActiveConstraintCount":19,"m_InitialActiveConstraintCount":19,"particleIndices":{"serializedContents":[0,1,2,3,4,5,6,7,8,9,10,11,12,13,14,15,16,17,18,19,20,21,22,23,24,25,26,27,28,29,30,31,32,33,34,35,36,37,0,0,0,0,0,0,0,0,0,0,0,0,0,0,0,0,0,0,0,0,0,0,0,0,0,0,0,0,0,0,0,0,0,0,0,0,0,0,0,0,0,0,0,0,0,0,0,0,0,0,0,0,0,0,0,0,0,0,0,0,0,0,0,0,0,0,0,0,0,0,0,0,0,0,0,0,0,0,0,0,0,0,0,0,0,0,0,0,0,0,0,0,0,0,0,0,0,0,0,0]},"restLengths":{"serializedContents":[0.11864738166332245,0.12151327729225159,0.12111052125692368,0.12246841937303543,0.12205623090267182,0.12136472016572952,0.12093772739171982,0.12245406210422516,0.12289495021104813,0.12234174460172653,0.12248951941728592,0.12340106070041657,0.12271970510482788,0.121193066239357,0.11999580264091492,0.11967310309410095,0.11951984465122223,0.12366051971912384,0.11679373681545258,0.0,0.0,0.0,0.0,0.0,0.0,0.0,0.0,0.0,0.0,0.0,0.0,0.0,0.0,0.0,0.0,0.0,0.0,0.0,0.0,0.0,0.0,0.0,0.0,0.0,0.0,0.0,0.0,0.0,0.0,0.0,0.0,0.0,0.0,0.0,0.0,0.0,0.0,0.0,0.0,0.0,0.0,0.0,0.0,0.0,0.0,0.0,0.0,0.0,0.0]},"stiffnesses":{"serializedContents":[{"x":0.0,"y":0.0},{"x":0.0,"y":0.0},{"x":0.0,"y":0.0},{"x":0.0,"y":0.0},{"x":0.0,"y":0.0},{"x":0.0,"y":0.0},{"x":0.0,"y":0.0},{"x":0.0,"y":0.0},{"x":0.0,"y":0.0},{"x":0.0,"y":0.0},{"x":0.0,"y":0.0},{"x":0.0,"y":0.0},{"x":0.0,"y":0.0},{"x":0.0,"y":0.0},{"x":0.0,"y":0.0},{"x":0.0,"y":0.0},{"x":0.0,"y":0.0},{"x":0.0,"y":0.0},{"x":0.0,"y":0.0},{"x":0.0,"y":0.0},{"x":0.0,"y":0.0},{"x":0.0,"y":0.0},{"x":0.0,"y":0.0},{"x":0.0,"y":0.0},{"x":0.0,"y":0.0},{"x":0.0,"y":0.0},{"x":0.0,"y":0.0},{"x":0.0,"y":0.0},{"x":0.0,"y":0.0},{"x":0.0,"y":0.0},{"x":0.0,"y":0.0},{"x":0.0,"y":0.0},{"x":0.0,"y":0.0},{"x":0.0,"y":0.0},{"x":0.0,"y":0.0},{"x":0.0,"y":0.0},{"x":0.0,"y":0.0},{"x":0.0,"y":0.0},{"x":0.0,"y":0.0},{"x":0.0,"y":0.0},{"x":0.0,"y":0.0},{"x":0.0,"y":0.0},{"x":0.0,"y":0.0},{"x":0.0,"y":0.0},{"x":0.0,"y":0.0},{"x":0.0,"y":0.0},{"x":0.0,"y":0.0},{"x":0.0,"y":0.0},{"x":0.0,"y":0.0},{"x":0.0,"y":0.0},{"x":0.0,"y":0.0},{"x":0.0,"y":0.0},{"x":0.0,"y":0.0},{"x":0.0,"y":0.0},{"x":0.0,"y":0.0},{"x":0.0,"y":0.0},{"x":0.0,"y":0.0},{"x":0.0,"y":0.0},{"x":0.0,"y":0.0},{"x":0.0,"y":0.0},{"x":0.0,"y":0.0},{"x":0.0,"y":0.0},{"x":0.0,"y":0.0},{"x":0.0,"y":0.0},{"x":0.0,"y":0.0},{"x":0.0,"y":0.0},{"x":0.0,"y":0.0},{"x":0.0,"y":0.0},{"x":0.0,"y":0.0}]}},{"m_IDs":[0,1,2,3,4,5,6,7,8,9,10,11,12,13,14,15,16,17,18,19,20,21,22,23,24,25,26,27,28,29,30,31,32,33,34,35,36,37,38,39,40,41,42,43,44,45,46,47,48,49,50,51,52,53,54,55,56,57,58,59,60,61,62,63,64,65,66,67],"m_IDToIndex":[0,1,2,3,4,5,6,7,8,9,10,11,12,13,14,15,16,17,18,19,20,21,22,23,24,25,26,27,28,29,30,31,32,33,34,35,36,37,38,39,40,41,42,43,44,45,46,47,48,49,50,51,52,53,54,55,56,57,58,59,60,61,62,63,64,65,66,67],"m_ConstraintCount":68,"m_ActiveConstraintCount":18,"m_InitialActiveConstraintCount":18,"particleIndices":{"serializedContents":[1,2,3,4,5,6,7,8,9,10,11,12,13,14,15,16,17,18,19,20,21,22,23,24,25,26,27,28,29,30,31,32,33,34,35,36,0,0,0,0,0,0,0,0,0,0,0,0,0,0,0,0,0,0,0,0,0,0,0,0,0,0,0,0,0,0,0,0,0,0,0,0,0,0,0,0,0,0,0,0,0,0,0,0,0,0,0,0,0,0,0,0,0,0,0,0,0,0,0,0,0,0,0,0,0,0,0,0,0,0,0,0,0,0,0,0,0,0,0,0,0,0,0,0,0,0,0,0,0,0,0,0,0,0,0,0]},"restLengths":{"serializedContents":[0.12187203764915467,0.12484992295503617,0.12283722311258316,0.12261634320020676,0.12338753044605255,0.12417378276586533,0.12285556644201279,0.12215090543031693,0.12217489629983902,0.12259210646152497,0.12169325351715088,0.12189382314682007,0.12272870540618897,0.12409552931785584,0.12513777613639832,0.125507652759552,0.12483812868595123,0.1226479709148407,0.0,0.0,0.0,0.0,0.0,0.0,0.0,0.0,0.0,0.0,0.0,0.0,0.0,0.0,0.0,0.0,0.0,0.0,0.0,0.0,0.0,0.0,0.0,0.0,0.0,0.0,0.0,0.0,0.0,0.0,0.0,0.0,0.0,0.0,0.0,0.0,0.0,0.0,0.0,0.0,0.0,0.0,0.0,0.0,0.0,0.0,0.0,0.0,0.0,0.0]},"stiffnesses":{"serializedContents":[{"x":0.0,"y":0.0},{"x":0.0,"y":0.0},{"x":0.0,"y":0.0},{"x":0.0,"y":0.0},{"x":0.0,"y":0.0},{"x":0.0,"y":0.0},{"x":0.0,"y":0.0},{"x":0.0,"y":0.0},{"x":0.0,"y":0.0},{"x":0.0,"y":0.0},{"x":0.0,"y":0.0},{"x":0.0,"y":0.0},{"x":0.0,"y":0.0},{"x":0.0,"y":0.0},{"x":0.0,"y":0.0},{"x":0.0,"y":0.0},{"x":0.0,"y":0.0},{"x":0.0,"y":0.0},{"x":0.0,"y":0.0},{"x":0.0,"y":0.0},{"x":0.0,"y":0.0},{"x":0.0,"y":0.0},{"x":0.0,"y":0.0},{"x":0.0,"y":0.0},{"x":0.0,"y":0.0},{"x":0.0,"y":0.0},{"x":0.0,"y":0.0},{"x":0.0,"y":0.0},{"x":0.0,"y":0.0},{"x":0.0,"y":0.0},{"x":0.0,"y":0.0},{"x":0.0,"y":0.0},{"x":0.0,"y":0.0},{"x":0.0,"y":0.0},{"x":0.0,"y":0.0},{"x":0.0,"y":0.0},{"x":0.0,"y":0.0},{"x":0.0,"y":0.0},{"x":0.0,"y":0.0},{"x":0.0,"y":0.0},{"x":0.0,"y":0.0},{"x":0.0,"y":0.0},{"x":0.0,"y":0.0},{"x":0.0,"y":0.0},{"x":0.0,"y":0.0},{"x":0.0,"y":0.0},{"x":0.0,"y":0.0},{"x":0.0,"y":0.0},{"x":0.0,"y":0.0},{"x":0.0,"y":0.0},{"x":0.0,"y":0.0},{"x":0.0,"y":0.0},{"x":0.0,"y":0.0},{"x":0.0,"y":0.0},{"x":0.0,"y":0.0},{"x":0.0,"y":0.0},{"x":0.0,"y":0.0},{"x":0.0,"y":0.0},{"x":0.0,"y":0.0},{"x":0.0,"y":0.0},{"x":0.0,"y":0.0},{"x":0.0,"y":0.0},{"x":0.0,"y":0.0},{"x":0.0,"y":0.0},{"x":0.0,"y":0.0},{"x":0.0,"y":0.0},{"x":0.0,"y":0.0},{"x":0.0,"y":0.0}]}}]},"bendConstraintsData":{"batches":[{"m_IDs":[0,1,2,3,4,5,6,7,8,9,10,11,12,13,14,15,16,17,18,19,20,21,22,23,24,25,26,27,28,29,30,31,32,33,34,35,36,37,38,39,40,41,42,43,44,45],"m_IDToIndex":[0,1,2,3,4,5,6,7,8,9,10,11,12,13,14,15,16,17,18,19,20,21,22,23,24,25,26,27,28,29,30,31,32,33,34,35,36,37,38,39,40,41,42,43,44,45],"m_ConstraintCount":46,"m_ActiveConstraintCount":12,"m_InitialActiveConstraintCount":12,"particleIndices":{"serializedContents":[0,2,1,3,5,4,6,8,7,9,11,10,12,14,13,15,17,16,18,20,19,21,23,22,24,26,25,27,29,28,30,32,31,33,35,34,36,38,37,39,41,40,42,44,43,45,47,46,48,50,49,51,53,52,54,56,55,57,59,58,60,62,61,63,65,64,66,68,67,69,71,70,72,74,73,75,77,76,78,80,79,81,83,82,84,86,85,87,89,88,90,92,91,93,95,94,96,98,97,99,101,100,102,104,103,105,107,106,108,110,109,111,113,112,114,116,115,117,119,118,120,122,121,123,125,124,126,128,127,129,131,130,132,134,133,135,137,136]},"restBends":{"serializedContents":[0.0,0.0,0.0,0.0,0.0,0.0,0.0,0.0,0.0,0.0,0.0,0.0,0.0,0.0,0.0,0.0,0.0,0.0,0.0,0.0,0.0,0.0,0.0,0.0,0.0,0.0,0.0,0.0,0.0,0.0,0.0,0.0,0.0,0.0,0.0,0.0,0.0,0.0,0.0,0.0,0.0,0.0,0.0,0.0,0.0,0.0]},"bendingStiffnesses":{"serializedContents":[{"x":0.0,"y":0.0},{"x":0.0,"y":0.0},{"x":0.0,"y":0.0},{"x":0.0,"y":0.0},{"x":0.0,"y":0.0},{"x":0.0,"y":0.0},{"x":0.0,"y":0.0},{"x":0.0,"y":0.0},{"x":0.0,"y":0.0},{"x":0.0,"y":0.0},{"x":0.0,"y":0.0},{"x":0.0,"y":0.0},{"x":0.0,"y":0.0},{"x":0.0,"y":0.0},{"x":0.0,"y":0.0},{"x":0.0,"y":0.0},{"x":0.0,"y":0.0},{"x":0.0,"y":0.0},{"x":0.0,"y":0.0},{"x":0.0,"y":0.0},{"x":0.0,"y":0.0},{"x":0.0,"y":0.0},{"x":0.0,"y":0.0},{"x":0.0,"y":0.0},{"x":0.0,"y":0.0},{"x":0.0,"y":0.0},{"x":0.0,"y":0.0},{"x":0.0,"y":0.0},{"x":0.0,"y":0.0},{"x":0.0,"y":0.0},{"x":0.0,"y":0.0},{"x":0.0,"y":0.0},{"x":0.0,"y":0.0},{"x":0.0,"y":0.0},{"x":0.0,"y":0.0},{"x":0.0,"y":0.0},{"x":0.0,"y":0.0},{"x":0.0,"y":0.0},{"x":0.0,"y":0.0},{"x":0.0,"y":0.0},{"x":0.0,"y":0.0},{"x":0.0,"y":0.0},{"x":0.0,"y":0.0},{"x":0.0,"y":0.0},{"x":0.0,"y":0.0},{"x":0.0,"y":0.0}]}},{"m_IDs":[0,1,2,3,4,5,6,7,8,9,10,11,12,13,14,15,16,17,18,19,20,21,22,23,24,25,26,27,28,29,30,31,32,33,34,35,36,37,38,39,40,41,42,43,44],"m_IDToIndex":[0,1,2,3,4,5,6,7,8,9,10,11,12,13,14,15,16,17,18,19,20,21,22,23,24,25,26,27,28,29,30,31,32,33,34,35,36,37,38,39,40,41,42,43,44],"m_ConstraintCount":45,"m_ActiveConstraintCount":12,"m_InitialActiveConstraintCount":12,"particleIndices":{"serializedContents":[1,3,2,4,6,5,7,9,8,10,12,11,13,15,14,16,18,17,19,21,20,22,24,23,25,27,26,28,30,29,31,33,32,34,36,35,37,39,38,40,42,41,43,45,44,46,48,47,49,51,50,52,54,53,55,57,56,58,60,59,61,63,62,64,66,65,67,69,68,70,72,71,73,75,74,76,78,77,79,81,80,82,84,83,85,87,86,88,90,89,91,93,92,94,96,95,97,99,98,100,102,101,103,105,104,106,108,107,109,111,110,112,114,113,115,117,116,118,120,119,121,123,122,124,126,125,127,129,128,130,132,131,133,135,134]},"restBends":{"serializedContents":[0.0,0.0,0.0,0.0,0.0,0.0,0.0,0.0,0.0,0.0,0.0,0.0,0.0,0.0,0.0,0.0,0.0,0.0,0.0,0.0,0.0,0.0,0.0,0.0,0.0,0.0,0.0,0.0,0.0,0.0,0.0,0.0,0.0,0.0,0.0,0.0,0.0,0.0,0.0,0.0,0.0,0.0,0.0,0.0,0.0]},"bendingStiffnesses":{"serializedContents":[{"x":0.0,"y":0.0},{"x":0.0,"y":0.0},{"x":0.0,"y":0.0},{"x":0.0,"y":0.0},{"x":0.0,"y":0.0},{"x":0.0,"y":0.0},{"x":0.0,"y":0.0},{"x":0.0,"y":0.0},{"x":0.0,"y":0.0},{"x":0.0,"y":0.0},{"x":0.0,"y":0.0},{"x":0.0,"y":0.0},{"x":0.0,"y":0.0},{"x":0.0,"y":0.0},{"x":0.0,"y":0.0},{"x":0.0,"y":0.0},{"x":0.0,"y":0.0},{"x":0.0,"y":0.0},{"x":0.0,"y":0.0},{"x":0.0,"y":0.0},{"x":0.0,"y":0.0},{"x":0.0,"y":0.0},{"x":0.0,"y":0.0},{"x":0.0,"y":0.0},{"x":0.0,"y":0.0},{"x":0.0,"y":0.0},{"x":0.0,"y":0.0},{"x":0.0,"y":0.0},{"x":0.0,"y":0.0},{"x":0.0,"y":0.0},{"x":0.0,"y":0.0},{"x":0.0,"y":0.0},{"x":0.0,"y":0.0},{"x":0.0,"y":0.0},{"x":0.0,"y":0.0},{"x":0.0,"y":0.0},{"x":0.0,"y":0.0},{"x":0.0,"y":0.0},{"x":0.0,"y":0.0},{"x":0.0,"y":0.0},{"x":0.0,"y":0.0},{"x":0.0,"y":0.0},{"x":0.0,"y":0.0},{"x":0.0,"y":0.0},{"x":0.0,"y":0.0}]}},{"m_IDs":[0,1,2,3,4,5,6,7,8,9,10,11,12,13,14,15,16,17,18,19,20,21,22,23,24,25,26,27,28,29,30,31,32,33,34,35,36,37,38,39,40,41,42,43,44],"m_IDToIndex":[0,1,2,3,4,5,6,7,8,9,10,11,12,13,14,15,16,17,18,19,20,21,22,23,24,25,26,27,28,29,30,31,32,33,34,35,36,37,38,39,40,41,42,43,44],"m_ConstraintCount":45,"m_ActiveConstraintCount":12,"m_InitialActiveConstraintCount":12,"particleIndices":{"serializedContents":[2,4,3,5,7,6,8,10,9,11,13,12,14,16,15,17,19,18,20,22,21,23,25,24,26,28,27,29,31,30,32,34,33,35,37,36,38,40,39,41,43,42,44,46,45,47,49,48,50,52,51,53,55,54,56,58,57,59,61,60,62,64,63,65,67,66,68,70,69,71,73,72,74,76,75,77,79,78,80,82,81,83,85,84,86,88,87,89,91,90,92,94,93,95,97,96,98,100,99,101,103,102,104,106,105,107,109,108,110,112,111,113,115,114,116,118,117,119,121,120,122,124,123,125,127,126,128,130,129,131,133,132,134,136,135]},"restBends":{"serializedContents":[0.0,0.0,0.0,0.0,0.0,0.0,0.0,0.0,0.0,0.0,0.0,0.0,0.0,0.0,0.0,0.0,0.0,0.0,0.0,0.0,0.0,0.0,0.0,0.0,0.0,0.0,0.0,0.0,0.0,0.0,0.0,0.0,0.0,0.0,0.0,0.0,0.0,0.0,0.0,0.0,0.0,0.0,0.0,0.0,0.0]},"bendingStiffnesses":{"serializedContents":[{"x":0.0,"y":0.0},{"x":0.0,"y":0.0},{"x":0.0,"y":0.0},{"x":0.0,"y":0.0},{"x":0.0,"y":0.0},{"x":0.0,"y":0.0},{"x":0.0,"y":0.0},{"x":0.0,"y":0.0},{"x":0.0,"y":0.0},{"x":0.0,"y":0.0},{"x":0.0,"y":0.0},{"x":0.0,"y":0.0},{"x":0.0,"y":0.0},{"x":0.0,"y":0.0},{"x":0.0,"y":0.0},{"x":0.0,"y":0.0},{"x":0.0,"y":0.0},{"x":0.0,"y":0.0},{"x":0.0,"y":0.0},{"x":0.0,"y":0.0},{"x":0.0,"y":0.0},{"x":0.0,"y":0.0},{"x":0.0,"y":0.0},{"x":0.0,"y":0.0},{"x":0.0,"y":0.0},{"x":0.0,"y":0.0},{"x":0.0,"y":0.0},{"x":0.0,"y":0.0},{"x":0.0,"y":0.0},{"x":0.0,"y":0.0},{"x":0.0,"y":0.0},{"x":0.0,"y":0.0},{"x":0.0,"y":0.0},{"x":0.0,"y":0.0},{"x":0.0,"y":0.0},{"x":0.0,"y":0.0},{"x":0.0,"y":0.0},{"x":0.0,"y":0.0},{"x":0.0,"y":0.0},{"x":0.0,"y":0.0},{"x":0.0,"y":0.0},{"x":0.0,"y":0.0},{"x":0.0,"y":0.0},{"x":0.0,"y":0.0},{"x":0.0,"y":0.0}]}}]},"pinConstraintsData":{"batches":[{"m_IDs":[],"m_IDToIndex":[],"m_ConstraintCount":0,"m_ActiveConstraintCount":0,"m_InitialActiveConstraintCount":0,"particleIndices":{"serializedContents":[]},"offsets":{"serializedContents":[]},"restDarbouxVectors":{"serializedContents":[]},"stiffnesses":{"serializedContents":[]},"breakThresholds":{"serializedContents":[]},"constraintForces":[]}]},"skinConstraintsData":{"batches":[]},"tetherConstraintsData":{"batches":[]},"stretchShearConstraintsData":{"batches":[]},"bendTwistConstraintsData":{"batches":[]},"shapeMatchingConstraintsData":{"batches":[]},"aerodynamicConstraintsData":{"batches":[]},"chainConstraintsData":{"batches":[]},"volumeConstraintsData":{"batches":[]},"groups":[{"instanceID":0},{"instanceID":0}],"path":{"m_Names":["A","B"],"m_Points":{"data":[{"tangentMode":0,"inTangent":{"x":-0.23925630748271943,"y":0.0,"z":0.07250120490789414},"position":{"x":-2.555339813232422,"y":0.30129528045654299,"z":-1.2823047637939454},"outTangent":{"x":0.12537290155887605,"y":0.0,"z":-0.037991397082805637}},{"tangentMode":0,"inTangent":{"x":-0.22082734107971192,"y":-0.0019277334213256837,"z":0.0},"position":{"x":1.967378854751587,"y":0.32307958602905276,"z":-1.316169261932373},"outTangent":{"x":0.2499903291463852,"y":0.0021823146380484106,"z":0.0}}]},"m_Normals":{"data":[{"x":0.0,"y":1.0,"z":0.0},{"x":0.0,"y":1.0,"z":0.0}]},"m_Colors":{"data":[{"r":1.0,"g":1.0,"b":1.0,"a":1.0},{"r":1.0,"g":1.0,"b":1.0,"a":1.0}]},"m_Thickness":{"data":[1.0,1.0]},"m_Masses":{"data":[0.10000000149011612,0.10000000149011612]},"m_RotationalMasses":{"data":[1.0,1.0]},"m_Phases":{"data":[1,1]},"m_Closed":false,"m_ArcLengthTable":[0.0,0.04495223984122276,0.13960348069667817,0.27894327044487,0.4578145146369934,0.6710407733917236,0.9134398102760315,1.1798268556594849,1.4650161266326905,1.7638212442398072,2.0710554122924806,2.3815319538116457,2.690062999725342,2.991461753845215,3.280540943145752,3.5521130561828615,3.800990581512451,4.021986484527588,4.2099127769470219,4.35958194732666,4.46580696105957,4.523399829864502],"m_TotalSplineLenght":4.523399829864502,"OnPathChanged":{"m_PersistentCalls":{"m_Calls":[]}},"OnControlPointAdded":{"m_PersistentCalls":{"m_Calls":[]}},"OnControlPointRemoved":{"m_PersistentCalls":{"m_Calls":[]}},"OnControlPointRenamed":{"m_PersistentCalls":{"m_Calls":[]}}},"thickness":0.125,"resolution":1.0,"m_InterParticleDistance":0.12225405126810074,"totalParticles":138,"m_RestLength":16.748706817626954,"restLengths":[0.11864738166332245,0.12187203764915467,0.12151327729225159,0.12484992295503617,0.12111052125692368,0.12283722311258316,0.12246841937303543,0.12261634320020676,0.12205623090267182,0.12338753044605255,0.12136472016572952,0.12417378276586533,0.12093772739171982,0.12285556644201279,0.12245406210422516,0.12215090543031693,0.12289495021104813,0.12217489629983902,0.12234174460172653,0.12259210646152497,0.12248951941728592,0.12169325351715088,0.12340106070041657,0.12189382314682007,0.12271970510482788,0.12272870540618897,0.121193066239357,0.12409552931785584,0.11999580264091492,0.12513777613639832,0.11967310309410095,0.125507652759552,0.11951984465122223,0.12483812868595123,0.12366051971912384,0.1226479709148407,0.11679373681545258,0.12225405126810074,0.12225405126810074,0.12225405126810074,0.12225405126810074,0.12225405126810074,0.12225405126810074,0.12225405126810074,0.12225405126810074,0.12225405126810074,0.12225405126810074,0.12225405126810074,0.12225405126810074,0.12225405126810074,0.12225405126810074,0.12225405126810074,0.12225405126810074,0.12225405126810074,0.12225405126810074,0.12225405126810074,0.12225405126810074,0.12225405126810074,0.12225405126810074,0.12225405126810074,0.12225405126810074,0.12225405126810074,0.12225405126810074,0.12225405126810074,0.12225405126810074,0.12225405126810074,0.12225405126810074,0.12225405126810074,0.12225405126810074,0.12225405126810074,0.12225405126810074,0.12225405126810074,0.12225405126810074,0.12225405126810074,0.12225405126810074,0.12225405126810074,0.12225405126810074,0.12225405126810074,0.12225405126810074,0.12225405126810074,0.12225405126810074,0.12225405126810074,0.12225405126810074,0.12225405126810074,0.12225405126810074,0.12225405126810074,0.12225405126810074,0.12225405126810074,0.12225405126810074,0.12225405126810074,0.12225405126810074,0.12225405126810074,0.12225405126810074,0.12225405126810074,0.12225405126810074,0.12225405126810074,0.12225405126810074,0.12225405126810074,0.12225405126810074,0.12225405126810074,0.12225405126810074,0.12225405126810074,0.12225405126810074,0.12225405126810074,0.12225405126810074,0.12225405126810074,0.12225405126810074,0.12225405126810074,0.12225405126810074,0.12225405126810074,0.12225405126810074,0.12225405126810074,0.12225405126810074,0.12225405126810074,0.12225405126810074,0.12225405126810074,0.12225405126810074,0.12225405126810074,0.12225405126810074,0.12225405126810074,0.12225405126810074,0.12225405126810074,0.12225405126810074,0.12225405126810074,0.12225405126810074,0.12225405126810074,0.12225405126810074,0.12225405126810074,0.12225405126810074,0.12225405126810074,0.12225405126810074,0.12225405126810074,0.12225405126810074,0.12225405126810074,0.12225405126810074,0.12225405126810074,0.12225405126810074,0.0],"pooledParticles":100}'
  hasAnchor: 0
  a: 0
  groundIndex: 1
  _hasAnchorRopeOneA: 0
  _hasAnchorRopeOneB: 0
  _hasAnchorRopeTwoA: 0
  _hasAnchorRopeTwoB: 0
  _hasAnchorRopeThreeA: 0
  _hasAnchorRopeThreeB: 0
  _hasAnchorRopeFourA: 0
  _hasAnchorRopeFourB: 0
  _hasAnchorRopeFiveA: 0
  _hasAnchorRopeFiveB: 0
  obstacleInfos:
    obstacleIndex: -1
    overridePosition: {x: 0, y: 0, z: 0}
    overrideRotation: {x: 0, y: 0, z: 0}
  curveInfos:
    curveIndex: -1
    positionOverride: {x: 0, y: 0, z: 0}
    rotationOverride: {x: -0, y: 0, z: 0}
